"","SimAlpha","fitAlpha","simBeta","fitBeta","BIC"
"1",0.9,0.857787133316849,1,1,513.857616372276
"2",0.9,0.8538205477897,2,2.14391947352935,371.623451651248
"3",0.9,0.877925458836116,3,3.06106225335574,240.40642865107
"4",0.9,0.944488602261737,4,3.35750496195953,187.481686084825
"5",0.9,0.978864053140413,5,5.30103475971971,53.4700888579616
"6",0.9,0.965320818682002,6,5.34975287297099,53.4542947220271
"7",0.9,0.780785697499937,7,7.08032786727989,41.333853406618
"8",0.9,1,8,10,16.1119205842117
"9",0.9,0.686454269011687,9,10,26.1194247381549
"10",0.9,1,10,10,16.1119205842117
