"","SimAlpha","fitAlpha","simBeta","fitBeta","BIC"
"1",0.2,0.273145828332918,1,1.22466246322635,514.329527700878
"2",0.2,0.164485272807992,1.66666666666667,2.4755087442992,450.451806562586
"3",0.2,0.166057242665437,2.33333333333333,2.26685569753996,464.396341848717
"4",0.2,0.178069553970734,3,2.80002376535291,422.289556403754
"5",0.2,0.183186365126541,3.66666666666667,3.27668039328181,383.289837026949
"6",0.2,0.18670283617547,4.33333333333333,4.31381209448608,303.166553623303
"7",0.2,0.20622643420906,5,5.40525959653773,227.206988027971
"8",0.2,0.274342970223789,5.66666666666667,5.65725316662757,200.054810408221
"9",0.2,0.19341267488935,6.33333333333333,5.65018589908392,218.356538326957
"10",0.2,0.174777627875896,7,6.94865825421649,168.489319852924
