"","SimAlpha","fitAlpha","simBeta","fitBeta","BIC"
"1",0.7,0.510601334455792,1,1,528.853104199648
"2",0.7,0.700520743042412,1.66666666666667,1.74432596637899,445.435683859889
"3",0.7,0.726078167847711,2.33333333333333,2.13338666964428,396.609935010865
"4",0.7,0.718715967471805,3,2.78266071873036,318.440868628427
"5",0.7,0.71821197240141,3.66666666666667,3.6404328673817,224.971355203642
"6",0.7,0.636401441765974,4.33333333333333,4.49421422062477,184.044164753632
"7",0.7,0.626129696029351,5,7.1476679345279,80.8406097709146
"8",0.7,0.774627167466484,5.66666666666667,4.89868208469556,111.359810096619
"9",0.7,0.626402547445353,6.33333333333333,6.56313423940185,95.2804818204054
"10",0.7,0.605648399456145,7,10.8725351698445,42.7932702645643
