"","SimAlpha","fitAlpha","simBeta","fitBeta","BIC"
"1",1,1,1,1,512.654152827433
"2",1,0.986825543087545,2,2.01235342498129,365.535662266735
"3",1,1,3,2.85400426486075,236.466938589831
"4",1,1,4,3.41869080875746,167.913988030094
"5",1,0.749823896088673,5,6.91132770470571,49.9965439444442
"6",1,0.895575720349304,6,6.12952648547459,42.1525171656649
"7",1,1,7,6.34035946812977,30.7461684943113
"8",1,1,8,10,16.1119205842117
"9",1,1,9,10,16.1119205842117
"10",1,1,10,10,16.1119205842117
