"","SimAlpha","fitAlpha","simBeta","fitBeta","BIC"
"1",0.7,0.510601334455792,1,1,528.853104199648
"2",0.7,0.987700347712497,2,1.76546966445816,402.990300932826
"3",0.7,0.77989910251071,3,2.86221076449839,292.599373226931
"4",0.7,0.687086888426369,4,3.8426370548176,216.66341456936
"5",0.7,0.64975531942642,5,4.97004236438388,150.265893200828
"6",0.7,0.699318402457521,6,5.66783184371496,99.4334238852534
"7",0.7,0.653010637560963,7,7.76537529404765,59.9169203475627
"8",0.7,0.801798834745765,8,5.97522355182305,60.7166281808376
"9",0.7,0.651695243040178,9,10,34.8105017943312
"10",0.7,0.884117440832288,10,6.98739698838874,30.4283501287219
