"","SimAlpha","fitAlpha","simBeta","fitBeta","BIC"
"1",0.8,0.77313599269491,1,1,516.765502612552
"2",0.8,0.79978642942005,2,2.11459140417955,385.865562344926
"3",0.8,0.69962753789628,3,3.1455369095927,281.852827347618
"4",0.8,0.781515482525317,4,3.9565787705407,175.111687145279
"5",0.8,0.747820205371176,5,5.32957140536108,98.139389253812
"6",0.8,0.772600521473625,6,6.27266104038911,59.0452754548077
"7",0.8,0.853747797166626,7,6.40738199377629,41.9456835592711
"8",0.8,1,8,10,16.1119205842117
"9",0.8,0.695799334604264,9,10,26.7036592049374
"10",0.8,1,10,10,16.1119205842117
