"","SimAlpha","fitAlpha","simBeta","fitBeta","BIC"
"1",0.4,0.196037917205197,1,1,528.994965491062
"2",0.4,0.331367844740918,1.66666666666667,1.7507845326661,478.548618185402
"3",0.4,0.501945011787508,2.33333333333333,1.89515229080048,451.870478823301
"4",0.4,0.33296631906602,3,2.85658151524198,385.723648273693
"5",0.4,0.344600719323927,3.66666666666667,3.54847953822479,324.453940533446
"6",0.4,0.363510885958905,4.33333333333333,4.60394552687929,245.252658674908
"7",0.4,0.370544653579715,5,5.21156371717528,210.337449827035
"8",0.4,0.402487630312882,5.66666666666667,6.15708627025918,167.164688201119
"9",0.4,0.458953385109777,6.33333333333333,5.96846546756351,165.865854308233
"10",0.4,0.391061570621354,7,6.8905082133748,145.759014558358
