"","SimAlpha","fitAlpha","simBeta","fitBeta","BIC"
"1",0.1,0.0102353262946652,0.222669974727785,40,27.046327428173
"2",0.1,1,0.313855662169291,1.09861228820475,26.5751589325907
"3",0.1,1,0.588930076919496,19.2484939670421,24.3779343814747
"4",0.1,0.6434854012914,1.10297953399519,1,27.1505230774942
"5",0.1,0,2.15036957059056,1,27.1505230774942
"6",0.1,0,3.19621687072868,1,27.1505230774942
"7",0.1,0.900367180228988,4.66607582684242,40,21.9868569005049
"8",0.1,0.50009124752611,4.88926347317108,40,21.6056180264571
"9",0.1,0,7.58589614440401,1.74452645921985,27.1505230774942
"10",0.1,0,9.028728523182,1,27.1505230774942
