"","SimAlpha","fitAlpha","simBeta","fitBeta","BIC"
"1",0.6,0.388942814559625,1,1,528.661995096617
"2",0.6,0.651462647133288,1.66666666666667,1.71595862850098,453.789553095948
"3",0.6,0.569579776356436,2.33333333333333,2.20005681381307,413.87564368854
"4",0.6,0.601801837340598,3,2.73166029508678,351.489983287939
"5",0.6,0.510136424091123,3.66666666666667,3.66042917832524,283.888907990338
"6",0.6,0.596841179120309,4.33333333333333,4.75289439161753,181.697144318976
"7",0.6,0.537876811307236,5,5.63983284313294,158.202249677226
"8",0.6,0.587124083547981,5.66666666666667,5.80717268207171,134.82068933505
"9",0.6,0.611269843108682,6.33333333333333,5.74731463204063,128.19209812996
"10",0.6,0.615208796644271,7,6.73959162236873,94.6755231655315
