"","SimAlpha","fitAlpha","simBeta","fitBeta","BIC"
"1",0.1,0.0838521083970267,1,1.48157524419608,523.339738977991
"2",0.1,0.132684574378891,2,1.94064063365406,492.672651528778
"3",0.1,0.086530536895375,3,2.80329532179936,469.083111503629
"4",0.1,0.0870661800351619,4,3.963220430001,403.351539182918
"5",0.1,0.0823384810574253,5,5.19930070955256,339.657871925815
"6",0.1,0.126439436749437,6,5.40543653710672,270.653916809313
"7",0.1,0.102898499098604,7,7.28695560350402,208.748975437026
"8",0.1,0.0873540535194741,8,8.57335190555806,188.25344829312
"9",0.1,0.101553047082532,9,8.28500158105356,177.080022353136
"10",0.1,0.117133385258918,10,10,108.218768846217
