"","SimAlpha","fitAlpha","simBeta","fitBeta","BIC"
"1",0.6,0.388942814559625,1,1,528.661995096617
"2",0.6,0.704874951503652,2,2.09684841741031,404.566754658577
"3",0.6,0.689055492757163,3,2.61983639530758,344.984664705244
"4",0.6,0.542742980329108,4,3.47846460175387,291.6161839925
"5",0.6,0.532911641492532,5,5.18948036567186,179.367333170037
"6",0.6,0.598085583154997,6,6.17265960417594,117.800383324182
"7",0.6,0.603319841367422,7,6.25514217734767,113.160665029167
"8",0.6,0.674460898617561,8,7.31102444259973,61.426497286926
"9",0.6,0.539674002412909,9,8.42535385478264,90.48585411293
"10",0.6,0.609883267890789,10,8.39721064720835,64.7450245099037
