"","SimAlpha","fitAlpha","simBeta","fitBeta","BIC"
"1",0.8,0.77313599269491,1,1,516.765502612552
"2",0.8,0.928686611964457,1.66666666666667,1.50295997504352,447.396000688477
"3",0.8,0.776905656485359,2.33333333333333,2.34355873739868,360.193952753701
"4",0.8,0.66985656393968,3,3.08086421307097,297.231478527047
"5",0.8,0.698327548544935,3.66666666666667,3.96912964693123,201.948418446781
"6",0.8,0.640888709832058,4.33333333333333,5.96036597012355,109.081681291643
"7",0.8,0.844481541293441,5,5.66595059723398,61.455524265219
"8",0.8,0.702724411694831,5.66666666666667,7.71412608219955,47.1974368923747
"9",0.8,0.808723470910288,6.33333333333333,5.19797179086422,86.9710718718083
"10",0.8,0.769337502939662,7,6.69001523269131,50.2859460314595
