"","SimAlpha","fitAlpha","simBeta","fitBeta","BIC"
"1",0.5,0.280761527090996,1,1,529.368577565857
"2",0.5,0.456020948050378,2,2.11667844657716,436.474761279477
"3",0.5,0.446177024537863,3,2.81487541522546,371.995921595162
"4",0.5,0.432454473971327,4,3.55117743352457,308.984534348619
"5",0.5,0.485754981497827,5,4.89819139971508,206.529038299874
"6",0.5,0.472466402812702,6,6.57748741454204,144.520914712041
"7",0.5,0.550438757231857,7,6.43224665023436,127.051433017004
"8",0.5,0.504040212484662,8,10,69.9048139943206
"9",0.5,0.477589541702203,9,8.18618733623276,111.15630243292
"10",0.5,0.501157747195862,10,10,78.0044360478948
