instructions_loop.thisRepN,instructions_loop.thisTrialN,instructions_loop.thisN,instructions_loop.thisIndex,instructions_loop.ran,text1,text2,text3,participant,date,expName,psychopyVersion,OS,frameRate,recog_resp.keys,recog_resp.rt,conf_resp.keys,conf_resp.rt,recog_loop.thisRepN,recog_loop.thisTrialN,recog_loop.thisN,recog_loop.thisIndex,recog_loop.ran,images,corr_ans,type,order,key_resp_break.keys,key_resp_break.rt,list_loop.thisRepN,list_loop.thisTrialN,list_loop.thisN,list_loop.thisIndex,list_loop.ran,recog_list
0,0,0,0,1,Welcome to the last phase of this experiment!,.,Please press the space bar to continue,1,2021-01-22_16h18.44.846,premceCat_ses-02_part-02_label-phase2,2020.2.10,Linux x86_64,60,,,,,,,,,,,,,,,,,,,,,
0,1,1,1,1,.,"In this phase, you will see some objects. 

For each object, you should indicate whether you have seen it before during the experiment.

Press LEFT ARROW for YES
Press RIGHT ARROW for NO

",Please press the space bar to continue ,1,2021-01-22_16h18.44.846,premceCat_ses-02_part-02_label-phase2,2020.2.10,Linux x86_64,60,,,,,,,,,,,,,,,,,,,,,
0,2,2,2,1,.,"After that, you will be asked how confident you are of your choice.

Please rate the confidence in your choce with the numbers from 1 to 4 of your keyboard. 

The numbers correspond to:

1 = Very unsure
2 = Unsure
3 = Sure
4 = Very Sure",Please press the space bar to continue,1,2021-01-22_16h18.44.846,premceCat_ses-02_part-02_label-phase2,2020.2.10,Linux x86_64,60,,,,,,,,,,,,,,,,,,,,,
0,3,3,3,1,.,"After completing half of the task, you will be given the possibility to take a break. ",Please press the space bar to start with the task!,1,2021-01-22_16h18.44.846,premceCat_ses-02_part-02_label-phase2,2020.2.10,Linux x86_64,60,,,,,,,,,,,,,,,,,,,,,
,,,,,,,,1,2021-01-22_16h18.44.846,premceCat_ses-02_part-02_label-phase2,2020.2.10,Linux x86_64,60,right,0.693,2,1.061,0,0,0,19,1,stimuli/objects/bikehelmet.jpg,right,new,163,,,,,,,,
,,,,,,,,1,2021-01-22_16h18.44.846,premceCat_ses-02_part-02_label-phase2,2020.2.10,Linux x86_64,60,right,0.24,2,0.492,0,1,1,35,1,stimuli/objects/remotecontrol04.jpg,right,new,179,,,,,,,,
,,,,,,,,1,2021-01-22_16h18.44.846,premceCat_ses-02_part-02_label-phase2,2020.2.10,Linux x86_64,60,right,0.41,3,0.337,0,2,2,131,1,stimuli/objects/hockeygoalieglove.jpg,right,new,275,,,,,,,,
,,,,,,,,1,2021-01-22_16h18.44.846,premceCat_ses-02_part-02_label-phase2,2020.2.10,Linux x86_64,60,right,0.342,3,0.339,0,3,3,77,1,stimuli/objects/iceskate.jpg,right,new,221,,,,,,,,
,,,,,,,,1,2021-01-22_16h18.44.846,premceCat_ses-02_part-02_label-phase2,2020.2.10,Linux x86_64,60,right,0.336,3,0.397,0,4,4,45,1,stimuli/objects/gastank.jpg,left,old,189,,,,,,,,
,,,,,,,,1,2021-01-22_16h18.44.846,premceCat_ses-02_part-02_label-phase2,2020.2.10,Linux x86_64,60,right,0.253,3,0.416,0,5,5,15,1,stimuli/objects/jug.jpg,right,new,159,,,,,,,,
,,,,,,,,1,2021-01-22_16h18.44.846,premceCat_ses-02_part-02_label-phase2,2020.2.10,Linux x86_64,60,right,0.256,3,0.401,0,6,6,134,1,stimuli/objects/icecubetray01a.jpg,left,old,278,,,,,,,,
,,,,,,,,1,2021-01-22_16h18.44.846,premceCat_ses-02_part-02_label-phase2,2020.2.10,Linux x86_64,60,left,312.623,2,1.431,0,7,7,6,1,stimuli/objects/binoculars01b.jpg,right,new,150,,,,,,,,
,,,,,,,,1,2021-01-22_16h18.44.846,premceCat_ses-02_part-02_label-phase2,2020.2.10,Linux x86_64,60,left,0.1,2,0.723,0,8,8,94,1,stimuli/objects/microphone01.jpg,right,new,238,,,,,,,,
,,,,,,,,1,2021-01-22_16h18.44.846,premceCat_ses-02_part-02_label-phase2,2020.2.10,Linux x86_64,60,right,0.211,2,1.071,0,9,9,126,1,stimuli/objects/toolbox02.jpg,left,old,270,,,,,,,,
,,,,,,,,1,2021-01-22_16h18.44.846,premceCat_ses-02_part-02_label-phase2,2020.2.10,Linux x86_64,60,right,0.047,2,1.438,0,10,10,10,1,stimuli/objects/toyhockeystick01.jpg,right,new,154,,,,,,,,
,,,,,,,,1,2021-01-22_16h18.44.846,premceCat_ses-02_part-02_label-phase2,2020.2.10,Linux x86_64,60,right,0.545,2,1.185,0,11,11,25,1,stimuli/objects/sledgehammer.jpg,left,old,169,,,,,,,,
,,,,,,,,1,2021-01-22_16h18.44.846,premceCat_ses-02_part-02_label-phase2,2020.2.10,Linux x86_64,60,right,11.964,3,0.444,0,12,12,54,1,stimuli/objects/alarmsystem.jpg,right,new,198,,,,,,,,
,,,,,,,,1,2021-01-22_16h18.44.846,premceCat_ses-02_part-02_label-phase2,2020.2.10,Linux x86_64,60,right,0.273,3,0.616,0,13,13,22,1,stimuli/objects/radio01.jpg,left,old,166,,,,,,,,
,,,,,,,,1,2021-01-22_16h18.44.846,premceCat_ses-02_part-02_label-phase2,2020.2.10,Linux x86_64,60,right,0.682,2,0.328,0,14,14,44,1,stimuli/objects/dishrack.jpg,right,new,188,,,,,,,,
,,,,,,,,1,2021-01-22_16h18.44.846,premceCat_ses-02_part-02_label-phase2,2020.2.10,Linux x86_64,60,right,0.357,1,0.33,0,15,15,97,1,stimuli/objects/alarmclock01.jpg,left,old,241,,,,,,,,
,,,,,,,,1,2021-01-22_16h18.44.846,premceCat_ses-02_part-02_label-phase2,2020.2.10,Linux x86_64,60,right,0.305,3,0.287,0,16,16,72,1,stimuli/objects/photocopier.jpg,left,old,216,,,,,,,,
,,,,,,,,1,2021-01-22_16h18.44.846,premceCat_ses-02_part-02_label-phase2,2020.2.10,Linux x86_64,60,right,0.015,3,0.475,0,17,17,82,1,stimuli/objects/carantenna.jpg,right,new,226,,,,,,,,
,,,,,,,,1,2021-01-22_16h18.44.846,premceCat_ses-02_part-02_label-phase2,2020.2.10,Linux x86_64,60,right,0.485,4,0.25,0,18,18,46,1,stimuli/objects/grater01a.jpg,right,new,190,,,,,,,,
,,,,,,,,1,2021-01-22_16h18.44.846,premceCat_ses-02_part-02_label-phase2,2020.2.10,Linux x86_64,60,right,0.159,4,0.091,0,19,19,30,1,stimuli/objects/pastaspoon.jpg,right,new,174,,,,,,,,
,,,,,,,,1,2021-01-22_16h18.44.846,premceCat_ses-02_part-02_label-phase2,2020.2.10,Linux x86_64,60,right,0.304,2,0.21,0,20,20,111,1,stimuli/objects/bicycle.jpg,right,new,255,,,,,,,,
,,,,,,,,1,2021-01-22_16h18.44.846,premceCat_ses-02_part-02_label-phase2,2020.2.10,Linux x86_64,60,right,0.137,2,0.196,0,21,21,123,1,stimuli/objects/ladle02a.jpg,right,new,267,,,,,,,,
,,,,,,,,1,2021-01-22_16h18.44.846,premceCat_ses-02_part-02_label-phase2,2020.2.10,Linux x86_64,60,right,0.309,3,0.185,0,22,22,3,1,stimuli/objects/wirestripper.jpg,right,new,147,,,,,,,,
,,,,,,,,1,2021-01-22_16h18.44.846,premceCat_ses-02_part-02_label-phase2,2020.2.10,Linux x86_64,60,right,0.014,4,0.072,0,23,23,140,1,stimuli/objects/poolnet.jpg,left,old,284,,,,,,,,
,,,,,,,,1,2021-01-22_16h18.44.846,premceCat_ses-02_part-02_label-phase2,2020.2.10,Linux x86_64,60,right,0.125,1,0.109,0,24,24,23,1,stimuli/objects/bucket02.jpg,right,new,167,,,,,,,,
,,,,,,,,1,2021-01-22_16h18.44.846,premceCat_ses-02_part-02_label-phase2,2020.2.10,Linux x86_64,60,right,0.021,3,0.02,0,25,25,5,1,stimuli/objects/handgripper.jpg,right,new,149,,,,,,,,
,,,,,,,,1,2021-01-22_16h18.44.846,premceCat_ses-02_part-02_label-phase2,2020.2.10,Linux x86_64,60,right,0.414,3,1.665,0,26,26,21,1,stimuli/objects/bowrake.jpg,left,old,165,,,,,,,,
,,,,,,,,1,2021-01-22_16h18.44.846,premceCat_ses-02_part-02_label-phase2,2020.2.10,Linux x86_64,60,right,0.097,4,0.017,0,27,27,52,1,stimuli/objects/fan.jpg,left,old,196,,,,,,,,
,,,,,,,,1,2021-01-22_16h18.44.846,premceCat_ses-02_part-02_label-phase2,2020.2.10,Linux x86_64,60,right,0.133,2,0.016,0,28,28,50,1,stimuli/objects/coffeemaker.jpg,right,new,194,,,,,,,,
,,,,,,,,1,2021-01-22_16h18.44.846,premceCat_ses-02_part-02_label-phase2,2020.2.10,Linux x86_64,60,right,0.242,3,0.245,0,29,29,103,1,stimuli/objects/shinpad.jpg,left,old,247,,,,,,,,
,,,,,,,,1,2021-01-22_16h18.44.846,premceCat_ses-02_part-02_label-phase2,2020.2.10,Linux x86_64,60,right,0.143,4,0.226,0,30,30,118,1,stimuli/objects/fanheater.jpg,right,new,262,,,,,,,,
,,,,,,,,1,2021-01-22_16h18.44.846,premceCat_ses-02_part-02_label-phase2,2020.2.10,Linux x86_64,60,right,0.077,1,0.06,0,31,31,84,1,stimuli/objects/solderingwire.jpg,left,old,228,,,,,,,,
,,,,,,,,1,2021-01-22_16h18.44.846,premceCat_ses-02_part-02_label-phase2,2020.2.10,Linux x86_64,60,right,0.025,3,0.068,0,32,32,86,1,stimuli/objects/tennisracket.jpg,right,new,230,,,,,,,,
,,,,,,,,1,2021-01-22_16h18.44.846,premceCat_ses-02_part-02_label-phase2,2020.2.10,Linux x86_64,60,right,0.055,1,0.142,0,33,33,57,1,stimuli/objects/jack.jpg,left,old,201,,,,,,,,
,,,,,,,,1,2021-01-22_16h18.44.846,premceCat_ses-02_part-02_label-phase2,2020.2.10,Linux x86_64,60,right,0.018,3,0.203,0,34,34,125,1,stimuli/objects/travelmug.jpg,left,old,269,,,,,,,,
,,,,,,,,1,2021-01-22_16h18.44.846,premceCat_ses-02_part-02_label-phase2,2020.2.10,Linux x86_64,60,right,0.032,4,0.3,0,35,35,91,1,stimuli/objects/screwdriver04b.jpg,right,new,235,,,,,,,,
,,,,,,,,1,2021-01-22_16h18.44.846,premceCat_ses-02_part-02_label-phase2,2020.2.10,Linux x86_64,60,right,0.016,4,0.107,0,36,36,27,1,stimuli/objects/dolly01.jpg,left,old,171,,,,,,,,
,,,,,,,,1,2021-01-22_16h18.44.846,premceCat_ses-02_part-02_label-phase2,2020.2.10,Linux x86_64,60,right,0.016,1,0.286,0,37,37,113,1,stimuli/objects/chisel02b.jpg,left,old,257,,,,,,,,
,,,,,,,,1,2021-01-22_16h18.44.846,premceCat_ses-02_part-02_label-phase2,2020.2.10,Linux x86_64,60,right,0.049,3,0.197,0,38,38,108,1,stimuli/objects/fishinghook03.jpg,right,new,252,,,,,,,,
,,,,,,,,1,2021-01-22_16h18.44.846,premceCat_ses-02_part-02_label-phase2,2020.2.10,Linux x86_64,60,left,0.018,4,0.108,0,39,39,135,1,stimuli/objects/teapot.jpg,right,new,279,,,,,,,,
,,,,,,,,1,2021-01-22_16h18.44.846,premceCat_ses-02_part-02_label-phase2,2020.2.10,Linux x86_64,60,left,0.225,1,0.02,0,40,40,60,1,stimuli/objects/kneepad01c.jpg,left,old,204,,,,,,,,
,,,,,,,,1,2021-01-22_16h18.44.846,premceCat_ses-02_part-02_label-phase2,2020.2.10,Linux x86_64,60,right,0.038,2,0.081,0,41,41,99,1,stimuli/objects/flashlight02b.jpg,right,new,243,,,,,,,,
,,,,,,,,1,2021-01-22_16h18.44.846,premceCat_ses-02_part-02_label-phase2,2020.2.10,Linux x86_64,60,left,0.047,3,0.184,0,42,42,114,1,stimuli/objects/hosenozzle.jpg,left,old,258,,,,,,,,
,,,,,,,,1,2021-01-22_16h18.44.846,premceCat_ses-02_part-02_label-phase2,2020.2.10,Linux x86_64,60,left,0.135,4,0.023,0,43,43,78,1,stimuli/objects/swissarmyknife01a.jpg,right,new,222,,,,,,,,
,,,,,,,,1,2021-01-22_16h18.44.846,premceCat_ses-02_part-02_label-phase2,2020.2.10,Linux x86_64,60,right,0.076,2,0.043,0,44,44,68,1,stimuli/objects/jackhammer.jpg,right,new,212,,,,,,,,
,,,,,,,,1,2021-01-22_16h18.44.846,premceCat_ses-02_part-02_label-phase2,2020.2.10,Linux x86_64,60,right,0.016,3,0.018,0,45,45,28,1,stimuli/objects/axe01.jpg,left,old,172,,,,,,,,
,,,,,,,,1,2021-01-22_16h18.44.846,premceCat_ses-02_part-02_label-phase2,2020.2.10,Linux x86_64,60,right,0.062,3,0.077,0,46,46,81,1,stimuli/objects/boxcutter03a.jpg,left,old,225,,,,,,,,
,,,,,,,,1,2021-01-22_16h18.44.846,premceCat_ses-02_part-02_label-phase2,2020.2.10,Linux x86_64,60,right,0.013,3,0.188,0,47,47,48,1,stimuli/objects/adjustablewrench01b.jpg,right,new,192,,,,,,,,
,,,,,,,,1,2021-01-22_16h18.44.846,premceCat_ses-02_part-02_label-phase2,2020.2.10,Linux x86_64,60,right,0.27,3,0.121,0,48,48,13,1,stimuli/objects/gps.jpg,left,old,157,,,,,,,,
,,,,,,,,1,2021-01-22_16h18.44.846,premceCat_ses-02_part-02_label-phase2,2020.2.10,Linux x86_64,60,left,1.172,3,0.366,0,49,49,139,1,stimuli/objects/catchermask.jpg,left,old,283,,,,,,,,
,,,,,,,,1,2021-01-22_16h18.44.846,premceCat_ses-02_part-02_label-phase2,2020.2.10,Linux x86_64,60,right,0.115,4,0.125,0,50,50,92,1,stimuli/objects/mug01.jpg,left,old,236,,,,,,,,
,,,,,,,,1,2021-01-22_16h18.44.846,premceCat_ses-02_part-02_label-phase2,2020.2.10,Linux x86_64,60,right,0.094,3,0.11,0,51,51,121,1,stimuli/objects/chainsaw.jpg,right,new,265,,,,,,,,
,,,,,,,,1,2021-01-22_16h18.44.846,premceCat_ses-02_part-02_label-phase2,2020.2.10,Linux x86_64,60,right,0.019,3,0.053,0,52,52,40,1,stimuli/objects/nailgun.jpg,right,new,184,,,,,,,,
,,,,,,,,1,2021-01-22_16h18.44.846,premceCat_ses-02_part-02_label-phase2,2020.2.10,Linux x86_64,60,right,0.086,3,0.091,0,53,53,85,1,stimuli/objects/boxingglove01.jpg,left,old,229,,,,,,,,
,,,,,,,,1,2021-01-22_16h18.44.846,premceCat_ses-02_part-02_label-phase2,2020.2.10,Linux x86_64,60,right,0.019,3,0.053,0,54,54,58,1,stimuli/objects/glass02a.jpg,left,old,202,,,,,,,,
,,,,,,,,1,2021-01-22_16h18.44.846,premceCat_ses-02_part-02_label-phase2,2020.2.10,Linux x86_64,60,right,0.026,3,0.11,0,55,55,96,1,stimuli/objects/jumpercables.jpg,left,old,240,,,,,,,,
,,,,,,,,1,2021-01-22_16h18.44.846,premceCat_ses-02_part-02_label-phase2,2020.2.10,Linux x86_64,60,right,0.014,3,0.049,0,56,56,141,1,stimuli/objects/boatmotor.jpg,right,new,285,,,,,,,,
,,,,,,,,1,2021-01-22_16h18.44.846,premceCat_ses-02_part-02_label-phase2,2020.2.10,Linux x86_64,60,right,0.108,1,0.054,0,57,57,87,1,stimuli/objects/boltcutter.jpg,right,new,231,,,,,,,,
,,,,,,,,1,2021-01-22_16h18.44.846,premceCat_ses-02_part-02_label-phase2,2020.2.10,Linux x86_64,60,right,0.065,4,0.144,0,58,58,124,1,stimuli/objects/whisk.jpg,right,new,268,,,,,,,,
,,,,,,,,1,2021-01-22_16h18.44.846,premceCat_ses-02_part-02_label-phase2,2020.2.10,Linux x86_64,60,left,0.013,2,0.39,0,59,59,122,1,stimuli/objects/faxmachine.jpg,right,new,266,,,,,,,,
,,,,,,,,1,2021-01-22_16h18.44.846,premceCat_ses-02_part-02_label-phase2,2020.2.10,Linux x86_64,60,right,0.014,2,0.156,0,60,60,129,1,stimuli/objects/shotglass.jpg,left,old,273,,,,,,,,
,,,,,,,,1,2021-01-22_16h18.44.846,premceCat_ses-02_part-02_label-phase2,2020.2.10,Linux x86_64,60,right,0.025,4,0.08,0,61,61,101,1,stimuli/objects/drill01b.jpg,left,old,245,,,,,,,,
,,,,,,,,1,2021-01-22_16h18.44.846,premceCat_ses-02_part-02_label-phase2,2020.2.10,Linux x86_64,60,left,0.015,1,0.019,0,62,62,83,1,stimuli/objects/vhstape.jpg,right,new,227,,,,,,,,
,,,,,,,,1,2021-01-22_16h18.44.846,premceCat_ses-02_part-02_label-phase2,2020.2.10,Linux x86_64,60,right,0.532,3,0.448,0,63,63,133,1,stimuli/objects/surfboard.jpg,left,old,277,,,,,,,,
,,,,,,,,1,2021-01-22_16h18.44.846,premceCat_ses-02_part-02_label-phase2,2020.2.10,Linux x86_64,60,right,0.43,3,0.547,0,64,64,74,1,stimuli/objects/videocamera01a.jpg,right,new,218,,,,,,,,
,,,,,,,,1,2021-01-22_16h18.44.846,premceCat_ses-02_part-02_label-phase2,2020.2.10,Linux x86_64,60,left,0.133,1,0.126,0,65,65,36,1,stimuli/objects/gasburner.jpg,right,new,180,,,,,,,,
,,,,,,,,1,2021-01-22_16h18.44.846,premceCat_ses-02_part-02_label-phase2,2020.2.10,Linux x86_64,60,right,0.046,2,0.074,0,66,66,116,1,stimuli/objects/lock03a.jpg,left,old,260,,,,,,,,
,,,,,,,,1,2021-01-22_16h18.44.846,premceCat_ses-02_part-02_label-phase2,2020.2.10,Linux x86_64,60,left,0.099,4,0.017,0,67,67,9,1,stimuli/objects/crosscountryski.jpg,left,old,153,,,,,,,,
,,,,,,,,1,2021-01-22_16h18.44.846,premceCat_ses-02_part-02_label-phase2,2020.2.10,Linux x86_64,60,right,0.014,3,0.6,0,68,68,51,1,stimuli/objects/fonduefork01.jpg,right,new,195,,,,,,,,
,,,,,,,,1,2021-01-22_16h18.44.846,premceCat_ses-02_part-02_label-phase2,2020.2.10,Linux x86_64,60,left,0.427,1,0.02,0,69,69,112,1,stimuli/objects/tennisball01b.jpg,right,new,256,,,,,,,,
,,,,,,,,1,2021-01-22_16h18.44.846,premceCat_ses-02_part-02_label-phase2,2020.2.10,Linux x86_64,60,right,0.016,3,0.03,0,70,70,120,1,stimuli/objects/wire.jpg,right,new,264,,,,,,,,
,,,,,,,,1,2021-01-22_16h18.44.846,premceCat_ses-02_part-02_label-phase2,2020.2.10,Linux x86_64,60,right,0.035,3,0.104,0,71,71,95,1,stimuli/objects/microwave.jpg,right,new,239,,,,,,,,
,,,,,,,,1,2021-01-22_16h18.44.846,premceCat_ses-02_part-02_label-phase2,2020.2.10,Linux x86_64,60,left,0.071,1,0.114,0,72,72,76,1,stimuli/objects/footballhelmet.jpg,right,new,220,,,,,,,,
,,,,,,,,1,2021-01-22_16h18.44.846,premceCat_ses-02_part-02_label-phase2,2020.2.10,Linux x86_64,60,right,0.047,3,0.065,0,73,73,64,1,stimuli/objects/tupperware03a.jpg,left,old,208,,,,,,,,
,,,,,,,,1,2021-01-22_16h18.44.846,premceCat_ses-02_part-02_label-phase2,2020.2.10,Linux x86_64,60,left,0.017,3,0.043,0,74,74,128,1,stimuli/objects/funnel.jpg,right,new,272,,,,,,,,
,,,,,,,,1,2021-01-22_16h18.44.846,premceCat_ses-02_part-02_label-phase2,2020.2.10,Linux x86_64,60,right,0.036,2,0.094,0,75,75,32,1,stimuli/objects/skateboard.jpg,left,old,176,,,,,,,,
,,,,,,,,1,2021-01-22_16h18.44.846,premceCat_ses-02_part-02_label-phase2,2020.2.10,Linux x86_64,60,left,0.025,3,0.054,0,76,76,117,1,stimuli/objects/telephone01b.jpg,left,old,261,,,,,,,,
,,,,,,,,1,2021-01-22_16h18.44.846,premceCat_ses-02_part-02_label-phase2,2020.2.10,Linux x86_64,60,right,0.023,3,0.023,0,77,77,75,1,stimuli/objects/flask.jpg,left,old,219,,,,,,,,
,,,,,,,,1,2021-01-22_16h18.44.846,premceCat_ses-02_part-02_label-phase2,2020.2.10,Linux x86_64,60,left,0.015,2,0.016,0,78,78,20,1,stimuli/objects/handblender.jpg,left,old,164,,,,,,,,
,,,,,,,,1,2021-01-22_16h18.44.846,premceCat_ses-02_part-02_label-phase2,2020.2.10,Linux x86_64,60,right,0.067,2,0.019,0,79,79,31,1,stimuli/objects/drillbit03a.jpg,left,old,175,,,,,,,,
,,,,,,,,1,2021-01-22_16h18.44.846,premceCat_ses-02_part-02_label-phase2,2020.2.10,Linux x86_64,60,left,0.456,2,0.028,0,80,80,71,1,stimuli/objects/staplegun.jpg,left,old,215,,,,,,,,
,,,,,,,,1,2021-01-22_16h18.44.846,premceCat_ses-02_part-02_label-phase2,2020.2.10,Linux x86_64,60,right,0.336,3,0.252,0,81,81,38,1,stimuli/objects/filmroll.jpg,left,old,182,,,,,,,,
,,,,,,,,1,2021-01-22_16h18.44.846,premceCat_ses-02_part-02_label-phase2,2020.2.10,Linux x86_64,60,left,0.045,3,0.021,0,82,82,17,1,stimuli/objects/waterbottle03.jpg,left,old,161,,,,,,,,
,,,,,,,,1,2021-01-22_16h18.44.846,premceCat_ses-02_part-02_label-phase2,2020.2.10,Linux x86_64,60,right,0.11,3,0.369,0,83,83,132,1,stimuli/objects/cooler01.jpg,left,old,276,,,,,,,,
,,,,,,,,1,2021-01-22_16h18.44.846,premceCat_ses-02_part-02_label-phase2,2020.2.10,Linux x86_64,60,left,0.244,4,0.071,0,84,84,26,1,stimuli/objects/backpack01a.jpg,right,new,170,,,,,,,,
,,,,,,,,1,2021-01-22_16h18.44.846,premceCat_ses-02_part-02_label-phase2,2020.2.10,Linux x86_64,60,right,1.701,3,0.54,0,85,85,18,1,stimuli/objects/hose.jpg,left,old,162,,,,,,,,
,,,,,,,,1,2021-01-22_16h18.44.846,premceCat_ses-02_part-02_label-phase2,2020.2.10,Linux x86_64,60,right,0.232,3,0.063,0,86,86,104,1,stimuli/objects/bottlecap.jpg,left,old,248,,,,,,,,
,,,,,,,,1,2021-01-22_16h18.44.846,premceCat_ses-02_part-02_label-phase2,2020.2.10,Linux x86_64,60,left,0.057,1,0.063,0,87,87,63,1,stimuli/objects/pda.jpg,left,old,207,,,,,,,,
,,,,,,,,1,2021-01-22_16h18.44.846,premceCat_ses-02_part-02_label-phase2,2020.2.10,Linux x86_64,60,right,0.015,2,0.13,0,88,88,24,1,stimuli/objects/measuringcup01.jpg,left,old,168,,,,,,,,
,,,,,,,,1,2021-01-22_16h18.44.846,premceCat_ses-02_part-02_label-phase2,2020.2.10,Linux x86_64,60,left,0.015,4,1.107,0,89,89,100,1,stimuli/objects/peppermill02b.jpg,left,old,244,,,,,,,,
,,,,,,,,1,2021-01-22_16h18.44.846,premceCat_ses-02_part-02_label-phase2,2020.2.10,Linux x86_64,60,right,0.015,3,0.02,0,90,90,41,1,stimuli/objects/fork03c.jpg,left,old,185,,,,,,,,
,,,,,,,,1,2021-01-22_16h18.44.846,premceCat_ses-02_part-02_label-phase2,2020.2.10,Linux x86_64,60,right,0.052,4,0.655,0,91,91,67,1,stimuli/objects/wineglass01.jpg,left,old,211,,,,,,,,
,,,,,,,,1,2021-01-22_16h18.44.846,premceCat_ses-02_part-02_label-phase2,2020.2.10,Linux x86_64,60,right,0.194,3,0.238,0,92,92,79,1,stimuli/objects/snowshoe.jpg,right,new,223,,,,,,,,
,,,,,,,,1,2021-01-22_16h18.44.846,premceCat_ses-02_part-02_label-phase2,2020.2.10,Linux x86_64,60,left,0.119,2,0.119,0,93,93,90,1,stimuli/objects/leafblower01.jpg,left,old,234,,,,,,,,
,,,,,,,,1,2021-01-22_16h18.44.846,premceCat_ses-02_part-02_label-phase2,2020.2.10,Linux x86_64,60,left,0.093,4,0.084,0,94,94,142,1,stimuli/objects/file.jpg,right,new,286,,,,,,,,
,,,,,,,,1,2021-01-22_16h18.44.846,premceCat_ses-02_part-02_label-phase2,2020.2.10,Linux x86_64,60,left,0.19,4,0.111,0,95,95,49,1,stimuli/objects/jigsaw.jpg,right,new,193,,,,,,,,
,,,,,,,,1,2021-01-22_16h18.44.846,premceCat_ses-02_part-02_label-phase2,2020.2.10,Linux x86_64,60,left,0.016,3,0.12,0,96,96,34,1,stimuli/objects/floodlight.jpg,right,new,178,,,,,,,,
,,,,,,,,1,2021-01-22_16h18.44.846,premceCat_ses-02_part-02_label-phase2,2020.2.10,Linux x86_64,60,left,0.041,3,0.086,0,97,97,8,1,stimuli/objects/eggslicer.jpg,left,old,152,,,,,,,,
,,,,,,,,1,2021-01-22_16h18.44.846,premceCat_ses-02_part-02_label-phase2,2020.2.10,Linux x86_64,60,left,0.019,2,0.049,0,98,98,98,1,stimuli/objects/phonejack.jpg,right,new,242,,,,,,,,
,,,,,,,,1,2021-01-22_16h18.44.846,premceCat_ses-02_part-02_label-phase2,2020.2.10,Linux x86_64,60,right,0.04,3,0.019,0,99,99,0,1,stimuli/objects/saw02b.jpg,right,new,144,,,,,,,,
,,,,,,,,1,2021-01-22_16h18.44.846,premceCat_ses-02_part-02_label-phase2,2020.2.10,Linux x86_64,60,left,0.515,1,0.103,0,100,100,127,1,stimuli/objects/airconditioner.jpg,right,new,271,,,,,,,,
,,,,,,,,1,2021-01-22_16h18.44.846,premceCat_ses-02_part-02_label-phase2,2020.2.10,Linux x86_64,60,right,0.176,4,0.51,0,101,101,136,1,stimuli/objects/nintendods.jpg,left,old,280,,,,,,,,
,,,,,,,,1,2021-01-22_16h18.44.846,premceCat_ses-02_part-02_label-phase2,2020.2.10,Linux x86_64,60,left,0.218,2,0.051,0,102,102,37,1,stimuli/objects/pipewrench.jpg,right,new,181,,,,,,,,
,,,,,,,,1,2021-01-22_16h18.44.846,premceCat_ses-02_part-02_label-phase2,2020.2.10,Linux x86_64,60,right,0.017,4,0.177,0,103,103,70,1,stimuli/objects/butterknife.jpg,left,old,214,,,,,,,,
,,,,,,,,1,2021-01-22_16h18.44.846,premceCat_ses-02_part-02_label-phase2,2020.2.10,Linux x86_64,60,left,0.025,2,0.063,0,104,104,119,1,stimuli/objects/weight01.jpg,left,old,263,,,,,,,,
,,,,,,,,1,2021-01-22_16h18.44.846,premceCat_ses-02_part-02_label-phase2,2020.2.10,Linux x86_64,60,right,0.016,2,0.02,0,105,105,39,1,stimuli/objects/beachumbrella01.jpg,right,new,183,,,,,,,,
,,,,,,,,1,2021-01-22_16h18.44.846,premceCat_ses-02_part-02_label-phase2,2020.2.10,Linux x86_64,60,left,0.018,1,0.756,0,106,106,59,1,stimuli/objects/shovel01.jpg,right,new,203,,,,,,,,
,,,,,,,,1,2021-01-22_16h18.44.846,premceCat_ses-02_part-02_label-phase2,2020.2.10,Linux x86_64,60,right,0.127,4,0.199,0,107,107,2,1,stimuli/objects/carlighter02.jpg,right,new,146,,,,,,,,
,,,,,,,,1,2021-01-22_16h18.44.846,premceCat_ses-02_part-02_label-phase2,2020.2.10,Linux x86_64,60,left,0.084,2,0.051,0,108,108,42,1,stimuli/objects/golfbag.jpg,left,old,186,,,,,,,,
,,,,,,,,1,2021-01-22_16h18.44.846,premceCat_ses-02_part-02_label-phase2,2020.2.10,Linux x86_64,60,left,0.364,4,0.134,0,109,109,80,1,stimuli/objects/downhillski.jpg,left,old,224,,,,,,,,
,,,,,,,,1,2021-01-22_16h18.44.846,premceCat_ses-02_part-02_label-phase2,2020.2.10,Linux x86_64,60,right,0.14,2,0.022,0,110,110,109,1,stimuli/objects/knifesharpener.jpg,right,new,253,,,,,,,,
,,,,,,,,1,2021-01-22_16h18.44.846,premceCat_ses-02_part-02_label-phase2,2020.2.10,Linux x86_64,60,left,0.097,4,0.104,0,111,111,14,1,stimuli/objects/rope03.jpg,left,old,158,,,,,,,,
,,,,,,,,1,2021-01-22_16h18.44.846,premceCat_ses-02_part-02_label-phase2,2020.2.10,Linux x86_64,60,right,0.098,4,0.068,0,112,112,65,1,stimuli/objects/jar02.jpg,right,new,209,,,,,,,,
,,,,,,,,1,2021-01-22_16h18.44.846,premceCat_ses-02_part-02_label-phase2,2020.2.10,Linux x86_64,60,left,0.03,2,0.024,0,113,113,62,1,stimuli/objects/sewingmachine01a.jpg,left,old,206,,,,,,,,
,,,,,,,,1,2021-01-22_16h18.44.846,premceCat_ses-02_part-02_label-phase2,2020.2.10,Linux x86_64,60,right,0.093,2,0.198,0,114,114,73,1,stimuli/objects/pitchfork.jpg,left,old,217,,,,,,,,
,,,,,,,,1,2021-01-22_16h18.44.846,premceCat_ses-02_part-02_label-phase2,2020.2.10,Linux x86_64,60,left,0.017,2,0.019,0,115,115,107,1,stimuli/objects/telescope.jpg,right,new,251,,,,,,,,
,,,,,,,,1,2021-01-22_16h18.44.846,premceCat_ses-02_part-02_label-phase2,2020.2.10,Linux x86_64,60,right,0.066,2,0.022,0,116,116,61,1,stimuli/objects/lectern01.jpg,left,old,205,,,,,,,,
,,,,,,,,1,2021-01-22_16h18.44.846,premceCat_ses-02_part-02_label-phase2,2020.2.10,Linux x86_64,60,left,0.065,4,0.633,0,117,117,12,1,stimuli/objects/bottleopener01.jpg,right,new,156,,,,,,,,
,,,,,,,,1,2021-01-22_16h18.44.846,premceCat_ses-02_part-02_label-phase2,2020.2.10,Linux x86_64,60,left,0.044,3,0.096,0,118,118,102,1,stimuli/objects/tent.jpg,left,old,246,,,,,,,,
,,,,,,,,1,2021-01-22_16h18.44.846,premceCat_ses-02_part-02_label-phase2,2020.2.10,Linux x86_64,60,right,0.02,3,0.217,0,119,119,29,1,stimuli/objects/ellipticalmachine.jpg,left,old,173,,,,,,,,
,,,,,,,,1,2021-01-22_16h18.44.846,premceCat_ses-02_part-02_label-phase2,2020.2.10,Linux x86_64,60,left,0.014,4,0.019,0,120,120,1,1,stimuli/objects/cleaver01.jpg,left,old,145,,,,,,,,
,,,,,,,,1,2021-01-22_16h18.44.846,premceCat_ses-02_part-02_label-phase2,2020.2.10,Linux x86_64,60,right,0.123,2,0.432,0,121,121,115,1,stimuli/objects/servingspoon01.jpg,left,old,259,,,,,,,,
,,,,,,,,1,2021-01-22_16h18.44.846,premceCat_ses-02_part-02_label-phase2,2020.2.10,Linux x86_64,60,left,0.151,1,0.172,0,122,122,43,1,stimuli/objects/exercisebike.jpg,right,new,187,,,,,,,,
,,,,,,,,1,2021-01-22_16h18.44.846,premceCat_ses-02_part-02_label-phase2,2020.2.10,Linux x86_64,60,right,0.166,4,0.554,0,123,123,93,1,stimuli/objects/espressomachine.jpg,left,old,237,,,,,,,,
,,,,,,,,1,2021-01-22_16h18.44.846,premceCat_ses-02_part-02_label-phase2,2020.2.10,Linux x86_64,60,left,0.147,3,0.02,0,124,124,16,1,stimuli/objects/charcoalbarbecue.jpg,right,new,160,,,,,,,,
,,,,,,,,1,2021-01-22_16h18.44.846,premceCat_ses-02_part-02_label-phase2,2020.2.10,Linux x86_64,60,right,0.079,4,0.022,0,125,125,66,1,stimuli/objects/securitycamera.jpg,right,new,210,,,,,,,,
,,,,,,,,1,2021-01-22_16h18.44.846,premceCat_ses-02_part-02_label-phase2,2020.2.10,Linux x86_64,60,left,0.027,3,0.02,0,126,126,55,1,stimuli/objects/hockeypuck.jpg,right,new,199,,,,,,,,
,,,,,,,,1,2021-01-22_16h18.44.846,premceCat_ses-02_part-02_label-phase2,2020.2.10,Linux x86_64,60,right,0.186,2,0.15,0,127,127,4,1,stimuli/objects/leafrake.jpg,right,new,148,,,,,,,,
,,,,,,,,1,2021-01-22_16h18.44.846,premceCat_ses-02_part-02_label-phase2,2020.2.10,Linux x86_64,60,right,0.016,4,0.026,0,128,128,137,1,stimuli/objects/outletadapter.jpg,left,old,281,,,,,,,,
,,,,,,,,1,2021-01-22_16h18.44.846,premceCat_ses-02_part-02_label-phase2,2020.2.10,Linux x86_64,60,left,0.125,1,0.135,0,129,129,33,1,stimuli/objects/hockeystick.jpg,left,old,177,,,,,,,,
,,,,,,,,1,2021-01-22_16h18.44.846,premceCat_ses-02_part-02_label-phase2,2020.2.10,Linux x86_64,60,right,0.115,4,0.068,0,130,130,138,1,stimuli/objects/punchingball.jpg,right,new,282,,,,,,,,
,,,,,,,,1,2021-01-22_16h18.44.846,premceCat_ses-02_part-02_label-phase2,2020.2.10,Linux x86_64,60,left,0.092,3,0.101,0,131,131,89,1,stimuli/objects/desktopcomputer.jpg,left,old,233,,,,,,,,
,,,,,,,,1,2021-01-22_16h18.44.846,premceCat_ses-02_part-02_label-phase2,2020.2.10,Linux x86_64,60,right,0.122,2,0.204,0,132,132,56,1,stimuli/objects/treadmill.jpg,left,old,200,,,,,,,,
,,,,,,,,1,2021-01-22_16h18.44.846,premceCat_ses-02_part-02_label-phase2,2020.2.10,Linux x86_64,60,left,0.082,2,0.195,0,133,133,7,1,stimuli/objects/football.jpg,left,old,151,,,,,,,,
,,,,,,,,1,2021-01-22_16h18.44.846,premceCat_ses-02_part-02_label-phase2,2020.2.10,Linux x86_64,60,right,0.018,3,0.051,0,134,134,110,1,stimuli/objects/ramekin01.jpg,left,old,254,,,,,,,,
,,,,,,,,1,2021-01-22_16h18.44.846,premceCat_ses-02_part-02_label-phase2,2020.2.10,Linux x86_64,60,left,0.051,1,0.018,0,135,135,47,1,stimuli/objects/icepack.jpg,left,old,191,,,,,,,,
,,,,,,,,1,2021-01-22_16h18.44.846,premceCat_ses-02_part-02_label-phase2,2020.2.10,Linux x86_64,60,right,0.017,4,0.536,0,136,136,130,1,stimuli/objects/snowbrush.jpg,right,new,274,,,,,,,,
,,,,,,,,1,2021-01-22_16h18.44.846,premceCat_ses-02_part-02_label-phase2,2020.2.10,Linux x86_64,60,left,0.187,3,0.024,0,137,137,53,1,stimuli/objects/gluetube.jpg,left,old,197,,,,,,,,
,,,,,,,,1,2021-01-22_16h18.44.846,premceCat_ses-02_part-02_label-phase2,2020.2.10,Linux x86_64,60,right,0.079,2,0.022,0,138,138,106,1,stimuli/objects/ethernetcable02.jpg,left,old,250,,,,,,,,
,,,,,,,,1,2021-01-22_16h18.44.846,premceCat_ses-02_part-02_label-phase2,2020.2.10,Linux x86_64,60,left,0.115,1,0.054,0,139,139,88,1,stimuli/objects/cuttingboard.jpg,right,new,232,,,,,,,,
,,,,,,,,1,2021-01-22_16h18.44.846,premceCat_ses-02_part-02_label-phase2,2020.2.10,Linux x86_64,60,right,0.145,4,0.088,0,140,140,69,1,stimuli/objects/wheelbarrow01.jpg,right,new,213,,,,,,,,
,,,,,,,,1,2021-01-22_16h18.44.846,premceCat_ses-02_part-02_label-phase2,2020.2.10,Linux x86_64,60,left,0.017,3,0.016,0,141,141,105,1,stimuli/objects/printer02.jpg,left,old,249,,,,,,,,
,,,,,,,,1,2021-01-22_16h18.44.846,premceCat_ses-02_part-02_label-phase2,2020.2.10,Linux x86_64,60,right,0.052,4,0.078,0,142,142,11,1,stimuli/objects/coffeemachine.jpg,right,new,155,,,,,,,,
,,,,,,,,1,2021-01-22_16h18.44.846,premceCat_ses-02_part-02_label-phase2,2020.2.10,Linux x86_64,60,,,,,,,,,,,,,,space,2.326,0,0,0,1,1,condition_files/ImagesforRecog2_2.csv
,,,,,,,,1,2021-01-22_16h18.44.846,premceCat_ses-02_part-02_label-phase2,2020.2.10,Linux x86_64,60,left,0.608,3,0.116,0,0,0,88,1,stimuli/objects/headphones02b.jpg,left,old,89,,,,,,,,
,,,,,,,,1,2021-01-22_16h18.44.846,premceCat_ses-02_part-02_label-phase2,2020.2.10,Linux x86_64,60,right,0.089,2,0.021,0,1,1,62,1,stimuli/objects/studiolight.jpg,left,old,63,,,,,,,,
,,,,,,,,1,2021-01-22_16h18.44.846,premceCat_ses-02_part-02_label-phase2,2020.2.10,Linux x86_64,60,left,0.021,3,0.045,0,2,2,121,1,stimuli/objects/chocolatefonduedish.jpg,right,new,122,,,,,,,,
,,,,,,,,1,2021-01-22_16h18.44.846,premceCat_ses-02_part-02_label-phase2,2020.2.10,Linux x86_64,60,right,52.217,3,0.591,0,3,3,106,1,stimuli/objects/towel01.jpg,right,new,107,,,,,,,,
,,,,,,,,1,2021-01-22_16h18.44.846,premceCat_ses-02_part-02_label-phase2,2020.2.10,Linux x86_64,60,left,0.932,3,0.262,0,4,4,85,1,stimuli/objects/skigoggles01.jpg,right,new,86,,,,,,,,
,,,,,,,,1,2021-01-22_16h18.44.846,premceCat_ses-02_part-02_label-phase2,2020.2.10,Linux x86_64,60,right,0.253,3,0.012,0,5,5,100,1,stimuli/objects/pot01.jpg,right,new,101,,,,,,,,
,,,,,,,,1,2021-01-22_16h18.44.846,premceCat_ses-02_part-02_label-phase2,2020.2.10,Linux x86_64,60,right,0.075,3,0.491,0,6,6,127,1,stimuli/objects/wetfloorsign.jpg,left,old,128,,,,,,,,
,,,,,,,,1,2021-01-22_16h18.44.846,premceCat_ses-02_part-02_label-phase2,2020.2.10,Linux x86_64,60,right,0.132,3,0.534,0,7,7,114,1,stimuli/objects/extensioncord.jpg,left,old,115,,,,,,,,
,,,,,,,,1,2021-01-22_16h18.44.846,premceCat_ses-02_part-02_label-phase2,2020.2.10,Linux x86_64,60,left,0.208,1,0.255,0,8,8,3,1,stimuli/objects/cameracase01a.jpg,left,old,4,,,,,,,,
,,,,,,,,1,2021-01-22_16h18.44.846,premceCat_ses-02_part-02_label-phase2,2020.2.10,Linux x86_64,60,right,0.248,3,0.013,0,9,9,44,1,stimuli/objects/tape02a.jpg,left,old,45,,,,,,,,
,,,,,,,,1,2021-01-22_16h18.44.846,premceCat_ses-02_part-02_label-phase2,2020.2.10,Linux x86_64,60,left,0.249,1,0.012,0,10,10,4,1,stimuli/objects/atm.jpg,right,new,5,,,,,,,,
,,,,,,,,1,2021-01-22_16h18.44.846,premceCat_ses-02_part-02_label-phase2,2020.2.10,Linux x86_64,60,right,0.216,3,0.395,0,11,11,0,1,stimuli/objects/expansioncard.jpg,left,old,1,,,,,,,,
,,,,,,,,1,2021-01-22_16h18.44.846,premceCat_ses-02_part-02_label-phase2,2020.2.10,Linux x86_64,60,left,0.162,4,0.242,0,12,12,95,1,stimuli/objects/snowman.jpg,left,old,96,,,,,,,,
,,,,,,,,1,2021-01-22_16h18.44.846,premceCat_ses-02_part-02_label-phase2,2020.2.10,Linux x86_64,60,right,0.093,3,0.268,0,13,13,40,1,stimuli/objects/monitor.jpg,left,old,41,,,,,,,,
,,,,,,,,1,2021-01-22_16h18.44.846,premceCat_ses-02_part-02_label-phase2,2020.2.10,Linux x86_64,60,left,0.013,1,0.209,0,14,14,82,1,stimuli/objects/caulking.jpg,right,new,83,,,,,,,,
,,,,,,,,1,2021-01-22_16h18.44.846,premceCat_ses-02_part-02_label-phase2,2020.2.10,Linux x86_64,60,right,0.017,3,0.328,0,15,15,69,1,stimuli/objects/backfloat.jpg,left,old,70,,,,,,,,
,,,,,,,,1,2021-01-22_16h18.44.846,premceCat_ses-02_part-02_label-phase2,2020.2.10,Linux x86_64,60,left,0.014,1,0.478,0,16,16,63,1,stimuli/objects/knife03.jpg,right,new,64,,,,,,,,
,,,,,,,,1,2021-01-22_16h18.44.846,premceCat_ses-02_part-02_label-phase2,2020.2.10,Linux x86_64,60,left,0.054,4,0.29,0,17,17,139,1,stimuli/objects/solderingiron.jpg,right,new,140,,,,,,,,
,,,,,,,,1,2021-01-22_16h18.44.846,premceCat_ses-02_part-02_label-phase2,2020.2.10,Linux x86_64,60,right,0.011,4,0.773,0,18,18,115,1,stimuli/objects/rollingpin01a.jpg,left,old,116,,,,,,,,
,,,,,,,,1,2021-01-22_16h18.44.846,premceCat_ses-02_part-02_label-phase2,2020.2.10,Linux x86_64,60,left,0.071,4,0.046,0,19,19,125,1,stimuli/objects/diaperbag.jpg,right,new,126,,,,,,,,
,,,,,,,,1,2021-01-22_16h18.44.846,premceCat_ses-02_part-02_label-phase2,2020.2.10,Linux x86_64,60,right,0.305,3,0.197,0,20,20,71,1,stimuli/objects/webcam.jpg,right,new,72,,,,,,,,
,,,,,,,,1,2021-01-22_16h18.44.846,premceCat_ses-02_part-02_label-phase2,2020.2.10,Linux x86_64,60,left,0.126,4,0.231,0,21,21,93,1,stimuli/objects/payphone.jpg,right,new,94,,,,,,,,
,,,,,,,,1,2021-01-22_16h18.44.846,premceCat_ses-02_part-02_label-phase2,2020.2.10,Linux x86_64,60,left,0.825,4,0.443,0,22,22,68,1,stimuli/objects/flooringstapler.jpg,right,new,69,,,,,,,,
,,,,,,,,1,2021-01-22_16h18.44.846,premceCat_ses-02_part-02_label-phase2,2020.2.10,Linux x86_64,60,left,0.316,4,0.338,0,23,23,59,1,stimuli/objects/dvdplayer.jpg,right,new,60,,,,,,,,
,,,,,,,,1,2021-01-22_16h18.44.846,premceCat_ses-02_part-02_label-phase2,2020.2.10,Linux x86_64,60,left,0.011,4,0.256,0,24,24,32,1,stimuli/objects/mitresaw.jpg,right,new,33,,,,,,,,
,,,,,,,,1,2021-01-22_16h18.44.846,premceCat_ses-02_part-02_label-phase2,2020.2.10,Linux x86_64,60,left,0.209,4,0.366,0,25,25,57,1,stimuli/objects/dvdcase01.jpg,right,new,58,,,,,,,,
,,,,,,,,1,2021-01-22_16h18.44.846,premceCat_ses-02_part-02_label-phase2,2020.2.10,Linux x86_64,60,left,0.223,4,0.402,0,26,26,117,1,stimuli/objects/ipad02.jpg,right,new,118,,,,,,,,
,,,,,,,,1,2021-01-22_16h18.44.846,premceCat_ses-02_part-02_label-phase2,2020.2.10,Linux x86_64,60,left,0.187,4,0.349,0,27,27,129,1,stimuli/objects/exercisebench.jpg,left,old,130,,,,,,,,
,,,,,,,,1,2021-01-22_16h18.44.846,premceCat_ses-02_part-02_label-phase2,2020.2.10,Linux x86_64,60,left,0.109,4,0.249,0,28,28,76,1,stimuli/objects/parachute.jpg,right,new,77,,,,,,,,
,,,,,,,,1,2021-01-22_16h18.44.846,premceCat_ses-02_part-02_label-phase2,2020.2.10,Linux x86_64,60,left,0.418,4,0.263,0,29,29,132,1,stimuli/objects/soccerball.jpg,left,old,133,,,,,,,,
,,,,,,,,1,2021-01-22_16h18.44.846,premceCat_ses-02_part-02_label-phase2,2020.2.10,Linux x86_64,60,left,0.263,4,0.353,0,30,30,107,1,stimuli/objects/hedgetrimmer.jpg,left,old,108,,,,,,,,
,,,,,,,,1,2021-01-22_16h18.44.846,premceCat_ses-02_part-02_label-phase2,2020.2.10,Linux x86_64,60,left,0.082,4,0.315,0,31,31,124,1,stimuli/objects/baseballbat.jpg,left,old,125,,,,,,,,
,,,,,,,,1,2021-01-22_16h18.44.846,premceCat_ses-02_part-02_label-phase2,2020.2.10,Linux x86_64,60,left,0.076,4,0.324,0,32,32,67,1,stimuli/objects/cork02.jpg,left,old,68,,,,,,,,
,,,,,,,,1,2021-01-22_16h18.44.846,premceCat_ses-02_part-02_label-phase2,2020.2.10,Linux x86_64,60,left,0.038,4,0.3,0,33,33,101,1,stimuli/objects/magneticcompass.jpg,left,old,102,,,,,,,,
,,,,,,,,1,2021-01-22_16h18.44.846,premceCat_ses-02_part-02_label-phase2,2020.2.10,Linux x86_64,60,right,0.283,4,0.327,0,34,34,75,1,stimuli/objects/puttyknife.jpg,right,new,76,,,,,,,,
,,,,,,,,1,2021-01-22_16h18.44.846,premceCat_ses-02_part-02_label-phase2,2020.2.10,Linux x86_64,60,left,0.16,4,0.65,0,35,35,46,1,stimuli/objects/sportbag.jpg,right,new,47,,,,,,,,
,,,,,,,,1,2021-01-22_16h18.44.846,premceCat_ses-02_part-02_label-phase2,2020.2.10,Linux x86_64,60,left,0.042,4,0.241,0,36,36,92,1,stimuli/objects/pliers02b.jpg,right,new,93,,,,,,,,
,,,,,,,,1,2021-01-22_16h18.44.846,premceCat_ses-02_part-02_label-phase2,2020.2.10,Linux x86_64,60,left,0.935,4,0.569,0,37,37,19,1,stimuli/objects/coffeepot03a.jpg,right,new,20,,,,,,,,
,,,,,,,,1,2021-01-22_16h18.44.846,premceCat_ses-02_part-02_label-phase2,2020.2.10,Linux x86_64,60,left,0.202,4,0.22,0,38,38,126,1,stimuli/objects/swing.jpg,right,new,127,,,,,,,,
,,,,,,,,1,2021-01-22_16h18.44.846,premceCat_ses-02_part-02_label-phase2,2020.2.10,Linux x86_64,60,left,0.344,4,0.246,0,39,39,61,1,stimuli/objects/clock01a.jpg,left,old,62,,,,,,,,
,,,,,,,,1,2021-01-22_16h18.44.846,premceCat_ses-02_part-02_label-phase2,2020.2.10,Linux x86_64,60,left,0.035,4,0.176,0,40,40,41,1,stimuli/objects/foodprocessor.jpg,right,new,42,,,,,,,,
,,,,,,,,1,2021-01-22_16h18.44.846,premceCat_ses-02_part-02_label-phase2,2020.2.10,Linux x86_64,60,left,0.039,4,0.149,0,41,41,35,1,stimuli/objects/exercisemachine.jpg,left,old,36,,,,,,,,
,,,,,,,,1,2021-01-22_16h18.44.846,premceCat_ses-02_part-02_label-phase2,2020.2.10,Linux x86_64,60,left,0.045,1,0.369,0,42,42,58,1,stimuli/objects/weedwacker.jpg,left,old,59,,,,,,,,
,,,,,,,,1,2021-01-22_16h18.44.846,premceCat_ses-02_part-02_label-phase2,2020.2.10,Linux x86_64,60,left,0.074,2,0.218,0,43,43,134,1,stimuli/objects/television.jpg,right,new,135,,,,,,,,
,,,,,,,,1,2021-01-22_16h18.44.846,premceCat_ses-02_part-02_label-phase2,2020.2.10,Linux x86_64,60,right,0.221,3,0.204,0,44,44,53,1,stimuli/objects/smokedetector02.jpg,right,new,54,,,,,,,,
,,,,,,,,1,2021-01-22_16h18.44.846,premceCat_ses-02_part-02_label-phase2,2020.2.10,Linux x86_64,60,left,0.167,3,0.211,0,45,45,48,1,stimuli/objects/lawnmower.jpg,left,old,49,,,,,,,,
,,,,,,,,1,2021-01-22_16h18.44.846,premceCat_ses-02_part-02_label-phase2,2020.2.10,Linux x86_64,60,left,0.09,4,0.28,0,46,46,84,1,stimuli/objects/paintbrush01.jpg,left,old,85,,,,,,,,
,,,,,,,,1,2021-01-22_16h18.44.846,premceCat_ses-02_part-02_label-phase2,2020.2.10,Linux x86_64,60,left,0.079,1,0.1,0,47,47,113,1,stimuli/objects/taperecorder.jpg,right,new,114,,,,,,,,
,,,,,,,,1,2021-01-22_16h18.44.846,premceCat_ses-02_part-02_label-phase2,2020.2.10,Linux x86_64,60,right,0.015,4,0.095,0,48,48,90,1,stimuli/objects/canister.jpg,right,new,91,,,,,,,,
,,,,,,,,1,2021-01-22_16h18.44.846,premceCat_ses-02_part-02_label-phase2,2020.2.10,Linux x86_64,60,left,0.085,3,0.407,0,49,49,98,1,stimuli/objects/paninigrill.jpg,left,old,99,,,,,,,,
,,,,,,,,1,2021-01-22_16h18.44.846,premceCat_ses-02_part-02_label-phase2,2020.2.10,Linux x86_64,60,left,0.013,4,0.247,0,50,50,24,1,stimuli/objects/punchingbag.jpg,right,new,25,,,,,,,,
,,,,,,,,1,2021-01-22_16h18.44.846,premceCat_ses-02_part-02_label-phase2,2020.2.10,Linux x86_64,60,left,0.206,3,0.08,0,51,51,122,1,stimuli/objects/waterbottleholder.jpg,left,old,123,,,,,,,,
,,,,,,,,1,2021-01-22_16h18.44.846,premceCat_ses-02_part-02_label-phase2,2020.2.10,Linux x86_64,60,right,0.041,4,0.079,0,52,52,28,1,stimuli/objects/aluminiumfoil.jpg,left,old,29,,,,,,,,
,,,,,,,,1,2021-01-22_16h18.44.846,premceCat_ses-02_part-02_label-phase2,2020.2.10,Linux x86_64,60,left,0.015,3,0.544,0,53,53,118,1,stimuli/objects/aircompressor.jpg,left,old,119,,,,,,,,
,,,,,,,,1,2021-01-22_16h18.44.846,premceCat_ses-02_part-02_label-phase2,2020.2.10,Linux x86_64,60,right,0.016,4,0.378,0,54,54,8,1,stimuli/objects/toothpick02.jpg,left,old,9,,,,,,,,
,,,,,,,,1,2021-01-22_16h18.44.846,premceCat_ses-02_part-02_label-phase2,2020.2.10,Linux x86_64,60,left,0.023,3,2.542,0,55,55,30,1,stimuli/objects/satellitedish01.jpg,right,new,31,,,,,,,,
,,,,,,,,1,2021-01-22_16h18.44.846,premceCat_ses-02_part-02_label-phase2,2020.2.10,Linux x86_64,60,left,0.61,3,4.402,0,56,56,2,1,stimuli/objects/beermug01a.jpg,left,old,3,,,,,,,,
,,,,,,,,1,2021-01-22_16h18.44.846,premceCat_ses-02_part-02_label-phase2,2020.2.10,Linux x86_64,60,right,0.122,3,0.634,0,57,57,39,1,stimuli/objects/tableknife02.jpg,right,new,40,,,,,,,,
,,,,,,,,1,2021-01-22_16h18.44.846,premceCat_ses-02_part-02_label-phase2,2020.2.10,Linux x86_64,60,left,2.331,3,1.358,0,58,58,120,1,stimuli/objects/scanner.jpg,left,old,121,,,,,,,,
,,,,,,,,1,2021-01-22_16h18.44.846,premceCat_ses-02_part-02_label-phase2,2020.2.10,Linux x86_64,60,right,0.444,3,29.803,0,59,59,50,1,stimuli/objects/wateringcan.jpg,right,new,51,,,,,,,,
,,,,,,,,1,2021-01-22_16h18.44.846,premceCat_ses-02_part-02_label-phase2,2020.2.10,Linux x86_64,60,right,0.149,3,0.59,0,60,60,38,1,stimuli/objects/fuse.jpg,right,new,39,,,,,,,,
,,,,,,,,1,2021-01-22_16h18.44.846,premceCat_ses-02_part-02_label-phase2,2020.2.10,Linux x86_64,60,right,0.012,3,1.088,0,61,61,138,1,stimuli/objects/minifridge.jpg,right,new,139,,,,,,,,
,,,,,,,,1,2021-01-22_16h18.44.846,premceCat_ses-02_part-02_label-phase2,2020.2.10,Linux x86_64,60,right,0.29,2,0.105,0,62,62,14,1,stimuli/objects/fridge.jpg,left,old,15,,,,,,,,
,,,,,,,,1,2021-01-22_16h18.44.846,premceCat_ses-02_part-02_label-phase2,2020.2.10,Linux x86_64,60,right,0.278,3,1.88,0,63,63,33,1,stimuli/objects/spatula03.jpg,right,new,34,,,,,,,,
,,,,,,,,1,2021-01-22_16h18.44.846,premceCat_ses-02_part-02_label-phase2,2020.2.10,Linux x86_64,60,left,1.793,3,1.792,0,64,64,10,1,stimuli/objects/lightswitch01.jpg,left,old,11,,,,,,,,
,,,,,,,,1,2021-01-22_16h18.44.846,premceCat_ses-02_part-02_label-phase2,2020.2.10,Linux x86_64,60,left,0.404,3,1.368,0,65,65,66,1,stimuli/objects/tablesaw.jpg,right,new,67,,,,,,,,
,,,,,,,,1,2021-01-22_16h18.44.846,premceCat_ses-02_part-02_label-phase2,2020.2.10,Linux x86_64,60,left,0.146,3,0.225,0,66,66,54,1,stimuli/objects/cashregister01.jpg,right,new,55,,,,,,,,
,,,,,,,,1,2021-01-22_16h18.44.846,premceCat_ses-02_part-02_label-phase2,2020.2.10,Linux x86_64,60,left,0.37,3,0.053,0,67,67,140,1,stimuli/objects/muffintray01.jpg,left,old,141,,,,,,,,
,,,,,,,,1,2021-01-22_16h18.44.846,premceCat_ses-02_part-02_label-phase2,2020.2.10,Linux x86_64,60,left,0.2,3,0.022,0,68,68,142,1,stimuli/objects/spotlight.jpg,left,old,143,,,,,,,,
,,,,,,,,1,2021-01-22_16h18.44.846,premceCat_ses-02_part-02_label-phase2,2020.2.10,Linux x86_64,60,left,0.175,3,0.021,0,69,69,16,1,stimuli/objects/papershredder.jpg,left,old,17,,,,,,,,
,,,,,,,,1,2021-01-22_16h18.44.846,premceCat_ses-02_part-02_label-phase2,2020.2.10,Linux x86_64,60,left,0.122,3,1.56,0,70,70,37,1,stimuli/objects/stubbywrench01a.jpg,left,old,38,,,,,,,,
,,,,,,,,1,2021-01-22_16h18.44.846,premceCat_ses-02_part-02_label-phase2,2020.2.10,Linux x86_64,60,left,0.273,3,2.498,0,71,71,103,1,stimuli/objects/wiicontroller.jpg,left,old,104,,,,,,,,
,,,,,,,,1,2021-01-22_16h18.44.846,premceCat_ses-02_part-02_label-phase2,2020.2.10,Linux x86_64,60,left,0.019,3,1.152,0,72,72,13,1,stimuli/objects/cookingpot.jpg,right,new,14,,,,,,,,
,,,,,,,,1,2021-01-22_16h18.44.846,premceCat_ses-02_part-02_label-phase2,2020.2.10,Linux x86_64,60,left,0.287,4,2.179,0,73,73,51,1,stimuli/objects/walkietalkie.jpg,right,new,52,,,,,,,,
,,,,,,,,1,2021-01-22_16h18.44.846,premceCat_ses-02_part-02_label-phase2,2020.2.10,Linux x86_64,60,left,0.147,4,1.749,0,74,74,9,1,stimuli/objects/shopvac.jpg,right,new,10,,,,,,,,
,,,,,,,,1,2021-01-22_16h18.44.846,premceCat_ses-02_part-02_label-phase2,2020.2.10,Linux x86_64,60,left,0.148,4,1.705,0,75,75,78,1,stimuli/objects/canoepaddle02.jpg,left,old,79,,,,,,,,
,,,,,,,,1,2021-01-22_16h18.44.846,premceCat_ses-02_part-02_label-phase2,2020.2.10,Linux x86_64,60,left,0.246,4,1.01,0,76,76,45,1,stimuli/objects/paintscraper.jpg,left,old,46,,,,,,,,
,,,,,,,,1,2021-01-22_16h18.44.846,premceCat_ses-02_part-02_label-phase2,2020.2.10,Linux x86_64,60,left,0.515,4,0.024,0,77,77,135,1,stimuli/objects/battery02b.jpg,left,old,136,,,,,,,,
,,,,,,,,1,2021-01-22_16h18.44.846,premceCat_ses-02_part-02_label-phase2,2020.2.10,Linux x86_64,60,left,0.474,4,0.952,0,78,78,49,1,stimuli/objects/gravyboat.jpg,left,old,50,,,,,,,,
,,,,,,,,1,2021-01-22_16h18.44.846,premceCat_ses-02_part-02_label-phase2,2020.2.10,Linux x86_64,60,left,0.365,3,0.28,0,79,79,27,1,stimuli/objects/propanetank01.jpg,left,old,28,,,,,,,,
,,,,,,,,1,2021-01-22_16h18.44.846,premceCat_ses-02_part-02_label-phase2,2020.2.10,Linux x86_64,60,left,0.271,3,0.536,0,80,80,65,1,stimuli/objects/cellphone.jpg,left,old,66,,,,,,,,
,,,,,,,,1,2021-01-22_16h18.44.846,premceCat_ses-02_part-02_label-phase2,2020.2.10,Linux x86_64,60,left,0.532,4,0.164,0,81,81,116,1,stimuli/objects/spoon01.jpg,right,new,117,,,,,,,,
,,,,,,,,1,2021-01-22_16h18.44.846,premceCat_ses-02_part-02_label-phase2,2020.2.10,Linux x86_64,60,left,0.431,4,0.297,0,82,82,5,1,stimuli/objects/toyhardhat.jpg,left,old,6,,,,,,,,
,,,,,,,,1,2021-01-22_16h18.44.846,premceCat_ses-02_part-02_label-phase2,2020.2.10,Linux x86_64,60,left,0.486,4,0.439,0,83,83,104,1,stimuli/objects/kitchenscale01a.jpg,left,old,105,,,,,,,,
,,,,,,,,1,2021-01-22_16h18.44.846,premceCat_ses-02_part-02_label-phase2,2020.2.10,Linux x86_64,60,right,0.505,4,0.315,0,84,84,52,1,stimuli/objects/kite.jpg,left,old,53,,,,,,,,
,,,,,,,,1,2021-01-22_16h18.44.846,premceCat_ses-02_part-02_label-phase2,2020.2.10,Linux x86_64,60,left,0.393,3,0.024,0,85,85,136,1,stimuli/objects/laptop01a.jpg,right,new,137,,,,,,,,
,,,,,,,,1,2021-01-22_16h18.44.846,premceCat_ses-02_part-02_label-phase2,2020.2.10,Linux x86_64,60,right,0.309,2,0.249,0,86,86,96,1,stimuli/objects/chandelier.jpg,right,new,97,,,,,,,,
,,,,,,,,1,2021-01-22_16h18.44.846,premceCat_ses-02_part-02_label-phase2,2020.2.10,Linux x86_64,60,left,0.387,2,0.018,0,87,87,77,1,stimuli/objects/stroller.jpg,left,old,78,,,,,,,,
,,,,,,,,1,2021-01-22_16h18.44.846,premceCat_ses-02_part-02_label-phase2,2020.2.10,Linux x86_64,60,left,0.303,4,0.042,0,88,88,83,1,stimuli/objects/contactlens.jpg,right,new,84,,,,,,,,
,,,,,,,,1,2021-01-22_16h18.44.846,premceCat_ses-02_part-02_label-phase2,2020.2.10,Linux x86_64,60,right,0.357,2,0.052,0,89,89,87,1,stimuli/objects/golfball.jpg,left,old,88,,,,,,,,
,,,,,,,,1,2021-01-22_16h18.44.846,premceCat_ses-02_part-02_label-phase2,2020.2.10,Linux x86_64,60,left,0.218,4,0.015,0,90,90,21,1,stimuli/objects/measuringspoon.jpg,right,new,22,,,,,,,,
,,,,,,,,1,2021-01-22_16h18.44.846,premceCat_ses-02_part-02_label-phase2,2020.2.10,Linux x86_64,60,left,0.179,2,0.497,0,91,91,31,1,stimuli/objects/filmnegative.jpg,left,old,32,,,,,,,,
,,,,,,,,1,2021-01-22_16h18.44.846,premceCat_ses-02_part-02_label-phase2,2020.2.10,Linux x86_64,60,left,0.309,4,0.466,0,92,92,73,1,stimuli/objects/kiddiepool.jpg,right,new,74,,,,,,,,
,,,,,,,,1,2021-01-22_16h18.44.846,premceCat_ses-02_part-02_label-phase2,2020.2.10,Linux x86_64,60,right,0.295,3,0.08,0,93,93,80,1,stimuli/objects/fanblades.jpg,right,new,81,,,,,,,,
,,,,,,,,1,2021-01-22_16h18.44.846,premceCat_ses-02_part-02_label-phase2,2020.2.10,Linux x86_64,60,left,0.329,3,0.235,0,94,94,1,1,stimuli/objects/bikewheel.jpg,left,old,2,,,,,,,,
,,,,,,,,1,2021-01-22_16h18.44.846,premceCat_ses-02_part-02_label-phase2,2020.2.10,Linux x86_64,60,right,0.23,3,0.068,0,95,95,130,1,stimuli/objects/toaster01.jpg,left,old,131,,,,,,,,
,,,,,,,,1,2021-01-22_16h18.44.846,premceCat_ses-02_part-02_label-phase2,2020.2.10,Linux x86_64,60,left,0.292,3,0.052,0,96,96,133,1,stimuli/objects/avcable.jpg,right,new,134,,,,,,,,
,,,,,,,,1,2021-01-22_16h18.44.846,premceCat_ses-02_part-02_label-phase2,2020.2.10,Linux x86_64,60,left,0.125,4,0.074,0,97,97,18,1,stimuli/objects/electricoutlet.jpg,right,new,19,,,,,,,,
,,,,,,,,1,2021-01-22_16h18.44.846,premceCat_ses-02_part-02_label-phase2,2020.2.10,Linux x86_64,60,right,0.075,3,0.077,0,98,98,7,1,stimuli/objects/gardenshears01a.jpg,left,old,8,,,,,,,,
,,,,,,,,1,2021-01-22_16h18.44.846,premceCat_ses-02_part-02_label-phase2,2020.2.10,Linux x86_64,60,left,0.28,3,0.5,0,99,99,112,1,stimuli/objects/bikelock.jpg,right,new,113,,,,,,,,
,,,,,,,,1,2021-01-22_16h18.44.846,premceCat_ses-02_part-02_label-phase2,2020.2.10,Linux x86_64,60,left,0.321,2,0.381,0,100,100,128,1,stimuli/objects/bastingbrush.jpg,right,new,129,,,,,,,,
,,,,,,,,1,2021-01-22_16h18.44.846,premceCat_ses-02_part-02_label-phase2,2020.2.10,Linux x86_64,60,left,0.291,4,0.104,0,101,101,110,1,stimuli/objects/hammer01.jpg,right,new,111,,,,,,,,
,,,,,,,,1,2021-01-22_16h18.44.846,premceCat_ses-02_part-02_label-phase2,2020.2.10,Linux x86_64,60,left,0.36,4,0.018,0,102,102,102,1,stimuli/objects/wafflemaker.jpg,left,old,103,,,,,,,,
,,,,,,,,1,2021-01-22_16h18.44.846,premceCat_ses-02_part-02_label-phase2,2020.2.10,Linux x86_64,60,right,0.429,4,0.136,0,103,103,20,1,stimuli/objects/walkman.jpg,right,new,21,,,,,,,,
,,,,,,,,1,2021-01-22_16h18.44.846,premceCat_ses-02_part-02_label-phase2,2020.2.10,Linux x86_64,60,left,0.147,4,0.519,0,104,104,99,1,stimuli/objects/stepladder.jpg,left,old,100,,,,,,,,
,,,,,,,,1,2021-01-22_16h18.44.846,premceCat_ses-02_part-02_label-phase2,2020.2.10,Linux x86_64,60,right,0.186,3,0.054,0,105,105,43,1,stimuli/objects/lifejacket.jpg,right,new,44,,,,,,,,
,,,,,,,,1,2021-01-22_16h18.44.846,premceCat_ses-02_part-02_label-phase2,2020.2.10,Linux x86_64,60,left,0.182,1,0.161,0,106,106,22,1,stimuli/objects/rollerblade.jpg,right,new,23,,,,,,,,
,,,,,,,,1,2021-01-22_16h18.44.846,premceCat_ses-02_part-02_label-phase2,2020.2.10,Linux x86_64,60,right,0.202,4,0.561,0,107,107,60,1,stimuli/objects/plate01b.jpg,right,new,61,,,,,,,,
,,,,,,,,1,2021-01-22_16h18.44.846,premceCat_ses-02_part-02_label-phase2,2020.2.10,Linux x86_64,60,left,0.103,4,0.521,0,108,108,111,1,stimuli/objects/tray.jpg,right,new,112,,,,,,,,
,,,,,,,,1,2021-01-22_16h18.44.846,premceCat_ses-02_part-02_label-phase2,2020.2.10,Linux x86_64,60,right,0.24,4,0.418,0,109,109,34,1,stimuli/objects/level03a.jpg,left,old,35,,,,,,,,
,,,,,,,,1,2021-01-22_16h18.44.846,premceCat_ses-02_part-02_label-phase2,2020.2.10,Linux x86_64,60,left,0.312,1,0.016,0,110,110,81,1,stimuli/objects/tripod01.jpg,right,new,82,,,,,,,,
,,,,,,,,1,2021-01-22_16h18.44.846,premceCat_ses-02_part-02_label-phase2,2020.2.10,Linux x86_64,60,left,0.182,4,0.064,0,111,111,56,1,stimuli/objects/soundmixer.jpg,left,old,57,,,,,,,,
,,,,,,,,1,2021-01-22_16h18.44.846,premceCat_ses-02_part-02_label-phase2,2020.2.10,Linux x86_64,60,left,0.386,4,0.145,0,112,112,131,1,stimuli/objects/electricmixer.jpg,right,new,132,,,,,,,,
,,,,,,,,1,2021-01-22_16h18.44.846,premceCat_ses-02_part-02_label-phase2,2020.2.10,Linux x86_64,60,left,0.202,4,0.28,0,113,113,108,1,stimuli/objects/pylon01.jpg,right,new,109,,,,,,,,
,,,,,,,,1,2021-01-22_16h18.44.846,premceCat_ses-02_part-02_label-phase2,2020.2.10,Linux x86_64,60,right,0.133,4,0.075,0,114,114,6,1,stimuli/objects/powercable.jpg,left,old,7,,,,,,,,
,,,,,,,,1,2021-01-22_16h18.44.846,premceCat_ses-02_part-02_label-phase2,2020.2.10,Linux x86_64,60,left,0.087,4,0.049,0,115,115,64,1,stimuli/objects/huntingknife.jpg,left,old,65,,,,,,,,
,,,,,,,,1,2021-01-22_16h18.44.846,premceCat_ses-02_part-02_label-phase2,2020.2.10,Linux x86_64,60,left,0.168,4,0.179,0,116,116,47,1,stimuli/objects/icescraper.jpg,left,old,48,,,,,,,,
,,,,,,,,1,2021-01-22_16h18.44.846,premceCat_ses-02_part-02_label-phase2,2020.2.10,Linux x86_64,60,left,0.381,4,0.018,0,117,117,11,1,stimuli/objects/usbcable01a.jpg,left,old,12,,,,,,,,
,,,,,,,,1,2021-01-22_16h18.44.846,premceCat_ses-02_part-02_label-phase2,2020.2.10,Linux x86_64,60,left,0.2,4,0.243,0,118,118,123,1,stimuli/objects/metalscissors.jpg,left,old,124,,,,,,,,
,,,,,,,,1,2021-01-22_16h18.44.846,premceCat_ses-02_part-02_label-phase2,2020.2.10,Linux x86_64,60,left,0.044,4,0.476,0,119,119,119,1,stimuli/objects/crocodileclips.jpg,right,new,120,,,,,,,,
,,,,,,,,1,2021-01-22_16h18.44.846,premceCat_ses-02_part-02_label-phase2,2020.2.10,Linux x86_64,60,left,0.067,4,0.085,0,120,120,17,1,stimuli/objects/basketballhoop01.jpg,right,new,18,,,,,,,,
,,,,,,,,1,2021-01-22_16h18.44.846,premceCat_ses-02_part-02_label-phase2,2020.2.10,Linux x86_64,60,left,0.214,4,0.019,0,121,121,42,1,stimuli/objects/anchor.jpg,right,new,43,,,,,,,,
,,,,,,,,1,2021-01-22_16h18.44.846,premceCat_ses-02_part-02_label-phase2,2020.2.10,Linux x86_64,60,left,0.021,4,0.639,0,122,122,89,1,stimuli/objects/jumpingjack.jpg,right,new,90,,,,,,,,
,,,,,,,,1,2021-01-22_16h18.44.846,premceCat_ses-02_part-02_label-phase2,2020.2.10,Linux x86_64,60,left,0.02,4,0.568,0,123,123,29,1,stimuli/objects/ceilingspeaker.jpg,left,old,30,,,,,,,,
,,,,,,,,1,2021-01-22_16h18.44.846,premceCat_ses-02_part-02_label-phase2,2020.2.10,Linux x86_64,60,left,0.018,4,0.038,0,124,124,137,1,stimuli/objects/gymnasticring.jpg,left,old,138,,,,,,,,
,,,,,,,,1,2021-01-22_16h18.44.846,premceCat_ses-02_part-02_label-phase2,2020.2.10,Linux x86_64,60,left,0.018,4,0.649,0,125,125,36,1,stimuli/objects/reflector.jpg,left,old,37,,,,,,,,
,,,,,,,,1,2021-01-22_16h18.44.846,premceCat_ses-02_part-02_label-phase2,2020.2.10,Linux x86_64,60,left,0.295,4,0.073,0,126,126,97,1,stimuli/objects/birdie.jpg,left,old,98,,,,,,,,
,,,,,,,,1,2021-01-22_16h18.44.846,premceCat_ses-02_part-02_label-phase2,2020.2.10,Linux x86_64,60,left,0.168,4,0.471,0,127,127,105,1,stimuli/objects/heatpump.jpg,left,old,106,,,,,,,,
,,,,,,,,1,2021-01-22_16h18.44.846,premceCat_ses-02_part-02_label-phase2,2020.2.10,Linux x86_64,60,left,0.143,4,0.03,0,128,128,79,1,stimuli/objects/toasteroven.jpg,left,old,80,,,,,,,,
,,,,,,,,1,2021-01-22_16h18.44.846,premceCat_ses-02_part-02_label-phase2,2020.2.10,Linux x86_64,60,left,0.154,4,0.484,0,129,129,72,1,stimuli/objects/hedgeshears.jpg,right,new,73,,,,,,,,
,,,,,,,,1,2021-01-22_16h18.44.846,premceCat_ses-02_part-02_label-phase2,2020.2.10,Linux x86_64,60,left,0.333,4,0.021,0,130,130,55,1,stimuli/objects/snowblower.jpg,right,new,56,,,,,,,,
,,,,,,,,1,2021-01-22_16h18.44.846,premceCat_ses-02_part-02_label-phase2,2020.2.10,Linux x86_64,60,left,0.232,4,0.019,0,131,131,74,1,stimuli/objects/podium.jpg,left,old,75,,,,,,,,
,,,,,,,,1,2021-01-22_16h18.44.846,premceCat_ses-02_part-02_label-phase2,2020.2.10,Linux x86_64,60,right,0.22,4,0.247,0,132,132,15,1,stimuli/objects/ladder.jpg,left,old,16,,,,,,,,
,,,,,,,,1,2021-01-22_16h18.44.846,premceCat_ses-02_part-02_label-phase2,2020.2.10,Linux x86_64,60,right,0.097,4,0.011,0,133,133,70,1,stimuli/objects/camera01a.jpg,left,old,71,,,,,,,,
,,,,,,,,1,2021-01-22_16h18.44.846,premceCat_ses-02_part-02_label-phase2,2020.2.10,Linux x86_64,60,left,0.214,4,0.015,0,134,134,141,1,stimuli/objects/skiboot01a.jpg,right,new,142,,,,,,,,
,,,,,,,,1,2021-01-22_16h18.44.846,premceCat_ses-02_part-02_label-phase2,2020.2.10,Linux x86_64,60,left,0.281,4,0.056,0,135,135,12,1,stimuli/objects/drinkshaker.jpg,right,new,13,,,,,,,,
,,,,,,,,1,2021-01-22_16h18.44.846,premceCat_ses-02_part-02_label-phase2,2020.2.10,Linux x86_64,60,left,0.106,4,0.121,0,136,136,26,1,stimuli/objects/hockeygoaliepad.jpg,right,new,27,,,,,,,,
,,,,,,,,1,2021-01-22_16h18.44.846,premceCat_ses-02_part-02_label-phase2,2020.2.10,Linux x86_64,60,left,0.07,4,0.169,0,137,137,91,1,stimuli/objects/woodenspoon.jpg,left,old,92,,,,,,,,
,,,,,,,,1,2021-01-22_16h18.44.846,premceCat_ses-02_part-02_label-phase2,2020.2.10,Linux x86_64,60,right,0.107,4,0.08,0,138,138,94,1,stimuli/objects/corkscrew03a.jpg,right,new,95,,,,,,,,
,,,,,,,,1,2021-01-22_16h18.44.846,premceCat_ses-02_part-02_label-phase2,2020.2.10,Linux x86_64,60,right,0.013,4,0.021,0,139,139,23,1,stimuli/objects/volleyball.jpg,right,new,24,,,,,,,,
,,,,,,,,1,2021-01-22_16h18.44.846,premceCat_ses-02_part-02_label-phase2,2020.2.10,Linux x86_64,60,right,0.166,4,0.019,0,140,140,25,1,stimuli/objects/bikepump01.jpg,right,new,26,,,,,,,,
,,,,,,,,1,2021-01-22_16h18.44.846,premceCat_ses-02_part-02_label-phase2,2020.2.10,Linux x86_64,60,left,0.112,4,0.015,0,141,141,109,1,stimuli/objects/computerkeyboard02.jpg,right,new,110,,,,,,,,
,,,,,,,,1,2021-01-22_16h18.44.846,premceCat_ses-02_part-02_label-phase2,2020.2.10,Linux x86_64,60,right,0.546,4,0.019,0,142,142,86,1,stimuli/objects/styrofoamcup.jpg,right,new,87,,,,,,,,
,,,,,,,,1,2021-01-22_16h18.44.846,premceCat_ses-02_part-02_label-phase2,2020.2.10,Linux x86_64,60,,,,,,,,,,,,,,space,1.964,0,1,1,0,1,condition_files/ImagesforRecog2_1.csv
