instructions_loop.thisRepN,instructions_loop.thisTrialN,instructions_loop.thisN,instructions_loop.thisIndex,instructions_loop.ran,text1,text2,text3,participant,date,expName,psychopyVersion,OS,frameRate,recog_resp.keys,recog_resp.rt,conf_resp.keys,conf_resp.rt,recog_loop.thisRepN,recog_loop.thisTrialN,recog_loop.thisN,recog_loop.thisIndex,recog_loop.ran,images,corr_ans,type,order,key_resp_break.keys,key_resp_break.rt,list_loop.thisRepN,list_loop.thisTrialN,list_loop.thisN,list_loop.thisIndex,list_loop.ran,recog_list
0,0,0,0,1,Welcome to the last phase of this experiment!,.,Please press the space bar to continue,1,2021-01-22_16h50.01.962,premceCat_ses-02_part-02_label-phase2,2020.2.10,Win32,60,,,,,,,,,,,,,,,,,,,,,
0,1,1,1,1,.,"In this phase, you will see some objects. 

For each object, you should indicate whether you have seen it before during the experiment.

Press LEFT ARROW for YES
Press RIGHT ARROW for NO

",Please press the space bar to continue ,1,2021-01-22_16h50.01.962,premceCat_ses-02_part-02_label-phase2,2020.2.10,Win32,60,,,,,,,,,,,,,,,,,,,,,
0,2,2,2,1,.,"After that, you will be asked how confident you are of your choice.

Please rate the confidence in your choce with the numbers from 1 to 4 of your keyboard. 

The numbers correspond to:

1 = Very unsure
2 = Unsure
3 = Sure
4 = Very Sure",Please press the space bar to continue,1,2021-01-22_16h50.01.962,premceCat_ses-02_part-02_label-phase2,2020.2.10,Win32,60,,,,,,,,,,,,,,,,,,,,,
0,3,3,3,1,.,"After completing half of the task, you will be given the possibility to take a break. ",Please press the space bar to start with the task!,1,2021-01-22_16h50.01.962,premceCat_ses-02_part-02_label-phase2,2020.2.10,Win32,60,,,,,,,,,,,,,,,,,,,,,
,,,,,,,,1,2021-01-22_16h50.01.962,premceCat_ses-02_part-02_label-phase2,2020.2.10,Win32,60,right,5.666,2,0.679,0,0,0,92,1,stimuli/objects/mug01.jpg,left,old,236,,,,,,,,
,,,,,,,,1,2021-01-22_16h50.01.962,premceCat_ses-02_part-02_label-phase2,2020.2.10,Win32,60,left,2.457,4,1.149,0,1,1,133,1,stimuli/objects/surfboard.jpg,left,old,277,,,,,,,,
,,,,,,,,1,2021-01-22_16h50.01.962,premceCat_ses-02_part-02_label-phase2,2020.2.10,Win32,60,left,1.312,4,0.734,0,2,2,116,1,stimuli/objects/lock03a.jpg,left,old,260,,,,,,,,
,,,,,,,,1,2021-01-22_16h50.01.962,premceCat_ses-02_part-02_label-phase2,2020.2.10,Win32,60,right,1.959,2,1.059,0,3,3,79,1,stimuli/objects/snowshoe.jpg,right,new,223,,,,,,,,
,,,,,,,,1,2021-01-22_16h50.01.962,premceCat_ses-02_part-02_label-phase2,2020.2.10,Win32,60,left,1.207,4,0.821,0,4,4,136,1,stimuli/objects/nintendods.jpg,left,old,280,,,,,,,,
,,,,,,,,1,2021-01-22_16h50.01.962,premceCat_ses-02_part-02_label-phase2,2020.2.10,Win32,60,left,1.941,3,1.478,0,5,5,89,1,stimuli/objects/desktopcomputer.jpg,left,old,233,,,,,,,,
,,,,,,,,1,2021-01-22_16h50.01.962,premceCat_ses-02_part-02_label-phase2,2020.2.10,Win32,60,right,1.452,3,0.888,0,6,6,65,1,stimuli/objects/jar02.jpg,right,new,209,,,,,,,,
,,,,,,,,1,2021-01-22_16h50.01.962,premceCat_ses-02_part-02_label-phase2,2020.2.10,Win32,60,right,1.818,2,0.676,0,7,7,91,1,stimuli/objects/screwdriver04b.jpg,right,new,235,,,,,,,,
,,,,,,,,1,2021-01-22_16h50.01.962,premceCat_ses-02_part-02_label-phase2,2020.2.10,Win32,60,left,1.662,2,3.414,0,8,8,97,1,stimuli/objects/alarmclock01.jpg,left,old,241,,,,,,,,
,,,,,,,,1,2021-01-22_16h50.01.962,premceCat_ses-02_part-02_label-phase2,2020.2.10,Win32,60,right,1.801,2,3.26,0,9,9,37,1,stimuli/objects/pipewrench.jpg,right,new,181,,,,,,,,
,,,,,,,,1,2021-01-22_16h50.01.962,premceCat_ses-02_part-02_label-phase2,2020.2.10,Win32,60,right,3.353,2,0.798,0,10,10,66,1,stimuli/objects/securitycamera.jpg,right,new,210,,,,,,,,
,,,,,,,,1,2021-01-22_16h50.01.962,premceCat_ses-02_part-02_label-phase2,2020.2.10,Win32,60,right,4.748,1,2.811,0,11,11,111,1,stimuli/objects/bicycle.jpg,right,new,255,,,,,,,,
,,,,,,,,1,2021-01-22_16h50.01.962,premceCat_ses-02_part-02_label-phase2,2020.2.10,Win32,60,left,1.259,4,0.467,0,12,12,106,1,stimuli/objects/ethernetcable02.jpg,left,old,250,,,,,,,,
,,,,,,,,1,2021-01-22_16h50.01.962,premceCat_ses-02_part-02_label-phase2,2020.2.10,Win32,60,left,2.709,2,0.573,0,13,13,115,1,stimuli/objects/servingspoon01.jpg,left,old,259,,,,,,,,
,,,,,,,,1,2021-01-22_16h50.01.962,premceCat_ses-02_part-02_label-phase2,2020.2.10,Win32,60,left,1.761,4,0.415,0,14,14,9,1,stimuli/objects/crosscountryski.jpg,left,old,153,,,,,,,,
,,,,,,,,1,2021-01-22_16h50.01.962,premceCat_ses-02_part-02_label-phase2,2020.2.10,Win32,60,right,3.928,2,2.928,0,15,15,11,1,stimuli/objects/coffeemachine.jpg,right,new,155,,,,,,,,
,,,,,,,,1,2021-01-22_16h50.01.962,premceCat_ses-02_part-02_label-phase2,2020.2.10,Win32,60,left,3.421,3,0.449,0,16,16,63,1,stimuli/objects/pda.jpg,left,old,207,,,,,,,,
,,,,,,,,1,2021-01-22_16h50.01.962,premceCat_ses-02_part-02_label-phase2,2020.2.10,Win32,60,left,1.96,3,0.837,0,17,17,32,1,stimuli/objects/skateboard.jpg,left,old,176,,,,,,,,
,,,,,,,,1,2021-01-22_16h50.01.962,premceCat_ses-02_part-02_label-phase2,2020.2.10,Win32,60,left,5.955,2,1.375,0,18,18,34,1,stimuli/objects/floodlight.jpg,right,new,178,,,,,,,,
,,,,,,,,1,2021-01-22_16h50.01.962,premceCat_ses-02_part-02_label-phase2,2020.2.10,Win32,60,right,4.593,1,0.363,0,19,19,69,1,stimuli/objects/wheelbarrow01.jpg,right,new,213,,,,,,,,
,,,,,,,,1,2021-01-22_16h50.01.962,premceCat_ses-02_part-02_label-phase2,2020.2.10,Win32,60,right,3.318,1,0.415,0,20,20,112,1,stimuli/objects/tennisball01b.jpg,right,new,256,,,,,,,,
,,,,,,,,1,2021-01-22_16h50.01.962,premceCat_ses-02_part-02_label-phase2,2020.2.10,Win32,60,left,1.346,4,0.519,0,21,21,75,1,stimuli/objects/flask.jpg,left,old,219,,,,,,,,
,,,,,,,,1,2021-01-22_16h50.01.962,premceCat_ses-02_part-02_label-phase2,2020.2.10,Win32,60,left,1.665,3,0.484,0,22,22,123,1,stimuli/objects/ladle02a.jpg,right,new,267,,,,,,,,
,,,,,,,,1,2021-01-22_16h50.01.962,premceCat_ses-02_part-02_label-phase2,2020.2.10,Win32,60,left,1.381,4,0.657,0,23,23,18,1,stimuli/objects/hose.jpg,left,old,162,,,,,,,,
,,,,,,,,1,2021-01-22_16h50.01.962,premceCat_ses-02_part-02_label-phase2,2020.2.10,Win32,60,right,3.441,1,0.676,0,24,24,35,1,stimuli/objects/remotecontrol04.jpg,right,new,179,,,,,,,,
,,,,,,,,1,2021-01-22_16h50.01.962,premceCat_ses-02_part-02_label-phase2,2020.2.10,Win32,60,right,3.196,1,0.64,0,25,25,17,1,stimuli/objects/waterbottle03.jpg,left,old,161,,,,,,,,
,,,,,,,,1,2021-01-22_16h50.01.962,premceCat_ses-02_part-02_label-phase2,2020.2.10,Win32,60,left,1.258,4,0.397,0,26,26,134,1,stimuli/objects/icecubetray01a.jpg,left,old,278,,,,,,,,
,,,,,,,,1,2021-01-22_16h50.01.962,premceCat_ses-02_part-02_label-phase2,2020.2.10,Win32,60,left,1.469,3,0.401,0,27,27,41,1,stimuli/objects/fork03c.jpg,left,old,185,,,,,,,,
,,,,,,,,1,2021-01-22_16h50.01.962,premceCat_ses-02_part-02_label-phase2,2020.2.10,Win32,60,left,1.226,2,0.308,0,28,28,113,1,stimuli/objects/chisel02b.jpg,left,old,257,,,,,,,,
,,,,,,,,1,2021-01-22_16h50.01.962,premceCat_ses-02_part-02_label-phase2,2020.2.10,Win32,60,left,2.121,2,0.363,0,29,29,13,1,stimuli/objects/gps.jpg,left,old,157,,,,,,,,
,,,,,,,,1,2021-01-22_16h50.01.962,premceCat_ses-02_part-02_label-phase2,2020.2.10,Win32,60,left,2.203,3,0.763,0,30,30,85,1,stimuli/objects/boxingglove01.jpg,left,old,229,,,,,,,,
,,,,,,,,1,2021-01-22_16h50.01.962,premceCat_ses-02_part-02_label-phase2,2020.2.10,Win32,60,left,1.138,4,0.294,0,31,31,61,1,stimuli/objects/lectern01.jpg,left,old,205,,,,,,,,
,,,,,,,,1,2021-01-22_16h50.01.962,premceCat_ses-02_part-02_label-phase2,2020.2.10,Win32,60,left,1.108,3,0.362,0,32,32,137,1,stimuli/objects/outletadapter.jpg,left,old,281,,,,,,,,
,,,,,,,,1,2021-01-22_16h50.01.962,premceCat_ses-02_part-02_label-phase2,2020.2.10,Win32,60,left,1.038,3,1.322,0,33,33,31,1,stimuli/objects/drillbit03a.jpg,left,old,175,,,,,,,,
,,,,,,,,1,2021-01-22_16h50.01.962,premceCat_ses-02_part-02_label-phase2,2020.2.10,Win32,60,right,2.726,2,0.905,0,34,34,78,1,stimuli/objects/swissarmyknife01a.jpg,right,new,222,,,,,,,,
,,,,,,,,1,2021-01-22_16h50.01.962,premceCat_ses-02_part-02_label-phase2,2020.2.10,Win32,60,right,2.324,1,0.485,0,35,35,90,1,stimuli/objects/leafblower01.jpg,left,old,234,,,,,,,,
,,,,,,,,1,2021-01-22_16h50.01.962,premceCat_ses-02_part-02_label-phase2,2020.2.10,Win32,60,left,8.553,2,0.134,0,36,36,83,1,stimuli/objects/vhstape.jpg,right,new,227,,,,,,,,
,,,,,,,,1,2021-01-22_16h50.01.962,premceCat_ses-02_part-02_label-phase2,2020.2.10,Win32,60,left,2.082,2,1.409,0,37,37,30,1,stimuli/objects/pastaspoon.jpg,right,new,174,,,,,,,,
,,,,,,,,1,2021-01-22_16h50.01.962,premceCat_ses-02_part-02_label-phase2,2020.2.10,Win32,60,left,1.681,3,1.239,0,38,38,57,1,stimuli/objects/jack.jpg,left,old,201,,,,,,,,
,,,,,,,,1,2021-01-22_16h50.01.962,premceCat_ses-02_part-02_label-phase2,2020.2.10,Win32,60,left,5.257,1,0.345,0,39,39,124,1,stimuli/objects/whisk.jpg,right,new,268,,,,,,,,
,,,,,,,,1,2021-01-22_16h50.01.962,premceCat_ses-02_part-02_label-phase2,2020.2.10,Win32,60,right,1.609,3,1.099,0,40,40,135,1,stimuli/objects/teapot.jpg,right,new,279,,,,,,,,
,,,,,,,,1,2021-01-22_16h50.01.962,premceCat_ses-02_part-02_label-phase2,2020.2.10,Win32,60,right,3.48,1,0.262,0,41,41,5,1,stimuli/objects/handgripper.jpg,right,new,149,,,,,,,,
,,,,,,,,1,2021-01-22_16h50.01.962,premceCat_ses-02_part-02_label-phase2,2020.2.10,Win32,60,left,1.211,4,0.667,0,42,42,67,1,stimuli/objects/wineglass01.jpg,left,old,211,,,,,,,,
,,,,,,,,1,2021-01-22_16h50.01.962,premceCat_ses-02_part-02_label-phase2,2020.2.10,Win32,60,right,1.592,3,0.467,0,43,43,94,1,stimuli/objects/microphone01.jpg,right,new,238,,,,,,,,
,,,,,,,,1,2021-01-22_16h50.01.962,premceCat_ses-02_part-02_label-phase2,2020.2.10,Win32,60,right,2.707,2,0.292,0,44,44,26,1,stimuli/objects/backpack01a.jpg,right,new,170,,,,,,,,
,,,,,,,,1,2021-01-22_16h50.01.962,premceCat_ses-02_part-02_label-phase2,2020.2.10,Win32,60,left,3.406,2,0.35,0,45,45,139,1,stimuli/objects/catchermask.jpg,left,old,283,,,,,,,,
,,,,,,,,1,2021-01-22_16h50.01.962,premceCat_ses-02_part-02_label-phase2,2020.2.10,Win32,60,right,1.802,3,1.762,0,46,46,16,1,stimuli/objects/charcoalbarbecue.jpg,right,new,160,,,,,,,,
,,,,,,,,1,2021-01-22_16h50.01.962,premceCat_ses-02_part-02_label-phase2,2020.2.10,Win32,60,left,2.134,4,0.799,0,47,47,126,1,stimuli/objects/toolbox02.jpg,left,old,270,,,,,,,,
,,,,,,,,1,2021-01-22_16h50.01.962,premceCat_ses-02_part-02_label-phase2,2020.2.10,Win32,60,right,2.747,2,0.31,0,48,48,48,1,stimuli/objects/adjustablewrench01b.jpg,right,new,192,,,,,,,,
,,,,,,,,1,2021-01-22_16h50.01.962,premceCat_ses-02_part-02_label-phase2,2020.2.10,Win32,60,left,2.244,2,0.348,0,49,49,121,1,stimuli/objects/chainsaw.jpg,right,new,265,,,,,,,,
,,,,,,,,1,2021-01-22_16h50.01.962,premceCat_ses-02_part-02_label-phase2,2020.2.10,Win32,60,left,3.965,4,0.312,0,50,50,140,1,stimuli/objects/poolnet.jpg,left,old,284,,,,,,,,
,,,,,,,,1,2021-01-22_16h50.01.962,premceCat_ses-02_part-02_label-phase2,2020.2.10,Win32,60,left,1.233,4,0.415,0,51,51,42,1,stimuli/objects/golfbag.jpg,left,old,186,,,,,,,,
,,,,,,,,1,2021-01-22_16h50.01.962,premceCat_ses-02_part-02_label-phase2,2020.2.10,Win32,60,left,1.596,2,0.329,0,52,52,76,1,stimuli/objects/footballhelmet.jpg,right,new,220,,,,,,,,
,,,,,,,,1,2021-01-22_16h50.01.962,premceCat_ses-02_part-02_label-phase2,2020.2.10,Win32,60,left,1.854,3,2.212,0,53,53,52,1,stimuli/objects/fan.jpg,left,old,196,,,,,,,,
,,,,,,,,1,2021-01-22_16h50.01.962,premceCat_ses-02_part-02_label-phase2,2020.2.10,Win32,60,right,1.661,2,0.766,0,54,54,114,1,stimuli/objects/hosenozzle.jpg,left,old,258,,,,,,,,
,,,,,,,,1,2021-01-22_16h50.01.962,premceCat_ses-02_part-02_label-phase2,2020.2.10,Win32,60,left,2.799,2,0.31,0,55,55,131,1,stimuli/objects/hockeygoalieglove.jpg,right,new,275,,,,,,,,
,,,,,,,,1,2021-01-22_16h50.01.962,premceCat_ses-02_part-02_label-phase2,2020.2.10,Win32,60,left,3.916,1,0.379,0,56,56,24,1,stimuli/objects/measuringcup01.jpg,left,old,168,,,,,,,,
,,,,,,,,1,2021-01-22_16h50.01.962,premceCat_ses-02_part-02_label-phase2,2020.2.10,Win32,60,right,2.695,2,0.31,0,57,57,138,1,stimuli/objects/punchingball.jpg,right,new,282,,,,,,,,
,,,,,,,,1,2021-01-22_16h50.01.962,premceCat_ses-02_part-02_label-phase2,2020.2.10,Win32,60,left,1.202,4,0.344,0,58,58,129,1,stimuli/objects/shotglass.jpg,left,old,273,,,,,,,,
,,,,,,,,1,2021-01-22_16h50.01.962,premceCat_ses-02_part-02_label-phase2,2020.2.10,Win32,60,right,3.772,2,0.63,0,59,59,12,1,stimuli/objects/bottleopener01.jpg,right,new,156,,,,,,,,
,,,,,,,,1,2021-01-22_16h50.01.962,premceCat_ses-02_part-02_label-phase2,2020.2.10,Win32,60,left,1.328,4,0.398,0,60,60,8,1,stimuli/objects/eggslicer.jpg,left,old,152,,,,,,,,
,,,,,,,,1,2021-01-22_16h50.01.962,premceCat_ses-02_part-02_label-phase2,2020.2.10,Win32,60,left,0.91,4,0.295,0,61,61,1,1,stimuli/objects/cleaver01.jpg,left,old,145,,,,,,,,
,,,,,,,,1,2021-01-22_16h50.01.962,premceCat_ses-02_part-02_label-phase2,2020.2.10,Win32,60,right,1.369,2,1.356,0,62,62,0,1,stimuli/objects/saw02b.jpg,right,new,144,,,,,,,,
,,,,,,,,1,2021-01-22_16h50.01.962,premceCat_ses-02_part-02_label-phase2,2020.2.10,Win32,60,right,3.006,2,0.536,0,63,63,46,1,stimuli/objects/grater01a.jpg,right,new,190,,,,,,,,
,,,,,,,,1,2021-01-22_16h50.01.962,premceCat_ses-02_part-02_label-phase2,2020.2.10,Win32,60,left,1.76,3,0.383,0,64,64,117,1,stimuli/objects/telephone01b.jpg,left,old,261,,,,,,,,
,,,,,,,,1,2021-01-22_16h50.01.962,premceCat_ses-02_part-02_label-phase2,2020.2.10,Win32,60,left,1.785,2,0.872,0,65,65,33,1,stimuli/objects/hockeystick.jpg,left,old,177,,,,,,,,
,,,,,,,,1,2021-01-22_16h50.01.962,premceCat_ses-02_part-02_label-phase2,2020.2.10,Win32,60,left,4.025,1,0.31,0,66,66,101,1,stimuli/objects/drill01b.jpg,left,old,245,,,,,,,,
,,,,,,,,1,2021-01-22_16h50.01.962,premceCat_ses-02_part-02_label-phase2,2020.2.10,Win32,60,right,3.337,2,0.362,0,67,67,142,1,stimuli/objects/file.jpg,right,new,286,,,,,,,,
,,,,,,,,1,2021-01-22_16h50.01.962,premceCat_ses-02_part-02_label-phase2,2020.2.10,Win32,60,left,3.495,2,0.799,0,68,68,87,1,stimuli/objects/boltcutter.jpg,right,new,231,,,,,,,,
,,,,,,,,1,2021-01-22_16h50.01.962,premceCat_ses-02_part-02_label-phase2,2020.2.10,Win32,60,left,2.432,3,0.87,0,69,69,95,1,stimuli/objects/microwave.jpg,right,new,239,,,,,,,,
,,,,,,,,1,2021-01-22_16h50.01.962,premceCat_ses-02_part-02_label-phase2,2020.2.10,Win32,60,left,3.616,3,0.365,0,70,70,7,1,stimuli/objects/football.jpg,left,old,151,,,,,,,,
,,,,,,,,1,2021-01-22_16h50.01.962,premceCat_ses-02_part-02_label-phase2,2020.2.10,Win32,60,right,1.439,3,1.203,0,71,71,23,1,stimuli/objects/bucket02.jpg,right,new,167,,,,,,,,
,,,,,,,,1,2021-01-22_16h50.01.962,premceCat_ses-02_part-02_label-phase2,2020.2.10,Win32,60,left,1.785,4,0.345,0,72,72,119,1,stimuli/objects/weight01.jpg,left,old,263,,,,,,,,
,,,,,,,,1,2021-01-22_16h50.01.962,premceCat_ses-02_part-02_label-phase2,2020.2.10,Win32,60,left,2.272,4,0.38,0,73,73,20,1,stimuli/objects/handblender.jpg,left,old,164,,,,,,,,
,,,,,,,,1,2021-01-22_16h50.01.962,premceCat_ses-02_part-02_label-phase2,2020.2.10,Win32,60,right,1.384,3,0.382,0,74,74,107,1,stimuli/objects/telescope.jpg,right,new,251,,,,,,,,
,,,,,,,,1,2021-01-22_16h50.01.962,premceCat_ses-02_part-02_label-phase2,2020.2.10,Win32,60,left,4.209,1,0.309,0,75,75,51,1,stimuli/objects/fonduefork01.jpg,right,new,195,,,,,,,,
,,,,,,,,1,2021-01-22_16h50.01.962,premceCat_ses-02_part-02_label-phase2,2020.2.10,Win32,60,right,4.84,3,0.383,0,76,76,130,1,stimuli/objects/snowbrush.jpg,right,new,274,,,,,,,,
,,,,,,,,1,2021-01-22_16h50.01.962,premceCat_ses-02_part-02_label-phase2,2020.2.10,Win32,60,right,1.488,2,0.537,0,77,77,77,1,stimuli/objects/iceskate.jpg,right,new,221,,,,,,,,
,,,,,,,,1,2021-01-22_16h50.01.962,premceCat_ses-02_part-02_label-phase2,2020.2.10,Win32,60,left,1.088,3,0.398,0,78,78,28,1,stimuli/objects/axe01.jpg,left,old,172,,,,,,,,
,,,,,,,,1,2021-01-22_16h50.01.962,premceCat_ses-02_part-02_label-phase2,2020.2.10,Win32,60,right,3.216,2,0.99,0,79,79,44,1,stimuli/objects/dishrack.jpg,right,new,188,,,,,,,,
,,,,,,,,1,2021-01-22_16h50.01.962,premceCat_ses-02_part-02_label-phase2,2020.2.10,Win32,60,left,2.345,1,0.381,0,80,80,88,1,stimuli/objects/cuttingboard.jpg,right,new,232,,,,,,,,
,,,,,,,,1,2021-01-22_16h50.01.962,premceCat_ses-02_part-02_label-phase2,2020.2.10,Win32,60,right,2.308,3,0.676,0,81,81,108,1,stimuli/objects/fishinghook03.jpg,right,new,252,,,,,,,,
,,,,,,,,1,2021-01-22_16h50.01.962,premceCat_ses-02_part-02_label-phase2,2020.2.10,Win32,60,left,1.421,4,0.414,0,82,82,47,1,stimuli/objects/icepack.jpg,left,old,191,,,,,,,,
,,,,,,,,1,2021-01-22_16h50.01.962,premceCat_ses-02_part-02_label-phase2,2020.2.10,Win32,60,right,3.862,2,0.43,0,83,83,141,1,stimuli/objects/boatmotor.jpg,right,new,285,,,,,,,,
,,,,,,,,1,2021-01-22_16h50.01.962,premceCat_ses-02_part-02_label-phase2,2020.2.10,Win32,60,left,1.698,2,0.764,0,84,84,21,1,stimuli/objects/bowrake.jpg,left,old,165,,,,,,,,
,,,,,,,,1,2021-01-22_16h50.01.962,premceCat_ses-02_part-02_label-phase2,2020.2.10,Win32,60,right,1.696,2,0.379,0,85,85,99,1,stimuli/objects/flashlight02b.jpg,right,new,243,,,,,,,,
,,,,,,,,1,2021-01-22_16h50.01.962,premceCat_ses-02_part-02_label-phase2,2020.2.10,Win32,60,right,2.291,2,0.362,0,86,86,120,1,stimuli/objects/wire.jpg,right,new,264,,,,,,,,
,,,,,,,,1,2021-01-22_16h50.01.962,premceCat_ses-02_part-02_label-phase2,2020.2.10,Win32,60,left,1.454,3,0.416,0,87,87,29,1,stimuli/objects/ellipticalmachine.jpg,left,old,173,,,,,,,,
,,,,,,,,1,2021-01-22_16h50.01.962,premceCat_ses-02_part-02_label-phase2,2020.2.10,Win32,60,left,1.157,4,0.347,0,88,88,81,1,stimuli/objects/boxcutter03a.jpg,left,old,225,,,,,,,,
,,,,,,,,1,2021-01-22_16h50.01.962,premceCat_ses-02_part-02_label-phase2,2020.2.10,Win32,60,left,4.159,1,0.432,0,89,89,118,1,stimuli/objects/fanheater.jpg,right,new,262,,,,,,,,
,,,,,,,,1,2021-01-22_16h50.01.962,premceCat_ses-02_part-02_label-phase2,2020.2.10,Win32,60,left,1.229,4,0.38,0,90,90,25,1,stimuli/objects/sledgehammer.jpg,left,old,169,,,,,,,,
,,,,,,,,1,2021-01-22_16h50.01.962,premceCat_ses-02_part-02_label-phase2,2020.2.10,Win32,60,right,4.296,1,0.381,0,91,91,50,1,stimuli/objects/coffeemaker.jpg,right,new,194,,,,,,,,
,,,,,,,,1,2021-01-22_16h50.01.962,premceCat_ses-02_part-02_label-phase2,2020.2.10,Win32,60,left,1.994,2,0.486,0,92,92,15,1,stimuli/objects/jug.jpg,right,new,159,,,,,,,,
,,,,,,,,1,2021-01-22_16h50.01.962,premceCat_ses-02_part-02_label-phase2,2020.2.10,Win32,60,left,1.207,4,0.554,0,93,93,45,1,stimuli/objects/gastank.jpg,left,old,189,,,,,,,,
,,,,,,,,1,2021-01-22_16h50.01.962,premceCat_ses-02_part-02_label-phase2,2020.2.10,Win32,60,left,1.731,3,0.364,0,94,94,96,1,stimuli/objects/jumpercables.jpg,left,old,240,,,,,,,,
,,,,,,,,1,2021-01-22_16h50.01.962,premceCat_ses-02_part-02_label-phase2,2020.2.10,Win32,60,left,0.863,3,0.641,0,95,95,27,1,stimuli/objects/dolly01.jpg,left,old,171,,,,,,,,
,,,,,,,,1,2021-01-22_16h50.01.962,premceCat_ses-02_part-02_label-phase2,2020.2.10,Win32,60,left,1.034,4,0.345,0,96,96,110,1,stimuli/objects/ramekin01.jpg,left,old,254,,,,,,,,
,,,,,,,,1,2021-01-22_16h50.01.962,premceCat_ses-02_part-02_label-phase2,2020.2.10,Win32,60,right,4.753,2,0.535,0,97,97,49,1,stimuli/objects/jigsaw.jpg,right,new,193,,,,,,,,
,,,,,,,,1,2021-01-22_16h50.01.962,premceCat_ses-02_part-02_label-phase2,2020.2.10,Win32,60,left,1.122,4,0.572,0,98,98,22,1,stimuli/objects/radio01.jpg,left,old,166,,,,,,,,
,,,,,,,,1,2021-01-22_16h50.01.962,premceCat_ses-02_part-02_label-phase2,2020.2.10,Win32,60,left,1.067,4,0.365,0,99,99,14,1,stimuli/objects/rope03.jpg,left,old,158,,,,,,,,
,,,,,,,,1,2021-01-22_16h50.01.962,premceCat_ses-02_part-02_label-phase2,2020.2.10,Win32,60,right,1.873,2,0.327,0,100,100,2,1,stimuli/objects/carlighter02.jpg,right,new,146,,,,,,,,
,,,,,,,,1,2021-01-22_16h50.01.962,premceCat_ses-02_part-02_label-phase2,2020.2.10,Win32,60,left,1.016,4,0.351,0,101,101,62,1,stimuli/objects/sewingmachine01a.jpg,left,old,206,,,,,,,,
,,,,,,,,1,2021-01-22_16h50.01.962,premceCat_ses-02_part-02_label-phase2,2020.2.10,Win32,60,left,1.207,3,0.676,0,102,102,4,1,stimuli/objects/leafrake.jpg,right,new,148,,,,,,,,
,,,,,,,,1,2021-01-22_16h50.01.962,premceCat_ses-02_part-02_label-phase2,2020.2.10,Win32,60,left,1.809,3,0.468,0,103,103,53,1,stimuli/objects/gluetube.jpg,left,old,197,,,,,,,,
,,,,,,,,1,2021-01-22_16h50.01.962,premceCat_ses-02_part-02_label-phase2,2020.2.10,Win32,60,right,3.221,1,0.294,0,104,104,70,1,stimuli/objects/butterknife.jpg,left,old,214,,,,,,,,
,,,,,,,,1,2021-01-22_16h50.01.962,premceCat_ses-02_part-02_label-phase2,2020.2.10,Win32,60,left,2.185,1,0.413,0,105,105,3,1,stimuli/objects/wirestripper.jpg,right,new,147,,,,,,,,
,,,,,,,,1,2021-01-22_16h50.01.962,premceCat_ses-02_part-02_label-phase2,2020.2.10,Win32,60,right,2.463,1,0.297,0,106,106,125,1,stimuli/objects/travelmug.jpg,left,old,269,,,,,,,,
,,,,,,,,1,2021-01-22_16h50.01.962,premceCat_ses-02_part-02_label-phase2,2020.2.10,Win32,60,left,1.353,3,0.346,0,107,107,80,1,stimuli/objects/downhillski.jpg,left,old,224,,,,,,,,
,,,,,,,,1,2021-01-22_16h50.01.962,premceCat_ses-02_part-02_label-phase2,2020.2.10,Win32,60,right,1.717,2,0.851,0,108,108,40,1,stimuli/objects/nailgun.jpg,right,new,184,,,,,,,,
,,,,,,,,1,2021-01-22_16h50.01.962,premceCat_ses-02_part-02_label-phase2,2020.2.10,Win32,60,right,1.755,2,2.317,0,109,109,68,1,stimuli/objects/jackhammer.jpg,right,new,212,,,,,,,,
,,,,,,,,1,2021-01-22_16h50.01.962,premceCat_ses-02_part-02_label-phase2,2020.2.10,Win32,60,right,3.825,2,0.38,0,110,110,98,1,stimuli/objects/phonejack.jpg,right,new,242,,,,,,,,
,,,,,,,,1,2021-01-22_16h50.01.962,premceCat_ses-02_part-02_label-phase2,2020.2.10,Win32,60,left,1.003,4,0.534,0,111,111,71,1,stimuli/objects/staplegun.jpg,left,old,215,,,,,,,,
,,,,,,,,1,2021-01-22_16h50.01.962,premceCat_ses-02_part-02_label-phase2,2020.2.10,Win32,60,left,3.006,1,0.413,0,112,112,109,1,stimuli/objects/knifesharpener.jpg,right,new,253,,,,,,,,
,,,,,,,,1,2021-01-22_16h50.01.962,premceCat_ses-02_part-02_label-phase2,2020.2.10,Win32,60,right,3.234,3,1.827,0,113,113,82,1,stimuli/objects/carantenna.jpg,right,new,226,,,,,,,,
,,,,,,,,1,2021-01-22_16h50.01.962,premceCat_ses-02_part-02_label-phase2,2020.2.10,Win32,60,left,2.764,4,1.098,0,114,114,93,1,stimuli/objects/espressomachine.jpg,left,old,237,,,,,,,,
,,,,,,,,1,2021-01-22_16h50.01.962,premceCat_ses-02_part-02_label-phase2,2020.2.10,Win32,60,left,4.873,2,0.676,0,115,115,132,1,stimuli/objects/cooler01.jpg,left,old,276,,,,,,,,
,,,,,,,,1,2021-01-22_16h50.01.962,premceCat_ses-02_part-02_label-phase2,2020.2.10,Win32,60,right,1.212,1,0.748,0,116,116,39,1,stimuli/objects/beachumbrella01.jpg,right,new,183,,,,,,,,
,,,,,,,,1,2021-01-22_16h50.01.962,premceCat_ses-02_part-02_label-phase2,2020.2.10,Win32,60,left,3.759,2,0.33,0,117,117,84,1,stimuli/objects/solderingwire.jpg,left,old,228,,,,,,,,
,,,,,,,,1,2021-01-22_16h50.01.962,premceCat_ses-02_part-02_label-phase2,2020.2.10,Win32,60,left,1.957,2,0.432,0,118,118,73,1,stimuli/objects/pitchfork.jpg,left,old,217,,,,,,,,
,,,,,,,,1,2021-01-22_16h50.01.962,premceCat_ses-02_part-02_label-phase2,2020.2.10,Win32,60,left,2.735,1,0.414,0,119,119,127,1,stimuli/objects/airconditioner.jpg,right,new,271,,,,,,,,
,,,,,,,,1,2021-01-22_16h50.01.962,premceCat_ses-02_part-02_label-phase2,2020.2.10,Win32,60,right,2.604,1,0.259,0,120,120,59,1,stimuli/objects/shovel01.jpg,right,new,203,,,,,,,,
,,,,,,,,1,2021-01-22_16h50.01.962,premceCat_ses-02_part-02_label-phase2,2020.2.10,Win32,60,right,2.063,1,0.537,0,121,121,10,1,stimuli/objects/toyhockeystick01.jpg,right,new,154,,,,,,,,
,,,,,,,,1,2021-01-22_16h50.01.962,premceCat_ses-02_part-02_label-phase2,2020.2.10,Win32,60,left,1.888,2,0.921,0,122,122,55,1,stimuli/objects/hockeypuck.jpg,right,new,199,,,,,,,,
,,,,,,,,1,2021-01-22_16h50.01.962,premceCat_ses-02_part-02_label-phase2,2020.2.10,Win32,60,left,1.399,3,0.362,0,123,123,19,1,stimuli/objects/bikehelmet.jpg,right,new,163,,,,,,,,
,,,,,,,,1,2021-01-22_16h50.01.962,premceCat_ses-02_part-02_label-phase2,2020.2.10,Win32,60,left,4.403,2,0.348,0,124,124,6,1,stimuli/objects/binoculars01b.jpg,right,new,150,,,,,,,,
,,,,,,,,1,2021-01-22_16h50.01.962,premceCat_ses-02_part-02_label-phase2,2020.2.10,Win32,60,left,1.122,4,1.184,0,125,125,103,1,stimuli/objects/shinpad.jpg,left,old,247,,,,,,,,
,,,,,,,,1,2021-01-22_16h50.01.962,premceCat_ses-02_part-02_label-phase2,2020.2.10,Win32,60,right,4.453,1,0.396,0,126,126,128,1,stimuli/objects/funnel.jpg,right,new,272,,,,,,,,
,,,,,,,,1,2021-01-22_16h50.01.962,premceCat_ses-02_part-02_label-phase2,2020.2.10,Win32,60,right,2.237,2,0.398,0,127,127,122,1,stimuli/objects/faxmachine.jpg,right,new,266,,,,,,,,
,,,,,,,,1,2021-01-22_16h50.01.962,premceCat_ses-02_part-02_label-phase2,2020.2.10,Win32,60,left,2.099,2,0.851,0,128,128,54,1,stimuli/objects/alarmsystem.jpg,right,new,198,,,,,,,,
,,,,,,,,1,2021-01-22_16h50.01.962,premceCat_ses-02_part-02_label-phase2,2020.2.10,Win32,60,left,1.301,4,0.35,0,129,129,60,1,stimuli/objects/kneepad01c.jpg,left,old,204,,,,,,,,
,,,,,,,,1,2021-01-22_16h50.01.962,premceCat_ses-02_part-02_label-phase2,2020.2.10,Win32,60,left,1.464,3,1.2,0,130,130,104,1,stimuli/objects/bottlecap.jpg,left,old,248,,,,,,,,
,,,,,,,,1,2021-01-22_16h50.01.962,premceCat_ses-02_part-02_label-phase2,2020.2.10,Win32,60,right,3.495,2,0.414,0,131,131,43,1,stimuli/objects/exercisebike.jpg,right,new,187,,,,,,,,
,,,,,,,,1,2021-01-22_16h50.01.962,premceCat_ses-02_part-02_label-phase2,2020.2.10,Win32,60,right,5.401,1,0.99,0,132,132,74,1,stimuli/objects/videocamera01a.jpg,right,new,218,,,,,,,,
,,,,,,,,1,2021-01-22_16h50.01.962,premceCat_ses-02_part-02_label-phase2,2020.2.10,Win32,60,left,1.089,3,0.274,0,133,133,56,1,stimuli/objects/treadmill.jpg,left,old,200,,,,,,,,
,,,,,,,,1,2021-01-22_16h50.01.962,premceCat_ses-02_part-02_label-phase2,2020.2.10,Win32,60,left,2.692,2,0.397,0,134,134,100,1,stimuli/objects/peppermill02b.jpg,left,old,244,,,,,,,,
,,,,,,,,1,2021-01-22_16h50.01.962,premceCat_ses-02_part-02_label-phase2,2020.2.10,Win32,60,left,1.523,3,0.257,0,135,135,105,1,stimuli/objects/printer02.jpg,left,old,249,,,,,,,,
,,,,,,,,1,2021-01-22_16h50.01.962,premceCat_ses-02_part-02_label-phase2,2020.2.10,Win32,60,left,3.722,1,1.171,0,136,136,86,1,stimuli/objects/tennisracket.jpg,right,new,230,,,,,,,,
,,,,,,,,1,2021-01-22_16h50.01.962,premceCat_ses-02_part-02_label-phase2,2020.2.10,Win32,60,left,3.146,3,0.331,0,137,137,72,1,stimuli/objects/photocopier.jpg,left,old,216,,,,,,,,
,,,,,,,,1,2021-01-22_16h50.01.962,premceCat_ses-02_part-02_label-phase2,2020.2.10,Win32,60,right,2.202,1,1.201,0,138,138,36,1,stimuli/objects/gasburner.jpg,right,new,180,,,,,,,,
,,,,,,,,1,2021-01-22_16h50.01.962,premceCat_ses-02_part-02_label-phase2,2020.2.10,Win32,60,left,1.819,2,0.345,0,139,139,64,1,stimuli/objects/tupperware03a.jpg,left,old,208,,,,,,,,
,,,,,,,,1,2021-01-22_16h50.01.962,premceCat_ses-02_part-02_label-phase2,2020.2.10,Win32,60,left,1.608,4,1.128,0,140,140,38,1,stimuli/objects/filmroll.jpg,left,old,182,,,,,,,,
,,,,,,,,1,2021-01-22_16h50.01.962,premceCat_ses-02_part-02_label-phase2,2020.2.10,Win32,60,left,0.931,4,0.345,0,141,141,102,1,stimuli/objects/tent.jpg,left,old,246,,,,,,,,
,,,,,,,,1,2021-01-22_16h50.01.962,premceCat_ses-02_part-02_label-phase2,2020.2.10,Win32,60,left,1.193,2,0.299,0,142,142,58,1,stimuli/objects/glass02a.jpg,left,old,202,,,,,,,,
,,,,,,,,1,2021-01-22_16h50.01.962,premceCat_ses-02_part-02_label-phase2,2020.2.10,Win32,60,,,,,,,,,,,,,,space,53.534,0,0,0,1,1,condition_files/ImagesforRecog2_2.csv
,,,,,,,,1,2021-01-22_16h50.01.962,premceCat_ses-02_part-02_label-phase2,2020.2.10,Win32,60,right,6.567,1,0.869,0,0,0,109,1,stimuli/objects/computerkeyboard02.jpg,right,new,110,,,,,,,,
,,,,,,,,1,2021-01-22_16h50.01.962,premceCat_ses-02_part-02_label-phase2,2020.2.10,Win32,60,left,1.923,2,0.552,0,1,1,60,1,stimuli/objects/plate01b.jpg,right,new,61,,,,,,,,
,,,,,,,,1,2021-01-22_16h50.01.962,premceCat_ses-02_part-02_label-phase2,2020.2.10,Win32,60,right,1.349,2,0.589,0,2,2,83,1,stimuli/objects/contactlens.jpg,right,new,84,,,,,,,,
,,,,,,,,1,2021-01-22_16h50.01.962,premceCat_ses-02_part-02_label-phase2,2020.2.10,Win32,60,left,6.342,1,0.295,0,3,3,55,1,stimuli/objects/snowblower.jpg,right,new,56,,,,,,,,
,,,,,,,,1,2021-01-22_16h50.01.962,premceCat_ses-02_part-02_label-phase2,2020.2.10,Win32,60,right,1.543,3,0.519,0,4,4,51,1,stimuli/objects/walkietalkie.jpg,right,new,52,,,,,,,,
,,,,,,,,1,2021-01-22_16h50.01.962,premceCat_ses-02_part-02_label-phase2,2020.2.10,Win32,60,left,2.098,2,1.027,0,5,5,58,1,stimuli/objects/weedwacker.jpg,left,old,59,,,,,,,,
,,,,,,,,1,2021-01-22_16h50.01.962,premceCat_ses-02_part-02_label-phase2,2020.2.10,Win32,60,left,1.104,4,0.367,0,6,6,118,1,stimuli/objects/aircompressor.jpg,left,old,119,,,,,,,,
,,,,,,,,1,2021-01-22_16h50.01.962,premceCat_ses-02_part-02_label-phase2,2020.2.10,Win32,60,right,1.487,2,0.605,0,7,7,25,1,stimuli/objects/bikepump01.jpg,right,new,26,,,,,,,,
,,,,,,,,1,2021-01-22_16h50.01.962,premceCat_ses-02_part-02_label-phase2,2020.2.10,Win32,60,left,2.012,1,0.258,0,8,8,133,1,stimuli/objects/avcable.jpg,right,new,134,,,,,,,,
,,,,,,,,1,2021-01-22_16h50.01.962,premceCat_ses-02_part-02_label-phase2,2020.2.10,Win32,60,right,1.295,3,0.331,0,9,9,50,1,stimuli/objects/wateringcan.jpg,right,new,51,,,,,,,,
,,,,,,,,1,2021-01-22_16h50.01.962,premceCat_ses-02_part-02_label-phase2,2020.2.10,Win32,60,right,1.608,3,1.273,0,10,10,59,1,stimuli/objects/dvdplayer.jpg,right,new,60,,,,,,,,
,,,,,,,,1,2021-01-22_16h50.01.962,premceCat_ses-02_part-02_label-phase2,2020.2.10,Win32,60,left,5.379,2,0.275,0,11,11,8,1,stimuli/objects/toothpick02.jpg,left,old,9,,,,,,,,
,,,,,,,,1,2021-01-22_16h50.01.962,premceCat_ses-02_part-02_label-phase2,2020.2.10,Win32,60,left,2.971,1,0.328,0,12,12,66,1,stimuli/objects/tablesaw.jpg,right,new,67,,,,,,,,
,,,,,,,,1,2021-01-22_16h50.01.962,premceCat_ses-02_part-02_label-phase2,2020.2.10,Win32,60,left,1.193,4,1.182,0,13,13,104,1,stimuli/objects/kitchenscale01a.jpg,left,old,105,,,,,,,,
,,,,,,,,1,2021-01-22_16h50.01.962,premceCat_ses-02_part-02_label-phase2,2020.2.10,Win32,60,left,1.365,4,0.331,0,14,14,84,1,stimuli/objects/paintbrush01.jpg,left,old,85,,,,,,,,
,,,,,,,,1,2021-01-22_16h50.01.962,premceCat_ses-02_part-02_label-phase2,2020.2.10,Win32,60,left,1.35,2,1.451,0,15,15,21,1,stimuli/objects/measuringspoon.jpg,right,new,22,,,,,,,,
,,,,,,,,1,2021-01-22_16h50.01.962,premceCat_ses-02_part-02_label-phase2,2020.2.10,Win32,60,left,1.228,2,0.361,0,16,16,65,1,stimuli/objects/cellphone.jpg,left,old,66,,,,,,,,
,,,,,,,,1,2021-01-22_16h50.01.962,premceCat_ses-02_part-02_label-phase2,2020.2.10,Win32,60,right,1.907,2,1.113,0,17,17,46,1,stimuli/objects/sportbag.jpg,right,new,47,,,,,,,,
,,,,,,,,1,2021-01-22_16h50.01.962,premceCat_ses-02_part-02_label-phase2,2020.2.10,Win32,60,right,1.612,3,0.365,0,18,18,106,1,stimuli/objects/towel01.jpg,right,new,107,,,,,,,,
,,,,,,,,1,2021-01-22_16h50.01.962,premceCat_ses-02_part-02_label-phase2,2020.2.10,Win32,60,right,2.951,1,0.436,0,19,19,100,1,stimuli/objects/pot01.jpg,right,new,101,,,,,,,,
,,,,,,,,1,2021-01-22_16h50.01.962,premceCat_ses-02_part-02_label-phase2,2020.2.10,Win32,60,right,1.453,3,0.556,0,20,20,80,1,stimuli/objects/fanblades.jpg,right,new,81,,,,,,,,
,,,,,,,,1,2021-01-22_16h50.01.962,premceCat_ses-02_part-02_label-phase2,2020.2.10,Win32,60,left,1.94,2,0.327,0,21,21,56,1,stimuli/objects/soundmixer.jpg,left,old,57,,,,,,,,
,,,,,,,,1,2021-01-22_16h50.01.962,premceCat_ses-02_part-02_label-phase2,2020.2.10,Win32,60,right,2.796,2,0.589,0,22,22,13,1,stimuli/objects/cookingpot.jpg,right,new,14,,,,,,,,
,,,,,,,,1,2021-01-22_16h50.01.962,premceCat_ses-02_part-02_label-phase2,2020.2.10,Win32,60,right,5.588,2,0.468,0,23,23,119,1,stimuli/objects/crocodileclips.jpg,right,new,120,,,,,,,,
,,,,,,,,1,2021-01-22_16h50.01.962,premceCat_ses-02_part-02_label-phase2,2020.2.10,Win32,60,left,2.171,2,1.131,0,24,24,26,1,stimuli/objects/hockeygoaliepad.jpg,right,new,27,,,,,,,,
,,,,,,,,1,2021-01-22_16h50.01.962,premceCat_ses-02_part-02_label-phase2,2020.2.10,Win32,60,right,1.65,3,0.487,0,25,25,126,1,stimuli/objects/swing.jpg,right,new,127,,,,,,,,
,,,,,,,,1,2021-01-22_16h50.01.962,premceCat_ses-02_part-02_label-phase2,2020.2.10,Win32,60,right,2.274,1,0.572,0,26,26,128,1,stimuli/objects/bastingbrush.jpg,right,new,129,,,,,,,,
,,,,,,,,1,2021-01-22_16h50.01.962,premceCat_ses-02_part-02_label-phase2,2020.2.10,Win32,60,right,4.385,1,0.309,0,27,27,9,1,stimuli/objects/shopvac.jpg,right,new,10,,,,,,,,
,,,,,,,,1,2021-01-22_16h50.01.962,premceCat_ses-02_part-02_label-phase2,2020.2.10,Win32,60,left,1.249,3,0.329,0,28,28,77,1,stimuli/objects/stroller.jpg,left,old,78,,,,,,,,
,,,,,,,,1,2021-01-22_16h50.01.962,premceCat_ses-02_part-02_label-phase2,2020.2.10,Win32,60,right,1.118,3,1.375,0,29,29,96,1,stimuli/objects/chandelier.jpg,right,new,97,,,,,,,,
,,,,,,,,1,2021-01-22_16h50.01.962,premceCat_ses-02_part-02_label-phase2,2020.2.10,Win32,60,left,2.693,4,1.306,0,30,30,27,1,stimuli/objects/propanetank01.jpg,left,old,28,,,,,,,,
,,,,,,,,1,2021-01-22_16h50.01.962,premceCat_ses-02_part-02_label-phase2,2020.2.10,Win32,60,left,3.672,1,0.989,0,31,31,17,1,stimuli/objects/basketballhoop01.jpg,right,new,18,,,,,,,,
,,,,,,,,1,2021-01-22_16h50.01.962,premceCat_ses-02_part-02_label-phase2,2020.2.10,Win32,60,left,1.301,4,0.343,0,32,32,15,1,stimuli/objects/ladder.jpg,left,old,16,,,,,,,,
,,,,,,,,1,2021-01-22_16h50.01.962,premceCat_ses-02_part-02_label-phase2,2020.2.10,Win32,60,right,1.418,2,0.747,0,33,33,30,1,stimuli/objects/satellitedish01.jpg,right,new,31,,,,,,,,
,,,,,,,,1,2021-01-22_16h50.01.962,premceCat_ses-02_part-02_label-phase2,2020.2.10,Win32,60,left,1.087,4,0.346,0,34,34,31,1,stimuli/objects/filmnegative.jpg,left,old,32,,,,,,,,
,,,,,,,,1,2021-01-22_16h50.01.962,premceCat_ses-02_part-02_label-phase2,2020.2.10,Win32,60,left,2.623,1,0.274,0,35,35,19,1,stimuli/objects/coffeepot03a.jpg,right,new,20,,,,,,,,
,,,,,,,,1,2021-01-22_16h50.01.962,premceCat_ses-02_part-02_label-phase2,2020.2.10,Win32,60,left,1.592,2,0.401,0,36,36,22,1,stimuli/objects/rollerblade.jpg,right,new,23,,,,,,,,
,,,,,,,,1,2021-01-22_16h50.01.962,premceCat_ses-02_part-02_label-phase2,2020.2.10,Win32,60,right,3.984,1,0.641,0,37,37,116,1,stimuli/objects/spoon01.jpg,right,new,117,,,,,,,,
,,,,,,,,1,2021-01-22_16h50.01.962,premceCat_ses-02_part-02_label-phase2,2020.2.10,Win32,60,right,2.762,1,0.416,0,38,38,81,1,stimuli/objects/tripod01.jpg,right,new,82,,,,,,,,
,,,,,,,,1,2021-01-22_16h50.01.962,premceCat_ses-02_part-02_label-phase2,2020.2.10,Win32,60,right,3.86,1,0.259,0,39,39,54,1,stimuli/objects/cashregister01.jpg,right,new,55,,,,,,,,
,,,,,,,,1,2021-01-22_16h50.01.962,premceCat_ses-02_part-02_label-phase2,2020.2.10,Win32,60,left,6.844,2,0.536,0,40,40,49,1,stimuli/objects/gravyboat.jpg,left,old,50,,,,,,,,
,,,,,,,,1,2021-01-22_16h50.01.962,premceCat_ses-02_part-02_label-phase2,2020.2.10,Win32,60,right,2.515,1,0.659,0,41,41,90,1,stimuli/objects/canister.jpg,right,new,91,,,,,,,,
,,,,,,,,1,2021-01-22_16h50.01.962,premceCat_ses-02_part-02_label-phase2,2020.2.10,Win32,60,right,2.572,1,0.504,0,42,42,93,1,stimuli/objects/payphone.jpg,right,new,94,,,,,,,,
,,,,,,,,1,2021-01-22_16h50.01.962,premceCat_ses-02_part-02_label-phase2,2020.2.10,Win32,60,right,1.257,3,0.435,0,43,43,108,1,stimuli/objects/pylon01.jpg,right,new,109,,,,,,,,
,,,,,,,,1,2021-01-22_16h50.01.962,premceCat_ses-02_part-02_label-phase2,2020.2.10,Win32,60,right,4.137,2,0.329,0,44,44,139,1,stimuli/objects/solderingiron.jpg,right,new,140,,,,,,,,
,,,,,,,,1,2021-01-22_16h50.01.962,premceCat_ses-02_part-02_label-phase2,2020.2.10,Win32,60,left,3.963,1,0.239,0,45,45,120,1,stimuli/objects/scanner.jpg,left,old,121,,,,,,,,
,,,,,,,,1,2021-01-22_16h50.01.962,premceCat_ses-02_part-02_label-phase2,2020.2.10,Win32,60,left,1.501,3,0.571,0,46,46,122,1,stimuli/objects/waterbottleholder.jpg,left,old,123,,,,,,,,
,,,,,,,,1,2021-01-22_16h50.01.962,premceCat_ses-02_part-02_label-phase2,2020.2.10,Win32,60,left,1.609,4,0.363,0,47,47,74,1,stimuli/objects/podium.jpg,left,old,75,,,,,,,,
,,,,,,,,1,2021-01-22_16h50.01.962,premceCat_ses-02_part-02_label-phase2,2020.2.10,Win32,60,left,1.294,2,0.378,0,48,48,132,1,stimuli/objects/soccerball.jpg,left,old,133,,,,,,,,
,,,,,,,,1,2021-01-22_16h50.01.962,premceCat_ses-02_part-02_label-phase2,2020.2.10,Win32,60,right,2.903,2,0.38,0,49,49,42,1,stimuli/objects/anchor.jpg,right,new,43,,,,,,,,
,,,,,,,,1,2021-01-22_16h50.01.962,premceCat_ses-02_part-02_label-phase2,2020.2.10,Win32,60,left,1.121,4,1.653,0,50,50,70,1,stimuli/objects/camera01a.jpg,left,old,71,,,,,,,,
,,,,,,,,1,2021-01-22_16h50.01.962,premceCat_ses-02_part-02_label-phase2,2020.2.10,Win32,60,left,1.227,3,0.816,0,51,51,47,1,stimuli/objects/icescraper.jpg,left,old,48,,,,,,,,
,,,,,,,,1,2021-01-22_16h50.01.962,premceCat_ses-02_part-02_label-phase2,2020.2.10,Win32,60,right,3.197,2,0.712,0,52,52,43,1,stimuli/objects/lifejacket.jpg,right,new,44,,,,,,,,
,,,,,,,,1,2021-01-22_16h50.01.962,premceCat_ses-02_part-02_label-phase2,2020.2.10,Win32,60,left,1.086,2,0.486,0,53,53,92,1,stimuli/objects/pliers02b.jpg,right,new,93,,,,,,,,
,,,,,,,,1,2021-01-22_16h50.01.962,premceCat_ses-02_part-02_label-phase2,2020.2.10,Win32,60,right,6.378,1,0.797,0,54,54,86,1,stimuli/objects/styrofoamcup.jpg,right,new,87,,,,,,,,
,,,,,,,,1,2021-01-22_16h50.01.962,premceCat_ses-02_part-02_label-phase2,2020.2.10,Win32,60,left,1.961,3,0.536,0,55,55,29,1,stimuli/objects/ceilingspeaker.jpg,left,old,30,,,,,,,,
,,,,,,,,1,2021-01-22_16h50.01.962,premceCat_ses-02_part-02_label-phase2,2020.2.10,Win32,60,left,0.965,4,1.147,0,56,56,52,1,stimuli/objects/kite.jpg,left,old,53,,,,,,,,
,,,,,,,,1,2021-01-22_16h50.01.962,premceCat_ses-02_part-02_label-phase2,2020.2.10,Win32,60,left,1.209,3,0.415,0,57,57,3,1,stimuli/objects/cameracase01a.jpg,left,old,4,,,,,,,,
,,,,,,,,1,2021-01-22_16h50.01.962,premceCat_ses-02_part-02_label-phase2,2020.2.10,Win32,60,right,1.575,2,0.397,0,58,58,117,1,stimuli/objects/ipad02.jpg,right,new,118,,,,,,,,
,,,,,,,,1,2021-01-22_16h50.01.962,premceCat_ses-02_part-02_label-phase2,2020.2.10,Win32,60,left,1.766,3,0.712,0,59,59,75,1,stimuli/objects/puttyknife.jpg,right,new,76,,,,,,,,
,,,,,,,,1,2021-01-22_16h50.01.962,premceCat_ses-02_part-02_label-phase2,2020.2.10,Win32,60,right,4.718,2,0.552,0,60,60,20,1,stimuli/objects/walkman.jpg,right,new,21,,,,,,,,
,,,,,,,,1,2021-01-22_16h50.01.962,premceCat_ses-02_part-02_label-phase2,2020.2.10,Win32,60,left,1.872,2,0.432,0,61,61,114,1,stimuli/objects/extensioncord.jpg,left,old,115,,,,,,,,
,,,,,,,,1,2021-01-22_16h50.01.962,premceCat_ses-02_part-02_label-phase2,2020.2.10,Win32,60,left,3.619,1,0.328,0,62,62,69,1,stimuli/objects/backfloat.jpg,left,old,70,,,,,,,,
,,,,,,,,1,2021-01-22_16h50.01.962,premceCat_ses-02_part-02_label-phase2,2020.2.10,Win32,60,left,2.047,3,0.367,0,63,63,79,1,stimuli/objects/toasteroven.jpg,left,old,80,,,,,,,,
,,,,,,,,1,2021-01-22_16h50.01.962,premceCat_ses-02_part-02_label-phase2,2020.2.10,Win32,60,left,8.677,1,1.62,0,64,64,103,1,stimuli/objects/wiicontroller.jpg,left,old,104,,,,,,,,
,,,,,,,,1,2021-01-22_16h50.01.962,premceCat_ses-02_part-02_label-phase2,2020.2.10,Win32,60,left,2.046,2,0.729,0,65,65,94,1,stimuli/objects/corkscrew03a.jpg,right,new,95,,,,,,,,
,,,,,,,,1,2021-01-22_16h50.01.962,premceCat_ses-02_part-02_label-phase2,2020.2.10,Win32,60,left,4.823,2,0.66,0,66,66,64,1,stimuli/objects/huntingknife.jpg,left,old,65,,,,,,,,
,,,,,,,,1,2021-01-22_16h50.01.962,premceCat_ses-02_part-02_label-phase2,2020.2.10,Win32,60,left,1.696,1,0.38,0,67,67,23,1,stimuli/objects/volleyball.jpg,right,new,24,,,,,,,,
,,,,,,,,1,2021-01-22_16h50.01.962,premceCat_ses-02_part-02_label-phase2,2020.2.10,Win32,60,right,2.341,1,0.314,0,68,68,89,1,stimuli/objects/jumpingjack.jpg,right,new,90,,,,,,,,
,,,,,,,,1,2021-01-22_16h50.01.962,premceCat_ses-02_part-02_label-phase2,2020.2.10,Win32,60,right,4.612,2,0.623,0,69,69,142,1,stimuli/objects/spotlight.jpg,left,old,143,,,,,,,,
,,,,,,,,1,2021-01-22_16h50.01.962,premceCat_ses-02_part-02_label-phase2,2020.2.10,Win32,60,left,1.277,1,0.35,0,70,70,141,1,stimuli/objects/skiboot01a.jpg,right,new,142,,,,,,,,
,,,,,,,,1,2021-01-22_16h50.01.962,premceCat_ses-02_part-02_label-phase2,2020.2.10,Win32,60,left,1.201,4,0.326,0,71,71,102,1,stimuli/objects/wafflemaker.jpg,left,old,103,,,,,,,,
,,,,,,,,1,2021-01-22_16h50.01.962,premceCat_ses-02_part-02_label-phase2,2020.2.10,Win32,60,left,1.207,4,0.293,0,72,72,137,1,stimuli/objects/gymnasticring.jpg,left,old,138,,,,,,,,
,,,,,,,,1,2021-01-22_16h50.01.962,premceCat_ses-02_part-02_label-phase2,2020.2.10,Win32,60,right,1.259,2,1.129,0,73,73,57,1,stimuli/objects/dvdcase01.jpg,right,new,58,,,,,,,,
,,,,,,,,1,2021-01-22_16h50.01.962,premceCat_ses-02_part-02_label-phase2,2020.2.10,Win32,60,left,1.104,3,0.658,0,74,74,48,1,stimuli/objects/lawnmower.jpg,left,old,49,,,,,,,,
,,,,,,,,1,2021-01-22_16h50.01.962,premceCat_ses-02_part-02_label-phase2,2020.2.10,Win32,60,right,1.556,1,0.536,0,75,75,134,1,stimuli/objects/television.jpg,right,new,135,,,,,,,,
,,,,,,,,1,2021-01-22_16h50.01.962,premceCat_ses-02_part-02_label-phase2,2020.2.10,Win32,60,left,1.476,4,0.316,0,76,76,95,1,stimuli/objects/snowman.jpg,left,old,96,,,,,,,,
,,,,,,,,1,2021-01-22_16h50.01.962,premceCat_ses-02_part-02_label-phase2,2020.2.10,Win32,60,left,1.084,4,0.867,0,77,77,1,1,stimuli/objects/bikewheel.jpg,left,old,2,,,,,,,,
,,,,,,,,1,2021-01-22_16h50.01.962,premceCat_ses-02_part-02_label-phase2,2020.2.10,Win32,60,left,0.874,4,0.222,0,78,78,2,1,stimuli/objects/beermug01a.jpg,left,old,3,,,,,,,,
,,,,,,,,1,2021-01-22_16h50.01.962,premceCat_ses-02_part-02_label-phase2,2020.2.10,Win32,60,right,1.349,2,2.628,0,79,79,125,1,stimuli/objects/diaperbag.jpg,right,new,126,,,,,,,,
,,,,,,,,1,2021-01-22_16h50.01.962,premceCat_ses-02_part-02_label-phase2,2020.2.10,Win32,60,left,2.258,1,0.903,0,80,80,34,1,stimuli/objects/level03a.jpg,left,old,35,,,,,,,,
,,,,,,,,1,2021-01-22_16h50.01.962,premceCat_ses-02_part-02_label-phase2,2020.2.10,Win32,60,left,0.898,4,0.419,0,81,81,97,1,stimuli/objects/birdie.jpg,left,old,98,,,,,,,,
,,,,,,,,1,2021-01-22_16h50.01.962,premceCat_ses-02_part-02_label-phase2,2020.2.10,Win32,60,left,1.103,3,0.331,0,82,82,0,1,stimuli/objects/expansioncard.jpg,left,old,1,,,,,,,,
,,,,,,,,1,2021-01-22_16h50.01.962,premceCat_ses-02_part-02_label-phase2,2020.2.10,Win32,60,left,0.945,3,0.764,0,83,83,140,1,stimuli/objects/muffintray01.jpg,left,old,141,,,,,,,,
,,,,,,,,1,2021-01-22_16h50.01.962,premceCat_ses-02_part-02_label-phase2,2020.2.10,Win32,60,left,0.911,4,0.343,0,84,84,135,1,stimuli/objects/battery02b.jpg,left,old,136,,,,,,,,
,,,,,,,,1,2021-01-22_16h50.01.962,premceCat_ses-02_part-02_label-phase2,2020.2.10,Win32,60,left,1.644,1,0.587,0,85,85,123,1,stimuli/objects/metalscissors.jpg,left,old,124,,,,,,,,
,,,,,,,,1,2021-01-22_16h50.01.962,premceCat_ses-02_part-02_label-phase2,2020.2.10,Win32,60,right,2.004,1,2.389,0,86,86,101,1,stimuli/objects/magneticcompass.jpg,left,old,102,,,,,,,,
,,,,,,,,1,2021-01-22_16h50.01.962,premceCat_ses-02_part-02_label-phase2,2020.2.10,Win32,60,left,1.649,1,0.432,0,87,87,33,1,stimuli/objects/spatula03.jpg,right,new,34,,,,,,,,
,,,,,,,,1,2021-01-22_16h50.01.962,premceCat_ses-02_part-02_label-phase2,2020.2.10,Win32,60,right,4.959,1,0.398,0,88,88,68,1,stimuli/objects/flooringstapler.jpg,right,new,69,,,,,,,,
,,,,,,,,1,2021-01-22_16h50.01.962,premceCat_ses-02_part-02_label-phase2,2020.2.10,Win32,60,right,1.996,1,0.451,0,89,89,61,1,stimuli/objects/clock01a.jpg,left,old,62,,,,,,,,
,,,,,,,,1,2021-01-22_16h50.01.962,premceCat_ses-02_part-02_label-phase2,2020.2.10,Win32,60,left,2.411,2,0.331,0,90,90,16,1,stimuli/objects/papershredder.jpg,left,old,17,,,,,,,,
,,,,,,,,1,2021-01-22_16h50.01.962,premceCat_ses-02_part-02_label-phase2,2020.2.10,Win32,60,right,1.869,3,0.977,0,91,91,82,1,stimuli/objects/caulking.jpg,right,new,83,,,,,,,,
,,,,,,,,1,2021-01-22_16h50.01.962,premceCat_ses-02_part-02_label-phase2,2020.2.10,Win32,60,left,2.796,1,1.41,0,92,92,136,1,stimuli/objects/laptop01a.jpg,right,new,137,,,,,,,,
,,,,,,,,1,2021-01-22_16h50.01.962,premceCat_ses-02_part-02_label-phase2,2020.2.10,Win32,60,left,1.069,2,0.731,0,93,93,36,1,stimuli/objects/reflector.jpg,left,old,37,,,,,,,,
,,,,,,,,1,2021-01-22_16h50.01.962,premceCat_ses-02_part-02_label-phase2,2020.2.10,Win32,60,right,2.325,2,0.714,0,94,94,73,1,stimuli/objects/kiddiepool.jpg,right,new,74,,,,,,,,
,,,,,,,,1,2021-01-22_16h50.01.962,premceCat_ses-02_part-02_label-phase2,2020.2.10,Win32,60,left,1.452,3,0.363,0,95,95,18,1,stimuli/objects/electricoutlet.jpg,right,new,19,,,,,,,,
,,,,,,,,1,2021-01-22_16h50.01.962,premceCat_ses-02_part-02_label-phase2,2020.2.10,Win32,60,right,2.795,1,1.305,0,96,96,131,1,stimuli/objects/electricmixer.jpg,right,new,132,,,,,,,,
,,,,,,,,1,2021-01-22_16h50.01.962,premceCat_ses-02_part-02_label-phase2,2020.2.10,Win32,60,left,1.733,3,0.502,0,97,97,63,1,stimuli/objects/knife03.jpg,right,new,64,,,,,,,,
,,,,,,,,1,2021-01-22_16h50.01.962,premceCat_ses-02_part-02_label-phase2,2020.2.10,Win32,60,left,3.231,1,0.293,0,98,98,71,1,stimuli/objects/webcam.jpg,right,new,72,,,,,,,,
,,,,,,,,1,2021-01-22_16h50.01.962,premceCat_ses-02_part-02_label-phase2,2020.2.10,Win32,60,left,1.944,4,0.308,0,99,99,67,1,stimuli/objects/cork02.jpg,left,old,68,,,,,,,,
,,,,,,,,1,2021-01-22_16h50.01.962,premceCat_ses-02_part-02_label-phase2,2020.2.10,Win32,60,left,1.695,3,0.326,0,100,100,5,1,stimuli/objects/toyhardhat.jpg,left,old,6,,,,,,,,
,,,,,,,,1,2021-01-22_16h50.01.962,premceCat_ses-02_part-02_label-phase2,2020.2.10,Win32,60,right,2.085,2,0.485,0,101,101,76,1,stimuli/objects/parachute.jpg,right,new,77,,,,,,,,
,,,,,,,,1,2021-01-22_16h50.01.962,premceCat_ses-02_part-02_label-phase2,2020.2.10,Win32,60,left,2.064,4,0.43,0,102,102,11,1,stimuli/objects/usbcable01a.jpg,left,old,12,,,,,,,,
,,,,,,,,1,2021-01-22_16h50.01.962,premceCat_ses-02_part-02_label-phase2,2020.2.10,Win32,60,left,3.667,3,0.401,0,103,103,98,1,stimuli/objects/paninigrill.jpg,left,old,99,,,,,,,,
,,,,,,,,1,2021-01-22_16h50.01.962,premceCat_ses-02_part-02_label-phase2,2020.2.10,Win32,60,right,5.518,1,0.259,0,104,104,10,1,stimuli/objects/lightswitch01.jpg,left,old,11,,,,,,,,
,,,,,,,,1,2021-01-22_16h50.01.962,premceCat_ses-02_part-02_label-phase2,2020.2.10,Win32,60,right,1.838,2,0.624,0,105,105,4,1,stimuli/objects/atm.jpg,right,new,5,,,,,,,,
,,,,,,,,1,2021-01-22_16h50.01.962,premceCat_ses-02_part-02_label-phase2,2020.2.10,Win32,60,left,1.488,4,0.624,0,106,106,88,1,stimuli/objects/headphones02b.jpg,left,old,89,,,,,,,,
,,,,,,,,1,2021-01-22_16h50.01.962,premceCat_ses-02_part-02_label-phase2,2020.2.10,Win32,60,right,3.266,1,0.298,0,107,107,12,1,stimuli/objects/drinkshaker.jpg,right,new,13,,,,,,,,
,,,,,,,,1,2021-01-22_16h50.01.962,premceCat_ses-02_part-02_label-phase2,2020.2.10,Win32,60,left,1.106,4,0.438,0,108,108,14,1,stimuli/objects/fridge.jpg,left,old,15,,,,,,,,
,,,,,,,,1,2021-01-22_16h50.01.962,premceCat_ses-02_part-02_label-phase2,2020.2.10,Win32,60,left,1.173,2,0.361,0,109,109,111,1,stimuli/objects/tray.jpg,right,new,112,,,,,,,,
,,,,,,,,1,2021-01-22_16h50.01.962,premceCat_ses-02_part-02_label-phase2,2020.2.10,Win32,60,left,0.911,3,0.312,0,110,110,115,1,stimuli/objects/rollingpin01a.jpg,left,old,116,,,,,,,,
,,,,,,,,1,2021-01-22_16h50.01.962,premceCat_ses-02_part-02_label-phase2,2020.2.10,Win32,60,right,1.886,2,0.993,0,111,111,138,1,stimuli/objects/minifridge.jpg,right,new,139,,,,,,,,
,,,,,,,,1,2021-01-22_16h50.01.962,premceCat_ses-02_part-02_label-phase2,2020.2.10,Win32,60,left,1.21,2,1.095,0,112,112,110,1,stimuli/objects/hammer01.jpg,right,new,111,,,,,,,,
,,,,,,,,1,2021-01-22_16h50.01.962,premceCat_ses-02_part-02_label-phase2,2020.2.10,Win32,60,right,2.237,1,0.428,0,113,113,53,1,stimuli/objects/smokedetector02.jpg,right,new,54,,,,,,,,
,,,,,,,,1,2021-01-22_16h50.01.962,premceCat_ses-02_part-02_label-phase2,2020.2.10,Win32,60,left,3.243,1,0.362,0,114,114,112,1,stimuli/objects/bikelock.jpg,right,new,113,,,,,,,,
,,,,,,,,1,2021-01-22_16h50.01.962,premceCat_ses-02_part-02_label-phase2,2020.2.10,Win32,60,left,0.895,3,0.342,0,115,115,35,1,stimuli/objects/exercisemachine.jpg,left,old,36,,,,,,,,
,,,,,,,,1,2021-01-22_16h50.01.962,premceCat_ses-02_part-02_label-phase2,2020.2.10,Win32,60,left,1.014,3,0.938,0,116,116,40,1,stimuli/objects/monitor.jpg,left,old,41,,,,,,,,
,,,,,,,,1,2021-01-22_16h50.01.962,premceCat_ses-02_part-02_label-phase2,2020.2.10,Win32,60,left,2.129,2,0.607,0,117,117,105,1,stimuli/objects/heatpump.jpg,left,old,106,,,,,,,,
,,,,,,,,1,2021-01-22_16h50.01.962,premceCat_ses-02_part-02_label-phase2,2020.2.10,Win32,60,left,0.946,4,1.286,0,118,118,78,1,stimuli/objects/canoepaddle02.jpg,left,old,79,,,,,,,,
,,,,,,,,1,2021-01-22_16h50.01.962,premceCat_ses-02_part-02_label-phase2,2020.2.10,Win32,60,left,1.049,3,0.36,0,119,119,129,1,stimuli/objects/exercisebench.jpg,left,old,130,,,,,,,,
,,,,,,,,1,2021-01-22_16h50.01.962,premceCat_ses-02_part-02_label-phase2,2020.2.10,Win32,60,left,1.332,2,0.52,0,120,120,107,1,stimuli/objects/hedgetrimmer.jpg,left,old,108,,,,,,,,
,,,,,,,,1,2021-01-22_16h50.01.962,premceCat_ses-02_part-02_label-phase2,2020.2.10,Win32,60,left,6.42,1,0.257,0,121,121,99,1,stimuli/objects/stepladder.jpg,left,old,100,,,,,,,,
,,,,,,,,1,2021-01-22_16h50.01.962,premceCat_ses-02_part-02_label-phase2,2020.2.10,Win32,60,right,1.362,2,0.661,0,122,122,24,1,stimuli/objects/punchingbag.jpg,right,new,25,,,,,,,,
,,,,,,,,1,2021-01-22_16h50.01.962,premceCat_ses-02_part-02_label-phase2,2020.2.10,Win32,60,right,3.268,1,0.362,0,123,123,113,1,stimuli/objects/taperecorder.jpg,right,new,114,,,,,,,,
,,,,,,,,1,2021-01-22_16h50.01.962,premceCat_ses-02_part-02_label-phase2,2020.2.10,Win32,60,right,2.967,1,0.314,0,124,124,38,1,stimuli/objects/fuse.jpg,right,new,39,,,,,,,,
,,,,,,,,1,2021-01-22_16h50.01.962,premceCat_ses-02_part-02_label-phase2,2020.2.10,Win32,60,left,0.981,3,0.381,0,125,125,91,1,stimuli/objects/woodenspoon.jpg,left,old,92,,,,,,,,
,,,,,,,,1,2021-01-22_16h50.01.962,premceCat_ses-02_part-02_label-phase2,2020.2.10,Win32,60,left,1.173,2,0.434,0,126,126,87,1,stimuli/objects/golfball.jpg,left,old,88,,,,,,,,
,,,,,,,,1,2021-01-22_16h50.01.962,premceCat_ses-02_part-02_label-phase2,2020.2.10,Win32,60,left,8.794,2,0.314,0,127,127,39,1,stimuli/objects/tableknife02.jpg,right,new,40,,,,,,,,
,,,,,,,,1,2021-01-22_16h50.01.962,premceCat_ses-02_part-02_label-phase2,2020.2.10,Win32,60,left,3.021,1,1.529,0,128,128,45,1,stimuli/objects/paintscraper.jpg,left,old,46,,,,,,,,
,,,,,,,,1,2021-01-22_16h50.01.962,premceCat_ses-02_part-02_label-phase2,2020.2.10,Win32,60,right,1.447,2,0.329,0,129,129,41,1,stimuli/objects/foodprocessor.jpg,right,new,42,,,,,,,,
,,,,,,,,1,2021-01-22_16h50.01.962,premceCat_ses-02_part-02_label-phase2,2020.2.10,Win32,60,left,1.366,4,0.659,0,130,130,28,1,stimuli/objects/aluminiumfoil.jpg,left,old,29,,,,,,,,
,,,,,,,,1,2021-01-22_16h50.01.962,premceCat_ses-02_part-02_label-phase2,2020.2.10,Win32,60,left,1.591,3,1.373,0,131,131,127,1,stimuli/objects/wetfloorsign.jpg,left,old,128,,,,,,,,
,,,,,,,,1,2021-01-22_16h50.01.962,premceCat_ses-02_part-02_label-phase2,2020.2.10,Win32,60,left,2.076,1,0.313,0,132,132,37,1,stimuli/objects/stubbywrench01a.jpg,left,old,38,,,,,,,,
,,,,,,,,1,2021-01-22_16h50.01.962,premceCat_ses-02_part-02_label-phase2,2020.2.10,Win32,60,left,1.392,3,0.453,0,133,133,6,1,stimuli/objects/powercable.jpg,left,old,7,,,,,,,,
,,,,,,,,1,2021-01-22_16h50.01.962,premceCat_ses-02_part-02_label-phase2,2020.2.10,Win32,60,left,1.037,4,0.483,0,134,134,124,1,stimuli/objects/baseballbat.jpg,left,old,125,,,,,,,,
,,,,,,,,1,2021-01-22_16h50.01.962,premceCat_ses-02_part-02_label-phase2,2020.2.10,Win32,60,left,5.169,1,0.278,0,135,135,62,1,stimuli/objects/studiolight.jpg,left,old,63,,,,,,,,
,,,,,,,,1,2021-01-22_16h50.01.962,premceCat_ses-02_part-02_label-phase2,2020.2.10,Win32,60,right,1.877,1,0.573,0,136,136,32,1,stimuli/objects/mitresaw.jpg,right,new,33,,,,,,,,
,,,,,,,,1,2021-01-22_16h50.01.962,premceCat_ses-02_part-02_label-phase2,2020.2.10,Win32,60,left,1.226,2,0.522,0,137,137,7,1,stimuli/objects/gardenshears01a.jpg,left,old,8,,,,,,,,
,,,,,,,,1,2021-01-22_16h50.01.962,premceCat_ses-02_part-02_label-phase2,2020.2.10,Win32,60,right,1.855,1,0.658,0,138,138,85,1,stimuli/objects/skigoggles01.jpg,right,new,86,,,,,,,,
,,,,,,,,1,2021-01-22_16h50.01.962,premceCat_ses-02_part-02_label-phase2,2020.2.10,Win32,60,left,0.876,3,0.33,0,139,139,44,1,stimuli/objects/tape02a.jpg,left,old,45,,,,,,,,
,,,,,,,,1,2021-01-22_16h50.01.962,premceCat_ses-02_part-02_label-phase2,2020.2.10,Win32,60,right,1.505,1,0.782,0,140,140,121,1,stimuli/objects/chocolatefonduedish.jpg,right,new,122,,,,,,,,
,,,,,,,,1,2021-01-22_16h50.01.962,premceCat_ses-02_part-02_label-phase2,2020.2.10,Win32,60,right,3.79,2,0.5,0,141,141,72,1,stimuli/objects/hedgeshears.jpg,right,new,73,,,,,,,,
,,,,,,,,1,2021-01-22_16h50.01.962,premceCat_ses-02_part-02_label-phase2,2020.2.10,Win32,60,left,0.999,4,0.744,0,142,142,130,1,stimuli/objects/toaster01.jpg,left,old,131,,,,,,,,
,,,,,,,,1,2021-01-22_16h50.01.962,premceCat_ses-02_part-02_label-phase2,2020.2.10,Win32,60,,,,,,,,,,,,,,space,6.486,0,1,1,0,1,condition_files/ImagesforRecog2_1.csv
