myownaccuracy,respcorrs,minNrPractice,considerNrTrials,Instr_resp.keys,Instr_resp.rt,key_resp_2.keys,key_resp_2.rt,Instruction_loop.thisRepN,Instruction_loop.thisTrialN,Instruction_loop.thisN,Instruction_loop.thisIndex,Instruction_loop.ran,slides,participant,date,expName,psychopyVersion,OS,frameRate,key_resp_3.keys,key_resp_3.rt,taskGoresp.keys,taskGoresp.rt,pract_resp.keys,pract_resp.corr,pract_resp.rt,myownaccuracyCORR,pract_loop.thisRepN,pract_loop.thisTrialN,pract_loop.thisN,pract_loop.thisIndex,pract_loop.ran,first_character,second_character,Cue,left_categ,centleft_categ,centright_categ,right_categ,corr_ans,trial_cond,switch_cond,cuedCharacter,corrCat,image,rep_resp.keys,rep_resp.rt,repeat_pract.thisRepN,repeat_pract.thisTrialN,repeat_pract.thisN,repeat_pract.thisIndex,repeat_pract.ran,task_resp.keys,task_resp.corr,task_resp.rt,task_loop.thisRepN,task_loop.thisTrialN,task_loop.thisN,task_loop.thisIndex,task_loop.ran,obj_category,rep_resp_2.keys,rep_resp_2.rt,repeat_task2.thisRepN,repeat_task2.thisTrialN,repeat_task2.thisN,repeat_task2.thisIndex,repeat_task2.ran
[],[],10,10,space,9.603585,space,6.96304,0,0,0,0,1,stimuli/slide1.png,4,2021-02-03_15h05.43.107,premceCat_ses-01_part-01_label-phase1,2020.2.9,MacIntel,60,,,,,,,,,,,,,,,,,,,,,,,,,,,,,,,,,,,,,,,,,,,,,,,,,
,,,,,,space,9.439835,0,1,1,1,1,stimuli/slide2.png,4,2021-02-03_15h05.43.107,premceCat_ses-01_part-01_label-phase1,2020.2.9,MacIntel,60,,,,,,,,,,,,,,,,,,,,,,,,,,,,,,,,,,,,,,,,,,,,,,,,,
,,,,,,space,10.346995,0,2,2,2,1,stimuli/slide3.png,4,2021-02-03_15h05.43.107,premceCat_ses-01_part-01_label-phase1,2020.2.9,MacIntel,60,,,,,,,,,,,,,,,,,,,,,,,,,,,,,,,,,,,,,,,,,,,,,,,,,
,,,,,,space,10.42002,0,3,3,3,1,stimuli/slide4.png,4,2021-02-03_15h05.43.107,premceCat_ses-01_part-01_label-phase1,2020.2.9,MacIntel,60,,,,,,,,,,,,,,,,,,,,,,,,,,,,,,,,,,,,,,,,,,,,,,,,,
,,,,,,space,4.230175,0,4,4,4,1,stimuli/slide5.png,4,2021-02-03_15h05.43.107,premceCat_ses-01_part-01_label-phase1,2020.2.9,MacIntel,60,,,,,,,,,,,,,,,,,,,,,,,,,,,,,,,,,,,,,,,,,,,,,,,,,
,,,,,,space,3.16437,0,5,5,5,1,stimuli/slide6.png,4,2021-02-03_15h05.43.107,premceCat_ses-01_part-01_label-phase1,2020.2.9,MacIntel,60,,,,,,,,,,,,,,,,,,,,,,,,,,,,,,,,,,,,,,,,,,,,,,,,,
1,[],,,,,,,,,,,,,4,2021-02-03_15h05.43.107,premceCat_ses-01_part-01_label-phase1,2020.2.9,MacIntel,60,space,256.887485,space,9.544905,2,1,1.402615,1,0,0,0,0,1,stimuli/m1.jpg,stimuli/m4.jpg,1,stimuli/Vehicle.png,stimuli/Stationary & school supply.png,stimuli/Clothing.png,stimuli/Gamestoy & entertainment.png,2,1,0,stimuli/m1.jpg,Stationary & school supply,stimuli/objects/pen04b.jpg,,,,,,,,,,,,,,,,,,,,,,,
1,[1],,,,,,,,,,,,,4,2021-02-03_15h05.43.107,premceCat_ses-01_part-01_label-phase1,2020.2.9,MacIntel,60,,,,,1,1,1.91767,1,0,1,1,1,1,stimuli/m1.jpg,stimuli/m4.jpg,1,stimuli/Stationary & school supply.png,stimuli/Gamestoy & entertainment.png,stimuli/Clothing.png,stimuli/Vehicle.png,1,1,0,stimuli/m1.jpg,Stationary & school supply,stimuli/objects/marker01a.jpg,,,,,,,,,,,,,,,,,,,,,,,
0,"[1,1]",,,,,,,,,,,,,4,2021-02-03_15h05.43.107,premceCat_ses-01_part-01_label-phase1,2020.2.9,MacIntel,60,,,,,1,0,1.701305,0,0,2,2,2,1,stimuli/m1.jpg,stimuli/m4.jpg,1,stimuli/Gamestoy & entertainment.png,stimuli/Stationary & school supply.png,stimuli/Clothing.png,stimuli/Vehicle.png,2,1,0,stimuli/m1.jpg,Stationary & school supply,stimuli/objects/ruler04.jpg,,,,,,,,,,,,,,,,,,,,,,,
0,"[1,1,0]",,,,,,,,,,,,,4,2021-02-03_15h05.43.107,premceCat_ses-01_part-01_label-phase1,2020.2.9,MacIntel,60,,,,,3,0,1.11722,0,0,3,3,3,1,stimuli/m4.jpg,stimuli/m1.jpg,1,stimuli/Stationary & school supply.png,stimuli/Vehicle.png,stimuli/Gamestoy & entertainment.png,stimuli/Clothing.png,4,1,0,stimuli/m4.jpg,Clothing,stimuli/objects/scarf.jpg,,,,,,,,,,,,,,,,,,,,,,,
1,"[1,1,0,0]",,,,,,,,,,,,,4,2021-02-03_15h05.43.107,premceCat_ses-01_part-01_label-phase1,2020.2.9,MacIntel,60,,,,,1,1,1.1499,1,0,4,4,4,1,stimuli/m4.jpg,stimuli/m1.jpg,1,stimuli/Clothing.png,stimuli/Vehicle.png,stimuli/Gamestoy & entertainment.png,stimuli/Stationary & school supply.png,1,1,0,stimuli/m4.jpg,Clothing,stimuli/objects/waders.jpg,,,,,,,,,,,,,,,,,,,,,,,
1,"[1,1,0,0,1]",,,,,,,,,,,,,4,2021-02-03_15h05.43.107,premceCat_ses-01_part-01_label-phase1,2020.2.9,MacIntel,60,,,,,1,1,1.67179,1,0,5,5,5,1,stimuli/m1.jpg,stimuli/m4.jpg,1,stimuli/Stationary & school supply.png,stimuli/Clothing.png,stimuli/Vehicle.png,stimuli/Gamestoy & entertainment.png,1,1,0,stimuli/m1.jpg,Stationary & school supply,stimuli/objects/stapleremover.jpg,,,,,,,,,,,,,,,,,,,,,,,
1,"[1,1,0,0,1,1]",,,,,,,,,,,,,4,2021-02-03_15h05.43.107,premceCat_ses-01_part-01_label-phase1,2020.2.9,MacIntel,60,,,,,3,1,1.6564,1,0,6,6,6,1,stimuli/m1.jpg,stimuli/m4.jpg,2,stimuli/Stationary & school supply.png,stimuli/Vehicle.png,stimuli/Clothing.png,stimuli/Gamestoy & entertainment.png,3,1,0,stimuli/m4.jpg,Clothing,stimuli/objects/zipper.jpg,,,,,,,,,,,,,,,,,,,,,,,
0,"[1,1,0,0,1,1,1]",,,,,,,,,,,,,4,2021-02-03_15h05.43.107,premceCat_ses-01_part-01_label-phase1,2020.2.9,MacIntel,60,,,,,1,0,0.736945,1,0,7,7,7,1,stimuli/m4.jpg,stimuli/m1.jpg,1,stimuli/Clothing.png,stimuli/Gamestoy & entertainment.png,stimuli/Stationary & school supply.png,stimuli/Vehicle.png,4,0,0,stimuli/m4.jpg,Vehicle,stimuli/objects/convertible.jpg,,,,,,,,,,,,,,,,,,,,,,,
1,"[1,1,0,0,1,1,1]",,,,,,,,,,,,,4,2021-02-03_15h05.43.107,premceCat_ses-01_part-01_label-phase1,2020.2.9,MacIntel,60,,,,,3,1,0.998085,1,0,8,8,8,1,stimuli/m1.jpg,stimuli/m4.jpg,1,stimuli/Vehicle.png,stimuli/Gamestoy & entertainment.png,stimuli/Stationary & school supply.png,stimuli/Clothing.png,3,1,0,stimuli/m1.jpg,Stationary & school supply,stimuli/objects/paperclip03.jpg,,,,,,,,,,,,,,,,,,,,,,,
1,"[1,1,0,0,1,1,1,1]",,,,,,,,,,,,,4,2021-02-03_15h05.43.107,premceCat_ses-01_part-01_label-phase1,2020.2.9,MacIntel,60,,,,,3,1,1.307725,1,0,9,9,9,1,stimuli/m4.jpg,stimuli/m1.jpg,2,stimuli/Vehicle.png,stimuli/Clothing.png,stimuli/Stationary & school supply.png,stimuli/Gamestoy & entertainment.png,3,1,0,stimuli/m1.jpg,Stationary & school supply,stimuli/objects/mathcompass.jpg,,,,,,,,,,,,,,,,,,,,,,,
1,"[1,1,0,0,1,1,1,1,1]",,,,,,,,,,,,,4,2021-02-03_15h05.43.107,premceCat_ses-01_part-01_label-phase1,2020.2.9,MacIntel,60,,,,,1,1,0.67217,1,0,10,10,10,1,stimuli/m4.jpg,stimuli/m1.jpg,2,stimuli/Stationary & school supply.png,stimuli/Vehicle.png,stimuli/Gamestoy & entertainment.png,stimuli/Clothing.png,1,1,0,stimuli/m1.jpg,Stationary & school supply,stimuli/objects/folder.jpg,,,,,,,,,,,,,,,,,,,,,,,
,,,,,,,,,,,,,,4,2021-02-03_15h05.43.107,premceCat_ses-01_part-01_label-phase1,2020.2.9,MacIntel,60,,,,,,,,,,,,,,,,,,,,,,,,,,,n,25.764645,0,0,0,0,1,,,,,,,,,,,,,,,,
0,"[1,1,0,0,1,1,1,1,1,1]",,,,,,,,,,,,,4,2021-02-03_15h05.43.107,premceCat_ses-01_part-01_label-phase1,2020.2.9,MacIntel,60,,,,,,,,0,,,,,,stimuli/m2.jpg,stimuli/m5.jpg,1,stimuli/Outdoor activity & sport item.png,stimuli/Electronic device & accessory.png,stimuli/Kitchen & utensil.png,stimuli/Hand labour tool & accessory.png,3,1,1,stimuli/m2.jpg,,stimuli/objects/cutleryset.jpg,,,,,,,,2,0,1.017355,0,0,0,0,1,Kitchen & utensil,,,,,,,
0,"[1,1,0,0,1,1,1,1,1,1,0]",,,,,,,,,,,,,4,2021-02-03_15h05.43.107,premceCat_ses-01_part-01_label-phase1,2020.2.9,MacIntel,60,,,,,,,,0,,,,,,stimuli/m5.jpg,stimuli/m2.jpg,2,stimuli/Kitchen & utensil.png,stimuli/Electronic device & accessory.png,stimuli/Outdoor activity & sport item.png,stimuli/Hand labour tool & accessory.png,1,1,1,stimuli/m2.jpg,,stimuli/objects/grill.jpg,,,,,,,,3,0,0.99861,0,1,1,1,1,Kitchen & utensil,,,,,,,
0,"[1,1,0,0,1,1,1,1,1,1,0,0]",,,,,,,,,,,,,4,2021-02-03_15h05.43.107,premceCat_ses-01_part-01_label-phase1,2020.2.9,MacIntel,60,,,,,,,,0,,,,,,stimuli/m5.jpg,stimuli/m2.jpg,1,stimuli/Hand labour tool & accessory.png,stimuli/Outdoor activity & sport item.png,stimuli/Electronic device & accessory.png,stimuli/Kitchen & utensil.png,1,1,1,stimuli/m5.jpg,,stimuli/objects/ducttape.jpg,,,,,,,,4,0,1.88194,0,2,2,2,1,Hand labour tool & accessory,,,,,,,
1,"[1,1,0,0,1,1,1,1,1,1,0,0,0]",,,,,,,,,,,,,4,2021-02-03_15h05.43.107,premceCat_ses-01_part-01_label-phase1,2020.2.9,MacIntel,60,,,,,,,,1,,,,,,stimuli/m5.jpg,stimuli/m2.jpg,2,stimuli/Electronic device & accessory.png,stimuli/Kitchen & utensil.png,stimuli/Outdoor activity & sport item.png,stimuli/Hand labour tool & accessory.png,2,1,1,stimuli/m2.jpg,,stimuli/objects/cakeplatter.jpg,,,,,,,,2,1,0.930055,0,3,3,3,1,Kitchen & utensil,,,,,,,
1,"[1,1,0,0,1,1,1,1,1,1,0,0,0,1]",,,,,,,,,,,,,4,2021-02-03_15h05.43.107,premceCat_ses-01_part-01_label-phase1,2020.2.9,MacIntel,60,,,,,,,,1,,,,,,stimuli/m5.jpg,stimuli/m2.jpg,2,stimuli/Outdoor activity & sport item.png,stimuli/Hand labour tool & accessory.png,stimuli/Electronic device & accessory.png,stimuli/Kitchen & utensil.png,4,1,1,stimuli/m2.jpg,,stimuli/objects/bagtie.jpg,,,,,,,,4,1,1.47705,0,4,4,4,1,Kitchen & utensil,,,,,,,
1,"[1,1,0,0,1,1,1,1,1,1,0,0,0,1,1]",,,,,,,,,,,,,4,2021-02-03_15h05.43.107,premceCat_ses-01_part-01_label-phase1,2020.2.9,MacIntel,60,,,,,,,,1,,,,,,stimuli/m5.jpg,stimuli/m2.jpg,1,stimuli/Outdoor activity & sport item.png,stimuli/Kitchen & utensil.png,stimuli/Electronic device & accessory.png,stimuli/Hand labour tool & accessory.png,4,1,1,stimuli/m5.jpg,,stimuli/objects/generator.jpg,,,,,,,,4,1,2.020175,0,5,5,5,1,Hand labour tool & accessory,,,,,,,
1,"[1,1,0,0,1,1,1,1,1,1,0,0,0,1,1,1]",,,,,,,,,,,,,4,2021-02-03_15h05.43.107,premceCat_ses-01_part-01_label-phase1,2020.2.9,MacIntel,60,,,,,,,,1,,,,,,stimuli/m2.jpg,stimuli/m5.jpg,1,stimuli/Electronic device & accessory.png,stimuli/Outdoor activity & sport item.png,stimuli/Hand labour tool & accessory.png,stimuli/Kitchen & utensil.png,4,1,1,stimuli/m2.jpg,,stimuli/objects/thermos.jpg,,,,,,,,4,1,1.05526,0,6,6,6,1,Kitchen & utensil,,,,,,,
1,"[1,1,0,0,1,1,1,1,1,1,0,0,0,1,1,1,1]",,,,,,,,,,,,,4,2021-02-03_15h05.43.107,premceCat_ses-01_part-01_label-phase1,2020.2.9,MacIntel,60,,,,,,,,1,,,,,,stimuli/m2.jpg,stimuli/m5.jpg,1,stimuli/Electronic device & accessory.png,stimuli/Hand labour tool & accessory.png,stimuli/Outdoor activity & sport item.png,stimuli/Kitchen & utensil.png,4,1,1,stimuli/m2.jpg,,stimuli/objects/fryingpan02a.jpg,,,,,,,,4,1,1.132675,0,7,7,7,1,Kitchen & utensil,,,,,,,
1,"[1,1,0,0,1,1,1,1,1,1,0,0,0,1,1,1,1,1]",,,,,,,,,,,,,4,2021-02-03_15h05.43.107,premceCat_ses-01_part-01_label-phase1,2020.2.9,MacIntel,60,,,,,,,,1,,,,,,stimuli/m5.jpg,stimuli/m2.jpg,1,stimuli/Electronic device & accessory.png,stimuli/Hand labour tool & accessory.png,stimuli/Kitchen & utensil.png,stimuli/Outdoor activity & sport item.png,2,1,1,stimuli/m5.jpg,,stimuli/objects/cheeseknife01.jpg,,,,,,,,2,1,0.891235,0,8,8,8,1,Hand labour tool & accessory,,,,,,,
1,"[1,1,0,0,1,1,1,1,1,1,0,0,0,1,1,1,1,1,1]",,,,,,,,,,,,,4,2021-02-03_15h05.43.107,premceCat_ses-01_part-01_label-phase1,2020.2.9,MacIntel,60,,,,,,,,1,,,,,,stimuli/m2.jpg,stimuli/m5.jpg,1,stimuli/Hand labour tool & accessory.png,stimuli/Electronic device & accessory.png,stimuli/Outdoor activity & sport item.png,stimuli/Kitchen & utensil.png,4,1,1,stimuli/m2.jpg,,stimuli/objects/bowl02a.jpg,,,,,,,,4,1,1.33936,0,9,9,9,1,Kitchen & utensil,,,,,,,
1,"[1,1,0,0,1,1,1,1,1,1,0,0,0,1,1,1,1,1,1,1]",,,,,,,,,,,,,4,2021-02-03_15h05.43.107,premceCat_ses-01_part-01_label-phase1,2020.2.9,MacIntel,60,,,,,,,,1,,,,,,stimuli/m5.jpg,stimuli/m2.jpg,1,stimuli/Kitchen & utensil.png,stimuli/Electronic device & accessory.png,stimuli/Outdoor activity & sport item.png,stimuli/Hand labour tool & accessory.png,4,1,1,stimuli/m5.jpg,,stimuli/objects/sandpaper.jpg,,,,,,,,4,1,1.48417,0,10,10,10,1,Hand labour tool & accessory,,,,,,,
1,"[1,1,0,0,1,1,1,1,1,1,0,0,0,1,1,1,1,1,1,1,1]",,,,,,,,,,,,,4,2021-02-03_15h05.43.107,premceCat_ses-01_part-01_label-phase1,2020.2.9,MacIntel,60,,,,,,,,1,,,,,,stimuli/m2.jpg,stimuli/m5.jpg,1,stimuli/Outdoor activity & sport item.png,stimuli/Kitchen & utensil.png,stimuli/Hand labour tool & accessory.png,stimuli/Electronic device & accessory.png,2,1,1,stimuli/m2.jpg,,stimuli/objects/saladspinner.jpg,,,,,,,,2,1,1.46779,0,11,11,11,1,Kitchen & utensil,,,,,,,
1,"[1,1,0,0,1,1,1,1,1,1,0,0,0,1,1,1,1,1,1,1,1,1]",,,,,,,,,,,,,4,2021-02-03_15h05.43.107,premceCat_ses-01_part-01_label-phase1,2020.2.9,MacIntel,60,,,,,,,,1,,,,,,stimuli/m5.jpg,stimuli/m2.jpg,1,stimuli/Outdoor activity & sport item.png,stimuli/Kitchen & utensil.png,stimuli/Hand labour tool & accessory.png,stimuli/Electronic device & accessory.png,3,1,1,stimuli/m5.jpg,,stimuli/objects/cuttingpliers02.jpg,,,,,,,,3,1,0.96722,0,12,12,12,1,Hand labour tool & accessory,,,,,,,
1,"[1,1,0,0,1,1,1,1,1,1,0,0,0,1,1,1,1,1,1,1,1,1,1]",,,,,,,,,,,,,4,2021-02-03_15h05.43.107,premceCat_ses-01_part-01_label-phase1,2020.2.9,MacIntel,60,,,,,,,,1,,,,,,stimuli/m2.jpg,stimuli/m5.jpg,2,stimuli/Outdoor activity & sport item.png,stimuli/Electronic device & accessory.png,stimuli/Kitchen & utensil.png,stimuli/Hand labour tool & accessory.png,4,1,1,stimuli/m5.jpg,,stimuli/objects/gavel.jpg,,,,,,,,4,1,1.048795,0,13,13,13,1,Hand labour tool & accessory,,,,,,,
1,"[1,1,0,0,1,1,1,1,1,1,0,0,0,1,1,1,1,1,1,1,1,1,1,1]",,,,,,,,,,,,,4,2021-02-03_15h05.43.107,premceCat_ses-01_part-01_label-phase1,2020.2.9,MacIntel,60,,,,,,,,1,,,,,,stimuli/m5.jpg,stimuli/m2.jpg,1,stimuli/Electronic device & accessory.png,stimuli/Kitchen & utensil.png,stimuli/Hand labour tool & accessory.png,stimuli/Outdoor activity & sport item.png,3,1,1,stimuli/m5.jpg,,stimuli/objects/bungeecord02.jpg,,,,,,,,3,1,2.14843,0,14,14,14,1,Hand labour tool & accessory,,,,,,,
0,"[1,1,0,0,1,1,1,1,1,1,0,0,0,1,1,1,1,1,1,1,1,1,1,1,1]",,,,,,,,,,,,,4,2021-02-03_15h05.43.107,premceCat_ses-01_part-01_label-phase1,2020.2.9,MacIntel,60,,,,,,,,0,,,,,,stimuli/m2.jpg,stimuli/m5.jpg,1,stimuli/Hand labour tool & accessory.png,stimuli/Outdoor activity & sport item.png,stimuli/Electronic device & accessory.png,stimuli/Kitchen & utensil.png,4,1,1,stimuli/m2.jpg,,stimuli/objects/spicerack.jpg,,,,,,,,1,0,0.96237,0,15,15,15,1,Kitchen & utensil,,,,,,,
1,"[1,1,0,0,1,1,1,1,1,1,0,0,0,1,1,1,1,1,1,1,1,1,1,1,1,0]",,,,,,,,,,,,,4,2021-02-03_15h05.43.107,premceCat_ses-01_part-01_label-phase1,2020.2.9,MacIntel,60,,,,,,,,1,,,,,,stimuli/m5.jpg,stimuli/m2.jpg,2,stimuli/Hand labour tool & accessory.png,stimuli/Kitchen & utensil.png,stimuli/Outdoor activity & sport item.png,stimuli/Electronic device & accessory.png,2,1,1,stimuli/m2.jpg,,stimuli/objects/potatomasher03b.jpg,,,,,,,,2,1,0.95006,0,16,16,16,1,Kitchen & utensil,,,,,,,
0,"[1,1,0,0,1,1,1,1,1,1,0,0,0,1,1,1,1,1,1,1,1,1,1,1,1,0,1]",,,,,,,,,,,,,4,2021-02-03_15h05.43.107,premceCat_ses-01_part-01_label-phase1,2020.2.9,MacIntel,60,,,,,,,,1,,,,,,stimuli/m2.jpg,stimuli/m5.jpg,2,stimuli/Electronic device & accessory.png,stimuli/Outdoor activity & sport item.png,stimuli/Kitchen & utensil.png,stimuli/Hand labour tool & accessory.png,3,0,1,stimuli/m5.jpg,,stimuli/objects/oven.jpg,,,,,,,,4,0,0.76844,0,17,17,17,1,Kitchen & utensil,,,,,,,
0,"[1,1,0,0,1,1,1,1,1,1,0,0,0,1,1,1,1,1,1,1,1,1,1,1,1,0,1]",,,,,,,,,,,,,4,2021-02-03_15h05.43.107,premceCat_ses-01_part-01_label-phase1,2020.2.9,MacIntel,60,,,,,,,,1,,,,,,stimuli/m2.jpg,stimuli/m5.jpg,1,stimuli/Hand labour tool & accessory.png,stimuli/Kitchen & utensil.png,stimuli/Outdoor activity & sport item.png,stimuli/Electronic device & accessory.png,3,0,1,stimuli/m2.jpg,,stimuli/objects/basketball01.jpg,,,,,,,,2,0,1.34909,0,18,18,18,1,Outdoor activity & sport item,,,,,,,
0,"[1,1,0,0,1,1,1,1,1,1,0,0,0,1,1,1,1,1,1,1,1,1,1,1,1,0,1]",,,,,,,,,,,,,4,2021-02-03_15h05.43.107,premceCat_ses-01_part-01_label-phase1,2020.2.9,MacIntel,60,,,,,,,,0,,,,,,stimuli/m2.jpg,stimuli/m5.jpg,2,stimuli/Outdoor activity & sport item.png,stimuli/Kitchen & utensil.png,stimuli/Hand labour tool & accessory.png,stimuli/Electronic device & accessory.png,3,1,1,stimuli/m5.jpg,,stimuli/objects/cclamp.jpg,,,,,,,,1,0,1.071285,0,19,19,19,1,Hand labour tool & accessory,,,,,,,
0,"[1,1,0,0,1,1,1,1,1,1,0,0,0,1,1,1,1,1,1,1,1,1,1,1,1,0,1,0]",,,,,,,,,,,,,4,2021-02-03_15h05.43.107,premceCat_ses-01_part-01_label-phase1,2020.2.9,MacIntel,60,,,,,,,,0,,,,,,stimuli/m5.jpg,stimuli/m2.jpg,2,stimuli/Kitchen & utensil.png,stimuli/Hand labour tool & accessory.png,stimuli/Outdoor activity & sport item.png,stimuli/Electronic device & accessory.png,1,1,1,stimuli/m2.jpg,,stimuli/objects/martiniglass01b.jpg,,,,,,,,3,0,1.02454,0,20,20,20,1,Kitchen & utensil,,,,,,,
0,"[1,1,0,0,1,1,1,1,1,1,0,0,0,1,1,1,1,1,1,1,1,1,1,1,1,0,1,0,0]",,,,,,,,,,,,,4,2021-02-03_15h05.43.107,premceCat_ses-01_part-01_label-phase1,2020.2.9,MacIntel,60,,,,,,,,0,,,,,,stimuli/m2.jpg,stimuli/m5.jpg,2,stimuli/Kitchen & utensil.png,stimuli/Hand labour tool & accessory.png,stimuli/Outdoor activity & sport item.png,stimuli/Electronic device & accessory.png,3,0,1,stimuli/m5.jpg,,stimuli/objects/racquetballracket.jpg,,,,,,,,2,0,0.69173,0,21,21,21,1,Outdoor activity & sport item,,,,,,,
1,"[1,1,0,0,1,1,1,1,1,1,0,0,0,1,1,1,1,1,1,1,1,1,1,1,1,0,1,0,0]",,,,,,,,,,,,,4,2021-02-03_15h05.43.107,premceCat_ses-01_part-01_label-phase1,2020.2.9,MacIntel,60,,,,,,,,1,,,,,,stimuli/m5.jpg,stimuli/m2.jpg,2,stimuli/Outdoor activity & sport item.png,stimuli/Electronic device & accessory.png,stimuli/Hand labour tool & accessory.png,stimuli/Kitchen & utensil.png,4,1,1,stimuli/m2.jpg,,stimuli/objects/strainer01b.jpg,,,,,,,,4,1,0.766815,0,22,22,22,1,Kitchen & utensil,,,,,,,
0,"[1,1,0,0,1,1,1,1,1,1,0,0,0,1,1,1,1,1,1,1,1,1,1,1,1,0,1,0,0,1]",,,,,,,,,,,,,4,2021-02-03_15h05.43.107,premceCat_ses-01_part-01_label-phase1,2020.2.9,MacIntel,60,,,,,,,,0,,,,,,stimuli/m2.jpg,stimuli/m5.jpg,2,stimuli/Electronic device & accessory.png,stimuli/Kitchen & utensil.png,stimuli/Outdoor activity & sport item.png,stimuli/Hand labour tool & accessory.png,4,1,1,stimuli/m5.jpg,,stimuli/objects/metalbrush.jpg,,,,,,,,3,0,1.21182,0,23,23,23,1,Hand labour tool & accessory,,,,,,,
1,"[1,1,0,0,1,1,1,1,1,1,0,0,0,1,1,1,1,1,1,1,1,1,1,1,1,0,1,0,0,1,0]",,,,,,,,,,,,,4,2021-02-03_15h05.43.107,premceCat_ses-01_part-01_label-phase1,2020.2.9,MacIntel,60,,,,,,,,1,,,,,,stimuli/m5.jpg,stimuli/m2.jpg,1,stimuli/Hand labour tool & accessory.png,stimuli/Kitchen & utensil.png,stimuli/Outdoor activity & sport item.png,stimuli/Electronic device & accessory.png,1,1,1,stimuli/m5.jpg,,stimuli/objects/pressurewasher.jpg,,,,,,,,1,1,0.917555,0,24,24,24,1,Hand labour tool & accessory,,,,,,,
1,"[1,1,0,0,1,1,1,1,1,1,0,0,0,1,1,1,1,1,1,1,1,1,1,1,1,0,1,0,0,1,0,1]",,,,,,,,,,,,,4,2021-02-03_15h05.43.107,premceCat_ses-01_part-01_label-phase1,2020.2.9,MacIntel,60,,,,,,,,1,,,,,,stimuli/m2.jpg,stimuli/m5.jpg,1,stimuli/Outdoor activity & sport item.png,stimuli/Hand labour tool & accessory.png,stimuli/Electronic device & accessory.png,stimuli/Kitchen & utensil.png,4,1,1,stimuli/m2.jpg,,stimuli/objects/mortarandpestle.jpg,,,,,,,,4,1,0.649615,0,25,25,25,1,Kitchen & utensil,,,,,,,
0,"[1,1,0,0,1,1,1,1,1,1,0,0,0,1,1,1,1,1,1,1,1,1,1,1,1,0,1,0,0,1,0,1,1]",,,,,,,,,,,,,4,2021-02-03_15h05.43.107,premceCat_ses-01_part-01_label-phase1,2020.2.9,MacIntel,60,,,,,,,,1,,,,,,stimuli/m5.jpg,stimuli/m2.jpg,1,stimuli/Electronic device & accessory.png,stimuli/Hand labour tool & accessory.png,stimuli/Outdoor activity & sport item.png,stimuli/Kitchen & utensil.png,1,0,1,stimuli/m5.jpg,,stimuli/objects/speaker04.jpg,,,,,,,,2,0,2.867155,0,26,26,26,1,Electronic device & accessory,,,,,,,
1,"[1,1,0,0,1,1,1,1,1,1,0,0,0,1,1,1,1,1,1,1,1,1,1,1,1,0,1,0,0,1,0,1,1]",,,,,,,,,,,,,4,2021-02-03_15h05.43.107,premceCat_ses-01_part-01_label-phase1,2020.2.9,MacIntel,60,,,,,,,,1,,,,,,stimuli/m2.jpg,stimuli/m5.jpg,2,stimuli/Hand labour tool & accessory.png,stimuli/Kitchen & utensil.png,stimuli/Electronic device & accessory.png,stimuli/Outdoor activity & sport item.png,1,1,1,stimuli/m5.jpg,,stimuli/objects/squeegee01b.jpg,,,,,,,,1,1,1.103395,0,27,27,27,1,Hand labour tool & accessory,,,,,,,
0,"[1,1,0,0,1,1,1,1,1,1,0,0,0,1,1,1,1,1,1,1,1,1,1,1,1,0,1,0,0,1,0,1,1,1]",,,,,,,,,,,,,4,2021-02-03_15h05.43.107,premceCat_ses-01_part-01_label-phase1,2020.2.9,MacIntel,60,,,,,,,,1,,,,,,stimuli/m5.jpg,stimuli/m2.jpg,2,stimuli/Hand labour tool & accessory.png,stimuli/Outdoor activity & sport item.png,stimuli/Kitchen & utensil.png,stimuli/Electronic device & accessory.png,4,0,1,stimuli/m2.jpg,,stimuli/objects/antenna.jpg,,,,,,,,3,0,0.9397,0,28,28,28,1,Electronic device & accessory,,,,,,,
0,"[1,1,0,0,1,1,1,1,1,1,0,0,0,1,1,1,1,1,1,1,1,1,1,1,1,0,1,0,0,1,0,1,1,1]",,,,,,,,,,,,,4,2021-02-03_15h05.43.107,premceCat_ses-01_part-01_label-phase1,2020.2.9,MacIntel,60,,,,,,,,0,,,,,,stimuli/m5.jpg,stimuli/m2.jpg,2,stimuli/Electronic device & accessory.png,stimuli/Outdoor activity & sport item.png,stimuli/Hand labour tool & accessory.png,stimuli/Kitchen & utensil.png,4,1,1,stimuli/m2.jpg,,stimuli/objects/sippycup.jpg,,,,,,,,1,0,0.85137,0,29,29,29,1,Kitchen & utensil,,,,,,,
1,"[1,1,0,0,1,1,1,1,1,1,0,0,0,1,1,1,1,1,1,1,1,1,1,1,1,0,1,0,0,1,0,1,1,1,0]",,,,,,,,,,,,,4,2021-02-03_15h05.43.107,premceCat_ses-01_part-01_label-phase1,2020.2.9,MacIntel,60,,,,,,,,1,,,,,,stimuli/m2.jpg,stimuli/m5.jpg,2,stimuli/Kitchen & utensil.png,stimuli/Outdoor activity & sport item.png,stimuli/Electronic device & accessory.png,stimuli/Hand labour tool & accessory.png,4,1,1,stimuli/m5.jpg,,stimuli/objects/painttray.jpg,,,,,,,,4,1,0.68865,0,30,30,30,1,Hand labour tool & accessory,,,,,,,
1,"[1,1,0,0,1,1,1,1,1,1,0,0,0,1,1,1,1,1,1,1,1,1,1,1,1,0,1,0,0,1,0,1,1,1,0,1]",,,,,,,,,,,,,4,2021-02-03_15h05.43.107,premceCat_ses-01_part-01_label-phase1,2020.2.9,MacIntel,60,,,,,,,,1,,,,,,stimuli/m2.jpg,stimuli/m5.jpg,1,stimuli/Hand labour tool & accessory.png,stimuli/Kitchen & utensil.png,stimuli/Electronic device & accessory.png,stimuli/Outdoor activity & sport item.png,2,1,1,stimuli/m2.jpg,,stimuli/objects/handmixer01d.jpg,,,,,,,,2,1,0.86515,0,31,31,31,1,Kitchen & utensil,,,,,,,
0,"[1,1,0,0,1,1,1,1,1,1,0,0,0,1,1,1,1,1,1,1,1,1,1,1,1,0,1,0,0,1,0,1,1,1,0,1,1]",,,,,,,,,,,,,4,2021-02-03_15h05.43.107,premceCat_ses-01_part-01_label-phase1,2020.2.9,MacIntel,60,,,,,,,,1,,,,,,stimuli/m5.jpg,stimuli/m2.jpg,2,stimuli/Outdoor activity & sport item.png,stimuli/Kitchen & utensil.png,stimuli/Electronic device & accessory.png,stimuli/Hand labour tool & accessory.png,4,0,1,stimuli/m2.jpg,,stimuli/objects/hoe.jpg,,,,,,,,2,0,0.72956,0,32,32,32,1,Hand labour tool & accessory,,,,,,,
1,"[1,1,0,0,1,1,1,1,1,1,0,0,0,1,1,1,1,1,1,1,1,1,1,1,1,0,1,0,0,1,0,1,1,1,0,1,1]",,,,,,,,,,,,,4,2021-02-03_15h05.43.107,premceCat_ses-01_part-01_label-phase1,2020.2.9,MacIntel,60,,,,,,,,1,,,,,,stimuli/m2.jpg,stimuli/m5.jpg,2,stimuli/Hand labour tool & accessory.png,stimuli/Kitchen & utensil.png,stimuli/Outdoor activity & sport item.png,stimuli/Electronic device & accessory.png,1,1,1,stimuli/m5.jpg,,stimuli/objects/loppingshears.jpg,,,,,,,,1,1,1.06441,0,33,33,33,1,Hand labour tool & accessory,,,,,,,
1,"[1,1,0,0,1,1,1,1,1,1,0,0,0,1,1,1,1,1,1,1,1,1,1,1,1,0,1,0,0,1,0,1,1,1,0,1,1,1]",,,,,,,,,,,,,4,2021-02-03_15h05.43.107,premceCat_ses-01_part-01_label-phase1,2020.2.9,MacIntel,60,,,,,,,,1,,,,,,stimuli/m2.jpg,stimuli/m5.jpg,1,stimuli/Kitchen & utensil.png,stimuli/Electronic device & accessory.png,stimuli/Outdoor activity & sport item.png,stimuli/Hand labour tool & accessory.png,1,1,1,stimuli/m2.jpg,,stimuli/objects/hourglass.jpg,,,,,,,,1,1,1.196175,0,34,34,34,1,Kitchen & utensil,,,,,,,
1,"[1,1,0,0,1,1,1,1,1,1,0,0,0,1,1,1,1,1,1,1,1,1,1,1,1,0,1,0,0,1,0,1,1,1,0,1,1,1,1]",,,,,,,,,,,,,4,2021-02-03_15h05.43.107,premceCat_ses-01_part-01_label-phase1,2020.2.9,MacIntel,60,,,,,,,,1,,,,,,stimuli/m2.jpg,stimuli/m5.jpg,2,stimuli/Electronic device & accessory.png,stimuli/Hand labour tool & accessory.png,stimuli/Kitchen & utensil.png,stimuli/Outdoor activity & sport item.png,2,1,1,stimuli/m5.jpg,,stimuli/objects/snowshovel.jpg,,,,,,,,2,1,1.32885,0,35,35,35,1,Hand labour tool & accessory,,,,,,,
1,"[1,1,0,0,1,1,1,1,1,1,0,0,0,1,1,1,1,1,1,1,1,1,1,1,1,0,1,0,0,1,0,1,1,1,0,1,1,1,1,1]",,,,,,,,,,,,,4,2021-02-03_15h05.43.107,premceCat_ses-01_part-01_label-phase1,2020.2.9,MacIntel,60,,,,,,,,1,,,,,,stimuli/m2.jpg,stimuli/m5.jpg,2,stimuli/Electronic device & accessory.png,stimuli/Hand labour tool & accessory.png,stimuli/Outdoor activity & sport item.png,stimuli/Kitchen & utensil.png,2,1,1,stimuli/m5.jpg,,stimuli/objects/carjack.jpg,,,,,,,,2,1,1.08558,0,36,36,36,1,Hand labour tool & accessory,,,,,,,
1,"[1,1,0,0,1,1,1,1,1,1,0,0,0,1,1,1,1,1,1,1,1,1,1,1,1,0,1,0,0,1,0,1,1,1,0,1,1,1,1,1,1]",,,,,,,,,,,,,4,2021-02-03_15h05.43.107,premceCat_ses-01_part-01_label-phase1,2020.2.9,MacIntel,60,,,,,,,,1,,,,,,stimuli/m2.jpg,stimuli/m5.jpg,2,stimuli/Hand labour tool & accessory.png,stimuli/Electronic device & accessory.png,stimuli/Kitchen & utensil.png,stimuli/Outdoor activity & sport item.png,1,1,1,stimuli/m5.jpg,,stimuli/objects/wheel01.jpg,,,,,,,,1,1,1.711615,0,37,37,37,1,Hand labour tool & accessory,,,,,,,
1,"[1,1,0,0,1,1,1,1,1,1,0,0,0,1,1,1,1,1,1,1,1,1,1,1,1,0,1,0,0,1,0,1,1,1,0,1,1,1,1,1,1,1]",,,,,,,,,,,,,4,2021-02-03_15h05.43.107,premceCat_ses-01_part-01_label-phase1,2020.2.9,MacIntel,60,,,,,,,,1,,,,,,stimuli/m2.jpg,stimuli/m5.jpg,1,stimuli/Outdoor activity & sport item.png,stimuli/Electronic device & accessory.png,stimuli/Hand labour tool & accessory.png,stimuli/Kitchen & utensil.png,4,1,1,stimuli/m2.jpg,,stimuli/objects/winerack.jpg,,,,,,,,4,1,1.00011,0,38,38,38,1,Kitchen & utensil,,,,,,,
1,"[1,1,0,0,1,1,1,1,1,1,0,0,0,1,1,1,1,1,1,1,1,1,1,1,1,0,1,0,0,1,0,1,1,1,0,1,1,1,1,1,1,1,1]",,,,,,,,,,,,,4,2021-02-03_15h05.43.107,premceCat_ses-01_part-01_label-phase1,2020.2.9,MacIntel,60,,,,,,,,1,,,,,,stimuli/m5.jpg,stimuli/m2.jpg,2,stimuli/Hand labour tool & accessory.png,stimuli/Kitchen & utensil.png,stimuli/Electronic device & accessory.png,stimuli/Outdoor activity & sport item.png,2,1,1,stimuli/m2.jpg,,stimuli/objects/butterdish.jpg,,,,,,,,2,1,1.177705,0,39,39,39,1,Kitchen & utensil,,,,,,,
1,"[1,1,0,0,1,1,1,1,1,1,0,0,0,1,1,1,1,1,1,1,1,1,1,1,1,0,1,0,0,1,0,1,1,1,0,1,1,1,1,1,1,1,1,1]",,,,,,,,,,,,,4,2021-02-03_15h05.43.107,premceCat_ses-01_part-01_label-phase1,2020.2.9,MacIntel,60,,,,,,,,1,,,,,,stimuli/m2.jpg,stimuli/m5.jpg,2,stimuli/Hand labour tool & accessory.png,stimuli/Outdoor activity & sport item.png,stimuli/Kitchen & utensil.png,stimuli/Electronic device & accessory.png,1,1,1,stimuli/m5.jpg,,stimuli/objects/needlenosepliers01.jpg,,,,,,,,1,1,1.058855,0,40,40,40,1,Hand labour tool & accessory,,,,,,,
1,"[1,1,0,0,1,1,1,1,1,1,0,0,0,1,1,1,1,1,1,1,1,1,1,1,1,0,1,0,0,1,0,1,1,1,0,1,1,1,1,1,1,1,1,1,1]",,,,,,,,,,,,,4,2021-02-03_15h05.43.107,premceCat_ses-01_part-01_label-phase1,2020.2.9,MacIntel,60,,,,,,,,1,,,,,,stimuli/m2.jpg,stimuli/m5.jpg,2,stimuli/Kitchen & utensil.png,stimuli/Hand labour tool & accessory.png,stimuli/Electronic device & accessory.png,stimuli/Outdoor activity & sport item.png,2,1,1,stimuli/m5.jpg,,stimuli/objects/pickaxe02.jpg,,,,,,,,2,1,0.794465,0,41,41,41,1,Hand labour tool & accessory,,,,,,,
,,,,,,,,,,,,,,4,2021-02-03_15h05.43.107,premceCat_ses-01_part-01_label-phase1,2020.2.9,MacIntel,60,,,,,,,,,,,,,,,,,,,,,,,,,,,,,,,,,,,,,,,,,,,n,44.813345,0,0,0,0,1
