myownaccuracy,respcorrs,minNrPractice,considerNrTrials,Instr_resp.keys,Instr_resp.rt,key_resp_2.keys,key_resp_2.rt,Instruction_loop.thisRepN,Instruction_loop.thisTrialN,Instruction_loop.thisN,Instruction_loop.thisIndex,Instruction_loop.ran,slides,participant,date,expName,psychopyVersion,OS,frameRate,key_resp_3.keys,key_resp_3.rt,taskGoresp.keys,taskGoresp.rt,pract_resp.keys,pract_resp.corr,pract_resp.rt,myownaccuracyCORR,pract_loop.thisRepN,pract_loop.thisTrialN,pract_loop.thisN,pract_loop.thisIndex,pract_loop.ran,first_character,second_character,Cue,left_categ,centleft_categ,centright_categ,right_categ,corr_ans,trial_cond,switch_cond,cuedCharacter,corrCat,image,rep_resp.keys,rep_resp.rt,repeat_pract.thisRepN,repeat_pract.thisTrialN,repeat_pract.thisN,repeat_pract.thisIndex,repeat_pract.ran,task_resp.keys,task_resp.corr,task_resp.rt,task_loop.thisRepN,task_loop.thisTrialN,task_loop.thisN,task_loop.thisIndex,task_loop.ran,obj_category,rep_resp_2.keys,rep_resp_2.rt,repeat_task2.thisRepN,repeat_task2.thisTrialN,repeat_task2.thisN,repeat_task2.thisIndex,repeat_task2.ran
[],[],10,10,space,9.733,space,13.032,0,0,0,0,1,stimuli/slide1.png,5,2021-02-03_15h55.52.780,premceCat_ses-01_part-01_label-phase1,2020.2.9,MacIntel,60,,,,,,,,,,,,,,,,,,,,,,,,,,,,,,,,,,,,,,,,,,,,,,,,,
,,,,,,space,11.263,0,1,1,1,1,stimuli/slide2.png,5,2021-02-03_15h55.52.780,premceCat_ses-01_part-01_label-phase1,2020.2.9,MacIntel,60,,,,,,,,,,,,,,,,,,,,,,,,,,,,,,,,,,,,,,,,,,,,,,,,,
,,,,,,space,11.528,0,2,2,2,1,stimuli/slide3.png,5,2021-02-03_15h55.52.780,premceCat_ses-01_part-01_label-phase1,2020.2.9,MacIntel,60,,,,,,,,,,,,,,,,,,,,,,,,,,,,,,,,,,,,,,,,,,,,,,,,,
,,,,,,space,11.593,0,3,3,3,1,stimuli/slide4.png,5,2021-02-03_15h55.52.780,premceCat_ses-01_part-01_label-phase1,2020.2.9,MacIntel,60,,,,,,,,,,,,,,,,,,,,,,,,,,,,,,,,,,,,,,,,,,,,,,,,,
,,,,,,space,7.498,0,4,4,4,1,stimuli/slide5.png,5,2021-02-03_15h55.52.780,premceCat_ses-01_part-01_label-phase1,2020.2.9,MacIntel,60,,,,,,,,,,,,,,,,,,,,,,,,,,,,,,,,,,,,,,,,,,,,,,,,,
,,,,,,space,2.733,0,5,5,5,1,stimuli/slide6.png,5,2021-02-03_15h55.52.780,premceCat_ses-01_part-01_label-phase1,2020.2.9,MacIntel,60,,,,,,,,,,,,,,,,,,,,,,,,,,,,,,,,,,,,,,,,,,,,,,,,,
1,[],,,,,,,,,,,,,5,2021-02-03_15h55.52.780,premceCat_ses-01_part-01_label-phase1,2020.2.9,MacIntel,60,space,112.072,space,14.358,2,1,1.512,1,0,0,0,0,1,stimuli/m1.jpg,stimuli/m4.jpg,1,stimuli/Vehicle.png,stimuli/Stationary & school supply.png,stimuli/Clothing.png,stimuli/Gamestoy & entertainment.png,2,1,0,stimuli/m1.jpg,Stationary & school supply,stimuli/objects/pen04b.jpg,,,,,,,,,,,,,,,,,,,,,,,
1,[1],,,,,,,,,,,,,5,2021-02-03_15h55.52.780,premceCat_ses-01_part-01_label-phase1,2020.2.9,MacIntel,60,,,,,1,1,1.647,1,0,1,1,1,1,stimuli/m1.jpg,stimuli/m4.jpg,1,stimuli/Stationary & school supply.png,stimuli/Gamestoy & entertainment.png,stimuli/Clothing.png,stimuli/Vehicle.png,1,1,0,stimuli/m1.jpg,Stationary & school supply,stimuli/objects/marker01a.jpg,,,,,,,,,,,,,,,,,,,,,,,
1,"[1,1]",,,,,,,,,,,,,5,2021-02-03_15h55.52.780,premceCat_ses-01_part-01_label-phase1,2020.2.9,MacIntel,60,,,,,2,1,0.983,1,0,2,2,2,1,stimuli/m1.jpg,stimuli/m4.jpg,1,stimuli/Gamestoy & entertainment.png,stimuli/Stationary & school supply.png,stimuli/Clothing.png,stimuli/Vehicle.png,2,1,0,stimuli/m1.jpg,Stationary & school supply,stimuli/objects/ruler04.jpg,,,,,,,,,,,,,,,,,,,,,,,
0,"[1,1,1]",,,,,,,,,,,,,5,2021-02-03_15h55.52.780,premceCat_ses-01_part-01_label-phase1,2020.2.9,MacIntel,60,,,,,1,0,1.16,0,0,3,3,3,1,stimuli/m4.jpg,stimuli/m1.jpg,1,stimuli/Stationary & school supply.png,stimuli/Vehicle.png,stimuli/Gamestoy & entertainment.png,stimuli/Clothing.png,4,1,0,stimuli/m4.jpg,Clothing,stimuli/objects/scarf.jpg,,,,,,,,,,,,,,,,,,,,,,,
0,"[1,1,1,0]",,,,,,,,,,,,,5,2021-02-03_15h55.52.780,premceCat_ses-01_part-01_label-phase1,2020.2.9,MacIntel,60,,,,,4,0,1.495,0,0,4,4,4,1,stimuli/m4.jpg,stimuli/m1.jpg,1,stimuli/Clothing.png,stimuli/Vehicle.png,stimuli/Gamestoy & entertainment.png,stimuli/Stationary & school supply.png,1,1,0,stimuli/m4.jpg,Clothing,stimuli/objects/waders.jpg,,,,,,,,,,,,,,,,,,,,,,,
0,"[1,1,1,0,0]",,,,,,,,,,,,,5,2021-02-03_15h55.52.780,premceCat_ses-01_part-01_label-phase1,2020.2.9,MacIntel,60,,,,,2,0,1.495,0,0,5,5,5,1,stimuli/m1.jpg,stimuli/m4.jpg,1,stimuli/Stationary & school supply.png,stimuli/Clothing.png,stimuli/Vehicle.png,stimuli/Gamestoy & entertainment.png,1,1,0,stimuli/m1.jpg,Stationary & school supply,stimuli/objects/stapleremover.jpg,,,,,,,,,,,,,,,,,,,,,,,
0,"[1,1,1,0,0,0]",,,,,,,,,,,,,5,2021-02-03_15h55.52.780,premceCat_ses-01_part-01_label-phase1,2020.2.9,MacIntel,60,,,,,1,0,1.169,0,0,6,6,6,1,stimuli/m1.jpg,stimuli/m4.jpg,2,stimuli/Stationary & school supply.png,stimuli/Vehicle.png,stimuli/Clothing.png,stimuli/Gamestoy & entertainment.png,3,1,0,stimuli/m4.jpg,Clothing,stimuli/objects/zipper.jpg,,,,,,,,,,,,,,,,,,,,,,,
0,"[1,1,1,0,0,0,0]",,,,,,,,,,,,,5,2021-02-03_15h55.52.780,premceCat_ses-01_part-01_label-phase1,2020.2.9,MacIntel,60,,,,,3,0,1.118,0,0,7,7,7,1,stimuli/m4.jpg,stimuli/m1.jpg,1,stimuli/Clothing.png,stimuli/Gamestoy & entertainment.png,stimuli/Stationary & school supply.png,stimuli/Vehicle.png,4,0,0,stimuli/m4.jpg,Vehicle,stimuli/objects/convertible.jpg,,,,,,,,,,,,,,,,,,,,,,,
0,"[1,1,1,0,0,0,0]",,,,,,,,,,,,,5,2021-02-03_15h55.52.780,premceCat_ses-01_part-01_label-phase1,2020.2.9,MacIntel,60,,,,,1,0,1.798,0,0,8,8,8,1,stimuli/m1.jpg,stimuli/m4.jpg,1,stimuli/Vehicle.png,stimuli/Gamestoy & entertainment.png,stimuli/Stationary & school supply.png,stimuli/Clothing.png,3,1,0,stimuli/m1.jpg,Stationary & school supply,stimuli/objects/paperclip03.jpg,,,,,,,,,,,,,,,,,,,,,,,
0,"[1,1,1,0,0,0,0,0]",,,,,,,,,,,,,5,2021-02-03_15h55.52.780,premceCat_ses-01_part-01_label-phase1,2020.2.9,MacIntel,60,,,,,1,0,1.032,0,0,9,9,9,1,stimuli/m4.jpg,stimuli/m1.jpg,2,stimuli/Vehicle.png,stimuli/Clothing.png,stimuli/Stationary & school supply.png,stimuli/Gamestoy & entertainment.png,3,1,0,stimuli/m1.jpg,Stationary & school supply,stimuli/objects/mathcompass.jpg,,,,,,,,,,,,,,,,,,,,,,,
1,"[1,1,1,0,0,0,0,0,0]",,,,,,,,,,,,,5,2021-02-03_15h55.52.780,premceCat_ses-01_part-01_label-phase1,2020.2.9,MacIntel,60,,,,,1,1,1.201,1,0,10,10,10,1,stimuli/m4.jpg,stimuli/m1.jpg,2,stimuli/Stationary & school supply.png,stimuli/Vehicle.png,stimuli/Gamestoy & entertainment.png,stimuli/Clothing.png,1,1,0,stimuli/m1.jpg,Stationary & school supply,stimuli/objects/folder.jpg,,,,,,,,,,,,,,,,,,,,,,,
0,"[1,1,1,0,0,0,0,0,0,1]",,,,,,,,,,,,,5,2021-02-03_15h55.52.780,premceCat_ses-01_part-01_label-phase1,2020.2.9,MacIntel,60,,,,,1,0,1.006,0,0,11,11,11,1,stimuli/m1.jpg,stimuli/m4.jpg,2,stimuli/Vehicle.png,stimuli/Clothing.png,stimuli/Gamestoy & entertainment.png,stimuli/Stationary & school supply.png,2,1,0,stimuli/m4.jpg,Clothing,stimuli/objects/poloshirt.jpg,,,,,,,,,,,,,,,,,,,,,,,
0,"[1,1,1,0,0,0,0,0,0,1,0]",,,,,,,,,,,,,5,2021-02-03_15h55.52.780,premceCat_ses-01_part-01_label-phase1,2020.2.9,MacIntel,60,,,,,4,0,1.815,0,0,12,12,12,1,stimuli/m1.jpg,stimuli/m4.jpg,2,stimuli/Clothing.png,stimuli/Gamestoy & entertainment.png,stimuli/Vehicle.png,stimuli/Stationary & school supply.png,1,1,0,stimuli/m4.jpg,Clothing,stimuli/objects/hat03b.jpg,,,,,,,,,,,,,,,,,,,,,,,
1,"[1,1,1,0,0,0,0,0,0,1,0,0]",,,,,,,,,,,,,5,2021-02-03_15h55.52.780,premceCat_ses-01_part-01_label-phase1,2020.2.9,MacIntel,60,,,,,1,1,2.795,1,0,13,13,13,1,stimuli/m4.jpg,stimuli/m1.jpg,2,stimuli/Stationary & school supply.png,stimuli/Clothing.png,stimuli/Gamestoy & entertainment.png,stimuli/Vehicle.png,1,1,0,stimuli/m1.jpg,Stationary & school supply,stimuli/objects/binder03b.jpg,,,,,,,,,,,,,,,,,,,,,,,
1,"[1,1,1,0,0,0,0,0,0,1,0,0,1]",,,,,,,,,,,,,5,2021-02-03_15h55.52.780,premceCat_ses-01_part-01_label-phase1,2020.2.9,MacIntel,60,,,,,2,1,1.313,1,0,14,14,14,1,stimuli/m4.jpg,stimuli/m1.jpg,1,stimuli/Vehicle.png,stimuli/Clothing.png,stimuli/Stationary & school supply.png,stimuli/Gamestoy & entertainment.png,2,1,0,stimuli/m4.jpg,Clothing,stimuli/objects/hikingshoe01.jpg,,,,,,,,,,,,,,,,,,,,,,,
0,"[1,1,1,0,0,0,0,0,0,1,0,0,1,1]",,,,,,,,,,,,,5,2021-02-03_15h55.52.780,premceCat_ses-01_part-01_label-phase1,2020.2.9,MacIntel,60,,,,,1,0,1.232,1,0,15,15,15,1,stimuli/m4.jpg,stimuli/m1.jpg,2,stimuli/Stationary & school supply.png,stimuli/Clothing.png,stimuli/Vehicle.png,stimuli/Gamestoy & entertainment.png,2,0,0,stimuli/m1.jpg,Clothing,stimuli/objects/sportsjersey.jpg,,,,,,,,,,,,,,,,,,,,,,,
0,"[1,1,1,0,0,0,0,0,0,1,0,0,1,1]",,,,,,,,,,,,,5,2021-02-03_15h55.52.780,premceCat_ses-01_part-01_label-phase1,2020.2.9,MacIntel,60,,,,,2,0,1.029,0,0,16,16,16,1,stimuli/m4.jpg,stimuli/m1.jpg,2,stimuli/Gamestoy & entertainment.png,stimuli/Clothing.png,stimuli/Stationary & school supply.png,stimuli/Vehicle.png,3,1,0,stimuli/m1.jpg,Stationary & school supply,stimuli/objects/pencilsharpener02a.jpg,,,,,,,,,,,,,,,,,,,,,,,
0,"[1,1,1,0,0,0,0,0,0,1,0,0,1,1,0]",,,,,,,,,,,,,5,2021-02-03_15h55.52.780,premceCat_ses-01_part-01_label-phase1,2020.2.9,MacIntel,60,,,,,4,0,3.496,0,0,17,17,17,1,stimuli/m4.jpg,stimuli/m1.jpg,2,stimuli/Vehicle.png,stimuli/Clothing.png,stimuli/Gamestoy & entertainment.png,stimuli/Stationary & school supply.png,3,0,0,stimuli/m1.jpg,Gamestoy & entertainment,stimuli/objects/rattle.jpg,,,,,,,,,,,,,,,,,,,,,,,
1,"[1,1,1,0,0,0,0,0,0,1,0,0,1,1,0]",,,,,,,,,,,,,5,2021-02-03_15h55.52.780,premceCat_ses-01_part-01_label-phase1,2020.2.9,MacIntel,60,,,,,3,1,2.647,1,0,18,18,18,1,stimuli/m1.jpg,stimuli/m4.jpg,2,stimuli/Gamestoy & entertainment.png,stimuli/Vehicle.png,stimuli/Clothing.png,stimuli/Stationary & school supply.png,3,1,0,stimuli/m4.jpg,Clothing,stimuli/objects/tricornhat.jpg,,,,,,,,,,,,,,,,,,,,,,,
1,"[1,1,1,0,0,0,0,0,0,1,0,0,1,1,0,1]",,,,,,,,,,,,,5,2021-02-03_15h55.52.780,premceCat_ses-01_part-01_label-phase1,2020.2.9,MacIntel,60,,,,,4,1,1.578,1,0,19,19,19,1,stimuli/m1.jpg,stimuli/m4.jpg,1,stimuli/Clothing.png,stimuli/Vehicle.png,stimuli/Gamestoy & entertainment.png,stimuli/Stationary & school supply.png,4,1,0,stimuli/m1.jpg,Stationary & school supply,stimuli/objects/clipboard.jpg,,,,,,,,,,,,,,,,,,,,,,,
1,"[1,1,1,0,0,0,0,0,0,1,0,0,1,1,0,1,1]",,,,,,,,,,,,,5,2021-02-03_15h55.52.780,premceCat_ses-01_part-01_label-phase1,2020.2.9,MacIntel,60,,,,,4,1,1.964,1,0,20,20,20,1,stimuli/m1.jpg,stimuli/m4.jpg,2,stimuli/Stationary & school supply.png,stimuli/Gamestoy & entertainment.png,stimuli/Vehicle.png,stimuli/Clothing.png,4,1,0,stimuli/m4.jpg,Clothing,stimuli/objects/athleticsock.jpg,,,,,,,,,,,,,,,,,,,,,,,
0,"[1,1,1,0,0,0,0,0,0,1,0,0,1,1,0,1,1,1]",,,,,,,,,,,,,5,2021-02-03_15h55.52.780,premceCat_ses-01_part-01_label-phase1,2020.2.9,MacIntel,60,,,,,2,0,1.231,1,0,21,21,21,1,stimuli/m1.jpg,stimuli/m4.jpg,1,stimuli/Gamestoy & entertainment.png,stimuli/Stationary & school supply.png,stimuli/Vehicle.png,stimuli/Clothing.png,3,0,0,stimuli/m1.jpg,Vehicle,stimuli/objects/motorcycle.jpg,,,,,,,,,,,,,,,,,,,,,,,
0,"[1,1,1,0,0,0,0,0,0,1,0,0,1,1,0,1,1,1]",,,,,,,,,,,,,5,2021-02-03_15h55.52.780,premceCat_ses-01_part-01_label-phase1,2020.2.9,MacIntel,60,,,,,1,0,1.883,0,0,22,22,22,1,stimuli/m4.jpg,stimuli/m1.jpg,2,stimuli/Vehicle.png,stimuli/Gamestoy & entertainment.png,stimuli/Stationary & school supply.png,stimuli/Clothing.png,3,1,0,stimuli/m1.jpg,Stationary & school supply,stimuli/objects/triangleruler01.jpg,,,,,,,,,,,,,,,,,,,,,,,
1,"[1,1,1,0,0,0,0,0,0,1,0,0,1,1,0,1,1,1,0]",,,,,,,,,,,,,5,2021-02-03_15h55.52.780,premceCat_ses-01_part-01_label-phase1,2020.2.9,MacIntel,60,,,,,2,1,1.517,1,0,23,23,23,1,stimuli/m4.jpg,stimuli/m1.jpg,1,stimuli/Gamestoy & entertainment.png,stimuli/Clothing.png,stimuli/Stationary & school supply.png,stimuli/Vehicle.png,2,1,0,stimuli/m4.jpg,Clothing,stimuli/objects/pants.jpg,,,,,,,,,,,,,,,,,,,,,,,
1,"[1,1,1,0,0,0,0,0,0,1,0,0,1,1,0,1,1,1,0,1]",,,,,,,,,,,,,5,2021-02-03_15h55.52.780,premceCat_ses-01_part-01_label-phase1,2020.2.9,MacIntel,60,,,,,3,1,1.302,1,0,24,24,24,1,stimuli/m4.jpg,stimuli/m1.jpg,2,stimuli/Gamestoy & entertainment.png,stimuli/Vehicle.png,stimuli/Stationary & school supply.png,stimuli/Clothing.png,3,1,0,stimuli/m1.jpg,Stationary & school supply,stimuli/objects/rubberband01.jpg,,,,,,,,,,,,,,,,,,,,,,,
0,"[1,1,1,0,0,0,0,0,0,1,0,0,1,1,0,1,1,1,0,1,1]",,,,,,,,,,,,,5,2021-02-03_15h55.52.780,premceCat_ses-01_part-01_label-phase1,2020.2.9,MacIntel,60,,,,,3,0,3.195,1,0,25,25,25,1,stimuli/m4.jpg,stimuli/m1.jpg,1,stimuli/Stationary & school supply.png,stimuli/Vehicle.png,stimuli/Clothing.png,stimuli/Gamestoy & entertainment.png,4,0,0,stimuli/m4.jpg,Gamestoy & entertainment,stimuli/objects/highstrikergame.jpg,,,,,,,,,,,,,,,,,,,,,,,
1,"[1,1,1,0,0,0,0,0,0,1,0,0,1,1,0,1,1,1,0,1,1]",,,,,,,,,,,,,5,2021-02-03_15h55.52.780,premceCat_ses-01_part-01_label-phase1,2020.2.9,MacIntel,60,,,,,3,1,0.955,1,0,26,26,26,1,stimuli/m4.jpg,stimuli/m1.jpg,2,stimuli/Clothing.png,stimuli/Gamestoy & entertainment.png,stimuli/Stationary & school supply.png,stimuli/Vehicle.png,3,1,0,stimuli/m1.jpg,Stationary & school supply,stimuli/objects/smartboard.jpg,,,,,,,,,,,,,,,,,,,,,,,
,,,,,,,,,,,,,,5,2021-02-03_15h55.52.780,premceCat_ses-01_part-01_label-phase1,2020.2.9,MacIntel,60,,,,,,,,,,,,,,,,,,,,,,,,,,,n,59.423,0,0,0,0,1,,,,,,,,,,,,,,,,
0,"[1,1,1,0,0,0,0,0,0,1,0,0,1,1,0,1,1,1,0,1,1,1]",,,,,,,,,,,,,5,2021-02-03_15h55.52.780,premceCat_ses-01_part-01_label-phase1,2020.2.9,MacIntel,60,,,,,,,,0,,,,,,stimuli/m2.jpg,stimuli/m5.jpg,1,stimuli/Outdoor activity & sport item.png,stimuli/Electronic device & accessory.png,stimuli/Kitchen & utensil.png,stimuli/Hand labour tool & accessory.png,3,1,1,stimuli/m2.jpg,,stimuli/objects/cutleryset.jpg,,,,,,,,2,0,1.617,0,0,0,0,1,Kitchen & utensil,,,,,,,
1,"[1,1,1,0,0,0,0,0,0,1,0,0,1,1,0,1,1,1,0,1,1,1,0]",,,,,,,,,,,,,5,2021-02-03_15h55.52.780,premceCat_ses-01_part-01_label-phase1,2020.2.9,MacIntel,60,,,,,,,,1,,,,,,stimuli/m5.jpg,stimuli/m2.jpg,2,stimuli/Kitchen & utensil.png,stimuli/Electronic device & accessory.png,stimuli/Outdoor activity & sport item.png,stimuli/Hand labour tool & accessory.png,1,1,1,stimuli/m2.jpg,,stimuli/objects/grill.jpg,,,,,,,,1,1,1.523,0,1,1,1,1,Kitchen & utensil,,,,,,,
0,"[1,1,1,0,0,0,0,0,0,1,0,0,1,1,0,1,1,1,0,1,1,1,0,1]",,,,,,,,,,,,,5,2021-02-03_15h55.52.780,premceCat_ses-01_part-01_label-phase1,2020.2.9,MacIntel,60,,,,,,,,0,,,,,,stimuli/m5.jpg,stimuli/m2.jpg,1,stimuli/Hand labour tool & accessory.png,stimuli/Outdoor activity & sport item.png,stimuli/Electronic device & accessory.png,stimuli/Kitchen & utensil.png,1,1,1,stimuli/m5.jpg,,stimuli/objects/ducttape.jpg,,,,,,,,2,0,1.17,0,2,2,2,1,Hand labour tool & accessory,,,,,,,
1,"[1,1,1,0,0,0,0,0,0,1,0,0,1,1,0,1,1,1,0,1,1,1,0,1,0]",,,,,,,,,,,,,5,2021-02-03_15h55.52.780,premceCat_ses-01_part-01_label-phase1,2020.2.9,MacIntel,60,,,,,,,,1,,,,,,stimuli/m5.jpg,stimuli/m2.jpg,2,stimuli/Electronic device & accessory.png,stimuli/Kitchen & utensil.png,stimuli/Outdoor activity & sport item.png,stimuli/Hand labour tool & accessory.png,2,1,1,stimuli/m2.jpg,,stimuli/objects/cakeplatter.jpg,,,,,,,,2,1,2.878,0,3,3,3,1,Kitchen & utensil,,,,,,,
0,"[1,1,1,0,0,0,0,0,0,1,0,0,1,1,0,1,1,1,0,1,1,1,0,1,0,1]",,,,,,,,,,,,,5,2021-02-03_15h55.52.780,premceCat_ses-01_part-01_label-phase1,2020.2.9,MacIntel,60,,,,,,,,0,,,,,,stimuli/m5.jpg,stimuli/m2.jpg,2,stimuli/Outdoor activity & sport item.png,stimuli/Hand labour tool & accessory.png,stimuli/Electronic device & accessory.png,stimuli/Kitchen & utensil.png,4,1,1,stimuli/m2.jpg,,stimuli/objects/bagtie.jpg,,,,,,,,,0,,0,4,4,4,1,Kitchen & utensil,,,,,,,
1,"[1,1,1,0,0,0,0,0,0,1,0,0,1,1,0,1,1,1,0,1,1,1,0,1,0,1,0]",,,,,,,,,,,,,5,2021-02-03_15h55.52.780,premceCat_ses-01_part-01_label-phase1,2020.2.9,MacIntel,60,,,,,,,,1,,,,,,stimuli/m5.jpg,stimuli/m2.jpg,1,stimuli/Outdoor activity & sport item.png,stimuli/Kitchen & utensil.png,stimuli/Electronic device & accessory.png,stimuli/Hand labour tool & accessory.png,4,1,1,stimuli/m5.jpg,,stimuli/objects/generator.jpg,,,,,,,,4,1,2.407,0,5,5,5,1,Hand labour tool & accessory,,,,,,,
1,"[1,1,1,0,0,0,0,0,0,1,0,0,1,1,0,1,1,1,0,1,1,1,0,1,0,1,0,1]",,,,,,,,,,,,,5,2021-02-03_15h55.52.780,premceCat_ses-01_part-01_label-phase1,2020.2.9,MacIntel,60,,,,,,,,1,,,,,,stimuli/m2.jpg,stimuli/m5.jpg,1,stimuli/Electronic device & accessory.png,stimuli/Outdoor activity & sport item.png,stimuli/Hand labour tool & accessory.png,stimuli/Kitchen & utensil.png,4,1,1,stimuli/m2.jpg,,stimuli/objects/thermos.jpg,,,,,,,,4,1,2.097,0,6,6,6,1,Kitchen & utensil,,,,,,,
0,"[1,1,1,0,0,0,0,0,0,1,0,0,1,1,0,1,1,1,0,1,1,1,0,1,0,1,0,1,1]",,,,,,,,,,,,,5,2021-02-03_15h55.52.780,premceCat_ses-01_part-01_label-phase1,2020.2.9,MacIntel,60,,,,,,,,0,,,,,,stimuli/m2.jpg,stimuli/m5.jpg,1,stimuli/Electronic device & accessory.png,stimuli/Hand labour tool & accessory.png,stimuli/Outdoor activity & sport item.png,stimuli/Kitchen & utensil.png,4,1,1,stimuli/m2.jpg,,stimuli/objects/fryingpan02a.jpg,,,,,,,,2,0,2.394,0,7,7,7,1,Kitchen & utensil,,,,,,,
0,"[1,1,1,0,0,0,0,0,0,1,0,0,1,1,0,1,1,1,0,1,1,1,0,1,0,1,0,1,1,0]",,,,,,,,,,,,,5,2021-02-03_15h55.52.780,premceCat_ses-01_part-01_label-phase1,2020.2.9,MacIntel,60,,,,,,,,0,,,,,,stimuli/m5.jpg,stimuli/m2.jpg,1,stimuli/Electronic device & accessory.png,stimuli/Hand labour tool & accessory.png,stimuli/Kitchen & utensil.png,stimuli/Outdoor activity & sport item.png,2,1,1,stimuli/m5.jpg,,stimuli/objects/cheeseknife01.jpg,,,,,,,,4,0,1.912,0,8,8,8,1,Hand labour tool & accessory,,,,,,,
1,"[1,1,1,0,0,0,0,0,0,1,0,0,1,1,0,1,1,1,0,1,1,1,0,1,0,1,0,1,1,0,0]",,,,,,,,,,,,,5,2021-02-03_15h55.52.780,premceCat_ses-01_part-01_label-phase1,2020.2.9,MacIntel,60,,,,,,,,1,,,,,,stimuli/m2.jpg,stimuli/m5.jpg,1,stimuli/Hand labour tool & accessory.png,stimuli/Electronic device & accessory.png,stimuli/Outdoor activity & sport item.png,stimuli/Kitchen & utensil.png,4,1,1,stimuli/m2.jpg,,stimuli/objects/bowl02a.jpg,,,,,,,,4,1,1.205,0,9,9,9,1,Kitchen & utensil,,,,,,,
0,"[1,1,1,0,0,0,0,0,0,1,0,0,1,1,0,1,1,1,0,1,1,1,0,1,0,1,0,1,1,0,0,1]",,,,,,,,,,,,,5,2021-02-03_15h55.52.780,premceCat_ses-01_part-01_label-phase1,2020.2.9,MacIntel,60,,,,,,,,0,,,,,,stimuli/m5.jpg,stimuli/m2.jpg,1,stimuli/Kitchen & utensil.png,stimuli/Electronic device & accessory.png,stimuli/Outdoor activity & sport item.png,stimuli/Hand labour tool & accessory.png,4,1,1,stimuli/m5.jpg,,stimuli/objects/sandpaper.jpg,,,,,,,,2,0,1.572,0,10,10,10,1,Hand labour tool & accessory,,,,,,,
0,"[1,1,1,0,0,0,0,0,0,1,0,0,1,1,0,1,1,1,0,1,1,1,0,1,0,1,0,1,1,0,0,1,0]",,,,,,,,,,,,,5,2021-02-03_15h55.52.780,premceCat_ses-01_part-01_label-phase1,2020.2.9,MacIntel,60,,,,,,,,0,,,,,,stimuli/m2.jpg,stimuli/m5.jpg,1,stimuli/Outdoor activity & sport item.png,stimuli/Kitchen & utensil.png,stimuli/Hand labour tool & accessory.png,stimuli/Electronic device & accessory.png,2,1,1,stimuli/m2.jpg,,stimuli/objects/saladspinner.jpg,,,,,,,,1,0,3.056,0,11,11,11,1,Kitchen & utensil,,,,,,,
1,"[1,1,1,0,0,0,0,0,0,1,0,0,1,1,0,1,1,1,0,1,1,1,0,1,0,1,0,1,1,0,0,1,0,0]",,,,,,,,,,,,,5,2021-02-03_15h55.52.780,premceCat_ses-01_part-01_label-phase1,2020.2.9,MacIntel,60,,,,,,,,1,,,,,,stimuli/m5.jpg,stimuli/m2.jpg,1,stimuli/Outdoor activity & sport item.png,stimuli/Kitchen & utensil.png,stimuli/Hand labour tool & accessory.png,stimuli/Electronic device & accessory.png,3,1,1,stimuli/m5.jpg,,stimuli/objects/cuttingpliers02.jpg,,,,,,,,3,1,1.654,0,12,12,12,1,Hand labour tool & accessory,,,,,,,
1,"[1,1,1,0,0,0,0,0,0,1,0,0,1,1,0,1,1,1,0,1,1,1,0,1,0,1,0,1,1,0,0,1,0,0,1]",,,,,,,,,,,,,5,2021-02-03_15h55.52.780,premceCat_ses-01_part-01_label-phase1,2020.2.9,MacIntel,60,,,,,,,,1,,,,,,stimuli/m2.jpg,stimuli/m5.jpg,2,stimuli/Outdoor activity & sport item.png,stimuli/Electronic device & accessory.png,stimuli/Kitchen & utensil.png,stimuli/Hand labour tool & accessory.png,4,1,1,stimuli/m5.jpg,,stimuli/objects/gavel.jpg,,,,,,,,4,1,1.947,0,13,13,13,1,Hand labour tool & accessory,,,,,,,
0,"[1,1,1,0,0,0,0,0,0,1,0,0,1,1,0,1,1,1,0,1,1,1,0,1,0,1,0,1,1,0,0,1,0,0,1,1]",,,,,,,,,,,,,5,2021-02-03_15h55.52.780,premceCat_ses-01_part-01_label-phase1,2020.2.9,MacIntel,60,,,,,,,,0,,,,,,stimuli/m5.jpg,stimuli/m2.jpg,1,stimuli/Electronic device & accessory.png,stimuli/Kitchen & utensil.png,stimuli/Hand labour tool & accessory.png,stimuli/Outdoor activity & sport item.png,3,1,1,stimuli/m5.jpg,,stimuli/objects/bungeecord02.jpg,,,,,,,,1,0,2.086,0,14,14,14,1,Hand labour tool & accessory,,,,,,,
1,"[1,1,1,0,0,0,0,0,0,1,0,0,1,1,0,1,1,1,0,1,1,1,0,1,0,1,0,1,1,0,0,1,0,0,1,1,0]",,,,,,,,,,,,,5,2021-02-03_15h55.52.780,premceCat_ses-01_part-01_label-phase1,2020.2.9,MacIntel,60,,,,,,,,1,,,,,,stimuli/m2.jpg,stimuli/m5.jpg,1,stimuli/Hand labour tool & accessory.png,stimuli/Outdoor activity & sport item.png,stimuli/Electronic device & accessory.png,stimuli/Kitchen & utensil.png,4,1,1,stimuli/m2.jpg,,stimuli/objects/spicerack.jpg,,,,,,,,4,1,1.456,0,15,15,15,1,Kitchen & utensil,,,,,,,
0,"[1,1,1,0,0,0,0,0,0,1,0,0,1,1,0,1,1,1,0,1,1,1,0,1,0,1,0,1,1,0,0,1,0,0,1,1,0,1]",,,,,,,,,,,,,5,2021-02-03_15h55.52.780,premceCat_ses-01_part-01_label-phase1,2020.2.9,MacIntel,60,,,,,,,,0,,,,,,stimuli/m5.jpg,stimuli/m2.jpg,2,stimuli/Hand labour tool & accessory.png,stimuli/Kitchen & utensil.png,stimuli/Outdoor activity & sport item.png,stimuli/Electronic device & accessory.png,2,1,1,stimuli/m2.jpg,,stimuli/objects/potatomasher03b.jpg,,,,,,,,3,0,2.421,0,16,16,16,1,Kitchen & utensil,,,,,,,
0,"[1,1,1,0,0,0,0,0,0,1,0,0,1,1,0,1,1,1,0,1,1,1,0,1,0,1,0,1,1,0,0,1,0,0,1,1,0,1,0]",,,,,,,,,,,,,5,2021-02-03_15h55.52.780,premceCat_ses-01_part-01_label-phase1,2020.2.9,MacIntel,60,,,,,,,,0,,,,,,stimuli/m2.jpg,stimuli/m5.jpg,2,stimuli/Electronic device & accessory.png,stimuli/Outdoor activity & sport item.png,stimuli/Kitchen & utensil.png,stimuli/Hand labour tool & accessory.png,3,0,1,stimuli/m5.jpg,,stimuli/objects/oven.jpg,,,,,,,,1,0,3.665,0,17,17,17,1,Kitchen & utensil,,,,,,,
0,"[1,1,1,0,0,0,0,0,0,1,0,0,1,1,0,1,1,1,0,1,1,1,0,1,0,1,0,1,1,0,0,1,0,0,1,1,0,1,0]",,,,,,,,,,,,,5,2021-02-03_15h55.52.780,premceCat_ses-01_part-01_label-phase1,2020.2.9,MacIntel,60,,,,,,,,0,,,,,,stimuli/m2.jpg,stimuli/m5.jpg,1,stimuli/Hand labour tool & accessory.png,stimuli/Kitchen & utensil.png,stimuli/Outdoor activity & sport item.png,stimuli/Electronic device & accessory.png,3,0,1,stimuli/m2.jpg,,stimuli/objects/basketball01.jpg,,,,,,,,2,0,1.695,0,18,18,18,1,Outdoor activity & sport item,,,,,,,
1,"[1,1,1,0,0,0,0,0,0,1,0,0,1,1,0,1,1,1,0,1,1,1,0,1,0,1,0,1,1,0,0,1,0,0,1,1,0,1,0]",,,,,,,,,,,,,5,2021-02-03_15h55.52.780,premceCat_ses-01_part-01_label-phase1,2020.2.9,MacIntel,60,,,,,,,,1,,,,,,stimuli/m2.jpg,stimuli/m5.jpg,2,stimuli/Outdoor activity & sport item.png,stimuli/Kitchen & utensil.png,stimuli/Hand labour tool & accessory.png,stimuli/Electronic device & accessory.png,3,1,1,stimuli/m5.jpg,,stimuli/objects/cclamp.jpg,,,,,,,,3,1,1.884,0,19,19,19,1,Hand labour tool & accessory,,,,,,,
1,"[1,1,1,0,0,0,0,0,0,1,0,0,1,1,0,1,1,1,0,1,1,1,0,1,0,1,0,1,1,0,0,1,0,0,1,1,0,1,0,1]",,,,,,,,,,,,,5,2021-02-03_15h55.52.780,premceCat_ses-01_part-01_label-phase1,2020.2.9,MacIntel,60,,,,,,,,1,,,,,,stimuli/m5.jpg,stimuli/m2.jpg,2,stimuli/Kitchen & utensil.png,stimuli/Hand labour tool & accessory.png,stimuli/Outdoor activity & sport item.png,stimuli/Electronic device & accessory.png,1,1,1,stimuli/m2.jpg,,stimuli/objects/martiniglass01b.jpg,,,,,,,,1,1,3.246,0,20,20,20,1,Kitchen & utensil,,,,,,,
0,"[1,1,1,0,0,0,0,0,0,1,0,0,1,1,0,1,1,1,0,1,1,1,0,1,0,1,0,1,1,0,0,1,0,0,1,1,0,1,0,1,1]",,,,,,,,,,,,,5,2021-02-03_15h55.52.780,premceCat_ses-01_part-01_label-phase1,2020.2.9,MacIntel,60,,,,,,,,1,,,,,,stimuli/m2.jpg,stimuli/m5.jpg,2,stimuli/Kitchen & utensil.png,stimuli/Hand labour tool & accessory.png,stimuli/Outdoor activity & sport item.png,stimuli/Electronic device & accessory.png,3,0,1,stimuli/m5.jpg,,stimuli/objects/racquetballracket.jpg,,,,,,,,4,0,2.946,0,21,21,21,1,Outdoor activity & sport item,,,,,,,
1,"[1,1,1,0,0,0,0,0,0,1,0,0,1,1,0,1,1,1,0,1,1,1,0,1,0,1,0,1,1,0,0,1,0,0,1,1,0,1,0,1,1]",,,,,,,,,,,,,5,2021-02-03_15h55.52.780,premceCat_ses-01_part-01_label-phase1,2020.2.9,MacIntel,60,,,,,,,,1,,,,,,stimuli/m5.jpg,stimuli/m2.jpg,2,stimuli/Outdoor activity & sport item.png,stimuli/Electronic device & accessory.png,stimuli/Hand labour tool & accessory.png,stimuli/Kitchen & utensil.png,4,1,1,stimuli/m2.jpg,,stimuli/objects/strainer01b.jpg,,,,,,,,4,1,1.723,0,22,22,22,1,Kitchen & utensil,,,,,,,
0,"[1,1,1,0,0,0,0,0,0,1,0,0,1,1,0,1,1,1,0,1,1,1,0,1,0,1,0,1,1,0,0,1,0,0,1,1,0,1,0,1,1,1]",,,,,,,,,,,,,5,2021-02-03_15h55.52.780,premceCat_ses-01_part-01_label-phase1,2020.2.9,MacIntel,60,,,,,,,,0,,,,,,stimuli/m2.jpg,stimuli/m5.jpg,2,stimuli/Electronic device & accessory.png,stimuli/Kitchen & utensil.png,stimuli/Outdoor activity & sport item.png,stimuli/Hand labour tool & accessory.png,4,1,1,stimuli/m5.jpg,,stimuli/objects/metalbrush.jpg,,,,,,,,3,0,1.129,0,23,23,23,1,Hand labour tool & accessory,,,,,,,
1,"[1,1,1,0,0,0,0,0,0,1,0,0,1,1,0,1,1,1,0,1,1,1,0,1,0,1,0,1,1,0,0,1,0,0,1,1,0,1,0,1,1,1,0]",,,,,,,,,,,,,5,2021-02-03_15h55.52.780,premceCat_ses-01_part-01_label-phase1,2020.2.9,MacIntel,60,,,,,,,,1,,,,,,stimuli/m5.jpg,stimuli/m2.jpg,1,stimuli/Hand labour tool & accessory.png,stimuli/Kitchen & utensil.png,stimuli/Outdoor activity & sport item.png,stimuli/Electronic device & accessory.png,1,1,1,stimuli/m5.jpg,,stimuli/objects/pressurewasher.jpg,,,,,,,,1,1,2.064,0,24,24,24,1,Hand labour tool & accessory,,,,,,,
1,"[1,1,1,0,0,0,0,0,0,1,0,0,1,1,0,1,1,1,0,1,1,1,0,1,0,1,0,1,1,0,0,1,0,0,1,1,0,1,0,1,1,1,0,1]",,,,,,,,,,,,,5,2021-02-03_15h55.52.780,premceCat_ses-01_part-01_label-phase1,2020.2.9,MacIntel,60,,,,,,,,1,,,,,,stimuli/m2.jpg,stimuli/m5.jpg,1,stimuli/Outdoor activity & sport item.png,stimuli/Hand labour tool & accessory.png,stimuli/Electronic device & accessory.png,stimuli/Kitchen & utensil.png,4,1,1,stimuli/m2.jpg,,stimuli/objects/mortarandpestle.jpg,,,,,,,,4,1,1.6,0,25,25,25,1,Kitchen & utensil,,,,,,,
0,"[1,1,1,0,0,0,0,0,0,1,0,0,1,1,0,1,1,1,0,1,1,1,0,1,0,1,0,1,1,0,0,1,0,0,1,1,0,1,0,1,1,1,0,1,1]",,,,,,,,,,,,,5,2021-02-03_15h55.52.780,premceCat_ses-01_part-01_label-phase1,2020.2.9,MacIntel,60,,,,,,,,1,,,,,,stimuli/m5.jpg,stimuli/m2.jpg,1,stimuli/Electronic device & accessory.png,stimuli/Hand labour tool & accessory.png,stimuli/Outdoor activity & sport item.png,stimuli/Kitchen & utensil.png,1,0,1,stimuli/m5.jpg,,stimuli/objects/speaker04.jpg,,,,,,,,3,0,2.549,0,26,26,26,1,Electronic device & accessory,,,,,,,
1,"[1,1,1,0,0,0,0,0,0,1,0,0,1,1,0,1,1,1,0,1,1,1,0,1,0,1,0,1,1,0,0,1,0,0,1,1,0,1,0,1,1,1,0,1,1]",,,,,,,,,,,,,5,2021-02-03_15h55.52.780,premceCat_ses-01_part-01_label-phase1,2020.2.9,MacIntel,60,,,,,,,,1,,,,,,stimuli/m2.jpg,stimuli/m5.jpg,2,stimuli/Hand labour tool & accessory.png,stimuli/Kitchen & utensil.png,stimuli/Electronic device & accessory.png,stimuli/Outdoor activity & sport item.png,1,1,1,stimuli/m5.jpg,,stimuli/objects/squeegee01b.jpg,,,,,,,,1,1,2.181,0,27,27,27,1,Hand labour tool & accessory,,,,,,,
0,"[1,1,1,0,0,0,0,0,0,1,0,0,1,1,0,1,1,1,0,1,1,1,0,1,0,1,0,1,1,0,0,1,0,0,1,1,0,1,0,1,1,1,0,1,1,1]",,,,,,,,,,,,,5,2021-02-03_15h55.52.780,premceCat_ses-01_part-01_label-phase1,2020.2.9,MacIntel,60,,,,,,,,1,,,,,,stimuli/m5.jpg,stimuli/m2.jpg,2,stimuli/Hand labour tool & accessory.png,stimuli/Outdoor activity & sport item.png,stimuli/Kitchen & utensil.png,stimuli/Electronic device & accessory.png,4,0,1,stimuli/m2.jpg,,stimuli/objects/antenna.jpg,,,,,,,,3,0,1.932,0,28,28,28,1,Electronic device & accessory,,,,,,,
0,"[1,1,1,0,0,0,0,0,0,1,0,0,1,1,0,1,1,1,0,1,1,1,0,1,0,1,0,1,1,0,0,1,0,0,1,1,0,1,0,1,1,1,0,1,1,1]",,,,,,,,,,,,,5,2021-02-03_15h55.52.780,premceCat_ses-01_part-01_label-phase1,2020.2.9,MacIntel,60,,,,,,,,0,,,,,,stimuli/m5.jpg,stimuli/m2.jpg,2,stimuli/Electronic device & accessory.png,stimuli/Outdoor activity & sport item.png,stimuli/Hand labour tool & accessory.png,stimuli/Kitchen & utensil.png,4,1,1,stimuli/m2.jpg,,stimuli/objects/sippycup.jpg,,,,,,,,2,0,2.784,0,29,29,29,1,Kitchen & utensil,,,,,,,
0,"[1,1,1,0,0,0,0,0,0,1,0,0,1,1,0,1,1,1,0,1,1,1,0,1,0,1,0,1,1,0,0,1,0,0,1,1,0,1,0,1,1,1,0,1,1,1,0]",,,,,,,,,,,,,5,2021-02-03_15h55.52.780,premceCat_ses-01_part-01_label-phase1,2020.2.9,MacIntel,60,,,,,,,,0,,,,,,stimuli/m2.jpg,stimuli/m5.jpg,2,stimuli/Kitchen & utensil.png,stimuli/Outdoor activity & sport item.png,stimuli/Electronic device & accessory.png,stimuli/Hand labour tool & accessory.png,4,1,1,stimuli/m5.jpg,,stimuli/objects/painttray.jpg,,,,,,,,3,0,1.544,0,30,30,30,1,Hand labour tool & accessory,,,,,,,
1,"[1,1,1,0,0,0,0,0,0,1,0,0,1,1,0,1,1,1,0,1,1,1,0,1,0,1,0,1,1,0,0,1,0,0,1,1,0,1,0,1,1,1,0,1,1,1,0,0]",,,,,,,,,,,,,5,2021-02-03_15h55.52.780,premceCat_ses-01_part-01_label-phase1,2020.2.9,MacIntel,60,,,,,,,,1,,,,,,stimuli/m2.jpg,stimuli/m5.jpg,1,stimuli/Hand labour tool & accessory.png,stimuli/Kitchen & utensil.png,stimuli/Electronic device & accessory.png,stimuli/Outdoor activity & sport item.png,2,1,1,stimuli/m2.jpg,,stimuli/objects/handmixer01d.jpg,,,,,,,,2,1,1.413,0,31,31,31,1,Kitchen & utensil,,,,,,,
0,"[1,1,1,0,0,0,0,0,0,1,0,0,1,1,0,1,1,1,0,1,1,1,0,1,0,1,0,1,1,0,0,1,0,0,1,1,0,1,0,1,1,1,0,1,1,1,0,0,1]",,,,,,,,,,,,,5,2021-02-03_15h55.52.780,premceCat_ses-01_part-01_label-phase1,2020.2.9,MacIntel,60,,,,,,,,1,,,,,,stimuli/m5.jpg,stimuli/m2.jpg,2,stimuli/Outdoor activity & sport item.png,stimuli/Kitchen & utensil.png,stimuli/Electronic device & accessory.png,stimuli/Hand labour tool & accessory.png,4,0,1,stimuli/m2.jpg,,stimuli/objects/hoe.jpg,,,,,,,,1,0,2.484,0,32,32,32,1,Hand labour tool & accessory,,,,,,,
1,"[1,1,1,0,0,0,0,0,0,1,0,0,1,1,0,1,1,1,0,1,1,1,0,1,0,1,0,1,1,0,0,1,0,0,1,1,0,1,0,1,1,1,0,1,1,1,0,0,1]",,,,,,,,,,,,,5,2021-02-03_15h55.52.780,premceCat_ses-01_part-01_label-phase1,2020.2.9,MacIntel,60,,,,,,,,1,,,,,,stimuli/m2.jpg,stimuli/m5.jpg,2,stimuli/Hand labour tool & accessory.png,stimuli/Kitchen & utensil.png,stimuli/Outdoor activity & sport item.png,stimuli/Electronic device & accessory.png,1,1,1,stimuli/m5.jpg,,stimuli/objects/loppingshears.jpg,,,,,,,,1,1,2.614,0,33,33,33,1,Hand labour tool & accessory,,,,,,,
1,"[1,1,1,0,0,0,0,0,0,1,0,0,1,1,0,1,1,1,0,1,1,1,0,1,0,1,0,1,1,0,0,1,0,0,1,1,0,1,0,1,1,1,0,1,1,1,0,0,1,1]",,,,,,,,,,,,,5,2021-02-03_15h55.52.780,premceCat_ses-01_part-01_label-phase1,2020.2.9,MacIntel,60,,,,,,,,1,,,,,,stimuli/m2.jpg,stimuli/m5.jpg,1,stimuli/Kitchen & utensil.png,stimuli/Electronic device & accessory.png,stimuli/Outdoor activity & sport item.png,stimuli/Hand labour tool & accessory.png,1,1,1,stimuli/m2.jpg,,stimuli/objects/hourglass.jpg,,,,,,,,1,1,1.067,0,34,34,34,1,Kitchen & utensil,,,,,,,
0,"[1,1,1,0,0,0,0,0,0,1,0,0,1,1,0,1,1,1,0,1,1,1,0,1,0,1,0,1,1,0,0,1,0,0,1,1,0,1,0,1,1,1,0,1,1,1,0,0,1,1,1]",,,,,,,,,,,,,5,2021-02-03_15h55.52.780,premceCat_ses-01_part-01_label-phase1,2020.2.9,MacIntel,60,,,,,,,,0,,,,,,stimuli/m2.jpg,stimuli/m5.jpg,2,stimuli/Electronic device & accessory.png,stimuli/Hand labour tool & accessory.png,stimuli/Kitchen & utensil.png,stimuli/Outdoor activity & sport item.png,2,1,1,stimuli/m5.jpg,,stimuli/objects/snowshovel.jpg,,,,,,,,4,0,3.632,0,35,35,35,1,Hand labour tool & accessory,,,,,,,
1,"[1,1,1,0,0,0,0,0,0,1,0,0,1,1,0,1,1,1,0,1,1,1,0,1,0,1,0,1,1,0,0,1,0,0,1,1,0,1,0,1,1,1,0,1,1,1,0,0,1,1,1,0]",,,,,,,,,,,,,5,2021-02-03_15h55.52.780,premceCat_ses-01_part-01_label-phase1,2020.2.9,MacIntel,60,,,,,,,,1,,,,,,stimuli/m2.jpg,stimuli/m5.jpg,2,stimuli/Electronic device & accessory.png,stimuli/Hand labour tool & accessory.png,stimuli/Outdoor activity & sport item.png,stimuli/Kitchen & utensil.png,2,1,1,stimuli/m5.jpg,,stimuli/objects/carjack.jpg,,,,,,,,2,1,2.477,0,36,36,36,1,Hand labour tool & accessory,,,,,,,
0,"[1,1,1,0,0,0,0,0,0,1,0,0,1,1,0,1,1,1,0,1,1,1,0,1,0,1,0,1,1,0,0,1,0,0,1,1,0,1,0,1,1,1,0,1,1,1,0,0,1,1,1,0,1]",,,,,,,,,,,,,5,2021-02-03_15h55.52.780,premceCat_ses-01_part-01_label-phase1,2020.2.9,MacIntel,60,,,,,,,,0,,,,,,stimuli/m2.jpg,stimuli/m5.jpg,2,stimuli/Hand labour tool & accessory.png,stimuli/Electronic device & accessory.png,stimuli/Kitchen & utensil.png,stimuli/Outdoor activity & sport item.png,1,1,1,stimuli/m5.jpg,,stimuli/objects/wheel01.jpg,,,,,,,,2,0,2.568,0,37,37,37,1,Hand labour tool & accessory,,,,,,,
1,"[1,1,1,0,0,0,0,0,0,1,0,0,1,1,0,1,1,1,0,1,1,1,0,1,0,1,0,1,1,0,0,1,0,0,1,1,0,1,0,1,1,1,0,1,1,1,0,0,1,1,1,0,1,0]",,,,,,,,,,,,,5,2021-02-03_15h55.52.780,premceCat_ses-01_part-01_label-phase1,2020.2.9,MacIntel,60,,,,,,,,1,,,,,,stimuli/m2.jpg,stimuli/m5.jpg,1,stimuli/Outdoor activity & sport item.png,stimuli/Electronic device & accessory.png,stimuli/Hand labour tool & accessory.png,stimuli/Kitchen & utensil.png,4,1,1,stimuli/m2.jpg,,stimuli/objects/winerack.jpg,,,,,,,,4,1,2.694,0,38,38,38,1,Kitchen & utensil,,,,,,,
1,"[1,1,1,0,0,0,0,0,0,1,0,0,1,1,0,1,1,1,0,1,1,1,0,1,0,1,0,1,1,0,0,1,0,0,1,1,0,1,0,1,1,1,0,1,1,1,0,0,1,1,1,0,1,0,1]",,,,,,,,,,,,,5,2021-02-03_15h55.52.780,premceCat_ses-01_part-01_label-phase1,2020.2.9,MacIntel,60,,,,,,,,1,,,,,,stimuli/m5.jpg,stimuli/m2.jpg,2,stimuli/Hand labour tool & accessory.png,stimuli/Kitchen & utensil.png,stimuli/Electronic device & accessory.png,stimuli/Outdoor activity & sport item.png,2,1,1,stimuli/m2.jpg,,stimuli/objects/butterdish.jpg,,,,,,,,2,1,1.392,0,39,39,39,1,Kitchen & utensil,,,,,,,
0,"[1,1,1,0,0,0,0,0,0,1,0,0,1,1,0,1,1,1,0,1,1,1,0,1,0,1,0,1,1,0,0,1,0,0,1,1,0,1,0,1,1,1,0,1,1,1,0,0,1,1,1,0,1,0,1,1]",,,,,,,,,,,,,5,2021-02-03_15h55.52.780,premceCat_ses-01_part-01_label-phase1,2020.2.9,MacIntel,60,,,,,,,,0,,,,,,stimuli/m2.jpg,stimuli/m5.jpg,2,stimuli/Hand labour tool & accessory.png,stimuli/Outdoor activity & sport item.png,stimuli/Kitchen & utensil.png,stimuli/Electronic device & accessory.png,1,1,1,stimuli/m5.jpg,,stimuli/objects/needlenosepliers01.jpg,,,,,,,,2,0,1.672,0,40,40,40,1,Hand labour tool & accessory,,,,,,,
1,"[1,1,1,0,0,0,0,0,0,1,0,0,1,1,0,1,1,1,0,1,1,1,0,1,0,1,0,1,1,0,0,1,0,0,1,1,0,1,0,1,1,1,0,1,1,1,0,0,1,1,1,0,1,0,1,1,0]",,,,,,,,,,,,,5,2021-02-03_15h55.52.780,premceCat_ses-01_part-01_label-phase1,2020.2.9,MacIntel,60,,,,,,,,1,,,,,,stimuli/m2.jpg,stimuli/m5.jpg,2,stimuli/Kitchen & utensil.png,stimuli/Hand labour tool & accessory.png,stimuli/Electronic device & accessory.png,stimuli/Outdoor activity & sport item.png,2,1,1,stimuli/m5.jpg,,stimuli/objects/pickaxe02.jpg,,,,,,,,2,1,1.144,0,41,41,41,1,Hand labour tool & accessory,,,,,,,
,,,,,,,,,,,,,,5,2021-02-03_15h55.52.780,premceCat_ses-01_part-01_label-phase1,2020.2.9,MacIntel,60,,,,,,,,,,,,,,,,,,,,,,,,,,,,,,,,,,,,,,,,,,,j,48.218,0,0,0,0,1
1,[],,,,,,,,,,,,,5,2021-02-03_15h55.52.780,premceCat_ses-01_part-01_label-phase1,2020.2.9,MacIntel,60,,,,,,,,1,,,,,,stimuli/m2.jpg,stimuli/m5.jpg,1,stimuli/Outdoor activity & sport item.png,stimuli/Electronic device & accessory.png,stimuli/Kitchen & utensil.png,stimuli/Hand labour tool & accessory.png,3,1,1,stimuli/m2.jpg,,stimuli/objects/cutleryset.jpg,,,,,,,,3,1,1.407,0,0,0,0,1,Kitchen & utensil,,,,,,,
1,[1],,,,,,,,,,,,,5,2021-02-03_15h55.52.780,premceCat_ses-01_part-01_label-phase1,2020.2.9,MacIntel,60,,,,,,,,1,,,,,,stimuli/m5.jpg,stimuli/m2.jpg,2,stimuli/Kitchen & utensil.png,stimuli/Electronic device & accessory.png,stimuli/Outdoor activity & sport item.png,stimuli/Hand labour tool & accessory.png,1,1,1,stimuli/m2.jpg,,stimuli/objects/grill.jpg,,,,,,,,1,1,1.502,0,1,1,1,1,Kitchen & utensil,,,,,,,
1,"[1,1]",,,,,,,,,,,,,5,2021-02-03_15h55.52.780,premceCat_ses-01_part-01_label-phase1,2020.2.9,MacIntel,60,,,,,,,,1,,,,,,stimuli/m5.jpg,stimuli/m2.jpg,1,stimuli/Hand labour tool & accessory.png,stimuli/Outdoor activity & sport item.png,stimuli/Electronic device & accessory.png,stimuli/Kitchen & utensil.png,1,1,1,stimuli/m5.jpg,,stimuli/objects/ducttape.jpg,,,,,,,,1,1,1.761,0,2,2,2,1,Hand labour tool & accessory,,,,,,,
1,"[1,1,1]",,,,,,,,,,,,,5,2021-02-03_15h55.52.780,premceCat_ses-01_part-01_label-phase1,2020.2.9,MacIntel,60,,,,,,,,1,,,,,,stimuli/m5.jpg,stimuli/m2.jpg,2,stimuli/Electronic device & accessory.png,stimuli/Kitchen & utensil.png,stimuli/Outdoor activity & sport item.png,stimuli/Hand labour tool & accessory.png,2,1,1,stimuli/m2.jpg,,stimuli/objects/cakeplatter.jpg,,,,,,,,2,1,1.23,0,3,3,3,1,Kitchen & utensil,,,,,,,
1,"[1,1,1,1]",,,,,,,,,,,,,5,2021-02-03_15h55.52.780,premceCat_ses-01_part-01_label-phase1,2020.2.9,MacIntel,60,,,,,,,,1,,,,,,stimuli/m5.jpg,stimuli/m2.jpg,2,stimuli/Outdoor activity & sport item.png,stimuli/Hand labour tool & accessory.png,stimuli/Electronic device & accessory.png,stimuli/Kitchen & utensil.png,4,1,1,stimuli/m2.jpg,,stimuli/objects/bagtie.jpg,,,,,,,,4,1,2,0,4,4,4,1,Kitchen & utensil,,,,,,,
0,"[1,1,1,1,1]",,,,,,,,,,,,,5,2021-02-03_15h55.52.780,premceCat_ses-01_part-01_label-phase1,2020.2.9,MacIntel,60,,,,,,,,0,,,,,,stimuli/m5.jpg,stimuli/m2.jpg,1,stimuli/Outdoor activity & sport item.png,stimuli/Kitchen & utensil.png,stimuli/Electronic device & accessory.png,stimuli/Hand labour tool & accessory.png,4,1,1,stimuli/m5.jpg,,stimuli/objects/generator.jpg,,,,,,,,3,0,2.214,0,5,5,5,1,Hand labour tool & accessory,,,,,,,
1,"[1,1,1,1,1,0]",,,,,,,,,,,,,5,2021-02-03_15h55.52.780,premceCat_ses-01_part-01_label-phase1,2020.2.9,MacIntel,60,,,,,,,,1,,,,,,stimuli/m2.jpg,stimuli/m5.jpg,1,stimuli/Electronic device & accessory.png,stimuli/Outdoor activity & sport item.png,stimuli/Hand labour tool & accessory.png,stimuli/Kitchen & utensil.png,4,1,1,stimuli/m2.jpg,,stimuli/objects/thermos.jpg,,,,,,,,4,1,1.177,0,6,6,6,1,Kitchen & utensil,,,,,,,
1,"[1,1,1,1,1,0,1]",,,,,,,,,,,,,5,2021-02-03_15h55.52.780,premceCat_ses-01_part-01_label-phase1,2020.2.9,MacIntel,60,,,,,,,,1,,,,,,stimuli/m2.jpg,stimuli/m5.jpg,1,stimuli/Electronic device & accessory.png,stimuli/Hand labour tool & accessory.png,stimuli/Outdoor activity & sport item.png,stimuli/Kitchen & utensil.png,4,1,1,stimuli/m2.jpg,,stimuli/objects/fryingpan02a.jpg,,,,,,,,4,1,1.244,0,7,7,7,1,Kitchen & utensil,,,,,,,
1,"[1,1,1,1,1,0,1,1]",,,,,,,,,,,,,5,2021-02-03_15h55.52.780,premceCat_ses-01_part-01_label-phase1,2020.2.9,MacIntel,60,,,,,,,,1,,,,,,stimuli/m5.jpg,stimuli/m2.jpg,1,stimuli/Electronic device & accessory.png,stimuli/Hand labour tool & accessory.png,stimuli/Kitchen & utensil.png,stimuli/Outdoor activity & sport item.png,2,1,1,stimuli/m5.jpg,,stimuli/objects/cheeseknife01.jpg,,,,,,,,2,1,0.947,0,8,8,8,1,Hand labour tool & accessory,,,,,,,
1,"[1,1,1,1,1,0,1,1,1]",,,,,,,,,,,,,5,2021-02-03_15h55.52.780,premceCat_ses-01_part-01_label-phase1,2020.2.9,MacIntel,60,,,,,,,,1,,,,,,stimuli/m2.jpg,stimuli/m5.jpg,1,stimuli/Hand labour tool & accessory.png,stimuli/Electronic device & accessory.png,stimuli/Outdoor activity & sport item.png,stimuli/Kitchen & utensil.png,4,1,1,stimuli/m2.jpg,,stimuli/objects/bowl02a.jpg,,,,,,,,4,1,1.132,0,9,9,9,1,Kitchen & utensil,,,,,,,
1,"[1,1,1,1,1,0,1,1,1,1]",,,,,,,,,,,,,5,2021-02-03_15h55.52.780,premceCat_ses-01_part-01_label-phase1,2020.2.9,MacIntel,60,,,,,,,,1,,,,,,stimuli/m5.jpg,stimuli/m2.jpg,1,stimuli/Kitchen & utensil.png,stimuli/Electronic device & accessory.png,stimuli/Outdoor activity & sport item.png,stimuli/Hand labour tool & accessory.png,4,1,1,stimuli/m5.jpg,,stimuli/objects/sandpaper.jpg,,,,,,,,4,1,1.965,0,10,10,10,1,Hand labour tool & accessory,,,,,,,
0,"[1,1,1,1,1,0,1,1,1,1,1]",,,,,,,,,,,,,5,2021-02-03_15h55.52.780,premceCat_ses-01_part-01_label-phase1,2020.2.9,MacIntel,60,,,,,,,,0,,,,,,stimuli/m2.jpg,stimuli/m5.jpg,1,stimuli/Outdoor activity & sport item.png,stimuli/Kitchen & utensil.png,stimuli/Hand labour tool & accessory.png,stimuli/Electronic device & accessory.png,2,1,1,stimuli/m2.jpg,,stimuli/objects/saladspinner.jpg,,,,,,,,4,0,1.77,0,11,11,11,1,Kitchen & utensil,,,,,,,
1,"[1,1,1,1,1,0,1,1,1,1,1,0]",,,,,,,,,,,,,5,2021-02-03_15h55.52.780,premceCat_ses-01_part-01_label-phase1,2020.2.9,MacIntel,60,,,,,,,,1,,,,,,stimuli/m5.jpg,stimuli/m2.jpg,1,stimuli/Outdoor activity & sport item.png,stimuli/Kitchen & utensil.png,stimuli/Hand labour tool & accessory.png,stimuli/Electronic device & accessory.png,3,1,1,stimuli/m5.jpg,,stimuli/objects/cuttingpliers02.jpg,,,,,,,,3,1,3.106,0,12,12,12,1,Hand labour tool & accessory,,,,,,,
0,"[1,1,1,1,1,0,1,1,1,1,1,0,1]",,,,,,,,,,,,,5,2021-02-03_15h55.52.780,premceCat_ses-01_part-01_label-phase1,2020.2.9,MacIntel,60,,,,,,,,0,,,,,,stimuli/m2.jpg,stimuli/m5.jpg,2,stimuli/Outdoor activity & sport item.png,stimuli/Electronic device & accessory.png,stimuli/Kitchen & utensil.png,stimuli/Hand labour tool & accessory.png,4,1,1,stimuli/m5.jpg,,stimuli/objects/gavel.jpg,,,,,,,,2,0,3.439,0,13,13,13,1,Hand labour tool & accessory,,,,,,,
1,"[1,1,1,1,1,0,1,1,1,1,1,0,1,0]",,,,,,,,,,,,,5,2021-02-03_15h55.52.780,premceCat_ses-01_part-01_label-phase1,2020.2.9,MacIntel,60,,,,,,,,1,,,,,,stimuli/m5.jpg,stimuli/m2.jpg,1,stimuli/Electronic device & accessory.png,stimuli/Kitchen & utensil.png,stimuli/Hand labour tool & accessory.png,stimuli/Outdoor activity & sport item.png,3,1,1,stimuli/m5.jpg,,stimuli/objects/bungeecord02.jpg,,,,,,,,3,1,1.125,0,14,14,14,1,Hand labour tool & accessory,,,,,,,
1,"[1,1,1,1,1,0,1,1,1,1,1,0,1,0,1]",,,,,,,,,,,,,5,2021-02-03_15h55.52.780,premceCat_ses-01_part-01_label-phase1,2020.2.9,MacIntel,60,,,,,,,,1,,,,,,stimuli/m2.jpg,stimuli/m5.jpg,1,stimuli/Hand labour tool & accessory.png,stimuli/Outdoor activity & sport item.png,stimuli/Electronic device & accessory.png,stimuli/Kitchen & utensil.png,4,1,1,stimuli/m2.jpg,,stimuli/objects/spicerack.jpg,,,,,,,,4,1,1.89,0,15,15,15,1,Kitchen & utensil,,,,,,,
1,"[1,1,1,1,1,0,1,1,1,1,1,0,1,0,1,1]",,,,,,,,,,,,,5,2021-02-03_15h55.52.780,premceCat_ses-01_part-01_label-phase1,2020.2.9,MacIntel,60,,,,,,,,1,,,,,,stimuli/m5.jpg,stimuli/m2.jpg,2,stimuli/Hand labour tool & accessory.png,stimuli/Kitchen & utensil.png,stimuli/Outdoor activity & sport item.png,stimuli/Electronic device & accessory.png,2,1,1,stimuli/m2.jpg,,stimuli/objects/potatomasher03b.jpg,,,,,,,,2,1,2.362,0,16,16,16,1,Kitchen & utensil,,,,,,,
0,"[1,1,1,1,1,0,1,1,1,1,1,0,1,0,1,1,1]",,,,,,,,,,,,,5,2021-02-03_15h55.52.780,premceCat_ses-01_part-01_label-phase1,2020.2.9,MacIntel,60,,,,,,,,1,,,,,,stimuli/m2.jpg,stimuli/m5.jpg,2,stimuli/Electronic device & accessory.png,stimuli/Outdoor activity & sport item.png,stimuli/Kitchen & utensil.png,stimuli/Hand labour tool & accessory.png,3,0,1,stimuli/m5.jpg,,stimuli/objects/oven.jpg,,,,,,,,2,0,2.465,0,17,17,17,1,Kitchen & utensil,,,,,,,
0,"[1,1,1,1,1,0,1,1,1,1,1,0,1,0,1,1,1]",,,,,,,,,,,,,5,2021-02-03_15h55.52.780,premceCat_ses-01_part-01_label-phase1,2020.2.9,MacIntel,60,,,,,,,,1,,,,,,stimuli/m2.jpg,stimuli/m5.jpg,1,stimuli/Hand labour tool & accessory.png,stimuli/Kitchen & utensil.png,stimuli/Outdoor activity & sport item.png,stimuli/Electronic device & accessory.png,3,0,1,stimuli/m2.jpg,,stimuli/objects/basketball01.jpg,,,,,,,,2,0,1.439,0,18,18,18,1,Outdoor activity & sport item,,,,,,,
1,"[1,1,1,1,1,0,1,1,1,1,1,0,1,0,1,1,1]",,,,,,,,,,,,,5,2021-02-03_15h55.52.780,premceCat_ses-01_part-01_label-phase1,2020.2.9,MacIntel,60,,,,,,,,1,,,,,,stimuli/m2.jpg,stimuli/m5.jpg,2,stimuli/Outdoor activity & sport item.png,stimuli/Kitchen & utensil.png,stimuli/Hand labour tool & accessory.png,stimuli/Electronic device & accessory.png,3,1,1,stimuli/m5.jpg,,stimuli/objects/cclamp.jpg,,,,,,,,3,1,1.295,0,19,19,19,1,Hand labour tool & accessory,,,,,,,
0,"[1,1,1,1,1,0,1,1,1,1,1,0,1,0,1,1,1,1]",,,,,,,,,,,,,5,2021-02-03_15h55.52.780,premceCat_ses-01_part-01_label-phase1,2020.2.9,MacIntel,60,,,,,,,,0,,,,,,stimuli/m5.jpg,stimuli/m2.jpg,2,stimuli/Kitchen & utensil.png,stimuli/Hand labour tool & accessory.png,stimuli/Outdoor activity & sport item.png,stimuli/Electronic device & accessory.png,1,1,1,stimuli/m2.jpg,,stimuli/objects/martiniglass01b.jpg,,,,,,,,3,0,2.812,0,20,20,20,1,Kitchen & utensil,,,,,,,
0,"[1,1,1,1,1,0,1,1,1,1,1,0,1,0,1,1,1,1,0]",,,,,,,,,,,,,5,2021-02-03_15h55.52.780,premceCat_ses-01_part-01_label-phase1,2020.2.9,MacIntel,60,,,,,,,,0,,,,,,stimuli/m2.jpg,stimuli/m5.jpg,2,stimuli/Kitchen & utensil.png,stimuli/Hand labour tool & accessory.png,stimuli/Outdoor activity & sport item.png,stimuli/Electronic device & accessory.png,3,0,1,stimuli/m5.jpg,,stimuli/objects/racquetballracket.jpg,,,,,,,,1,0,2.207,0,21,21,21,1,Outdoor activity & sport item,,,,,,,
1,"[1,1,1,1,1,0,1,1,1,1,1,0,1,0,1,1,1,1,0]",,,,,,,,,,,,,5,2021-02-03_15h55.52.780,premceCat_ses-01_part-01_label-phase1,2020.2.9,MacIntel,60,,,,,,,,1,,,,,,stimuli/m5.jpg,stimuli/m2.jpg,2,stimuli/Outdoor activity & sport item.png,stimuli/Electronic device & accessory.png,stimuli/Hand labour tool & accessory.png,stimuli/Kitchen & utensil.png,4,1,1,stimuli/m2.jpg,,stimuli/objects/strainer01b.jpg,,,,,,,,4,1,1.338,0,22,22,22,1,Kitchen & utensil,,,,,,,
0,"[1,1,1,1,1,0,1,1,1,1,1,0,1,0,1,1,1,1,0,1]",,,,,,,,,,,,,5,2021-02-03_15h55.52.780,premceCat_ses-01_part-01_label-phase1,2020.2.9,MacIntel,60,,,,,,,,0,,,,,,stimuli/m2.jpg,stimuli/m5.jpg,2,stimuli/Electronic device & accessory.png,stimuli/Kitchen & utensil.png,stimuli/Outdoor activity & sport item.png,stimuli/Hand labour tool & accessory.png,4,1,1,stimuli/m5.jpg,,stimuli/objects/metalbrush.jpg,,,,,,,,1,0,2.365,0,23,23,23,1,Hand labour tool & accessory,,,,,,,
1,"[1,1,1,1,1,0,1,1,1,1,1,0,1,0,1,1,1,1,0,1,0]",,,,,,,,,,,,,5,2021-02-03_15h55.52.780,premceCat_ses-01_part-01_label-phase1,2020.2.9,MacIntel,60,,,,,,,,1,,,,,,stimuli/m5.jpg,stimuli/m2.jpg,1,stimuli/Hand labour tool & accessory.png,stimuli/Kitchen & utensil.png,stimuli/Outdoor activity & sport item.png,stimuli/Electronic device & accessory.png,1,1,1,stimuli/m5.jpg,,stimuli/objects/pressurewasher.jpg,,,,,,,,1,1,1.064,0,24,24,24,1,Hand labour tool & accessory,,,,,,,
1,"[1,1,1,1,1,0,1,1,1,1,1,0,1,0,1,1,1,1,0,1,0,1]",,,,,,,,,,,,,5,2021-02-03_15h55.52.780,premceCat_ses-01_part-01_label-phase1,2020.2.9,MacIntel,60,,,,,,,,1,,,,,,stimuli/m2.jpg,stimuli/m5.jpg,1,stimuli/Outdoor activity & sport item.png,stimuli/Hand labour tool & accessory.png,stimuli/Electronic device & accessory.png,stimuli/Kitchen & utensil.png,4,1,1,stimuli/m2.jpg,,stimuli/objects/mortarandpestle.jpg,,,,,,,,4,1,1.806,0,25,25,25,1,Kitchen & utensil,,,,,,,
0,"[1,1,1,1,1,0,1,1,1,1,1,0,1,0,1,1,1,1,0,1,0,1,1]",,,,,,,,,,,,,5,2021-02-03_15h55.52.780,premceCat_ses-01_part-01_label-phase1,2020.2.9,MacIntel,60,,,,,,,,1,,,,,,stimuli/m5.jpg,stimuli/m2.jpg,1,stimuli/Electronic device & accessory.png,stimuli/Hand labour tool & accessory.png,stimuli/Outdoor activity & sport item.png,stimuli/Kitchen & utensil.png,1,0,1,stimuli/m5.jpg,,stimuli/objects/speaker04.jpg,,,,,,,,2,0,1.315,0,26,26,26,1,Electronic device & accessory,,,,,,,
0,"[1,1,1,1,1,0,1,1,1,1,1,0,1,0,1,1,1,1,0,1,0,1,1]",,,,,,,,,,,,,5,2021-02-03_15h55.52.780,premceCat_ses-01_part-01_label-phase1,2020.2.9,MacIntel,60,,,,,,,,0,,,,,,stimuli/m2.jpg,stimuli/m5.jpg,2,stimuli/Hand labour tool & accessory.png,stimuli/Kitchen & utensil.png,stimuli/Electronic device & accessory.png,stimuli/Outdoor activity & sport item.png,1,1,1,stimuli/m5.jpg,,stimuli/objects/squeegee01b.jpg,,,,,,,,2,0,1.455,0,27,27,27,1,Hand labour tool & accessory,,,,,,,
1,"[1,1,1,1,1,0,1,1,1,1,1,0,1,0,1,1,1,1,0,1,0,1,1,0]",,,,,,,,,,,,,5,2021-02-03_15h55.52.780,premceCat_ses-01_part-01_label-phase1,2020.2.9,MacIntel,60,,,,,,,,0,,,,,,stimuli/m5.jpg,stimuli/m2.jpg,2,stimuli/Hand labour tool & accessory.png,stimuli/Outdoor activity & sport item.png,stimuli/Kitchen & utensil.png,stimuli/Electronic device & accessory.png,4,0,1,stimuli/m2.jpg,,stimuli/objects/antenna.jpg,,,,,,,,4,1,2.531,0,28,28,28,1,Electronic device & accessory,,,,,,,
1,"[1,1,1,1,1,0,1,1,1,1,1,0,1,0,1,1,1,1,0,1,0,1,1,0]",,,,,,,,,,,,,5,2021-02-03_15h55.52.780,premceCat_ses-01_part-01_label-phase1,2020.2.9,MacIntel,60,,,,,,,,1,,,,,,stimuli/m5.jpg,stimuli/m2.jpg,2,stimuli/Electronic device & accessory.png,stimuli/Outdoor activity & sport item.png,stimuli/Hand labour tool & accessory.png,stimuli/Kitchen & utensil.png,4,1,1,stimuli/m2.jpg,,stimuli/objects/sippycup.jpg,,,,,,,,4,1,1.441,0,29,29,29,1,Kitchen & utensil,,,,,,,
0,"[1,1,1,1,1,0,1,1,1,1,1,0,1,0,1,1,1,1,0,1,0,1,1,0,1]",,,,,,,,,,,,,5,2021-02-03_15h55.52.780,premceCat_ses-01_part-01_label-phase1,2020.2.9,MacIntel,60,,,,,,,,0,,,,,,stimuli/m2.jpg,stimuli/m5.jpg,2,stimuli/Kitchen & utensil.png,stimuli/Outdoor activity & sport item.png,stimuli/Electronic device & accessory.png,stimuli/Hand labour tool & accessory.png,4,1,1,stimuli/m5.jpg,,stimuli/objects/painttray.jpg,,,,,,,,2,0,1.248,0,30,30,30,1,Hand labour tool & accessory,,,,,,,
1,"[1,1,1,1,1,0,1,1,1,1,1,0,1,0,1,1,1,1,0,1,0,1,1,0,1,0]",,,,,,,,,,,,,5,2021-02-03_15h55.52.780,premceCat_ses-01_part-01_label-phase1,2020.2.9,MacIntel,60,,,,,,,,1,,,,,,stimuli/m2.jpg,stimuli/m5.jpg,1,stimuli/Hand labour tool & accessory.png,stimuli/Kitchen & utensil.png,stimuli/Electronic device & accessory.png,stimuli/Outdoor activity & sport item.png,2,1,1,stimuli/m2.jpg,,stimuli/objects/handmixer01d.jpg,,,,,,,,2,1,1.249,0,31,31,31,1,Kitchen & utensil,,,,,,,
0,"[1,1,1,1,1,0,1,1,1,1,1,0,1,0,1,1,1,1,0,1,0,1,1,0,1,0,1]",,,,,,,,,,,,,5,2021-02-03_15h55.52.780,premceCat_ses-01_part-01_label-phase1,2020.2.9,MacIntel,60,,,,,,,,1,,,,,,stimuli/m5.jpg,stimuli/m2.jpg,2,stimuli/Outdoor activity & sport item.png,stimuli/Kitchen & utensil.png,stimuli/Electronic device & accessory.png,stimuli/Hand labour tool & accessory.png,4,0,1,stimuli/m2.jpg,,stimuli/objects/hoe.jpg,,,,,,,,1,0,1.03,0,32,32,32,1,Hand labour tool & accessory,,,,,,,
1,"[1,1,1,1,1,0,1,1,1,1,1,0,1,0,1,1,1,1,0,1,0,1,1,0,1,0,1]",,,,,,,,,,,,,5,2021-02-03_15h55.52.780,premceCat_ses-01_part-01_label-phase1,2020.2.9,MacIntel,60,,,,,,,,1,,,,,,stimuli/m2.jpg,stimuli/m5.jpg,2,stimuli/Hand labour tool & accessory.png,stimuli/Kitchen & utensil.png,stimuli/Outdoor activity & sport item.png,stimuli/Electronic device & accessory.png,1,1,1,stimuli/m5.jpg,,stimuli/objects/loppingshears.jpg,,,,,,,,1,1,0.919,0,33,33,33,1,Hand labour tool & accessory,,,,,,,
1,"[1,1,1,1,1,0,1,1,1,1,1,0,1,0,1,1,1,1,0,1,0,1,1,0,1,0,1,1]",,,,,,,,,,,,,5,2021-02-03_15h55.52.780,premceCat_ses-01_part-01_label-phase1,2020.2.9,MacIntel,60,,,,,,,,1,,,,,,stimuli/m2.jpg,stimuli/m5.jpg,1,stimuli/Kitchen & utensil.png,stimuli/Electronic device & accessory.png,stimuli/Outdoor activity & sport item.png,stimuli/Hand labour tool & accessory.png,1,1,1,stimuli/m2.jpg,,stimuli/objects/hourglass.jpg,,,,,,,,1,1,1.389,0,34,34,34,1,Kitchen & utensil,,,,,,,
1,"[1,1,1,1,1,0,1,1,1,1,1,0,1,0,1,1,1,1,0,1,0,1,1,0,1,0,1,1,1]",,,,,,,,,,,,,5,2021-02-03_15h55.52.780,premceCat_ses-01_part-01_label-phase1,2020.2.9,MacIntel,60,,,,,,,,1,,,,,,stimuli/m2.jpg,stimuli/m5.jpg,2,stimuli/Electronic device & accessory.png,stimuli/Hand labour tool & accessory.png,stimuli/Kitchen & utensil.png,stimuli/Outdoor activity & sport item.png,2,1,1,stimuli/m5.jpg,,stimuli/objects/snowshovel.jpg,,,,,,,,2,1,0.946,0,35,35,35,1,Hand labour tool & accessory,,,,,,,
1,"[1,1,1,1,1,0,1,1,1,1,1,0,1,0,1,1,1,1,0,1,0,1,1,0,1,0,1,1,1,1]",,,,,,,,,,,,,5,2021-02-03_15h55.52.780,premceCat_ses-01_part-01_label-phase1,2020.2.9,MacIntel,60,,,,,,,,1,,,,,,stimuli/m2.jpg,stimuli/m5.jpg,2,stimuli/Electronic device & accessory.png,stimuli/Hand labour tool & accessory.png,stimuli/Outdoor activity & sport item.png,stimuli/Kitchen & utensil.png,2,1,1,stimuli/m5.jpg,,stimuli/objects/carjack.jpg,,,,,,,,2,1,0.581,0,36,36,36,1,Hand labour tool & accessory,,,,,,,
0,"[1,1,1,1,1,0,1,1,1,1,1,0,1,0,1,1,1,1,0,1,0,1,1,0,1,0,1,1,1,1,1]",,,,,,,,,,,,,5,2021-02-03_15h55.52.780,premceCat_ses-01_part-01_label-phase1,2020.2.9,MacIntel,60,,,,,,,,0,,,,,,stimuli/m2.jpg,stimuli/m5.jpg,2,stimuli/Hand labour tool & accessory.png,stimuli/Electronic device & accessory.png,stimuli/Kitchen & utensil.png,stimuli/Outdoor activity & sport item.png,1,1,1,stimuli/m5.jpg,,stimuli/objects/wheel01.jpg,,,,,,,,4,0,1.489,0,37,37,37,1,Hand labour tool & accessory,,,,,,,
1,"[1,1,1,1,1,0,1,1,1,1,1,0,1,0,1,1,1,1,0,1,0,1,1,0,1,0,1,1,1,1,1,0]",,,,,,,,,,,,,5,2021-02-03_15h55.52.780,premceCat_ses-01_part-01_label-phase1,2020.2.9,MacIntel,60,,,,,,,,1,,,,,,stimuli/m2.jpg,stimuli/m5.jpg,1,stimuli/Outdoor activity & sport item.png,stimuli/Electronic device & accessory.png,stimuli/Hand labour tool & accessory.png,stimuli/Kitchen & utensil.png,4,1,1,stimuli/m2.jpg,,stimuli/objects/winerack.jpg,,,,,,,,4,1,1.404,0,38,38,38,1,Kitchen & utensil,,,,,,,
1,"[1,1,1,1,1,0,1,1,1,1,1,0,1,0,1,1,1,1,0,1,0,1,1,0,1,0,1,1,1,1,1,0,1]",,,,,,,,,,,,,5,2021-02-03_15h55.52.780,premceCat_ses-01_part-01_label-phase1,2020.2.9,MacIntel,60,,,,,,,,1,,,,,,stimuli/m5.jpg,stimuli/m2.jpg,2,stimuli/Hand labour tool & accessory.png,stimuli/Kitchen & utensil.png,stimuli/Electronic device & accessory.png,stimuli/Outdoor activity & sport item.png,2,1,1,stimuli/m2.jpg,,stimuli/objects/butterdish.jpg,,,,,,,,2,1,1.715,0,39,39,39,1,Kitchen & utensil,,,,,,,
1,"[1,1,1,1,1,0,1,1,1,1,1,0,1,0,1,1,1,1,0,1,0,1,1,0,1,0,1,1,1,1,1,0,1,1]",,,,,,,,,,,,,5,2021-02-03_15h55.52.780,premceCat_ses-01_part-01_label-phase1,2020.2.9,MacIntel,60,,,,,,,,1,,,,,,stimuli/m2.jpg,stimuli/m5.jpg,2,stimuli/Hand labour tool & accessory.png,stimuli/Outdoor activity & sport item.png,stimuli/Kitchen & utensil.png,stimuli/Electronic device & accessory.png,1,1,1,stimuli/m5.jpg,,stimuli/objects/needlenosepliers01.jpg,,,,,,,,1,1,1.76,0,40,40,40,1,Hand labour tool & accessory,,,,,,,
0,"[1,1,1,1,1,0,1,1,1,1,1,0,1,0,1,1,1,1,0,1,0,1,1,0,1,0,1,1,1,1,1,0,1,1,1]",,,,,,,,,,,,,5,2021-02-03_15h55.52.780,premceCat_ses-01_part-01_label-phase1,2020.2.9,MacIntel,60,,,,,,,,0,,,,,,stimuli/m2.jpg,stimuli/m5.jpg,2,stimuli/Kitchen & utensil.png,stimuli/Hand labour tool & accessory.png,stimuli/Electronic device & accessory.png,stimuli/Outdoor activity & sport item.png,2,1,1,stimuli/m5.jpg,,stimuli/objects/pickaxe02.jpg,,,,,,,,4,0,1.769,0,41,41,41,1,Hand labour tool & accessory,,,,,,,
,,,,,,,,,,,,,,5,2021-02-03_15h55.52.780,premceCat_ses-01_part-01_label-phase1,2020.2.9,MacIntel,60,,,,,,,,,,,,,,,,,,,,,,,,,,,,,,,,,,,,,,,,,,,n,18.03,1,0,1,0,1
