"participant","first_character","second_character","warmup_resp.keys","warmup_resp.corr","warmup_resp.rt","Cue","left_categ","centleft_categ","centright_categ","right_categ","corr_ans","obj_category","image","trial_cond","switch_cond"
1,"stimuli/m5.jpg","stimuli/m2.jpg",2,1,1.445,1,"stimuli/Outdoor activity & sport item.png","stimuli/Hand labour tool & accessory.png","stimuli/Kitchen & utensil.png","stimuli/Electronic device & accessory.png",2,"Hand labour tool & accessory","stimuli/objects/handrake01a.jpg",1,1
1,"stimuli/m2.jpg","stimuli/m5.jpg",4,1,1.151,2,"stimuli/Outdoor activity & sport item.png","stimuli/Electronic device & accessory.png","stimuli/Kitchen & utensil.png","stimuli/Hand labour tool & accessory.png",4,"Hand labour tool & accessory","stimuli/objects/jumpingjack.jpg",1,1
1,"stimuli/m2.jpg","stimuli/m5.jpg",3,1,0.95,1,"stimuli/Kitchen & utensil.png","stimuli/Hand labour tool & accessory.png","stimuli/Outdoor activity & sport item.png","stimuli/Electronic device & accessory.png",3,"Outdoor activity & sport item","stimuli/objects/racquetballracket.jpg",1,1
1,"stimuli/m2.jpg","stimuli/m5.jpg",4,1,1.272,1,"stimuli/Electronic device & accessory.png","stimuli/Hand labour tool & accessory.png","stimuli/Kitchen & utensil.png","stimuli/Outdoor activity & sport item.png",4,"Outdoor activity & sport item","stimuli/objects/racquetballracket.jpg",1,1
1,"stimuli/m2.jpg","stimuli/m5.jpg",3,0,1.571,1,"stimuli/Outdoor activity & sport item.png","stimuli/Kitchen & utensil.png","stimuli/Hand labour tool & accessory.png","stimuli/Electronic device & accessory.png",1,"Outdoor activity & sport item","stimuli/objects/crosscountryski.jpg",1,1
1,"stimuli/m2.jpg","stimuli/m5.jpg",1,1,1.192,1,"stimuli/Outdoor activity & sport item.png","stimuli/Electronic device & accessory.png","stimuli/Hand labour tool & accessory.png","stimuli/Kitchen & utensil.png",1,"Outdoor activity & sport item","stimuli/objects/crosscountryski.jpg",1,1
1,"stimuli/m5.jpg","stimuli/m2.jpg",3,1,0.866,1,"stimuli/Outdoor activity & sport item.png","stimuli/Electronic device & accessory.png","stimuli/Hand labour tool & accessory.png","stimuli/Kitchen & utensil.png",3,"Hand labour tool & accessory","stimuli/objects/jumpingjack.jpg",1,1
1,"stimuli/m2.jpg","stimuli/m5.jpg",3,0,0.748,2,"stimuli/Outdoor activity & sport item.png","stimuli/Electronic device & accessory.png","stimuli/Hand labour tool & accessory.png","stimuli/Kitchen & utensil.png",4,"Kitchen & utensil","stimuli/objects/jug.jpg",0,1
1,"stimuli/m5.jpg","stimuli/m2.jpg",2,1,0.921,1,"stimuli/Outdoor activity & sport item.png","stimuli/Hand labour tool & accessory.png","stimuli/Electronic device & accessory.png","stimuli/Kitchen & utensil.png",2,"Hand labour tool & accessory","stimuli/objects/pitchfork.jpg",1,1
1,"stimuli/m5.jpg","stimuli/m2.jpg",4,0,1.705,2,"stimuli/Kitchen & utensil.png","stimuli/Hand labour tool & accessory.png","stimuli/Electronic device & accessory.png","stimuli/Outdoor activity & sport item.png",2,"Hand labour tool & accessory","stimuli/objects/boxcutter03a.jpg",0,1
1,"stimuli/m5.jpg","stimuli/m2.jpg",2,0,1.547,1,"stimuli/Kitchen & utensil.png","stimuli/Outdoor activity & sport item.png","stimuli/Electronic device & accessory.png","stimuli/Hand labour tool & accessory.png",4,"Hand labour tool & accessory","stimuli/objects/gavel.jpg",1,1
1,"stimuli/m5.jpg","stimuli/m2.jpg",2,0,0.634,1,"stimuli/Kitchen & utensil.png","stimuli/Hand labour tool & accessory.png","stimuli/Electronic device & accessory.png","stimuli/Outdoor activity & sport item.png",4,"Outdoor activity & sport item","stimuli/objects/swing.jpg",0,1
1,"stimuli/m5.jpg","stimuli/m2.jpg",2,0,1.368,2,"stimuli/Outdoor activity & sport item.png","stimuli/Electronic device & accessory.png","stimuli/Kitchen & utensil.png","stimuli/Hand labour tool & accessory.png",1,"Outdoor activity & sport item","stimuli/objects/bicycle.jpg",1,1
1,"stimuli/m2.jpg","stimuli/m5.jpg",2,1,1.358,1,"stimuli/Electronic device & accessory.png","stimuli/Outdoor activity & sport item.png","stimuli/Hand labour tool & accessory.png","stimuli/Kitchen & utensil.png",2,"Outdoor activity & sport item","stimuli/objects/racquetballracket.jpg",1,1
1,"stimuli/m5.jpg","stimuli/m2.jpg",1,0,1.009,1,"stimuli/Hand labour tool & accessory.png","stimuli/Outdoor activity & sport item.png","stimuli/Kitchen & utensil.png","stimuli/Electronic device & accessory.png",3,"Kitchen & utensil","stimuli/objects/freezer02.jpg",0,1
1,"stimuli/m2.jpg","stimuli/m5.jpg",4,0,1.154,1,"stimuli/Kitchen & utensil.png","stimuli/Hand labour tool & accessory.png","stimuli/Electronic device & accessory.png","stimuli/Outdoor activity & sport item.png",2,"Hand labour tool & accessory","stimuli/objects/handrake01a.jpg",0,1
1,"stimuli/m5.jpg","stimuli/m2.jpg",2,1,0.759,2,"stimuli/Hand labour tool & accessory.png","stimuli/Outdoor activity & sport item.png","stimuli/Kitchen & utensil.png","stimuli/Electronic device & accessory.png",2,"Outdoor activity & sport item","stimuli/objects/rollerblade.jpg",1,1
1,"stimuli/m2.jpg","stimuli/m5.jpg",2,0,0.438,2,"stimuli/Hand labour tool & accessory.png","stimuli/Kitchen & utensil.png","stimuli/Electronic device & accessory.png","stimuli/Outdoor activity & sport item.png",1,"Hand labour tool & accessory","stimuli/objects/hedgetrimmer.jpg",1,1
1,"stimuli/m5.jpg","stimuli/m2.jpg",1,1,1.121,1,"stimuli/Hand labour tool & accessory.png","stimuli/Outdoor activity & sport item.png","stimuli/Electronic device & accessory.png","stimuli/Kitchen & utensil.png",1,"Hand labour tool & accessory","stimuli/objects/jumpingjack.jpg",1,1
1,"stimuli/m2.jpg","stimuli/m5.jpg",NA,NA,NA,2,"stimuli/Electronic device & accessory.png","stimuli/Kitchen & utensil.png","stimuli/Hand labour tool & accessory.png","stimuli/Outdoor activity & sport item.png",2,"Kitchen & utensil","stimuli/objects/travelmug.jpg",0,2
1,"stimuli/m2.jpg","stimuli/m5.jpg",NA,NA,NA,1,"stimuli/Kitchen & utensil.png","stimuli/Outdoor activity & sport item.png","stimuli/Electronic device & accessory.png","stimuli/Hand labour tool & accessory.png",2,"Outdoor activity & sport item","stimuli/objects/swimgoggles.jpg",1,2
1,"stimuli/m2.jpg","stimuli/m5.jpg",NA,NA,NA,2,"stimuli/Electronic device & accessory.png","stimuli/Hand labour tool & accessory.png","stimuli/Outdoor activity & sport item.png","stimuli/Kitchen & utensil.png",3,"Outdoor activity & sport item","stimuli/objects/outdoorheater.jpg",0,2
1,"stimuli/m2.jpg","stimuli/m5.jpg",NA,NA,NA,2,"stimuli/Kitchen & utensil.png","stimuli/Hand labour tool & accessory.png","stimuli/Electronic device & accessory.png","stimuli/Outdoor activity & sport item.png",2,"Hand labour tool & accessory","stimuli/objects/adjustablewrench01b.jpg",1,2
1,"stimuli/m2.jpg","stimuli/m5.jpg",NA,NA,NA,1,"stimuli/Kitchen & utensil.png","stimuli/Hand labour tool & accessory.png","stimuli/Electronic device & accessory.png","stimuli/Outdoor activity & sport item.png",3,"Electronic device & accessory","stimuli/objects/phonejack.jpg",0,2
1,"stimuli/m5.jpg","stimuli/m2.jpg",NA,NA,NA,2,"stimuli/Hand labour tool & accessory.png","stimuli/Electronic device & accessory.png","stimuli/Kitchen & utensil.png","stimuli/Outdoor activity & sport item.png",4,"Outdoor activity & sport item","stimuli/objects/patioumbrella.jpg",1,2
1,"stimuli/m5.jpg","stimuli/m2.jpg",NA,NA,NA,1,"stimuli/Electronic device & accessory.png","stimuli/Outdoor activity & sport item.png","stimuli/Kitchen & utensil.png","stimuli/Hand labour tool & accessory.png",1,"Electronic device & accessory","stimuli/objects/wire.jpg",0,2
1,"stimuli/m2.jpg","stimuli/m5.jpg",NA,NA,NA,2,"stimuli/Electronic device & accessory.png","stimuli/Kitchen & utensil.png","stimuli/Outdoor activity & sport item.png","stimuli/Hand labour tool & accessory.png",2,"Kitchen & utensil","stimuli/objects/cowbell.jpg",0,2
1,"stimuli/m5.jpg","stimuli/m2.jpg",NA,NA,NA,2,"stimuli/Outdoor activity & sport item.png","stimuli/Hand labour tool & accessory.png","stimuli/Kitchen & utensil.png","stimuli/Electronic device & accessory.png",1,"Outdoor activity & sport item","stimuli/objects/baseball01a.jpg",1,2
1,"stimuli/m2.jpg","stimuli/m5.jpg",NA,NA,NA,1,"stimuli/Electronic device & accessory.png","stimuli/Hand labour tool & accessory.png","stimuli/Kitchen & utensil.png","stimuli/Outdoor activity & sport item.png",4,"Outdoor activity & sport item","stimuli/objects/bikehelmet.jpg",1,2
1,"stimuli/m2.jpg","stimuli/m5.jpg",NA,NA,NA,1,"stimuli/Electronic device & accessory.png","stimuli/Outdoor activity & sport item.png","stimuli/Hand labour tool & accessory.png","stimuli/Kitchen & utensil.png",2,"Outdoor activity & sport item","stimuli/objects/canoepaddle02.jpg",1,2
1,"stimuli/m5.jpg","stimuli/m2.jpg",NA,NA,NA,1,"stimuli/Electronic device & accessory.png","stimuli/Outdoor activity & sport item.png","stimuli/Hand labour tool & accessory.png","stimuli/Kitchen & utensil.png",3,"Hand labour tool & accessory","stimuli/objects/leafrake.jpg",1,2
1,"stimuli/m2.jpg","stimuli/m5.jpg",NA,NA,NA,2,"stimuli/Kitchen & utensil.png","stimuli/Hand labour tool & accessory.png","stimuli/Outdoor activity & sport item.png","stimuli/Electronic device & accessory.png",2,"Hand labour tool & accessory","stimuli/objects/lawnmower.jpg",1,2
1,"stimuli/m5.jpg","stimuli/m2.jpg",NA,NA,NA,2,"stimuli/Kitchen & utensil.png","stimuli/Outdoor activity & sport item.png","stimuli/Hand labour tool & accessory.png","stimuli/Electronic device & accessory.png",2,"Outdoor activity & sport item","stimuli/objects/reflector.jpg",1,2
