"participant","recog_resp.keys","recog_resp.rt","conf_resp.keys","conf_resp.rt","resp_assoc.keys","resp_assoc.rt","images","corr_ans","type"
2,"",NA,NA,NA,"",NA,"","",""
2,"",NA,NA,NA,"",NA,"","",""
2,"",NA,NA,NA,"",NA,"","",""
2,"right",4.847,2,2.7,"",NA,"stimuli/objects/videotape01b.jpg","right","new"
2,"left",1.484,4,1.297,"left",6.028,"","",""
2,"",NA,NA,NA,"",NA,"stimuli/objects/lightbulb01.jpg","left","old"
2,"left",2.661,3,0.889,"right",1.068,"","",""
2,"",NA,NA,NA,"",NA,"stimuli/objects/icepack.jpg","right","new"
2,"left",1.265,4,1.672,"left",1.676,"","",""
2,"",NA,NA,NA,"",NA,"stimuli/objects/cookingpot.jpg","left","old"
2,"left",2.714,3,1.607,"left",0.451,"","",""
2,"",NA,NA,NA,"",NA,"stimuli/objects/bikewheel.jpg","left","old"
2,"left",1.657,3,1.703,"right",1.207,"","",""
2,"",NA,NA,NA,"",NA,"stimuli/objects/desktopcomputer.jpg","left","old"
2,"right",5.79,1,1.223,"",NA,"stimuli/objects/electricmixer.jpg","right","new"
2,"left",1.611,4,1.013,"right",2.065,"","",""
2,"",NA,NA,NA,"",NA,"stimuli/objects/usbkey.jpg","left","old"
2,"left",3.209,1,0.722,"right",1.026,"","",""
2,"",NA,NA,NA,"",NA,"stimuli/objects/speaker04.jpg","right","new"
2,"left",1.878,3,1.203,"right",1.514,"","",""
2,"",NA,NA,NA,"",NA,"stimuli/objects/cclamp.jpg","right","new"
2,"left",2.516,3,0.932,"right",1.686,"","",""
2,"",NA,NA,NA,"",NA,"stimuli/objects/nailgun.jpg","right","new"
2,"left",0.903,4,1.158,"left",2.327,"","",""
2,"",NA,NA,NA,"",NA,"stimuli/objects/ladder.jpg","left","old"
2,"right",2.473,1,1.073,"",NA,"stimuli/objects/tripod01.jpg","right","new"
2,"left",1.746,3,0.555,"right",0.758,"","",""
2,"",NA,NA,NA,"",NA,"stimuli/objects/jigsaw.jpg","left","old"
2,"right",1.701,2,1.188,"",NA,"stimuli/objects/studiolight.jpg","right","new"
2,"left",1.472,2,2.78,"left",1.191,"","",""
2,"",NA,NA,NA,"",NA,"stimuli/objects/carlighter02.jpg","right","new"
2,"left",1.13,4,0.697,"right",1.465,"","",""
2,"",NA,NA,NA,"",NA,"stimuli/objects/setsquare.jpg","left","old"
2,"left",3.605,2,0.988,"left",1.709,"","",""
2,"",NA,NA,NA,"",NA,"stimuli/objects/cashregister01.jpg","right","new"
2,"left",1.389,2,1.481,"left",0.608,"","",""
2,"",NA,NA,NA,"",NA,"stimuli/objects/bastingbrush.jpg","right","new"
2,"left",1.043,4,1.163,"left",1.646,"","",""
2,"",NA,NA,NA,"",NA,"stimuli/objects/fanblades.jpg","left","old"
2,"left",1.245,4,0.904,"right",0.358,"","",""
2,"",NA,NA,NA,"",NA,"stimuli/objects/dvdplayer.jpg","left","old"
2,"right",2.119,1,1.547,"",NA,"stimuli/objects/spotlight.jpg","right","new"
2,"right",2.964,2,0.636,"",NA,"stimuli/objects/minifridge.jpg","right","new"
2,"left",0.971,4,0.861,"right",0.445,"","",""
2,"",NA,NA,NA,"",NA,"stimuli/objects/cellphone.jpg","left","old"
2,"left",1.416,3,0.393,"right",0.966,"","",""
2,"",NA,NA,NA,"",NA,"stimuli/objects/weedwacker.jpg","left","old"
2,"left",1.005,4,0.526,"right",0.379,"","",""
2,"",NA,NA,NA,"",NA,"stimuli/objects/djmixer02.jpg","left","old"
2,"left",2.252,3,1.058,"right",1.299,"","",""
2,"",NA,NA,NA,"",NA,"stimuli/objects/megaphone.jpg","right","new"
2,"left",1.132,3,1.127,"left",0.938,"","",""
2,"",NA,NA,NA,"",NA,"stimuli/objects/snowbrush.jpg","right","new"
2,"right",1.328,4,1.565,"",NA,"stimuli/objects/snowman.jpg","right","new"
2,"left",2.214,4,0.986,"right",1.49,"","",""
2,"",NA,NA,NA,"",NA,"stimuli/objects/level03a.jpg","left","old"
2,"left",1.13,4,0.965,"left",0.39,"","",""
2,"",NA,NA,NA,"",NA,"stimuli/objects/baseballbat.jpg","left","old"
2,"left",0.953,4,0.83,"right",0.451,"","",""
2,"",NA,NA,NA,"",NA,"stimuli/objects/wire.jpg","left","old"
2,"left",0.868,4,0.433,"right",1.861,"","",""
2,"",NA,NA,NA,"",NA,"stimuli/objects/axe01.jpg","left","old"
2,"left",1.08,4,1.089,"left",2.083,"","",""
2,"",NA,NA,NA,"",NA,"stimuli/objects/spicerack.jpg","left","old"
2,"left",1.245,3,1.308,"right",0.72,"","",""
2,"",NA,NA,NA,"",NA,"stimuli/objects/webcam.jpg","right","new"
2,"left",2.682,2,2.396,"right",0.976,"","",""
2,"",NA,NA,NA,"",NA,"stimuli/objects/generator.jpg","right","new"
2,"left",1.389,4,0.439,"left",1.982,"","",""
2,"",NA,NA,NA,"",NA,"stimuli/objects/gardenshears01a.jpg","left","old"
2,"left",0.942,4,0.562,"left",0.481,"","",""
2,"",NA,NA,NA,"",NA,"stimuli/objects/funnel.jpg","left","old"
2,"right",2.343,1,1.185,"",NA,"stimuli/objects/stepladder.jpg","right","new"
2,"left",0.93,4,1.349,"left",0.328,"","",""
2,"",NA,NA,NA,"",NA,"stimuli/objects/nintendods.jpg","left","old"
2,"right",3.431,2,1.052,"",NA,"stimuli/objects/remotecontrol04.jpg","right","new"
2,"left",0.895,4,0.552,"right",0.321,"","",""
2,"",NA,NA,NA,"",NA,"stimuli/objects/lamp04a.jpg","left","old"
2,"left",1.388,3,0.884,"left",0.317,"","",""
2,"",NA,NA,NA,"",NA,"stimuli/objects/measuringcup01.jpg","left","old"
2,"left",0.966,4,0.9,"left",0.988,"","",""
2,"",NA,NA,NA,"",NA,"stimuli/objects/woodenspoon.jpg","left","old"
2,"left",1.627,1,0.985,"right",1.353,"","",""
2,"",NA,NA,NA,"",NA,"stimuli/objects/laptop01a.jpg","right","new"
2,"left",1.188,3,0.875,"right",0.412,"","",""
2,"",NA,NA,NA,"",NA,"stimuli/objects/paintbrush01.jpg","right","new"
2,"right",1.736,3,1.758,"",NA,"stimuli/objects/frisbee.jpg","right","new"
2,"left",1.032,4,0.535,"right",1.166,"","",""
2,"",NA,NA,NA,"",NA,"stimuli/objects/gps.jpg","left","old"
2,"left",1.849,2,1.918,"right",1.111,"","",""
2,"",NA,NA,NA,"",NA,"stimuli/objects/mitresaw.jpg","right","new"
2,"left",1.159,4,1.71,"left",0.608,"","",""
2,"",NA,NA,NA,"",NA,"stimuli/objects/oven.jpg","left","old"
2,"left",1.359,2,0.937,"right",1.044,"","",""
2,"",NA,NA,NA,"",NA,"stimuli/objects/chisel02b.jpg","right","new"
2,"left",0.825,4,0.468,"left",1.599,"","",""
2,"",NA,NA,NA,"",NA,"stimuli/objects/rope03.jpg","left","old"
2,"right",3.273,2,1.228,"",NA,"stimuli/objects/umbrella04.jpg","right","new"
2,"left",1.223,4,1.093,"right",0.692,"","",""
2,"",NA,NA,NA,"",NA,"stimuli/objects/phonejack.jpg","left","old"
2,"right",2.218,3,1.017,"",NA,"stimuli/objects/boogieboard.jpg","right","new"
2,"left",1.604,3,1.204,"right",1.445,"","",""
2,"",NA,NA,NA,"",NA,"stimuli/objects/snowblower.jpg","left","old"
2,"left",0.987,4,0.309,"right",1.107,"","",""
2,"",NA,NA,NA,"",NA,"stimuli/objects/photocopier.jpg","left","old"
2,"left",2.302,2,1.611,"right",0.917,"","",""
2,"",NA,NA,NA,"",NA,"stimuli/objects/lock03a.jpg","right","new"
2,"left",0.828,4,0.492,"left",0.393,"","",""
2,"",NA,NA,NA,"",NA,"stimuli/objects/cookiecutter.jpg","left","old"
2,"right",2.097,2,1.061,"",NA,"stimuli/objects/garlicpress02a.jpg","right","new"
2,"right",1.408,3,1.287,"",NA,"stimuli/objects/avcable.jpg","right","new"
2,"left",1.081,4,0.388,"right",0.458,"","",""
2,"",NA,NA,NA,"",NA,"stimuli/objects/dvdcase01.jpg","left","old"
2,"left",3.638,1,0.841,"right",1.086,"","",""
2,"",NA,NA,NA,"",NA,"stimuli/objects/leafblower01.jpg","right","new"
2,"right",1.107,3,2.317,"",NA,"stimuli/objects/microphone01.jpg","right","new"
2,"left",0.945,4,0.461,"left",0.381,"","",""
2,"",NA,NA,NA,"",NA,"stimuli/objects/iceskate.jpg","left","old"
2,"left",1.263,4,0.306,"left",1.074,"","",""
2,"",NA,NA,NA,"",NA,"stimuli/objects/pipewrench.jpg","left","old"
2,"right",2.331,1,0.978,"",NA,"stimuli/objects/pylon01.jpg","right","new"
2,"left",2.344,1,0.378,"left",0.781,"","",""
2,"",NA,NA,NA,"",NA,"stimuli/objects/bowlingball.jpg","right","new"
2,"right",2.127,3,1.263,"",NA,"stimuli/objects/punchingball.jpg","right","new"
2,"left",1.882,3,0.846,"right",0.269,"","",""
2,"",NA,NA,NA,"",NA,"stimuli/objects/battery02b.jpg","right","new"
2,"right",2.848,2,0.797,"",NA,"stimuli/objects/peppermill02b.jpg","right","new"
2,"left",1.148,4,0.338,"left",0.512,"","",""
2,"",NA,NA,NA,"",NA,"stimuli/objects/waterbottle03.jpg","left","old"
2,"left",1.132,4,0.437,"right",1.696,"","",""
2,"",NA,NA,NA,"",NA,"stimuli/objects/atm.jpg","left","old"
2,"left",1.441,4,0.337,"left",1.935,"","",""
2,"",NA,NA,NA,"",NA,"stimuli/objects/cork02.jpg","left","old"
2,"left",1.839,4,1.623,"left",1.26,"","",""
2,"",NA,NA,NA,"",NA,"stimuli/objects/hourglass.jpg","left","old"
2,"left",0.865,4,0.501,"right",1.43,"","",""
2,"",NA,NA,NA,"",NA,"stimuli/objects/boltcutter.jpg","left","old"
2,"left",1.453,2,0.893,"right",0.5,"","",""
2,"",NA,NA,NA,"",NA,"stimuli/objects/microwave.jpg","right","new"
2,"left",1.008,4,0.328,"right",1.213,"","",""
2,"",NA,NA,NA,"",NA,"stimuli/objects/aircompressor.jpg","left","old"
2,"left",0.824,4,0.32,"left",0.304,"","",""
2,"",NA,NA,NA,"",NA,"stimuli/objects/martiniglass01b.jpg","left","old"
2,"left",2.226,4,1.041,"left",1.531,"","",""
2,"",NA,NA,NA,"",NA,"stimuli/objects/cowbell.jpg","left","old"
2,"left",0.823,4,0.414,"right",0.922,"","",""
2,"",NA,NA,NA,"",NA,"stimuli/objects/expansioncard.jpg","left","old"
2,"left",0.823,4,0.404,"left",0.615,"","",""
2,"",NA,NA,NA,"",NA,"stimuli/objects/downhillski.jpg","left","old"
2,"right",1.081,3,2.303,"",NA,"stimuli/objects/basketballhoop01.jpg","right","new"
2,"right",1.716,3,0.51,"",NA,"stimuli/objects/taperecorder.jpg","right","new"
2,"right",3.809,1,0.854,"",NA,"stimuli/objects/walkman.jpg","right","new"
2,"left",0.831,4,1.263,"left",0.286,"","",""
2,"",NA,NA,NA,"",NA,"stimuli/objects/bowl02a.jpg","left","old"
2,"left",3.077,1,0.6,"right",1.137,"","",""
2,"",NA,NA,NA,"",NA,"stimuli/objects/icebucket.jpg","right","new"
2,"left",0.792,3,1.314,"right",0.484,"","",""
2,"",NA,NA,NA,"",NA,"stimuli/objects/ducttape.jpg","right","new"
2,"left",0.775,4,0.315,"left",0.295,"","",""
2,"",NA,NA,NA,"",NA,"stimuli/objects/toyhardhat.jpg","left","old"
2,"left",1.916,1,1.256,"right",1.998,"","",""
2,"",NA,NA,NA,"",NA,"stimuli/objects/pda.jpg","right","new"
2,"right",1.646,3,2.06,"",NA,"stimuli/objects/ceilingspeaker.jpg","right","new"
2,"left",1.475,2,0.751,"right",1.09,"","",""
2,"",NA,NA,NA,"",NA,"stimuli/objects/faxmachine.jpg","right","new"
2,"left",0.928,4,0.318,"left",0.475,"","",""
2,"",NA,NA,NA,"",NA,"stimuli/objects/wheelbarrow01.jpg","left","old"
2,"left",1.347,2,0.598,"right",1.551,"","",""
2,"",NA,NA,NA,"",NA,"stimuli/objects/glass02a.jpg","right","new"
2,"right",3.235,2,2.05,"",NA,"stimuli/objects/measuringtape01.jpg","right","new"
2,"right",1.046,3,0.853,"",NA,"stimuli/objects/metalscissors.jpg","right","new"
2,"right",1.788,3,0.407,"",NA,"stimuli/objects/soundmixer.jpg","right","new"
2,"left",3.824,2,0.453,"right",0.621,"","",""
2,"",NA,NA,NA,"",NA,"stimuli/objects/powercable.jpg","right","new"
2,"left",1.38,3,0.273,"right",0.48,"","",""
2,"",NA,NA,NA,"",NA,"stimuli/objects/screwdriver04b.jpg","right","new"
2,"left",1.504,2,0.347,"left",0.554,"","",""
2,"",NA,NA,NA,"",NA,"stimuli/objects/gymnasticring.jpg","right","new"
2,"left",0.958,3,1.046,"left",0.415,"","",""
2,"",NA,NA,NA,"",NA,"stimuli/objects/exercisebench.jpg","right","new"
2,"left",1.585,1,0.695,"right",0.493,"","",""
2,"",NA,NA,NA,"",NA,"stimuli/objects/printer02.jpg","right","new"
2,"left",0.751,2,0.85,"left",0.288,"","",""
2,"",NA,NA,NA,"",NA,"stimuli/objects/skateboard.jpg","right","new"
2,"right",1.761,3,2.455,"",NA,"stimuli/objects/kitchenscale01a.jpg","right","new"
2,"left",1.372,4,0.448,"left",0.889,"","",""
2,"",NA,NA,NA,"",NA,"stimuli/objects/cooler01.jpg","left","old"
2,"right",2.064,3,1.534,"",NA,"stimuli/objects/butterdish.jpg","right","new"
2,"left",1.313,4,1.171,"right",0.57,"","",""
2,"",NA,NA,NA,"",NA,"stimuli/objects/antenna.jpg","left","old"
2,"right",1.751,3,1.535,"",NA,"stimuli/objects/toolbox02.jpg","right","new"
2,"right",1.188,3,0.452,"",NA,"stimuli/objects/audiocablesplitter.jpg","right","new"
2,"left",1.007,4,0.403,"left",1.407,"","",""
2,"",NA,NA,NA,"",NA,"stimuli/objects/anchor.jpg","left","old"
2,"left",0.927,4,0.272,"right",0.348,"","",""
2,"",NA,NA,NA,"",NA,"stimuli/objects/satellitedish01.jpg","left","old"
2,"left",0.85,2,0.864,"left",0.38,"","",""
2,"",NA,NA,NA,"",NA,"stimuli/objects/golfbag.jpg","right","new"
2,"left",0.793,4,0.362,"left",0.304,"","",""
2,"",NA,NA,NA,"",NA,"stimuli/objects/tableknife02.jpg","right","new"
2,"right",1.388,2,1.503,"",NA,"stimuli/objects/clock01a.jpg","right","new"
2,"left",1.014,4,0.368,"left",0.332,"","",""
2,"",NA,NA,NA,"",NA,"stimuli/objects/baseball01a.jpg","left","old"
2,"left",0.853,4,0.735,"left",0.783,"","",""
2,"",NA,NA,NA,"",NA,"stimuli/objects/electricoutlet.jpg","left","old"
2,"left",0.688,4,0.277,"left",0.316,"","",""
2,"",NA,NA,NA,"",NA,"stimuli/objects/canoepaddle02.jpg","left","old"
2,"left",0.632,4,0.315,"left",0.276,"","",""
2,"",NA,NA,NA,"",NA,"stimuli/objects/pastaspoon.jpg","left","old"
2,"right",2.738,2,0.897,"",NA,"stimuli/objects/radio01.jpg","right","new"
2,"left",0.918,4,1.459,"left",0.726,"","",""
2,"",NA,NA,NA,"",NA,"stimuli/objects/catchermask.jpg","left","old"
2,"right",2.38,2,0.953,"",NA,"stimuli/objects/snowshoe.jpg","right","new"
2,"left",1.158,4,0.251,"right",0.247,"","",""
2,"",NA,NA,NA,"",NA,"stimuli/objects/lectern01.jpg","left","old"
2,"left",4.012,2,0.611,"right",1.42,"","",""
2,"",NA,NA,NA,"",NA,"stimuli/objects/sippycup.jpg","right","new"
2,"left",0.818,3,2.097,"left",1.786,"","",""
2,"",NA,NA,NA,"",NA,"stimuli/objects/binoculars01b.jpg","right","new"
2,"left",0.89,4,0.312,"left",0.178,"","",""
2,"",NA,NA,NA,"",NA,"stimuli/objects/hockeygoaliepad.jpg","left","old"
2,"left",0.986,4,0.291,"left",2.324,"","",""
2,"",NA,NA,NA,"",NA,"stimuli/objects/espressomachine.jpg","left","old"
2,"left",0.667,3,2.274,"left",0.239,"","",""
2,"",NA,NA,NA,"",NA,"stimuli/objects/football.jpg","right","new"
2,"left",1.41,4,0.309,"left",0.272,"","",""
2,"",NA,NA,NA,"",NA,"stimuli/objects/bikepump01.jpg","left","old"
2,"left",0.773,4,0.277,"left",0.243,"","",""
2,"",NA,NA,NA,"",NA,"stimuli/objects/podium.jpg","left","old"
2,"left",2.374,4,0.31,"left",0.313,"","",""
2,"",NA,NA,NA,"",NA,"stimuli/objects/treadmill.jpg","left","old"
2,"right",3.335,3,1.139,"",NA,"stimuli/objects/winerack.jpg","right","new"
2,"left",2.239,1,0.927,"left",0.449,"","",""
2,"",NA,NA,NA,"",NA,"stimuli/objects/handmixer01d.jpg","left","old"
2,"left",1.118,3,0.542,"right",1.834,"","",""
2,"",NA,NA,NA,"",NA,"stimuli/objects/sledgehammer.jpg","left","old"
2,"left",1.045,4,0.326,"right",0.441,"","",""
2,"",NA,NA,NA,"",NA,"stimuli/objects/gasburner.jpg","left","old"
2,"right",1.616,3,1.108,"",NA,"stimuli/objects/tongs01b.jpg","right","new"
2,"left",1.011,4,0.358,"left",0.367,"","",""
2,"",NA,NA,NA,"",NA,"stimuli/objects/hockeygoalieglove.jpg","left","old"
2,"right",2.447,3,1.327,"",NA,"stimuli/objects/toasteroven.jpg","right","new"
2,"left",1.152,4,0.448,"left",1.717,"","",""
2,"",NA,NA,NA,"",NA,"stimuli/objects/pressurewasher.jpg","left","old"
2,"right",3.098,3,0.913,"",NA,"stimuli/objects/shoulderpad.jpg","right","new"
2,"left",2.337,2,0.791,"left",0.342,"","",""
2,"",NA,NA,NA,"",NA,"stimuli/objects/golfball.jpg","right","new"
2,"left",1.126,4,0.286,"right",0.819,"","",""
2,"",NA,NA,NA,"",NA,"stimuli/objects/flooringstapler.jpg","left","old"
2,"left",1.568,2,0.429,"right",1.698,"","",""
2,"",NA,NA,NA,"",NA,"stimuli/objects/carjack.jpg","right","new"
2,"left",1.12,2,1.124,"left",0.279,"","",""
2,"",NA,NA,NA,"",NA,"stimuli/objects/saladspinner.jpg","left","old"
2,"",NA,NA,NA,"",NA,"","",""
2,"right",1.418,2,0.856,"",NA,"stimuli/objects/floodlight.jpg","right","new"
2,"left",0.744,3,1.416,"left",0.311,"","",""
2,"",NA,NA,NA,"",NA,"stimuli/objects/loppingshears.jpg","right","new"
2,"left",3.293,4,1.094,"left",1.948,"","",""
2,"",NA,NA,NA,"",NA,"stimuli/objects/fishingrod.jpg","left","old"
2,"left",1.433,2,0.785,"left",0.36,"","",""
2,"",NA,NA,NA,"",NA,"stimuli/objects/wineglass01.jpg","right","new"
2,"left",0.869,4,0.327,"left",0.518,"","",""
2,"",NA,NA,NA,"",NA,"stimuli/objects/ipod.jpg","left","old"
2,"right",0.932,3,0.777,"",NA,"stimuli/objects/birdie.jpg","right","new"
2,"left",1.143,1,1.522,"right",0.386,"","",""
2,"",NA,NA,NA,"",NA,"stimuli/objects/pickaxe02.jpg","right","new"
2,"right",1.023,2,2.256,"",NA,"stimuli/objects/fonduefork01.jpg","right","new"
2,"right",1.795,2,1.018,"",NA,"stimuli/objects/waterbottleholder.jpg","right","new"
2,"left",1.626,2,0.497,"right",0.965,"","",""
2,"",NA,NA,NA,"",NA,"stimuli/objects/jackhammer.jpg","right","new"
2,"left",2.598,3,0.814,"left",0.279,"","",""
2,"",NA,NA,NA,"",NA,"stimuli/objects/cassettetape01a.jpg","right","new"
2,"left",0.954,4,0.147,"right",0.999,"","",""
2,"",NA,NA,NA,"",NA,"stimuli/objects/toothpick02.jpg","left","old"
2,"left",1.655,2,0.676,"left",0.173,"","",""
2,"",NA,NA,NA,"",NA,"stimuli/objects/ladle02a.jpg","right","new"
2,"left",0.819,4,0.261,"left",0.272,"","",""
2,"",NA,NA,NA,"",NA,"stimuli/objects/surfboard.jpg","left","old"
2,"left",0.769,4,0.51,"left",1.765,"","",""
2,"",NA,NA,NA,"",NA,"stimuli/objects/sewingmachine01a.jpg","left","old"
2,"right",3.632,2,1.104,"",NA,"stimuli/objects/wetfloorsign.jpg","right","new"
2,"left",1.619,3,1.156,"left",1.288,"","",""
2,"",NA,NA,NA,"",NA,"stimuli/objects/reflector.jpg","left","old"
2,"left",0.942,3,0.425,"left",0.334,"","",""
2,"",NA,NA,NA,"",NA,"stimuli/objects/muffintray01.jpg","left","old"
2,"left",0.926,3,0.502,"right",0.803,"","",""
2,"",NA,NA,NA,"",NA,"stimuli/objects/fluorescentlightbulb.jpg","left","old"
2,"right",2.054,3,0.548,"",NA,"stimuli/objects/kite.jpg","right","new"
2,"left",1.971,3,1.662,"left",0.268,"","",""
2,"",NA,NA,NA,"",NA,"stimuli/objects/spoon01.jpg","left","old"
2,"right",1.817,2,1.734,"",NA,"stimuli/objects/cameracase01a.jpg","right","new"
2,"left",0.865,3,0.331,"left",0.571,"","",""
2,"",NA,NA,NA,"",NA,"stimuli/objects/bowrake.jpg","right","new"
2,"left",0.891,4,0.284,"left",0.191,"","",""
2,"",NA,NA,NA,"",NA,"stimuli/objects/shinpad.jpg","left","old"
2,"right",1.222,3,0.86,"",NA,"stimuli/objects/diaperbag.jpg","right","new"
2,"left",1.335,2,0.799,"right",0.333,"","",""
2,"",NA,NA,NA,"",NA,"stimuli/objects/fanheater.jpg","right","new"
2,"left",1.019,4,1.738,"left",0.178,"","",""
2,"",NA,NA,NA,"",NA,"stimuli/objects/baseballglove.jpg","left","old"
2,"left",0.802,4,0.264,"left",0.195,"","",""
2,"",NA,NA,NA,"",NA,"stimuli/objects/swimgoggles.jpg","left","old"
2,"left",1.157,4,0.238,"left",0.232,"","",""
2,"",NA,NA,NA,"",NA,"stimuli/objects/hockeypuck.jpg","left","old"
2,"left",1.979,2,0.315,"left",0.337,"","",""
2,"",NA,NA,NA,"",NA,"stimuli/objects/beermug01a.jpg","right","new"
2,"left",0.625,4,0.484,"left",1.708,"","",""
2,"",NA,NA,NA,"",NA,"stimuli/objects/telephone01b.jpg","left","old"
2,"left",0.717,4,0.042,"left",0.12,"","",""
2,"",NA,NA,NA,"",NA,"stimuli/objects/towel01.jpg","left","old"
2,"left",0.741,4,0.11,"left",0.127,"","",""
2,"",NA,NA,NA,"",NA,"stimuli/objects/travelmug.jpg","left","old"
2,"right",2.104,3,0.66,"",NA,"stimuli/objects/alarmsystem.jpg","right","new"
2,"left",0.758,4,0.207,"left",0.04,"","",""
2,"",NA,NA,NA,"",NA,"stimuli/objects/canister.jpg","left","old"
2,"left",1.134,4,0.277,"left",1.458,"","",""
2,"",NA,NA,NA,"",NA,"stimuli/objects/corkscrew03a.jpg","left","old"
2,"left",0.732,4,0.184,"right",0.13,"","",""
2,"",NA,NA,NA,"",NA,"stimuli/objects/securitycamera.jpg","left","old"
2,"right",2.435,4,1.102,"",NA,"stimuli/objects/handblender.jpg","right","new"
2,"right",1.354,2,0.702,"",NA,"stimuli/objects/shopvac.jpg","right","new"
2,"left",0.623,4,0.292,"left",0.411,"","",""
2,"",NA,NA,NA,"",NA,"stimuli/objects/soccerball.jpg","left","old"
2,"left",1.487,3,0.665,"right",0.475,"","",""
2,"",NA,NA,NA,"",NA,"stimuli/objects/computerkeyboard02.jpg","left","old"
2,"right",1.583,3,2.407,"",NA,"stimuli/objects/lifejacket.jpg","right","new"
2,"left",0.692,4,1.331,"left",0.3,"","",""
2,"",NA,NA,NA,"",NA,"stimuli/objects/tray.jpg","left","old"
2,"left",1.431,2,0.337,"left",0.411,"","",""
2,"",NA,NA,NA,"",NA,"stimuli/objects/cakeplatter.jpg","right","new"
2,"right",1.393,4,1.339,"",NA,"stimuli/objects/nutcracker01.jpg","right","new"
2,"left",1.746,4,0.609,"left",0.921,"","",""
2,"",NA,NA,NA,"",NA,"stimuli/objects/boatmotor.jpg","left","old"
2,"left",0.816,4,0.127,"left",0.306,"","",""
2,"",NA,NA,NA,"",NA,"stimuli/objects/shotglass.jpg","left","old"
2,"right",2.06,3,0.491,"",NA,"stimuli/objects/tablesaw.jpg","right","new"
2,"left",0.886,4,0.004,"right",0.98,"","",""
2,"",NA,NA,NA,"",NA,"stimuli/objects/snowshovel.jpg","left","old"
2,"left",0.806,4,0.334,"right",0.241,"","",""
2,"",NA,NA,NA,"",NA,"stimuli/objects/saw02b.jpg","left","old"
2,"left",0.67,4,0.168,"left",2.016,"","",""
2,"",NA,NA,NA,"",NA,"stimuli/objects/wheel01.jpg","left","old"
2,"left",0.623,4,0.118,"left",0.198,"","",""
2,"",NA,NA,NA,"",NA,"stimuli/objects/toyhockeystick01.jpg","left","old"
2,"left",0.656,3,0.899,"left",0.83,"","",""
2,"",NA,NA,NA,"",NA,"stimuli/objects/backpack01a.jpg","left","old"
2,"right",1.477,2,0.427,"",NA,"stimuli/objects/mug01.jpg","right","new"
2,"left",0.94,3,0.425,"right",0.381,"","",""
2,"",NA,NA,NA,"",NA,"stimuli/objects/hoe.jpg","left","old"
2,"left",0.911,3,0.981,"left",0.087,"","",""
2,"",NA,NA,NA,"",NA,"stimuli/objects/boxingglove01.jpg","right","new"
2,"right",0.918,3,0.89,"",NA,"stimuli/objects/pot01.jpg","left","old"
2,"left",2.543,2,0.462,"right",0.844,"","",""
2,"",NA,NA,NA,"",NA,"stimuli/objects/mortarandpestle.jpg","right","new"
2,"left",1.052,3,0.976,"left",0.468,"","",""
2,"",NA,NA,NA,"",NA,"stimuli/objects/hedgeshears.jpg","left","old"
2,"left",0.617,4,0.313,"left",0.209,"","",""
2,"",NA,NA,NA,"",NA,"stimuli/objects/bikehelmet.jpg","left","old"
2,"right",2.687,2,0.521,"",NA,"stimuli/objects/tennisball01b.jpg","right","new"
2,"left",1.591,1,0.494,"right",0.432,"","",""
2,"",NA,NA,NA,"",NA,"stimuli/objects/monitor.jpg","right","new"
2,"left",0.809,4,0.004,"right",1.398,"","",""
2,"",NA,NA,NA,"",NA,"stimuli/objects/patioumbrella.jpg","left","old"
2,"left",0.618,4,0.172,"left",0.114,"","",""
2,"",NA,NA,NA,"",NA,"stimuli/objects/breadknife.jpg","left","old"
2,"left",0.86,3,0.829,"left",0.348,"","",""
2,"",NA,NA,NA,"",NA,"stimuli/objects/contactlens.jpg","left","old"
2,"left",0.88,4,0.27,"right",0.064,"","",""
2,"",NA,NA,NA,"",NA,"stimuli/objects/chandelier.jpg","left","old"
2,"left",1.669,3,0.654,"left",0.343,"","",""
2,"",NA,NA,NA,"",NA,"stimuli/objects/speedball.jpg","right","new"
2,"left",0.819,2,1.828,"left",0.055,"","",""
2,"",NA,NA,NA,"",NA,"stimuli/objects/toaster01.jpg","right","new"
2,"right",1.675,1,1.306,"",NA,"stimuli/objects/flashlight02b.jpg","right","new"
2,"left",0.6,3,0.574,"left",0.309,"","",""
2,"",NA,NA,NA,"",NA,"stimuli/objects/volleyball.jpg","left","old"
2,"left",0.733,2,0.962,"left",0.384,"","",""
2,"",NA,NA,NA,"",NA,"stimuli/objects/hockeystick.jpg","right","new"
2,"left",1.625,4,0.52,"right",0.852,"","",""
2,"",NA,NA,NA,"",NA,"stimuli/objects/crocodileclips.jpg","left","old"
2,"left",0.95,4,0.175,"right",0.238,"","",""
2,"",NA,NA,NA,"",NA,"stimuli/objects/vhstape.jpg","left","old"
2,"right",0.873,4,0.972,"",NA,"stimuli/objects/tent.jpg","right","new"
2,"left",0.742,4,0.349,"left",0.254,"","",""
2,"",NA,NA,NA,"",NA,"stimuli/objects/snowboard.jpg","left","old"
2,"right",1.914,2,0.676,"",NA,"stimuli/objects/cheeseknife01.jpg","right","new"
2,"right",1.295,1,0.561,"",NA,"stimuli/objects/dolly01.jpg","right","new"
2,"left",0.824,2,0.304,"left",0.151,"","",""
2,"",NA,NA,NA,"",NA,"stimuli/objects/plate01b.jpg","right","new"
2,"left",1.953,4,0.33,"right",1.354,"","",""
2,"",NA,NA,NA,"",NA,"stimuli/objects/mallet01b.jpg","left","old"
2,"left",1.388,4,0.18,"left",0.156,"","",""
2,"",NA,NA,NA,"",NA,"stimuli/objects/rollingpin01a.jpg","left","old"
2,"left",1.1,4,0.161,"right",2.315,"","",""
2,"",NA,NA,NA,"",NA,"stimuli/objects/fuse.jpg","left","old"
2,"right",1.066,3,1.044,"",NA,"stimuli/objects/stroller.jpg","right","new"
2,"left",1.16,2,0.273,"left",0.358,"","",""
2,"",NA,NA,NA,"",NA,"stimuli/objects/skihelmet01.jpg","left","old"
2,"left",1.565,3,0.541,"right",1.045,"","",""
2,"",NA,NA,NA,"",NA,"stimuli/objects/flask.jpg","right","new"
2,"left",0.72,4,0.806,"left",0.163,"","",""
2,"",NA,NA,NA,"",NA,"stimuli/objects/tupperware03a.jpg","left","old"
2,"left",0.877,4,0.105,"right",0.353,"","",""
2,"",NA,NA,NA,"",NA,"stimuli/objects/stubbywrench01a.jpg","left","old"
2,"right",1.196,2,0.706,"",NA,"stimuli/objects/skigoggles01.jpg","right","new"
2,"left",1.09,4,0.034,"right",0.876,"","",""
2,"",NA,NA,NA,"",NA,"stimuli/objects/fan.jpg","left","old"
2,"left",1.031,4,0.104,"left",0.435,"","",""
2,"",NA,NA,NA,"",NA,"stimuli/objects/metalbrush.jpg","left","old"
2,"right",1.473,3,2.115,"",NA,"stimuli/objects/wafflemaker.jpg","right","new"
2,"left",1.063,4,0.272,"left",0.317,"","",""
2,"",NA,NA,NA,"",NA,"stimuli/objects/cleaver01.jpg","left","old"
2,"right",1.689,3,1.313,"",NA,"stimuli/objects/eggslicer.jpg","right","new"
2,"left",1.029,4,0.508,"right",0.892,"","",""
2,"",NA,NA,NA,"",NA,"stimuli/objects/carantenna.jpg","left","old"
2,"right",1.93,3,0.797,"",NA,"stimuli/objects/cuttingpliers02.jpg","right","new"
2,"right",1.041,3,0.431,"",NA,"stimuli/objects/computermouse06.jpg","right","new"
2,"right",2.615,2,0.3,"",NA,"stimuli/objects/needlenosepliers01.jpg","right","new"
2,"right",1.095,3,1.17,"",NA,"stimuli/objects/straw.jpg","right","new"
2,"left",0.875,3,0.598,"left",0.329,"","",""
2,"",NA,NA,NA,"",NA,"stimuli/objects/hockeygoaliemask.jpg","left","old"
2,"left",1.38,2,1.172,"right",0.452,"","",""
2,"",NA,NA,NA,"",NA,"stimuli/objects/file.jpg","right","new"
2,"right",3.718,2,0.894,"",NA,"stimuli/objects/grill.jpg","right","new"
2,"left",0.875,4,0.15,"right",0.574,"","",""
2,"",NA,NA,NA,"",NA,"stimuli/objects/caulking.jpg","left","old"
2,"left",0.916,3,2.701,"right",0.466,"","",""
2,"",NA,NA,NA,"",NA,"stimuli/objects/pliers02b.jpg","left","old"
2,"left",0.94,4,0.324,"right",0.203,"","",""
2,"",NA,NA,NA,"",NA,"stimuli/objects/alarmclock01.jpg","left","old"
2,"left",0.929,4,0.168,"right",0.292,"","",""
2,"",NA,NA,NA,"",NA,"stimuli/objects/headphones02b.jpg","left","old"
2,"left",0.928,4,0.004,"right",0.547,"","",""
2,"",NA,NA,NA,"",NA,"stimuli/objects/bungeecord02.jpg","left","old"
2,"left",0.771,4,0.004,"left",1.248,"","",""
2,"",NA,NA,NA,"",NA,"stimuli/objects/paintroller01.jpg","left","old"
2,"right",3.568,2,0.552,"",NA,"stimuli/objects/basketball01.jpg","right","new"
2,"left",1.64,4,0.434,"left",0.788,"","",""
2,"",NA,NA,NA,"",NA,"stimuli/objects/bucket02.jpg","left","old"
2,"left",0.718,4,0.207,"right",0.434,"","",""
2,"",NA,NA,NA,"",NA,"stimuli/objects/magneticcompass.jpg","left","old"
2,"right",1.224,4,1.757,"",NA,"stimuli/objects/wiicontroller.jpg","right","new"
2,"left",1.209,3,0.895,"left",0.624,"","",""
2,"",NA,NA,NA,"",NA,"stimuli/objects/butterknife.jpg","left","old"
2,"left",0.828,3,1.474,"right",0.663,"","",""
2,"",NA,NA,NA,"",NA,"stimuli/objects/beachumbrella01.jpg","right","new"
2,"left",1.567,3,0.985,"right",0.347,"","",""
2,"",NA,NA,NA,"",NA,"stimuli/objects/heatpump.jpg","right","new"
2,"right",1.547,3,2.018,"",NA,"stimuli/objects/drinkshaker.jpg","right","new"
2,"right",1.415,3,0.602,"",NA,"stimuli/objects/bottleopener01.jpg","right","new"
2,"left",0.772,4,0.15,"right",0.755,"","",""
2,"",NA,NA,NA,"",NA,"stimuli/objects/hammer01.jpg","left","old"
2,"left",1.74,2,0.116,"left",0.429,"","",""
2,"",NA,NA,NA,"",NA,"stimuli/objects/pitcher02b.jpg","left","old"
2,"left",3.255,3,1.179,"left",2.618,"","",""
2,"",NA,NA,NA,"",NA,"stimuli/objects/drill01b.jpg","left","old"
2,"left",1.872,1,0.562,"right",0.043,"","",""
2,"",NA,NA,NA,"",NA,"stimuli/objects/lightswitch01.jpg","right","new"
2,"right",2.662,2,1.845,"",NA,"stimuli/objects/lockingplier.jpg","right","new"
2,"left",1.691,4,0.421,"right",0.146,"","",""
2,"",NA,NA,NA,"",NA,"stimuli/objects/extensioncord.jpg","left","old"
2,"right",1.311,3,1.258,"",NA,"stimuli/objects/swissarmyknife01a.jpg","right","new"
2,"left",0.669,4,0.25,"left",0.256,"","",""
2,"",NA,NA,NA,"",NA,"stimuli/objects/skiboot01a.jpg","left","old"
2,"left",1.011,4,0.005,"left",0.461,"","",""
2,"",NA,NA,NA,"",NA,"stimuli/objects/handgripper.jpg","left","old"
2,"left",1.168,3,0.918,"right",1.178,"","",""
2,"",NA,NA,NA,"",NA,"stimuli/objects/thermos.jpg","left","old"
2,"right",2.623,3,1.191,"",NA,"stimuli/objects/kneepad01c.jpg","right","new"
2,"left",0.789,2,0.751,"left",0.202,"","",""
2,"",NA,NA,NA,"",NA,"stimuli/objects/tennisracket.jpg","right","new"
2,"right",5.271,2,1.291,"",NA,"stimuli/objects/parachute.jpg","right","new"
2,"left",0.717,4,0.202,"right",0.453,"","",""
2,"",NA,NA,NA,"",NA,"stimuli/objects/filmnegative.jpg","left","old"
2,"left",0.934,3,1.697,"left",1.319,"","",""
2,"",NA,NA,NA,"",NA,"stimuli/objects/charcoalbarbecue.jpg","left","old"
2,"left",1.386,3,0.906,"left",0.234,"","",""
2,"",NA,NA,NA,"",NA,"stimuli/objects/wateringcan.jpg","left","old"
2,"left",1.328,1,0.297,"right",0.901,"","",""
2,"",NA,NA,NA,"",NA,"stimuli/objects/wirestripper.jpg","right","new"
2,"left",1.263,2,0.9,"left",0.329,"","",""
2,"",NA,NA,NA,"",NA,"stimuli/objects/shovel01.jpg","right","new"
2,"left",0.891,4,0.406,"right",0.457,"","",""
2,"",NA,NA,NA,"",NA,"stimuli/objects/slidetray.jpg","left","old"
2,"left",0.837,4,0.396,"left",0.341,"","",""
2,"",NA,NA,NA,"",NA,"stimuli/objects/poolnet.jpg","left","old"
2,"right",4.041,2,1.173,"",NA,"stimuli/objects/icecubetray01a.jpg","right","new"
2,"right",1.391,3,0.534,"",NA,"stimuli/objects/trampoline.jpg","right","new"
2,"right",1.471,3,0.524,"",NA,"stimuli/objects/halogenlightbulb.jpg","right","new"
2,"left",1.388,2,0.349,"right",0.971,"","",""
2,"",NA,NA,NA,"",NA,"stimuli/objects/smokedetector02.jpg","right","new"
2,"left",0.874,4,0.283,"right",1.599,"","",""
2,"",NA,NA,NA,"",NA,"stimuli/objects/chainsaw.jpg","left","old"
2,"left",1.355,2,0.26,"right",1.24,"","",""
2,"",NA,NA,NA,"",NA,"stimuli/objects/barbecue03.jpg","right","new"
2,"left",1.059,4,0.197,"left",0.97,"","",""
2,"",NA,NA,NA,"",NA,"stimuli/objects/jumpercables.jpg","left","old"
2,"right",1.186,2,0.308,"",NA,"stimuli/objects/solderingwire.jpg","right","new"
2,"",NA,NA,NA,"",NA,"","",""
