"participant","pract_resp.keys","pract_resp.corr","pract_resp.rt","first_character","second_character","Cue","left_categ","centleft_categ","centright_categ","right_categ","corr_ans","image","trial_cond","cuedCharacter","task_resp.keys","task_resp.corr","task_resp.rt"
3,NA,NA,NA,"","",NA,"","","","",NA,"",NA,"",NA,NA,NA
3,NA,NA,NA,"","",NA,"","","","",NA,"",NA,"",NA,NA,NA
3,NA,NA,NA,"","",NA,"","","","",NA,"",NA,"",NA,NA,NA
3,NA,NA,NA,"","",NA,"","","","",NA,"",NA,"",NA,NA,NA
3,NA,NA,NA,"","",NA,"","","","",NA,"",NA,"",NA,NA,NA
3,NA,NA,NA,"","",NA,"","","","",NA,"",NA,"",NA,NA,NA
3,4,1,2.01174,"stimuli/m1.jpg","stimuli/m4.jpg",2,"stimuli/Stationary & school supply.png","stimuli/Vehicle.png","stimuli/Gamestoy & entertainment.png","stimuli/Clothing.png",4,"stimuli/objects/sneaker03b.jpg",1,"stimuli/m4.jpg",NA,NA,NA
3,2,0,0.8098,"stimuli/m1.jpg","stimuli/m4.jpg",2,"stimuli/Stationary & school supply.png","stimuli/Clothing.png","stimuli/Vehicle.png","stimuli/Gamestoy & entertainment.png",1,"stimuli/objects/paperclip01b.jpg",0,"stimuli/m4.jpg",NA,NA,NA
3,2,1,0.788915,"stimuli/m1.jpg","stimuli/m4.jpg",1,"stimuli/Vehicle.png","stimuli/Stationary & school supply.png","stimuli/Clothing.png","stimuli/Gamestoy & entertainment.png",2,"stimuli/objects/protractor.jpg",1,"stimuli/m1.jpg",NA,NA,NA
3,4,1,1.099675,"stimuli/m4.jpg","stimuli/m1.jpg",1,"stimuli/Stationary & school supply.png","stimuli/Vehicle.png","stimuli/Gamestoy & entertainment.png","stimuli/Clothing.png",4,"stimuli/objects/hikingshoe01.jpg",1,"stimuli/m4.jpg",NA,NA,NA
3,2,1,0.811285,"stimuli/m1.jpg","stimuli/m4.jpg",1,"stimuli/Clothing.png","stimuli/Stationary & school supply.png","stimuli/Vehicle.png","stimuli/Gamestoy & entertainment.png",2,"stimuli/objects/book01b.jpg",1,"stimuli/m1.jpg",NA,NA,NA
3,4,1,1.248535,"stimuli/m4.jpg","stimuli/m1.jpg",1,"stimuli/Stationary & school supply.png","stimuli/Gamestoy & entertainment.png","stimuli/Vehicle.png","stimuli/Clothing.png",4,"stimuli/objects/shoelace.jpg",1,"stimuli/m4.jpg",NA,NA,NA
3,1,1,1.517895,"stimuli/m1.jpg","stimuli/m4.jpg",2,"stimuli/Clothing.png","stimuli/Stationary & school supply.png","stimuli/Vehicle.png","stimuli/Gamestoy & entertainment.png",1,"stimuli/objects/moccasin.jpg",1,"stimuli/m4.jpg",NA,NA,NA
3,2,1,1.00186,"stimuli/m1.jpg","stimuli/m4.jpg",2,"stimuli/Gamestoy & entertainment.png","stimuli/Clothing.png","stimuli/Stationary & school supply.png","stimuli/Vehicle.png",2,"stimuli/objects/waders.jpg",1,"stimuli/m4.jpg",NA,NA,NA
3,3,1,0.826085,"stimuli/m4.jpg","stimuli/m1.jpg",2,"stimuli/Vehicle.png","stimuli/Gamestoy & entertainment.png","stimuli/Stationary & school supply.png","stimuli/Clothing.png",3,"stimuli/objects/eraser.jpg",1,"stimuli/m1.jpg",NA,NA,NA
3,1,1,1.009985,"stimuli/m4.jpg","stimuli/m1.jpg",2,"stimuli/Stationary & school supply.png","stimuli/Vehicle.png","stimuli/Clothing.png","stimuli/Gamestoy & entertainment.png",1,"stimuli/objects/fountainpen.jpg",1,"stimuli/m1.jpg",NA,NA,NA
3,2,1,0.87187,"stimuli/m4.jpg","stimuli/m1.jpg",1,"stimuli/Vehicle.png","stimuli/Clothing.png","stimuli/Stationary & school supply.png","stimuli/Gamestoy & entertainment.png",2,"stimuli/objects/visor.jpg",1,"stimuli/m4.jpg",NA,NA,NA
3,NA,NA,NA,"","",NA,"","","","",NA,"",NA,"",NA,NA,NA
3,NA,NA,NA,"stimuli/m2.jpg","stimuli/m5.jpg",2,"stimuli/Outdoor activity & sport item.png","stimuli/Hand labour tool & accessory.png","stimuli/Electronic device & accessory.png","stimuli/Kitchen & utensil.png",2,"stimuli/objects/jumpingjack.jpg",1,"stimuli/m5.jpg",1,0,2.217885
3,NA,NA,NA,"stimuli/m2.jpg","stimuli/m5.jpg",2,"stimuli/Hand labour tool & accessory.png","stimuli/Outdoor activity & sport item.png","stimuli/Electronic device & accessory.png","stimuli/Kitchen & utensil.png",1,"stimuli/objects/boxcutter03a.jpg",1,"stimuli/m5.jpg",3,0,2.110775
3,NA,NA,NA,"stimuli/m2.jpg","stimuli/m5.jpg",1,"stimuli/Hand labour tool & accessory.png","stimuli/Kitchen & utensil.png","stimuli/Electronic device & accessory.png","stimuli/Outdoor activity & sport item.png",2,"stimuli/objects/huntingknife.jpg",0,"stimuli/m2.jpg",4,0,1.072095
3,NA,NA,NA,"stimuli/m5.jpg","stimuli/m2.jpg",2,"stimuli/Kitchen & utensil.png","stimuli/Electronic device & accessory.png","stimuli/Hand labour tool & accessory.png","stimuli/Outdoor activity & sport item.png",4,"stimuli/objects/footballhelmet.jpg",1,"stimuli/m2.jpg",1,0,1.120355
3,NA,NA,NA,"stimuli/m5.jpg","stimuli/m2.jpg",1,"stimuli/Outdoor activity & sport item.png","stimuli/Hand labour tool & accessory.png","stimuli/Kitchen & utensil.png","stimuli/Electronic device & accessory.png",2,"stimuli/objects/handrake01a.jpg",1,"stimuli/m5.jpg",4,0,3.033475
3,NA,NA,NA,"stimuli/m2.jpg","stimuli/m5.jpg",1,"stimuli/Outdoor activity & sport item.png","stimuli/Electronic device & accessory.png","stimuli/Hand labour tool & accessory.png","stimuli/Kitchen & utensil.png",1,"stimuli/objects/crosscountryski.jpg",1,"stimuli/m2.jpg",1,1,3.00971
3,NA,NA,NA,"stimuli/m5.jpg","stimuli/m2.jpg",2,"stimuli/Hand labour tool & accessory.png","stimuli/Electronic device & accessory.png","stimuli/Outdoor activity & sport item.png","stimuli/Kitchen & utensil.png",2,"stimuli/objects/television.jpg",0,"stimuli/m2.jpg",3,0,2.034005
3,NA,NA,NA,"stimuli/m5.jpg","stimuli/m2.jpg",2,"stimuli/Kitchen & utensil.png","stimuli/Outdoor activity & sport item.png","stimuli/Hand labour tool & accessory.png","stimuli/Electronic device & accessory.png",2,"stimuli/objects/hose.jpg",1,"stimuli/m2.jpg",4,0,1.57086
3,NA,NA,NA,"stimuli/m2.jpg","stimuli/m5.jpg",2,"stimuli/Hand labour tool & accessory.png","stimuli/Electronic device & accessory.png","stimuli/Kitchen & utensil.png","stimuli/Outdoor activity & sport item.png",1,"stimuli/objects/solderingiron.jpg",1,"stimuli/m5.jpg",1,1,2.9174
3,NA,NA,NA,"stimuli/m2.jpg","stimuli/m5.jpg",2,"stimuli/Electronic device & accessory.png","stimuli/Kitchen & utensil.png","stimuli/Hand labour tool & accessory.png","stimuli/Outdoor activity & sport item.png",3,"stimuli/objects/gavel.jpg",1,"stimuli/m5.jpg",3,1,1.900615
3,NA,NA,NA,"stimuli/m5.jpg","stimuli/m2.jpg",1,"stimuli/Kitchen & utensil.png","stimuli/Electronic device & accessory.png","stimuli/Outdoor activity & sport item.png","stimuli/Hand labour tool & accessory.png",4,"stimuli/objects/boxcutter03a.jpg",1,"stimuli/m5.jpg",4,1,1.47704
3,NA,NA,NA,"stimuli/m2.jpg","stimuli/m5.jpg",2,"stimuli/Electronic device & accessory.png","stimuli/Hand labour tool & accessory.png","stimuli/Outdoor activity & sport item.png","stimuli/Kitchen & utensil.png",1,"stimuli/objects/walkietalkie.jpg",0,"stimuli/m5.jpg",2,0,1.338085
3,NA,NA,NA,"stimuli/m2.jpg","stimuli/m5.jpg",1,"stimuli/Kitchen & utensil.png","stimuli/Electronic device & accessory.png","stimuli/Hand labour tool & accessory.png","stimuli/Outdoor activity & sport item.png",1,"stimuli/objects/coffeemaker.jpg",0,"stimuli/m2.jpg",4,0,1.547975
3,NA,NA,NA,"stimuli/m5.jpg","stimuli/m2.jpg",2,"stimuli/Outdoor activity & sport item.png","stimuli/Electronic device & accessory.png","stimuli/Kitchen & utensil.png","stimuli/Hand labour tool & accessory.png",1,"stimuli/objects/bicycle.jpg",1,"stimuli/m2.jpg",3,0,1.517205
3,NA,NA,NA,"stimuli/m2.jpg","stimuli/m5.jpg",1,"stimuli/Kitchen & utensil.png","stimuli/Outdoor activity & sport item.png","stimuli/Electronic device & accessory.png","stimuli/Hand labour tool & accessory.png",2,"stimuli/objects/punchingbag.jpg",1,"stimuli/m2.jpg",3,0,2.601075
3,NA,NA,NA,"stimuli/m5.jpg","stimuli/m2.jpg",1,"stimuli/Electronic device & accessory.png","stimuli/Outdoor activity & sport item.png","stimuli/Hand labour tool & accessory.png","stimuli/Kitchen & utensil.png",2,"stimuli/objects/footballhelmet.jpg",0,"stimuli/m5.jpg",1,0,1.76338
3,NA,NA,NA,"stimuli/m5.jpg","stimuli/m2.jpg",1,"stimuli/Kitchen & utensil.png","stimuli/Hand labour tool & accessory.png","stimuli/Electronic device & accessory.png","stimuli/Outdoor activity & sport item.png",4,"stimuli/objects/swing.jpg",0,"stimuli/m5.jpg",3,0,2.01122
3,NA,NA,NA,"stimuli/m2.jpg","stimuli/m5.jpg",2,"stimuli/Hand labour tool & accessory.png","stimuli/Electronic device & accessory.png","stimuli/Outdoor activity & sport item.png","stimuli/Kitchen & utensil.png",1,"stimuli/objects/pitchfork.jpg",1,"stimuli/m5.jpg",3,0,2.156385
3,NA,NA,NA,"stimuli/m5.jpg","stimuli/m2.jpg",2,"stimuli/Hand labour tool & accessory.png","stimuli/Outdoor activity & sport item.png","stimuli/Electronic device & accessory.png","stimuli/Kitchen & utensil.png",2,"stimuli/objects/bicycle.jpg",1,"stimuli/m2.jpg",4,0,1.24605
3,NA,NA,NA,"stimuli/m5.jpg","stimuli/m2.jpg",1,"stimuli/Hand labour tool & accessory.png","stimuli/Outdoor activity & sport item.png","stimuli/Kitchen & utensil.png","stimuli/Electronic device & accessory.png",3,"stimuli/objects/freezer02.jpg",0,"stimuli/m5.jpg",1,0,1.26491
3,NA,NA,NA,"stimuli/m2.jpg","stimuli/m5.jpg",1,"stimuli/Kitchen & utensil.png","stimuli/Hand labour tool & accessory.png","stimuli/Electronic device & accessory.png","stimuli/Outdoor activity & sport item.png",2,"stimuli/objects/handrake01a.jpg",0,"stimuli/m2.jpg",4,0,1.139815
3,NA,NA,NA,"stimuli/m5.jpg","stimuli/m2.jpg",1,"stimuli/Outdoor activity & sport item.png","stimuli/Electronic device & accessory.png","stimuli/Hand labour tool & accessory.png","stimuli/Kitchen & utensil.png",3,"stimuli/objects/jumpingjack.jpg",1,"stimuli/m5.jpg",2,0,2.55133
3,NA,NA,NA,"stimuli/m5.jpg","stimuli/m2.jpg",2,"stimuli/Electronic device & accessory.png","stimuli/Kitchen & utensil.png","stimuli/Hand labour tool & accessory.png","stimuli/Outdoor activity & sport item.png",4,"stimuli/objects/bicycle.jpg",1,"stimuli/m2.jpg",4,1,1.266985
3,NA,NA,NA,"stimuli/m5.jpg","stimuli/m2.jpg",1,"stimuli/Hand labour tool & accessory.png","stimuli/Outdoor activity & sport item.png","stimuli/Electronic device & accessory.png","stimuli/Kitchen & utensil.png",1,"stimuli/objects/jumpingjack.jpg",1,"stimuli/m5.jpg",3,0,2.23191
3,NA,NA,NA,"stimuli/m2.jpg","stimuli/m5.jpg",2,"stimuli/Outdoor activity & sport item.png","stimuli/Electronic device & accessory.png","stimuli/Hand labour tool & accessory.png","stimuli/Kitchen & utensil.png",4,"stimuli/objects/jug.jpg",0,"stimuli/m5.jpg",2,0,1.700445
3,NA,NA,NA,"stimuli/m2.jpg","stimuli/m5.jpg",1,"stimuli/Electronic device & accessory.png","stimuli/Hand labour tool & accessory.png","stimuli/Kitchen & utensil.png","stimuli/Outdoor activity & sport item.png",4,"stimuli/objects/racquetballracket.jpg",1,"stimuli/m2.jpg",4,1,1.23329
3,NA,NA,NA,"stimuli/m2.jpg","stimuli/m5.jpg",2,"stimuli/Kitchen & utensil.png","stimuli/Outdoor activity & sport item.png","stimuli/Electronic device & accessory.png","stimuli/Hand labour tool & accessory.png",4,"stimuli/objects/jumpingjack.jpg",1,"stimuli/m5.jpg",1,0,1.28747
3,NA,NA,NA,"stimuli/m2.jpg","stimuli/m5.jpg",2,"stimuli/Hand labour tool & accessory.png","stimuli/Kitchen & utensil.png","stimuli/Electronic device & accessory.png","stimuli/Outdoor activity & sport item.png",1,"stimuli/objects/hedgetrimmer.jpg",1,"stimuli/m5.jpg",3,0,1.22129
3,NA,NA,NA,"stimuli/m5.jpg","stimuli/m2.jpg",1,"stimuli/Kitchen & utensil.png","stimuli/Outdoor activity & sport item.png","stimuli/Electronic device & accessory.png","stimuli/Hand labour tool & accessory.png",4,"stimuli/objects/gavel.jpg",1,"stimuli/m5.jpg",3,0,1.18435
3,NA,NA,NA,"stimuli/m2.jpg","stimuli/m5.jpg",2,"stimuli/Electronic device & accessory.png","stimuli/Hand labour tool & accessory.png","stimuli/Kitchen & utensil.png","stimuli/Outdoor activity & sport item.png",2,"stimuli/objects/gavel.jpg",1,"stimuli/m5.jpg",2,1,1.67754
3,NA,NA,NA,"stimuli/m2.jpg","stimuli/m5.jpg",1,"stimuli/Kitchen & utensil.png","stimuli/Hand labour tool & accessory.png","stimuli/Outdoor activity & sport item.png","stimuli/Electronic device & accessory.png",3,"stimuli/objects/racquetballracket.jpg",1,"stimuli/m2.jpg",3,1,2.16812
3,NA,NA,NA,"stimuli/m5.jpg","stimuli/m2.jpg",2,"stimuli/Kitchen & utensil.png","stimuli/Electronic device & accessory.png","stimuli/Outdoor activity & sport item.png","stimuli/Hand labour tool & accessory.png",3,"stimuli/objects/punchingbag.jpg",1,"stimuli/m2.jpg",3,1,1.153485
3,NA,NA,NA,"stimuli/m2.jpg","stimuli/m5.jpg",2,"stimuli/Outdoor activity & sport item.png","stimuli/Hand labour tool & accessory.png","stimuli/Kitchen & utensil.png","stimuli/Electronic device & accessory.png",4,"stimuli/objects/camera01a.jpg",0,"stimuli/m5.jpg",2,0,1.11044
3,NA,NA,NA,"stimuli/m2.jpg","stimuli/m5.jpg",2,"stimuli/Outdoor activity & sport item.png","stimuli/Electronic device & accessory.png","stimuli/Kitchen & utensil.png","stimuli/Hand labour tool & accessory.png",4,"stimuli/objects/jumpingjack.jpg",1,"stimuli/m5.jpg",2,0,0.983695
3,NA,NA,NA,"stimuli/m2.jpg","stimuli/m5.jpg",1,"stimuli/Electronic device & accessory.png","stimuli/Kitchen & utensil.png","stimuli/Outdoor activity & sport item.png","stimuli/Hand labour tool & accessory.png",3,"stimuli/objects/swing.jpg",1,"stimuli/m2.jpg",3,1,1.13896
3,NA,NA,NA,"stimuli/m5.jpg","stimuli/m2.jpg",1,"stimuli/Hand labour tool & accessory.png","stimuli/Kitchen & utensil.png","stimuli/Outdoor activity & sport item.png","stimuli/Electronic device & accessory.png",1,"stimuli/objects/pitchfork.jpg",1,"stimuli/m5.jpg",4,0,1.69516
3,NA,NA,NA,"stimuli/m2.jpg","stimuli/m5.jpg",1,"stimuli/Electronic device & accessory.png","stimuli/Outdoor activity & sport item.png","stimuli/Hand labour tool & accessory.png","stimuli/Kitchen & utensil.png",2,"stimuli/objects/racquetballracket.jpg",1,"stimuli/m2.jpg",2,1,1.30428
3,NA,NA,NA,"stimuli/m2.jpg","stimuli/m5.jpg",1,"stimuli/Outdoor activity & sport item.png","stimuli/Hand labour tool & accessory.png","stimuli/Electronic device & accessory.png","stimuli/Kitchen & utensil.png",1,"stimuli/objects/telescope.jpg",1,"stimuli/m2.jpg",1,1,0.934145
3,NA,NA,NA,"stimuli/m5.jpg","stimuli/m2.jpg",2,"stimuli/Hand labour tool & accessory.png","stimuli/Kitchen & utensil.png","stimuli/Electronic device & accessory.png","stimuli/Outdoor activity & sport item.png",4,"stimuli/objects/footballhelmet.jpg",1,"stimuli/m2.jpg",4,1,2.00537
3,NA,NA,NA,"stimuli/m5.jpg","stimuli/m2.jpg",2,"stimuli/Kitchen & utensil.png","stimuli/Hand labour tool & accessory.png","stimuli/Outdoor activity & sport item.png","stimuli/Electronic device & accessory.png",3,"stimuli/objects/swing.jpg",1,"stimuli/m2.jpg",3,1,1.316685
3,NA,NA,NA,"stimuli/m5.jpg","stimuli/m2.jpg",1,"stimuli/Outdoor activity & sport item.png","stimuli/Hand labour tool & accessory.png","stimuli/Electronic device & accessory.png","stimuli/Kitchen & utensil.png",2,"stimuli/objects/pitchfork.jpg",1,"stimuli/m5.jpg",3,0,1.305535
3,NA,NA,NA,"stimuli/m2.jpg","stimuli/m5.jpg",1,"stimuli/Hand labour tool & accessory.png","stimuli/Outdoor activity & sport item.png","stimuli/Electronic device & accessory.png","stimuli/Kitchen & utensil.png",2,"stimuli/objects/footballhelmet.jpg",1,"stimuli/m2.jpg",2,1,1.28127
3,NA,NA,NA,"stimuli/m5.jpg","stimuli/m2.jpg",2,"stimuli/Hand labour tool & accessory.png","stimuli/Outdoor activity & sport item.png","stimuli/Kitchen & utensil.png","stimuli/Electronic device & accessory.png",2,"stimuli/objects/rollerblade.jpg",1,"stimuli/m2.jpg",2,1,0.89518
3,NA,NA,NA,"stimuli/m2.jpg","stimuli/m5.jpg",1,"stimuli/Outdoor activity & sport item.png","stimuli/Kitchen & utensil.png","stimuli/Hand labour tool & accessory.png","stimuli/Electronic device & accessory.png",1,"stimuli/objects/crosscountryski.jpg",1,"stimuli/m2.jpg",1,1,1.122685
3,NA,NA,NA,"stimuli/m5.jpg","stimuli/m2.jpg",1,"stimuli/Kitchen & utensil.png","stimuli/Outdoor activity & sport item.png","stimuli/Hand labour tool & accessory.png","stimuli/Electronic device & accessory.png",3,"stimuli/objects/solderingiron.jpg",1,"stimuli/m5.jpg",3,1,1.18465
3,NA,NA,NA,"stimuli/m5.jpg","stimuli/m2.jpg",2,"stimuli/Kitchen & utensil.png","stimuli/Hand labour tool & accessory.png","stimuli/Electronic device & accessory.png","stimuli/Outdoor activity & sport item.png",2,"stimuli/objects/boxcutter03a.jpg",0,"stimuli/m2.jpg",4,0,1.847955
3,NA,NA,NA,"stimuli/m2.jpg","stimuli/m5.jpg",2,"stimuli/Kitchen & utensil.png","stimuli/Electronic device & accessory.png","stimuli/Hand labour tool & accessory.png","stimuli/Outdoor activity & sport item.png",3,"stimuli/objects/gavel.jpg",1,"stimuli/m5.jpg",3,1,0.966795
3,NA,NA,NA,"stimuli/m5.jpg","stimuli/m2.jpg",2,"stimuli/Outdoor activity & sport item.png","stimuli/Hand labour tool & accessory.png","stimuli/Kitchen & utensil.png","stimuli/Electronic device & accessory.png",4,"stimuli/objects/jack.jpg",0,"stimuli/m2.jpg",1,0,1.119405
3,NA,NA,NA,"","",NA,"","","","",NA,"",NA,"",NA,NA,NA
