"participant","first_character","second_character","warmup_resp.keys","warmup_resp.corr","warmup_resp.rt","Cue","left_categ","centleft_categ","centright_categ","right_categ","corr_ans","obj_category","image","trial_cond","switch_cond"
6,"stimuli/m5.jpg","stimuli/m2.jpg",1,0,1.903,1,"stimuli/Outdoor activity & sport item.png","stimuli/Hand labour tool & accessory.png","stimuli/Kitchen & utensil.png","stimuli/Electronic device & accessory.png",2,"Hand labour tool & accessory","stimuli/objects/handrake01a.jpg",1,1
6,"stimuli/m2.jpg","stimuli/m5.jpg",4,1,2.76,2,"stimuli/Outdoor activity & sport item.png","stimuli/Electronic device & accessory.png","stimuli/Kitchen & utensil.png","stimuli/Hand labour tool & accessory.png",4,"Hand labour tool & accessory","stimuli/objects/jumpingjack.jpg",1,1
6,"stimuli/m2.jpg","stimuli/m5.jpg",1,0,2.007,1,"stimuli/Kitchen & utensil.png","stimuli/Hand labour tool & accessory.png","stimuli/Outdoor activity & sport item.png","stimuli/Electronic device & accessory.png",3,"Outdoor activity & sport item","stimuli/objects/racquetballracket.jpg",1,1
6,"stimuli/m2.jpg","stimuli/m5.jpg",4,1,1.743,1,"stimuli/Electronic device & accessory.png","stimuli/Hand labour tool & accessory.png","stimuli/Kitchen & utensil.png","stimuli/Outdoor activity & sport item.png",4,"Outdoor activity & sport item","stimuli/objects/racquetballracket.jpg",1,1
6,"stimuli/m2.jpg","stimuli/m5.jpg",1,1,1.955,1,"stimuli/Outdoor activity & sport item.png","stimuli/Kitchen & utensil.png","stimuli/Hand labour tool & accessory.png","stimuli/Electronic device & accessory.png",1,"Outdoor activity & sport item","stimuli/objects/crosscountryski.jpg",1,1
6,"stimuli/m2.jpg","stimuli/m5.jpg",1,1,1.413,1,"stimuli/Outdoor activity & sport item.png","stimuli/Electronic device & accessory.png","stimuli/Hand labour tool & accessory.png","stimuli/Kitchen & utensil.png",1,"Outdoor activity & sport item","stimuli/objects/crosscountryski.jpg",1,1
6,"stimuli/m5.jpg","stimuli/m2.jpg",3,1,2.844,1,"stimuli/Outdoor activity & sport item.png","stimuli/Electronic device & accessory.png","stimuli/Hand labour tool & accessory.png","stimuli/Kitchen & utensil.png",3,"Hand labour tool & accessory","stimuli/objects/jumpingjack.jpg",1,1
6,"stimuli/m2.jpg","stimuli/m5.jpg",3,0,1.407,2,"stimuli/Outdoor activity & sport item.png","stimuli/Electronic device & accessory.png","stimuli/Hand labour tool & accessory.png","stimuli/Kitchen & utensil.png",4,"Kitchen & utensil","stimuli/objects/jug.jpg",0,1
6,"stimuli/m5.jpg","stimuli/m2.jpg",2,1,1.505,1,"stimuli/Outdoor activity & sport item.png","stimuli/Hand labour tool & accessory.png","stimuli/Electronic device & accessory.png","stimuli/Kitchen & utensil.png",2,"Hand labour tool & accessory","stimuli/objects/pitchfork.jpg",1,1
6,"stimuli/m5.jpg","stimuli/m2.jpg",4,0,1.761,2,"stimuli/Kitchen & utensil.png","stimuli/Hand labour tool & accessory.png","stimuli/Electronic device & accessory.png","stimuli/Outdoor activity & sport item.png",2,"Hand labour tool & accessory","stimuli/objects/boxcutter03a.jpg",0,1
6,"stimuli/m5.jpg","stimuli/m2.jpg",4,1,2.089,1,"stimuli/Kitchen & utensil.png","stimuli/Outdoor activity & sport item.png","stimuli/Electronic device & accessory.png","stimuli/Hand labour tool & accessory.png",4,"Hand labour tool & accessory","stimuli/objects/gavel.jpg",1,1
6,"stimuli/m5.jpg","stimuli/m2.jpg",NA,0,NA,1,"stimuli/Kitchen & utensil.png","stimuli/Hand labour tool & accessory.png","stimuli/Electronic device & accessory.png","stimuli/Outdoor activity & sport item.png",4,"Outdoor activity & sport item","stimuli/objects/swing.jpg",0,1
6,"stimuli/m5.jpg","stimuli/m2.jpg",1,1,1.839,2,"stimuli/Outdoor activity & sport item.png","stimuli/Electronic device & accessory.png","stimuli/Kitchen & utensil.png","stimuli/Hand labour tool & accessory.png",1,"Outdoor activity & sport item","stimuli/objects/bicycle.jpg",1,1
6,"stimuli/m2.jpg","stimuli/m5.jpg",2,1,1.476,1,"stimuli/Electronic device & accessory.png","stimuli/Outdoor activity & sport item.png","stimuli/Hand labour tool & accessory.png","stimuli/Kitchen & utensil.png",2,"Outdoor activity & sport item","stimuli/objects/racquetballracket.jpg",1,1
6,"stimuli/m5.jpg","stimuli/m2.jpg",1,0,1.597,1,"stimuli/Hand labour tool & accessory.png","stimuli/Outdoor activity & sport item.png","stimuli/Kitchen & utensil.png","stimuli/Electronic device & accessory.png",3,"Kitchen & utensil","stimuli/objects/freezer02.jpg",0,1
6,"stimuli/m2.jpg","stimuli/m5.jpg",4,0,1.789,1,"stimuli/Kitchen & utensil.png","stimuli/Hand labour tool & accessory.png","stimuli/Electronic device & accessory.png","stimuli/Outdoor activity & sport item.png",2,"Hand labour tool & accessory","stimuli/objects/handrake01a.jpg",0,1
6,"stimuli/m5.jpg","stimuli/m2.jpg",2,1,1.69,2,"stimuli/Hand labour tool & accessory.png","stimuli/Outdoor activity & sport item.png","stimuli/Kitchen & utensil.png","stimuli/Electronic device & accessory.png",2,"Outdoor activity & sport item","stimuli/objects/rollerblade.jpg",1,1
6,"stimuli/m2.jpg","stimuli/m5.jpg",1,1,1.357,2,"stimuli/Hand labour tool & accessory.png","stimuli/Kitchen & utensil.png","stimuli/Electronic device & accessory.png","stimuli/Outdoor activity & sport item.png",1,"Hand labour tool & accessory","stimuli/objects/hedgetrimmer.jpg",1,1
6,"stimuli/m5.jpg","stimuli/m2.jpg",1,1,0.958,1,"stimuli/Hand labour tool & accessory.png","stimuli/Outdoor activity & sport item.png","stimuli/Electronic device & accessory.png","stimuli/Kitchen & utensil.png",1,"Hand labour tool & accessory","stimuli/objects/jumpingjack.jpg",1,1
6,"stimuli/m2.jpg","stimuli/m5.jpg",NA,NA,NA,2,"stimuli/Electronic device & accessory.png","stimuli/Kitchen & utensil.png","stimuli/Hand labour tool & accessory.png","stimuli/Outdoor activity & sport item.png",2,"Kitchen & utensil","stimuli/objects/potatomasher03b.jpg",0,2
6,"stimuli/m2.jpg","stimuli/m5.jpg",NA,NA,NA,1,"stimuli/Kitchen & utensil.png","stimuli/Outdoor activity & sport item.png","stimuli/Electronic device & accessory.png","stimuli/Hand labour tool & accessory.png",2,"Outdoor activity & sport item","stimuli/objects/volleyball.jpg",1,2
6,"stimuli/m2.jpg","stimuli/m5.jpg",NA,NA,NA,2,"stimuli/Electronic device & accessory.png","stimuli/Hand labour tool & accessory.png","stimuli/Outdoor activity & sport item.png","stimuli/Kitchen & utensil.png",3,"Outdoor activity & sport item","stimuli/objects/kiddiepool.jpg",0,2
6,"stimuli/m2.jpg","stimuli/m5.jpg",NA,NA,NA,2,"stimuli/Kitchen & utensil.png","stimuli/Hand labour tool & accessory.png","stimuli/Electronic device & accessory.png","stimuli/Outdoor activity & sport item.png",2,"Hand labour tool & accessory","stimuli/objects/toyhardhat.jpg",1,2
6,"stimuli/m2.jpg","stimuli/m5.jpg",NA,NA,NA,1,"stimuli/Kitchen & utensil.png","stimuli/Hand labour tool & accessory.png","stimuli/Electronic device & accessory.png","stimuli/Outdoor activity & sport item.png",3,"Electronic device & accessory","stimuli/objects/payphone.jpg",0,2
6,"stimuli/m5.jpg","stimuli/m2.jpg",NA,NA,NA,2,"stimuli/Hand labour tool & accessory.png","stimuli/Electronic device & accessory.png","stimuli/Kitchen & utensil.png","stimuli/Outdoor activity & sport item.png",4,"Outdoor activity & sport item","stimuli/objects/patioumbrella.jpg",1,2
6,"stimuli/m5.jpg","stimuli/m2.jpg",NA,NA,NA,1,"stimuli/Electronic device & accessory.png","stimuli/Outdoor activity & sport item.png","stimuli/Kitchen & utensil.png","stimuli/Hand labour tool & accessory.png",1,"Electronic device & accessory","stimuli/objects/ethernetcable02.jpg",0,2
6,"stimuli/m2.jpg","stimuli/m5.jpg",NA,NA,NA,2,"stimuli/Electronic device & accessory.png","stimuli/Kitchen & utensil.png","stimuli/Outdoor activity & sport item.png","stimuli/Hand labour tool & accessory.png",2,"Kitchen & utensil","stimuli/objects/servingspoon01.jpg",0,2
6,"stimuli/m5.jpg","stimuli/m2.jpg",NA,NA,NA,2,"stimuli/Outdoor activity & sport item.png","stimuli/Hand labour tool & accessory.png","stimuli/Kitchen & utensil.png","stimuli/Electronic device & accessory.png",1,"Outdoor activity & sport item","stimuli/objects/podium.jpg",1,2
6,"stimuli/m2.jpg","stimuli/m5.jpg",NA,NA,NA,1,"stimuli/Electronic device & accessory.png","stimuli/Hand labour tool & accessory.png","stimuli/Kitchen & utensil.png","stimuli/Outdoor activity & sport item.png",4,"Outdoor activity & sport item","stimuli/objects/bikehelmet.jpg",1,2
6,"stimuli/m2.jpg","stimuli/m5.jpg",NA,NA,NA,1,"stimuli/Electronic device & accessory.png","stimuli/Outdoor activity & sport item.png","stimuli/Hand labour tool & accessory.png","stimuli/Kitchen & utensil.png",2,"Outdoor activity & sport item","stimuli/objects/anchor.jpg",1,2
6,"stimuli/m5.jpg","stimuli/m2.jpg",NA,NA,NA,1,"stimuli/Electronic device & accessory.png","stimuli/Outdoor activity & sport item.png","stimuli/Hand labour tool & accessory.png","stimuli/Kitchen & utensil.png",3,"Hand labour tool & accessory","stimuli/objects/snowshovel.jpg",1,2
6,"stimuli/m2.jpg","stimuli/m5.jpg",NA,NA,NA,2,"stimuli/Kitchen & utensil.png","stimuli/Hand labour tool & accessory.png","stimuli/Outdoor activity & sport item.png","stimuli/Electronic device & accessory.png",2,"Hand labour tool & accessory","stimuli/objects/level03a.jpg",1,2
6,"stimuli/m5.jpg","stimuli/m2.jpg",NA,NA,NA,2,"stimuli/Kitchen & utensil.png","stimuli/Outdoor activity & sport item.png","stimuli/Hand labour tool & accessory.png","stimuli/Electronic device & accessory.png",2,"Outdoor activity & sport item","stimuli/objects/hockeygoaliepad.jpg",1,2
6,"stimuli/m2.jpg","stimuli/m5.jpg",NA,NA,NA,1,"stimuli/Outdoor activity & sport item.png","stimuli/Kitchen & utensil.png","stimuli/Hand labour tool & accessory.png","stimuli/Electronic device & accessory.png",2,"Kitchen & utensil","stimuli/objects/aluminiumfoil.jpg",0,2
6,"stimuli/m2.jpg","stimuli/m5.jpg",NA,NA,NA,1,"stimuli/Electronic device & accessory.png","stimuli/Hand labour tool & accessory.png","stimuli/Outdoor activity & sport item.png","stimuli/Kitchen & utensil.png",4,"Kitchen & utensil","stimuli/objects/jar02.jpg",0,2
6,"stimuli/m5.jpg","stimuli/m2.jpg",NA,NA,NA,1,"stimuli/Kitchen & utensil.png","stimuli/Outdoor activity & sport item.png","stimuli/Hand labour tool & accessory.png","stimuli/Electronic device & accessory.png",3,"Hand labour tool & accessory","stimuli/objects/sewingmachine01a.jpg",1,2
6,"stimuli/m2.jpg","stimuli/m5.jpg",NA,NA,NA,2,"stimuli/Outdoor activity & sport item.png","stimuli/Electronic device & accessory.png","stimuli/Hand labour tool & accessory.png","stimuli/Kitchen & utensil.png",2,"Electronic device & accessory","stimuli/objects/coffeemachine.jpg",0,2
6,"stimuli/m5.jpg","stimuli/m2.jpg",NA,NA,NA,2,"stimuli/Electronic device & accessory.png","stimuli/Outdoor activity & sport item.png","stimuli/Kitchen & utensil.png","stimuli/Hand labour tool & accessory.png",2,"Outdoor activity & sport item","stimuli/objects/fishingrod.jpg",1,2
6,"stimuli/m2.jpg","stimuli/m5.jpg",NA,NA,NA,2,"stimuli/Hand labour tool & accessory.png","stimuli/Outdoor activity & sport item.png","stimuli/Kitchen & utensil.png","stimuli/Electronic device & accessory.png",1,"Hand labour tool & accessory","stimuli/objects/axe01.jpg",1,2
6,"stimuli/m2.jpg","stimuli/m5.jpg",NA,NA,NA,1,"stimuli/Hand labour tool & accessory.png","stimuli/Electronic device & accessory.png","stimuli/Outdoor activity & sport item.png","stimuli/Kitchen & utensil.png",3,"Outdoor activity & sport item","stimuli/objects/treadmill.jpg",1,2
6,"stimuli/m5.jpg","stimuli/m2.jpg",NA,NA,NA,1,"stimuli/Electronic device & accessory.png","stimuli/Kitchen & utensil.png","stimuli/Outdoor activity & sport item.png","stimuli/Hand labour tool & accessory.png",4,"Hand labour tool & accessory","stimuli/objects/metalbrush.jpg",1,2
6,"stimuli/m2.jpg","stimuli/m5.jpg",NA,NA,NA,1,"stimuli/Hand labour tool & accessory.png","stimuli/Kitchen & utensil.png","stimuli/Electronic device & accessory.png","stimuli/Outdoor activity & sport item.png",4,"Outdoor activity & sport item","stimuli/objects/charcoalbarbecue.jpg",1,2
6,"stimuli/m2.jpg","stimuli/m5.jpg",NA,NA,NA,2,"stimuli/Kitchen & utensil.png","stimuli/Electronic device & accessory.png","stimuli/Hand labour tool & accessory.png","stimuli/Outdoor activity & sport item.png",3,"Hand labour tool & accessory","stimuli/objects/caulking.jpg",1,2
6,"stimuli/m5.jpg","stimuli/m2.jpg",NA,NA,NA,2,"stimuli/Electronic device & accessory.png","stimuli/Hand labour tool & accessory.png","stimuli/Kitchen & utensil.png","stimuli/Outdoor activity & sport item.png",1,"Electronic device & accessory","stimuli/objects/filmroll.jpg",0,2
6,"stimuli/m2.jpg","stimuli/m5.jpg",NA,NA,NA,2,"stimuli/Hand labour tool & accessory.png","stimuli/Outdoor activity & sport item.png","stimuli/Electronic device & accessory.png","stimuli/Kitchen & utensil.png",1,"Hand labour tool & accessory","stimuli/objects/drill01b.jpg",1,2
6,"stimuli/m5.jpg","stimuli/m2.jpg",NA,NA,NA,1,"stimuli/Kitchen & utensil.png","stimuli/Hand labour tool & accessory.png","stimuli/Outdoor activity & sport item.png","stimuli/Electronic device & accessory.png",2,"Hand labour tool & accessory","stimuli/objects/hedgeshears.jpg",1,2
6,"stimuli/m5.jpg","stimuli/m2.jpg",NA,NA,NA,2,"stimuli/Kitchen & utensil.png","stimuli/Hand labour tool & accessory.png","stimuli/Electronic device & accessory.png","stimuli/Outdoor activity & sport item.png",4,"Outdoor activity & sport item","stimuli/objects/surfboard.jpg",1,2
6,"stimuli/m2.jpg","stimuli/m5.jpg",NA,NA,NA,1,"stimuli/Hand labour tool & accessory.png","stimuli/Kitchen & utensil.png","stimuli/Outdoor activity & sport item.png","stimuli/Electronic device & accessory.png",3,"Outdoor activity & sport item","stimuli/objects/catchermask.jpg",1,2
6,"stimuli/m5.jpg","stimuli/m2.jpg",NA,NA,NA,2,"stimuli/Electronic device & accessory.png","stimuli/Outdoor activity & sport item.png","stimuli/Hand labour tool & accessory.png","stimuli/Kitchen & utensil.png",2,"Outdoor activity & sport item","stimuli/objects/soccerball.jpg",1,2
6,"stimuli/m2.jpg","stimuli/m5.jpg",NA,NA,NA,2,"stimuli/Kitchen & utensil.png","stimuli/Outdoor activity & sport item.png","stimuli/Electronic device & accessory.png","stimuli/Hand labour tool & accessory.png",4,"Hand labour tool & accessory","stimuli/objects/setsquare.jpg",1,2
6,"stimuli/m2.jpg","stimuli/m5.jpg",NA,NA,NA,2,"stimuli/Hand labour tool & accessory.png","stimuli/Kitchen & utensil.png","stimuli/Outdoor activity & sport item.png","stimuli/Electronic device & accessory.png",1,"Hand labour tool & accessory","stimuli/objects/boltcutter.jpg",1,2
6,"stimuli/m5.jpg","stimuli/m2.jpg",NA,NA,NA,2,"stimuli/Kitchen & utensil.png","stimuli/Hand labour tool & accessory.png","stimuli/Outdoor activity & sport item.png","stimuli/Electronic device & accessory.png",2,"Hand labour tool & accessory","stimuli/objects/lawnmower.jpg",0,2
6,"stimuli/m5.jpg","stimuli/m2.jpg",NA,NA,NA,1,"stimuli/Outdoor activity & sport item.png","stimuli/Hand labour tool & accessory.png","stimuli/Kitchen & utensil.png","stimuli/Electronic device & accessory.png",2,"Hand labour tool & accessory","stimuli/objects/hammer01.jpg",1,2
6,"stimuli/m5.jpg","stimuli/m2.jpg",NA,NA,NA,1,"stimuli/Electronic device & accessory.png","stimuli/Hand labour tool & accessory.png","stimuli/Kitchen & utensil.png","stimuli/Outdoor activity & sport item.png",2,"Hand labour tool & accessory","stimuli/objects/aircompressor.jpg",1,2
6,"stimuli/m5.jpg","stimuli/m2.jpg",NA,NA,NA,1,"stimuli/Outdoor activity & sport item.png","stimuli/Hand labour tool & accessory.png","stimuli/Electronic device & accessory.png","stimuli/Kitchen & utensil.png",1,"Outdoor activity & sport item","stimuli/objects/sportbag.jpg",0,2
6,"stimuli/m2.jpg","stimuli/m5.jpg",NA,NA,NA,1,"stimuli/Outdoor activity & sport item.png","stimuli/Electronic device & accessory.png","stimuli/Kitchen & utensil.png","stimuli/Hand labour tool & accessory.png",1,"Outdoor activity & sport item","stimuli/objects/canoepaddle02.jpg",1,2
6,"stimuli/m5.jpg","stimuli/m2.jpg",NA,NA,NA,2,"stimuli/Hand labour tool & accessory.png","stimuli/Outdoor activity & sport item.png","stimuli/Kitchen & utensil.png","stimuli/Electronic device & accessory.png",2,"Outdoor activity & sport item","stimuli/objects/backpack01a.jpg",1,2
6,"stimuli/m5.jpg","stimuli/m2.jpg",NA,NA,NA,2,"stimuli/Outdoor activity & sport item.png","stimuli/Electronic device & accessory.png","stimuli/Hand labour tool & accessory.png","stimuli/Kitchen & utensil.png",1,"Outdoor activity & sport item","stimuli/objects/hockeypuck.jpg",1,2
6,"stimuli/m2.jpg","stimuli/m5.jpg",NA,NA,NA,1,"stimuli/Hand labour tool & accessory.png","stimuli/Outdoor activity & sport item.png","stimuli/Electronic device & accessory.png","stimuli/Kitchen & utensil.png",2,"Outdoor activity & sport item","stimuli/objects/baseballglove.jpg",1,2
6,"stimuli/m5.jpg","stimuli/m2.jpg",NA,NA,NA,1,"stimuli/Outdoor activity & sport item.png","stimuli/Electronic device & accessory.png","stimuli/Kitchen & utensil.png","stimuli/Hand labour tool & accessory.png",4,"Hand labour tool & accessory","stimuli/objects/snowblower.jpg",1,2
6,"stimuli/m2.jpg","stimuli/m5.jpg",NA,NA,NA,1,"stimuli/Kitchen & utensil.png","stimuli/Hand labour tool & accessory.png","stimuli/Outdoor activity & sport item.png","stimuli/Electronic device & accessory.png",2,"Hand labour tool & accessory","stimuli/objects/puttyknife.jpg",0,2
6,"stimuli/m2.jpg","stimuli/m5.jpg",NA,NA,NA,2,"stimuli/Outdoor activity & sport item.png","stimuli/Hand labour tool & accessory.png","stimuli/Kitchen & utensil.png","stimuli/Electronic device & accessory.png",2,"Hand labour tool & accessory","stimuli/objects/rope03.jpg",1,2
6,"stimuli/m5.jpg","stimuli/m2.jpg",NA,NA,NA,2,"stimuli/Electronic device & accessory.png","stimuli/Kitchen & utensil.png","stimuli/Outdoor activity & sport item.png","stimuli/Hand labour tool & accessory.png",3,"Outdoor activity & sport item","stimuli/objects/toyhockeystick01.jpg",1,2
6,"stimuli/m2.jpg","stimuli/m5.jpg",NA,NA,NA,2,"stimuli/Outdoor activity & sport item.png","stimuli/Electronic device & accessory.png","stimuli/Kitchen & utensil.png","stimuli/Hand labour tool & accessory.png",4,"Hand labour tool & accessory","stimuli/objects/saw02b.jpg",1,2
6,"stimuli/m2.jpg","stimuli/m5.jpg",NA,NA,NA,2,"stimuli/Electronic device & accessory.png","stimuli/Hand labour tool & accessory.png","stimuli/Kitchen & utensil.png","stimuli/Outdoor activity & sport item.png",2,"Hand labour tool & accessory","stimuli/objects/flooringstapler.jpg",1,2
6,"stimuli/m5.jpg","stimuli/m2.jpg",NA,NA,NA,2,"stimuli/Electronic device & accessory.png","stimuli/Kitchen & utensil.png","stimuli/Hand labour tool & accessory.png","stimuli/Outdoor activity & sport item.png",4,"Outdoor activity & sport item","stimuli/objects/swimgoggles.jpg",1,2
6,"stimuli/m5.jpg","stimuli/m2.jpg",NA,NA,NA,1,"stimuli/Hand labour tool & accessory.png","stimuli/Electronic device & accessory.png","stimuli/Kitchen & utensil.png","stimuli/Outdoor activity & sport item.png",1,"Hand labour tool & accessory","stimuli/objects/wheel01.jpg",1,2
6,"","",NA,NA,NA,NA,"","","","",NA,"","",NA,NA
6,"stimuli/m2.jpg","stimuli/m5.jpg",NA,NA,NA,2,"stimuli/Outdoor activity & sport item.png","stimuli/Hand labour tool & accessory.png","stimuli/Electronic device & accessory.png","stimuli/Kitchen & utensil.png",4,"Kitchen & utensil","stimuli/objects/corkscrew03a.jpg",1,3
6,"stimuli/m5.jpg","stimuli/m2.jpg",NA,NA,NA,1,"stimuli/Electronic device & accessory.png","stimuli/Kitchen & utensil.png","stimuli/Outdoor activity & sport item.png","stimuli/Hand labour tool & accessory.png",2,"Kitchen & utensil","stimuli/objects/towel01.jpg",1,3
6,"stimuli/m5.jpg","stimuli/m2.jpg",NA,NA,NA,1,"stimuli/Hand labour tool & accessory.png","stimuli/Kitchen & utensil.png","stimuli/Electronic device & accessory.png","stimuli/Outdoor activity & sport item.png",4,"Outdoor activity & sport item","stimuli/objects/weight01.jpg",0,3
6,"stimuli/m5.jpg","stimuli/m2.jpg",NA,NA,NA,1,"stimuli/Electronic device & accessory.png","stimuli/Outdoor activity & sport item.png","stimuli/Hand labour tool & accessory.png","stimuli/Kitchen & utensil.png",4,"Kitchen & utensil","stimuli/objects/cork02.jpg",1,3
6,"stimuli/m2.jpg","stimuli/m5.jpg",NA,NA,NA,1,"stimuli/Hand labour tool & accessory.png","stimuli/Electronic device & accessory.png","stimuli/Outdoor activity & sport item.png","stimuli/Kitchen & utensil.png",2,"Electronic device & accessory","stimuli/objects/usbkey.jpg",1,3
6,"stimuli/m2.jpg","stimuli/m5.jpg",NA,NA,NA,2,"stimuli/Hand labour tool & accessory.png","stimuli/Kitchen & utensil.png","stimuli/Electronic device & accessory.png","stimuli/Outdoor activity & sport item.png",2,"Kitchen & utensil","stimuli/objects/tupperware03a.jpg",1,3
6,"stimuli/m5.jpg","stimuli/m2.jpg",NA,NA,NA,2,"stimuli/Electronic device & accessory.png","stimuli/Kitchen & utensil.png","stimuli/Hand labour tool & accessory.png","stimuli/Outdoor activity & sport item.png",1,"Electronic device & accessory","stimuli/objects/cellphone.jpg",1,3
6,"stimuli/m2.jpg","stimuli/m5.jpg",NA,NA,NA,2,"stimuli/Outdoor activity & sport item.png","stimuli/Hand labour tool & accessory.png","stimuli/Kitchen & utensil.png","stimuli/Electronic device & accessory.png",3,"Kitchen & utensil","stimuli/objects/butterknife.jpg",1,3
6,"stimuli/m5.jpg","stimuli/m2.jpg",NA,NA,NA,2,"stimuli/Kitchen & utensil.png","stimuli/Outdoor activity & sport item.png","stimuli/Hand labour tool & accessory.png","stimuli/Electronic device & accessory.png",2,"Outdoor activity & sport item","stimuli/objects/badmintonracket.jpg",0,3
6,"stimuli/m5.jpg","stimuli/m2.jpg",NA,NA,NA,1,"stimuli/Outdoor activity & sport item.png","stimuli/Hand labour tool & accessory.png","stimuli/Kitchen & utensil.png","stimuli/Electronic device & accessory.png",3,"Kitchen & utensil","stimuli/objects/travelmug.jpg",1,3
6,"stimuli/m5.jpg","stimuli/m2.jpg",NA,NA,NA,2,"stimuli/Kitchen & utensil.png","stimuli/Hand labour tool & accessory.png","stimuli/Electronic device & accessory.png","stimuli/Outdoor activity & sport item.png",2,"Hand labour tool & accessory","stimuli/objects/tape02a.jpg",0,3
6,"stimuli/m5.jpg","stimuli/m2.jpg",NA,NA,NA,2,"stimuli/Outdoor activity & sport item.png","stimuli/Hand labour tool & accessory.png","stimuli/Electronic device & accessory.png","stimuli/Kitchen & utensil.png",3,"Electronic device & accessory","stimuli/objects/filmnegative.jpg",1,3
6,"stimuli/m5.jpg","stimuli/m2.jpg",NA,NA,NA,2,"stimuli/Kitchen & utensil.png","stimuli/Hand labour tool & accessory.png","stimuli/Outdoor activity & sport item.png","stimuli/Electronic device & accessory.png",4,"Electronic device & accessory","stimuli/objects/securitycamera.jpg",1,3
6,"stimuli/m2.jpg","stimuli/m5.jpg",NA,NA,NA,2,"stimuli/Electronic device & accessory.png","stimuli/Hand labour tool & accessory.png","stimuli/Kitchen & utensil.png","stimuli/Outdoor activity & sport item.png",1,"Electronic device & accessory","stimuli/objects/airconditioner.jpg",0,3
6,"stimuli/m2.jpg","stimuli/m5.jpg",NA,NA,NA,1,"stimuli/Outdoor activity & sport item.png","stimuli/Hand labour tool & accessory.png","stimuli/Kitchen & utensil.png","stimuli/Electronic device & accessory.png",4,"Electronic device & accessory","stimuli/objects/nintendods.jpg",1,3
6,"stimuli/m5.jpg","stimuli/m2.jpg",NA,NA,NA,2,"stimuli/Outdoor activity & sport item.png","stimuli/Kitchen & utensil.png","stimuli/Hand labour tool & accessory.png","stimuli/Electronic device & accessory.png",4,"Electronic device & accessory","stimuli/objects/dvdplayer.jpg",1,3
6,"stimuli/m2.jpg","stimuli/m5.jpg",NA,NA,NA,1,"stimuli/Kitchen & utensil.png","stimuli/Hand labour tool & accessory.png","stimuli/Electronic device & accessory.png","stimuli/Outdoor activity & sport item.png",2,"Hand labour tool & accessory","stimuli/objects/gluetube.jpg",0,3
6,"stimuli/m5.jpg","stimuli/m2.jpg",NA,NA,NA,2,"stimuli/Outdoor activity & sport item.png","stimuli/Electronic device & accessory.png","stimuli/Hand labour tool & accessory.png","stimuli/Kitchen & utensil.png",2,"Electronic device & accessory","stimuli/objects/expansioncard.jpg",1,3
6,"stimuli/m5.jpg","stimuli/m2.jpg",NA,NA,NA,1,"stimuli/Electronic device & accessory.png","stimuli/Hand labour tool & accessory.png","stimuli/Outdoor activity & sport item.png","stimuli/Kitchen & utensil.png",4,"Kitchen & utensil","stimuli/objects/funnel.jpg",1,3
6,"stimuli/m2.jpg","stimuli/m5.jpg",NA,NA,NA,1,"stimuli/Kitchen & utensil.png","stimuli/Outdoor activity & sport item.png","stimuli/Hand labour tool & accessory.png","stimuli/Electronic device & accessory.png",4,"Electronic device & accessory","stimuli/objects/photocopier.jpg",1,3
6,"stimuli/m5.jpg","stimuli/m2.jpg",NA,NA,NA,2,"stimuli/Electronic device & accessory.png","stimuli/Hand labour tool & accessory.png","stimuli/Kitchen & utensil.png","stimuli/Outdoor activity & sport item.png",1,"Electronic device & accessory","stimuli/objects/electricoutlet.jpg",1,3
6,"stimuli/m2.jpg","stimuli/m5.jpg",NA,NA,NA,2,"stimuli/Hand labour tool & accessory.png","stimuli/Kitchen & utensil.png","stimuli/Outdoor activity & sport item.png","stimuli/Electronic device & accessory.png",2,"Kitchen & utensil","stimuli/objects/cookiecutter.jpg",1,3
6,"stimuli/m2.jpg","stimuli/m5.jpg",NA,NA,NA,2,"stimuli/Electronic device & accessory.png","stimuli/Hand labour tool & accessory.png","stimuli/Outdoor activity & sport item.png","stimuli/Kitchen & utensil.png",4,"Kitchen & utensil","stimuli/objects/saladspinner.jpg",1,3
6,"stimuli/m2.jpg","stimuli/m5.jpg",NA,NA,NA,1,"stimuli/Electronic device & accessory.png","stimuli/Outdoor activity & sport item.png","stimuli/Hand labour tool & accessory.png","stimuli/Kitchen & utensil.png",1,"Electronic device & accessory","stimuli/objects/extensioncord.jpg",1,3
6,"stimuli/m2.jpg","stimuli/m5.jpg",NA,NA,NA,2,"stimuli/Outdoor activity & sport item.png","stimuli/Electronic device & accessory.png","stimuli/Hand labour tool & accessory.png","stimuli/Kitchen & utensil.png",4,"Kitchen & utensil","stimuli/objects/bowl02a.jpg",1,3
6,"stimuli/m2.jpg","stimuli/m5.jpg",NA,NA,NA,1,"stimuli/Outdoor activity & sport item.png","stimuli/Electronic device & accessory.png","stimuli/Kitchen & utensil.png","stimuli/Hand labour tool & accessory.png",3,"Kitchen & utensil","stimuli/objects/dishrack.jpg",0,3
6,"stimuli/m2.jpg","stimuli/m5.jpg",NA,NA,NA,1,"stimuli/Outdoor activity & sport item.png","stimuli/Electronic device & accessory.png","stimuli/Hand labour tool & accessory.png","stimuli/Kitchen & utensil.png",2,"Electronic device & accessory","stimuli/objects/fluorescentlightbulb.jpg",1,3
6,"stimuli/m2.jpg","stimuli/m5.jpg",NA,NA,NA,1,"stimuli/Hand labour tool & accessory.png","stimuli/Outdoor activity & sport item.png","stimuli/Kitchen & utensil.png","stimuli/Electronic device & accessory.png",4,"Electronic device & accessory","stimuli/objects/gps.jpg",1,3
6,"stimuli/m5.jpg","stimuli/m2.jpg",NA,NA,NA,1,"stimuli/Outdoor activity & sport item.png","stimuli/Electronic device & accessory.png","stimuli/Kitchen & utensil.png","stimuli/Hand labour tool & accessory.png",4,"Hand labour tool & accessory","stimuli/objects/gastank.jpg",0,3
6,"stimuli/m5.jpg","stimuli/m2.jpg",NA,NA,NA,1,"stimuli/Hand labour tool & accessory.png","stimuli/Electronic device & accessory.png","stimuli/Kitchen & utensil.png","stimuli/Outdoor activity & sport item.png",4,"Outdoor activity & sport item","stimuli/objects/ellipticalmachine.jpg",0,3
6,"stimuli/m2.jpg","stimuli/m5.jpg",NA,NA,NA,2,"stimuli/Electronic device & accessory.png","stimuli/Outdoor activity & sport item.png","stimuli/Kitchen & utensil.png","stimuli/Hand labour tool & accessory.png",3,"Kitchen & utensil","stimuli/objects/handmixer01d.jpg",1,3
6,"stimuli/m2.jpg","stimuli/m5.jpg",NA,NA,NA,1,"stimuli/Electronic device & accessory.png","stimuli/Kitchen & utensil.png","stimuli/Outdoor activity & sport item.png","stimuli/Hand labour tool & accessory.png",1,"Electronic device & accessory","stimuli/objects/ipod.jpg",1,3
6,"stimuli/m5.jpg","stimuli/m2.jpg",NA,NA,NA,1,"stimuli/Kitchen & utensil.png","stimuli/Outdoor activity & sport item.png","stimuli/Hand labour tool & accessory.png","stimuli/Electronic device & accessory.png",4,"Electronic device & accessory","stimuli/objects/outletadapter.jpg",0,3
6,"stimuli/m5.jpg","stimuli/m2.jpg",NA,NA,NA,1,"stimuli/Kitchen & utensil.png","stimuli/Electronic device & accessory.png","stimuli/Outdoor activity & sport item.png","stimuli/Hand labour tool & accessory.png",1,"Kitchen & utensil","stimuli/objects/toothpick02.jpg",1,3
6,"stimuli/m2.jpg","stimuli/m5.jpg",NA,NA,NA,2,"stimuli/Outdoor activity & sport item.png","stimuli/Kitchen & utensil.png","stimuli/Electronic device & accessory.png","stimuli/Hand labour tool & accessory.png",2,"Kitchen & utensil","stimuli/objects/gasburner.jpg",1,3
6,"stimuli/m5.jpg","stimuli/m2.jpg",NA,NA,NA,2,"stimuli/Electronic device & accessory.png","stimuli/Kitchen & utensil.png","stimuli/Outdoor activity & sport item.png","stimuli/Hand labour tool & accessory.png",1,"Electronic device & accessory","stimuli/objects/desktopcomputer.jpg",1,3
6,"stimuli/m5.jpg","stimuli/m2.jpg",NA,NA,NA,1,"stimuli/Outdoor activity & sport item.png","stimuli/Kitchen & utensil.png","stimuli/Hand labour tool & accessory.png","stimuli/Electronic device & accessory.png",2,"Kitchen & utensil","stimuli/objects/thermos.jpg",1,3
6,"stimuli/m2.jpg","stimuli/m5.jpg",NA,NA,NA,2,"stimuli/Outdoor activity & sport item.png","stimuli/Electronic device & accessory.png","stimuli/Kitchen & utensil.png","stimuli/Hand labour tool & accessory.png",3,"Kitchen & utensil","stimuli/objects/breadknife.jpg",1,3
6,"stimuli/m2.jpg","stimuli/m5.jpg",NA,NA,NA,2,"stimuli/Hand labour tool & accessory.png","stimuli/Electronic device & accessory.png","stimuli/Outdoor activity & sport item.png","stimuli/Kitchen & utensil.png",4,"Kitchen & utensil","stimuli/objects/hourglass.jpg",1,3
6,"stimuli/m2.jpg","stimuli/m5.jpg",NA,NA,NA,2,"stimuli/Outdoor activity & sport item.png","stimuli/Kitchen & utensil.png","stimuli/Hand labour tool & accessory.png","stimuli/Electronic device & accessory.png",2,"Kitchen & utensil","stimuli/objects/tray.jpg",1,3
6,"stimuli/m5.jpg","stimuli/m2.jpg",NA,NA,NA,1,"stimuli/Electronic device & accessory.png","stimuli/Hand labour tool & accessory.png","stimuli/Kitchen & utensil.png","stimuli/Outdoor activity & sport item.png",2,"Hand labour tool & accessory","stimuli/objects/knifesharpener.jpg",0,3
6,"stimuli/m2.jpg","stimuli/m5.jpg",NA,NA,NA,1,"stimuli/Kitchen & utensil.png","stimuli/Outdoor activity & sport item.png","stimuli/Electronic device & accessory.png","stimuli/Hand labour tool & accessory.png",3,"Electronic device & accessory","stimuli/objects/fanblades.jpg",1,3
6,"stimuli/m5.jpg","stimuli/m2.jpg",NA,NA,NA,2,"stimuli/Outdoor activity & sport item.png","stimuli/Hand labour tool & accessory.png","stimuli/Kitchen & utensil.png","stimuli/Electronic device & accessory.png",4,"Electronic device & accessory","stimuli/objects/djmixer02.jpg",1,3
6,"stimuli/m5.jpg","stimuli/m2.jpg",NA,NA,NA,2,"stimuli/Electronic device & accessory.png","stimuli/Outdoor activity & sport item.png","stimuli/Hand labour tool & accessory.png","stimuli/Kitchen & utensil.png",1,"Electronic device & accessory","stimuli/objects/satellitedish01.jpg",1,3
6,"stimuli/m2.jpg","stimuli/m5.jpg",NA,NA,NA,2,"stimuli/Electronic device & accessory.png","stimuli/Kitchen & utensil.png","stimuli/Hand labour tool & accessory.png","stimuli/Outdoor activity & sport item.png",2,"Kitchen & utensil","stimuli/objects/cookingpot.jpg",1,3
6,"stimuli/m5.jpg","stimuli/m2.jpg",NA,NA,NA,2,"stimuli/Hand labour tool & accessory.png","stimuli/Outdoor activity & sport item.png","stimuli/Kitchen & utensil.png","stimuli/Electronic device & accessory.png",3,"Kitchen & utensil","stimuli/objects/peeler01.jpg",0,3
6,"stimuli/m5.jpg","stimuli/m2.jpg",NA,NA,NA,2,"stimuli/Kitchen & utensil.png","stimuli/Electronic device & accessory.png","stimuli/Outdoor activity & sport item.png","stimuli/Hand labour tool & accessory.png",3,"Outdoor activity & sport item","stimuli/objects/outdoorheater.jpg",0,3
6,"stimuli/m2.jpg","stimuli/m5.jpg",NA,NA,NA,1,"stimuli/Hand labour tool & accessory.png","stimuli/Outdoor activity & sport item.png","stimuli/Electronic device & accessory.png","stimuli/Kitchen & utensil.png",3,"Electronic device & accessory","stimuli/objects/lamp04a.jpg",1,3
6,"","",NA,NA,NA,NA,"","","","",NA,"","",NA,NA
6,"stimuli/m5.jpg","stimuli/m2.jpg",NA,NA,NA,1,"stimuli/Electronic device & accessory.png","stimuli/Outdoor activity & sport item.png","stimuli/Kitchen & utensil.png","stimuli/Hand labour tool & accessory.png",2,"Outdoor activity & sport item","stimuli/objects/bikelock.jpg",0,4
6,"stimuli/m5.jpg","stimuli/m2.jpg",NA,NA,NA,2,"stimuli/Outdoor activity & sport item.png","stimuli/Electronic device & accessory.png","stimuli/Kitchen & utensil.png","stimuli/Hand labour tool & accessory.png",3,"Kitchen & utensil","stimuli/objects/pitcher02b.jpg",1,4
6,"stimuli/m2.jpg","stimuli/m5.jpg",NA,NA,NA,1,"stimuli/Hand labour tool & accessory.png","stimuli/Electronic device & accessory.png","stimuli/Outdoor activity & sport item.png","stimuli/Kitchen & utensil.png",4,"Kitchen & utensil","stimuli/objects/oven.jpg",1,4
6,"stimuli/m5.jpg","stimuli/m2.jpg",NA,NA,NA,2,"stimuli/Hand labour tool & accessory.png","stimuli/Kitchen & utensil.png","stimuli/Electronic device & accessory.png","stimuli/Outdoor activity & sport item.png",2,"Kitchen & utensil","stimuli/objects/pot01.jpg",1,4
6,"stimuli/m2.jpg","stimuli/m5.jpg",NA,NA,NA,1,"stimuli/Kitchen & utensil.png","stimuli/Hand labour tool & accessory.png","stimuli/Electronic device & accessory.png","stimuli/Outdoor activity & sport item.png",1,"Kitchen & utensil","stimuli/objects/muffintray01.jpg",1,4
6,"stimuli/m5.jpg","stimuli/m2.jpg",NA,NA,NA,1,"stimuli/Kitchen & utensil.png","stimuli/Outdoor activity & sport item.png","stimuli/Hand labour tool & accessory.png","stimuli/Electronic device & accessory.png",3,"Hand labour tool & accessory","stimuli/objects/wateringcan.jpg",1,4
6,"stimuli/m2.jpg","stimuli/m5.jpg",NA,NA,NA,2,"stimuli/Outdoor activity & sport item.png","stimuli/Hand labour tool & accessory.png","stimuli/Electronic device & accessory.png","stimuli/Kitchen & utensil.png",2,"Hand labour tool & accessory","stimuli/objects/paintroller01.jpg",1,4
6,"stimuli/m2.jpg","stimuli/m5.jpg",NA,NA,NA,2,"stimuli/Electronic device & accessory.png","stimuli/Outdoor activity & sport item.png","stimuli/Kitchen & utensil.png","stimuli/Hand labour tool & accessory.png",1,"Electronic device & accessory","stimuli/objects/usbcable01a.jpg",0,4
6,"stimuli/m2.jpg","stimuli/m5.jpg",NA,NA,NA,1,"stimuli/Hand labour tool & accessory.png","stimuli/Electronic device & accessory.png","stimuli/Kitchen & utensil.png","stimuli/Outdoor activity & sport item.png",3,"Kitchen & utensil","stimuli/objects/measuringcup01.jpg",1,4
6,"stimuli/m2.jpg","stimuli/m5.jpg",NA,NA,NA,1,"stimuli/Outdoor activity & sport item.png","stimuli/Hand labour tool & accessory.png","stimuli/Electronic device & accessory.png","stimuli/Kitchen & utensil.png",3,"Electronic device & accessory","stimuli/objects/scanner.jpg",0,4
6,"stimuli/m2.jpg","stimuli/m5.jpg",NA,NA,NA,1,"stimuli/Electronic device & accessory.png","stimuli/Kitchen & utensil.png","stimuli/Hand labour tool & accessory.png","stimuli/Outdoor activity & sport item.png",2,"Kitchen & utensil","stimuli/objects/espressomachine.jpg",1,4
6,"stimuli/m5.jpg","stimuli/m2.jpg",NA,NA,NA,1,"stimuli/Outdoor activity & sport item.png","stimuli/Electronic device & accessory.png","stimuli/Kitchen & utensil.png","stimuli/Hand labour tool & accessory.png",4,"Hand labour tool & accessory","stimuli/objects/bungeecord02.jpg",1,4
6,"stimuli/m2.jpg","stimuli/m5.jpg",NA,NA,NA,2,"stimuli/Kitchen & utensil.png","stimuli/Electronic device & accessory.png","stimuli/Outdoor activity & sport item.png","stimuli/Hand labour tool & accessory.png",4,"Hand labour tool & accessory","stimuli/objects/weedwacker.jpg",1,4
6,"stimuli/m2.jpg","stimuli/m5.jpg",NA,NA,NA,2,"stimuli/Outdoor activity & sport item.png","stimuli/Electronic device & accessory.png","stimuli/Hand labour tool & accessory.png","stimuli/Kitchen & utensil.png",3,"Hand labour tool & accessory","stimuli/objects/jigsaw.jpg",1,4
6,"stimuli/m2.jpg","stimuli/m5.jpg",NA,NA,NA,1,"stimuli/Electronic device & accessory.png","stimuli/Hand labour tool & accessory.png","stimuli/Kitchen & utensil.png","stimuli/Outdoor activity & sport item.png",2,"Hand labour tool & accessory","stimuli/objects/leafrake.jpg",0,4
6,"stimuli/m2.jpg","stimuli/m5.jpg",NA,NA,NA,2,"stimuli/Kitchen & utensil.png","stimuli/Outdoor activity & sport item.png","stimuli/Hand labour tool & accessory.png","stimuli/Electronic device & accessory.png",2,"Outdoor activity & sport item","stimuli/objects/exercisebike.jpg",0,4
6,"stimuli/m2.jpg","stimuli/m5.jpg",NA,NA,NA,2,"stimuli/Hand labour tool & accessory.png","stimuli/Electronic device & accessory.png","stimuli/Outdoor activity & sport item.png","stimuli/Kitchen & utensil.png",1,"Hand labour tool & accessory","stimuli/objects/chainsaw.jpg",1,4
6,"stimuli/m5.jpg","stimuli/m2.jpg",NA,NA,NA,1,"stimuli/Hand labour tool & accessory.png","stimuli/Kitchen & utensil.png","stimuli/Outdoor activity & sport item.png","stimuli/Electronic device & accessory.png",2,"Kitchen & utensil","stimuli/objects/gravyboat.jpg",0,4
6,"stimuli/m5.jpg","stimuli/m2.jpg",NA,NA,NA,2,"stimuli/Electronic device & accessory.png","stimuli/Hand labour tool & accessory.png","stimuli/Kitchen & utensil.png","stimuli/Outdoor activity & sport item.png",3,"Kitchen & utensil","stimuli/objects/spicerack.jpg",1,4
6,"stimuli/m5.jpg","stimuli/m2.jpg",NA,NA,NA,1,"stimuli/Kitchen & utensil.png","stimuli/Outdoor activity & sport item.png","stimuli/Electronic device & accessory.png","stimuli/Hand labour tool & accessory.png",4,"Hand labour tool & accessory","stimuli/objects/mallet01b.jpg",1,4
6,"stimuli/m5.jpg","stimuli/m2.jpg",NA,NA,NA,1,"stimuli/Kitchen & utensil.png","stimuli/Electronic device & accessory.png","stimuli/Hand labour tool & accessory.png","stimuli/Outdoor activity & sport item.png",3,"Hand labour tool & accessory","stimuli/objects/bucket02.jpg",1,4
6,"stimuli/m2.jpg","stimuli/m5.jpg",NA,NA,NA,2,"stimuli/Hand labour tool & accessory.png","stimuli/Electronic device & accessory.png","stimuli/Kitchen & utensil.png","stimuli/Outdoor activity & sport item.png",1,"Hand labour tool & accessory","stimuli/objects/sledgehammer.jpg",1,4
6,"stimuli/m5.jpg","stimuli/m2.jpg",NA,NA,NA,1,"stimuli/Electronic device & accessory.png","stimuli/Outdoor activity & sport item.png","stimuli/Hand labour tool & accessory.png","stimuli/Kitchen & utensil.png",3,"Hand labour tool & accessory","stimuli/objects/stubbywrench01a.jpg",1,4
6,"stimuli/m2.jpg","stimuli/m5.jpg",NA,NA,NA,1,"stimuli/Outdoor activity & sport item.png","stimuli/Kitchen & utensil.png","stimuli/Hand labour tool & accessory.png","stimuli/Electronic device & accessory.png",2,"Kitchen & utensil","stimuli/objects/shotglass.jpg",1,4
6,"stimuli/m2.jpg","stimuli/m5.jpg",NA,NA,NA,2,"stimuli/Hand labour tool & accessory.png","stimuli/Outdoor activity & sport item.png","stimuli/Kitchen & utensil.png","stimuli/Electronic device & accessory.png",1,"Hand labour tool & accessory","stimuli/objects/pipewrench.jpg",1,4
6,"stimuli/m5.jpg","stimuli/m2.jpg",NA,NA,NA,1,"stimuli/Hand labour tool & accessory.png","stimuli/Electronic device & accessory.png","stimuli/Kitchen & utensil.png","stimuli/Outdoor activity & sport item.png",3,"Kitchen & utensil","stimuli/objects/bottlecap.jpg",0,4
6,"stimuli/m5.jpg","stimuli/m2.jpg",NA,NA,NA,2,"stimuli/Kitchen & utensil.png","stimuli/Hand labour tool & accessory.png","stimuli/Electronic device & accessory.png","stimuli/Outdoor activity & sport item.png",4,"Outdoor activity & sport item","stimuli/objects/propanetank01.jpg",0,4
6,"stimuli/m2.jpg","stimuli/m5.jpg",NA,NA,NA,1,"stimuli/Outdoor activity & sport item.png","stimuli/Hand labour tool & accessory.png","stimuli/Kitchen & utensil.png","stimuli/Electronic device & accessory.png",3,"Kitchen & utensil","stimuli/objects/cleaver01.jpg",1,4
6,"stimuli/m5.jpg","stimuli/m2.jpg",NA,NA,NA,1,"stimuli/Electronic device & accessory.png","stimuli/Hand labour tool & accessory.png","stimuli/Outdoor activity & sport item.png","stimuli/Kitchen & utensil.png",2,"Hand labour tool & accessory","stimuli/objects/pressurewasher.jpg",1,4
6,"stimuli/m2.jpg","stimuli/m5.jpg",NA,NA,NA,1,"stimuli/Kitchen & utensil.png","stimuli/Electronic device & accessory.png","stimuli/Hand labour tool & accessory.png","stimuli/Outdoor activity & sport item.png",4,"Outdoor activity & sport item","stimuli/objects/lifesaver.jpg",0,4
6,"stimuli/m5.jpg","stimuli/m2.jpg",NA,NA,NA,2,"stimuli/Electronic device & accessory.png","stimuli/Outdoor activity & sport item.png","stimuli/Hand labour tool & accessory.png","stimuli/Kitchen & utensil.png",4,"Kitchen & utensil","stimuli/objects/cowbell.jpg",1,4
6,"stimuli/m5.jpg","stimuli/m2.jpg",NA,NA,NA,2,"stimuli/Hand labour tool & accessory.png","stimuli/Kitchen & utensil.png","stimuli/Outdoor activity & sport item.png","stimuli/Electronic device & accessory.png",2,"Kitchen & utensil","stimuli/objects/waterbottle03.jpg",1,4
6,"stimuli/m5.jpg","stimuli/m2.jpg",NA,NA,NA,1,"stimuli/Outdoor activity & sport item.png","stimuli/Electronic device & accessory.png","stimuli/Hand labour tool & accessory.png","stimuli/Kitchen & utensil.png",3,"Hand labour tool & accessory","stimuli/objects/jumpercables.jpg",1,4
6,"stimuli/m5.jpg","stimuli/m2.jpg",NA,NA,NA,1,"stimuli/Kitchen & utensil.png","stimuli/Hand labour tool & accessory.png","stimuli/Electronic device & accessory.png","stimuli/Outdoor activity & sport item.png",2,"Hand labour tool & accessory","stimuli/objects/pliers02b.jpg",1,4
6,"stimuli/m2.jpg","stimuli/m5.jpg",NA,NA,NA,1,"stimuli/Kitchen & utensil.png","stimuli/Outdoor activity & sport item.png","stimuli/Electronic device & accessory.png","stimuli/Hand labour tool & accessory.png",1,"Kitchen & utensil","stimuli/objects/canister.jpg",1,4
6,"stimuli/m5.jpg","stimuli/m2.jpg",NA,NA,NA,2,"stimuli/Hand labour tool & accessory.png","stimuli/Outdoor activity & sport item.png","stimuli/Kitchen & utensil.png","stimuli/Electronic device & accessory.png",3,"Kitchen & utensil","stimuli/objects/contactlens.jpg",1,4
6,"stimuli/m2.jpg","stimuli/m5.jpg",NA,NA,NA,1,"stimuli/Hand labour tool & accessory.png","stimuli/Outdoor activity & sport item.png","stimuli/Kitchen & utensil.png","stimuli/Electronic device & accessory.png",3,"Kitchen & utensil","stimuli/objects/woodenspoon.jpg",1,4
6,"stimuli/m2.jpg","stimuli/m5.jpg",NA,NA,NA,1,"stimuli/Hand labour tool & accessory.png","stimuli/Outdoor activity & sport item.png","stimuli/Electronic device & accessory.png","stimuli/Kitchen & utensil.png",4,"Kitchen & utensil","stimuli/objects/spoon01.jpg",1,4
6,"stimuli/m5.jpg","stimuli/m2.jpg",NA,NA,NA,1,"stimuli/Hand labour tool & accessory.png","stimuli/Outdoor activity & sport item.png","stimuli/Electronic device & accessory.png","stimuli/Kitchen & utensil.png",1,"Hand labour tool & accessory","stimuli/objects/ladder.jpg",1,4
6,"stimuli/m5.jpg","stimuli/m2.jpg",NA,NA,NA,1,"stimuli/Hand labour tool & accessory.png","stimuli/Outdoor activity & sport item.png","stimuli/Kitchen & utensil.png","stimuli/Electronic device & accessory.png",1,"Hand labour tool & accessory","stimuli/objects/wheelbarrow01.jpg",1,4
6,"stimuli/m5.jpg","stimuli/m2.jpg",NA,NA,NA,2,"stimuli/Kitchen & utensil.png","stimuli/Hand labour tool & accessory.png","stimuli/Outdoor activity & sport item.png","stimuli/Electronic device & accessory.png",1,"Kitchen & utensil","stimuli/objects/pastaspoon.jpg",1,4
6,"stimuli/m2.jpg","stimuli/m5.jpg",NA,NA,NA,2,"stimuli/Outdoor activity & sport item.png","stimuli/Kitchen & utensil.png","stimuli/Hand labour tool & accessory.png","stimuli/Electronic device & accessory.png",4,"Electronic device & accessory","stimuli/objects/ipad02.jpg",0,4
6,"stimuli/m5.jpg","stimuli/m2.jpg",NA,NA,NA,2,"stimuli/Outdoor activity & sport item.png","stimuli/Hand labour tool & accessory.png","stimuli/Kitchen & utensil.png","stimuli/Electronic device & accessory.png",3,"Kitchen & utensil","stimuli/objects/martiniglass01b.jpg",1,4
6,"stimuli/m2.jpg","stimuli/m5.jpg",NA,NA,NA,1,"stimuli/Outdoor activity & sport item.png","stimuli/Electronic device & accessory.png","stimuli/Hand labour tool & accessory.png","stimuli/Kitchen & utensil.png",3,"Hand labour tool & accessory","stimuli/objects/adjustablewrench01b.jpg",0,4
6,"stimuli/m2.jpg","stimuli/m5.jpg",NA,NA,NA,2,"stimuli/Outdoor activity & sport item.png","stimuli/Hand labour tool & accessory.png","stimuli/Kitchen & utensil.png","stimuli/Electronic device & accessory.png",2,"Hand labour tool & accessory","stimuli/objects/hoe.jpg",1,4
6,"stimuli/m2.jpg","stimuli/m5.jpg",NA,NA,NA,2,"stimuli/Electronic device & accessory.png","stimuli/Kitchen & utensil.png","stimuli/Outdoor activity & sport item.png","stimuli/Hand labour tool & accessory.png",4,"Hand labour tool & accessory","stimuli/objects/gardenshears01a.jpg",1,4
6,"stimuli/m5.jpg","stimuli/m2.jpg",NA,NA,NA,2,"stimuli/Outdoor activity & sport item.png","stimuli/Kitchen & utensil.png","stimuli/Electronic device & accessory.png","stimuli/Hand labour tool & accessory.png",2,"Kitchen & utensil","stimuli/objects/rollingpin01a.jpg",1,4
6,"stimuli/m5.jpg","stimuli/m2.jpg",NA,NA,NA,2,"stimuli/Kitchen & utensil.png","stimuli/Outdoor activity & sport item.png","stimuli/Hand labour tool & accessory.png","stimuli/Electronic device & accessory.png",4,"Electronic device & accessory","stimuli/objects/floppydisk02a.jpg",0,4
6,"","",NA,NA,NA,NA,"","","","",NA,"","",NA,NA
6,"stimuli/m2.jpg","stimuli/m5.jpg",NA,NA,NA,1,"stimuli/Kitchen & utensil.png","stimuli/Hand labour tool & accessory.png","stimuli/Electronic device & accessory.png","stimuli/Outdoor activity & sport item.png",4,"Outdoor activity & sport item","stimuli/objects/reflector.jpg",1,5
6,"stimuli/m5.jpg","stimuli/m2.jpg",NA,NA,NA,2,"stimuli/Kitchen & utensil.png","stimuli/Hand labour tool & accessory.png","stimuli/Outdoor activity & sport item.png","stimuli/Electronic device & accessory.png",4,"Electronic device & accessory","stimuli/objects/papershredder.jpg",0,5
6,"stimuli/m5.jpg","stimuli/m2.jpg",NA,NA,NA,2,"stimuli/Electronic device & accessory.png","stimuli/Kitchen & utensil.png","stimuli/Hand labour tool & accessory.png","stimuli/Outdoor activity & sport item.png",4,"Outdoor activity & sport item","stimuli/objects/shinpad.jpg",1,5
6,"stimuli/m5.jpg","stimuli/m2.jpg",NA,NA,NA,2,"stimuli/Hand labour tool & accessory.png","stimuli/Outdoor activity & sport item.png","stimuli/Kitchen & utensil.png","stimuli/Electronic device & accessory.png",2,"Outdoor activity & sport item","stimuli/objects/iceskate.jpg",1,5
6,"stimuli/m2.jpg","stimuli/m5.jpg",NA,NA,NA,2,"stimuli/Outdoor activity & sport item.png","stimuli/Kitchen & utensil.png","stimuli/Electronic device & accessory.png","stimuli/Hand labour tool & accessory.png",3,"Electronic device & accessory","stimuli/objects/phonejack.jpg",1,5
6,"stimuli/m5.jpg","stimuli/m2.jpg",NA,NA,NA,2,"stimuli/Hand labour tool & accessory.png","stimuli/Kitchen & utensil.png","stimuli/Outdoor activity & sport item.png","stimuli/Electronic device & accessory.png",1,"Hand labour tool & accessory","stimuli/objects/staplegun.jpg",0,5
6,"stimuli/m5.jpg","stimuli/m2.jpg",NA,NA,NA,2,"stimuli/Electronic device & accessory.png","stimuli/Outdoor activity & sport item.png","stimuli/Hand labour tool & accessory.png","stimuli/Kitchen & utensil.png",3,"Hand labour tool & accessory","stimuli/objects/squeegee01b.jpg",0,5
6,"stimuli/m5.jpg","stimuli/m2.jpg",NA,NA,NA,1,"stimuli/Outdoor activity & sport item.png","stimuli/Kitchen & utensil.png","stimuli/Hand labour tool & accessory.png","stimuli/Electronic device & accessory.png",4,"Electronic device & accessory","stimuli/objects/fuse.jpg",1,5
6,"stimuli/m2.jpg","stimuli/m5.jpg",NA,NA,NA,1,"stimuli/Kitchen & utensil.png","stimuli/Electronic device & accessory.png","stimuli/Hand labour tool & accessory.png","stimuli/Outdoor activity & sport item.png",4,"Outdoor activity & sport item","stimuli/objects/poolnet.jpg",1,5
6,"stimuli/m5.jpg","stimuli/m2.jpg",NA,NA,NA,2,"stimuli/Electronic device & accessory.png","stimuli/Kitchen & utensil.png","stimuli/Outdoor activity & sport item.png","stimuli/Hand labour tool & accessory.png",3,"Outdoor activity & sport item","stimuli/objects/hockeygoaliemask.jpg",1,5
6,"stimuli/m5.jpg","stimuli/m2.jpg",NA,NA,NA,1,"stimuli/Outdoor activity & sport item.png","stimuli/Electronic device & accessory.png","stimuli/Hand labour tool & accessory.png","stimuli/Kitchen & utensil.png",2,"Electronic device & accessory","stimuli/objects/fan.jpg",1,5
6,"stimuli/m5.jpg","stimuli/m2.jpg",NA,NA,NA,2,"stimuli/Electronic device & accessory.png","stimuli/Hand labour tool & accessory.png","stimuli/Kitchen & utensil.png","stimuli/Outdoor activity & sport item.png",3,"Kitchen & utensil","stimuli/objects/fryingpan02a.jpg",0,5
6,"stimuli/m2.jpg","stimuli/m5.jpg",NA,NA,NA,2,"stimuli/Kitchen & utensil.png","stimuli/Hand labour tool & accessory.png","stimuli/Electronic device & accessory.png","stimuli/Outdoor activity & sport item.png",3,"Electronic device & accessory","stimuli/objects/carantenna.jpg",1,5
6,"stimuli/m5.jpg","stimuli/m2.jpg",NA,NA,NA,2,"stimuli/Kitchen & utensil.png","stimuli/Electronic device & accessory.png","stimuli/Hand labour tool & accessory.png","stimuli/Outdoor activity & sport item.png",4,"Outdoor activity & sport item","stimuli/objects/bikewheel.jpg",1,5
6,"stimuli/m2.jpg","stimuli/m5.jpg",NA,NA,NA,2,"stimuli/Electronic device & accessory.png","stimuli/Outdoor activity & sport item.png","stimuli/Hand labour tool & accessory.png","stimuli/Kitchen & utensil.png",1,"Electronic device & accessory","stimuli/objects/lightbulb01.jpg",1,5
6,"stimuli/m5.jpg","stimuli/m2.jpg",NA,NA,NA,2,"stimuli/Hand labour tool & accessory.png","stimuli/Electronic device & accessory.png","stimuli/Kitchen & utensil.png","stimuli/Outdoor activity & sport item.png",4,"Outdoor activity & sport item","stimuli/objects/bikepump01.jpg",1,5
6,"stimuli/m2.jpg","stimuli/m5.jpg",NA,NA,NA,2,"stimuli/Hand labour tool & accessory.png","stimuli/Kitchen & utensil.png","stimuli/Electronic device & accessory.png","stimuli/Outdoor activity & sport item.png",3,"Electronic device & accessory","stimuli/objects/chandelier.jpg",1,5
6,"stimuli/m2.jpg","stimuli/m5.jpg",NA,NA,NA,1,"stimuli/Outdoor activity & sport item.png","stimuli/Electronic device & accessory.png","stimuli/Hand labour tool & accessory.png","stimuli/Kitchen & utensil.png",1,"Outdoor activity & sport item","stimuli/objects/magneticcompass.jpg",1,5
6,"stimuli/m5.jpg","stimuli/m2.jpg",NA,NA,NA,2,"stimuli/Hand labour tool & accessory.png","stimuli/Electronic device & accessory.png","stimuli/Outdoor activity & sport item.png","stimuli/Kitchen & utensil.png",3,"Outdoor activity & sport item","stimuli/objects/baseball01a.jpg",1,5
6,"stimuli/m2.jpg","stimuli/m5.jpg",NA,NA,NA,1,"stimuli/Hand labour tool & accessory.png","stimuli/Outdoor activity & sport item.png","stimuli/Electronic device & accessory.png","stimuli/Kitchen & utensil.png",2,"Outdoor activity & sport item","stimuli/objects/handgripper.jpg",1,5
6,"stimuli/m5.jpg","stimuli/m2.jpg",NA,NA,NA,2,"stimuli/Hand labour tool & accessory.png","stimuli/Outdoor activity & sport item.png","stimuli/Electronic device & accessory.png","stimuli/Kitchen & utensil.png",2,"Outdoor activity & sport item","stimuli/objects/snowboard.jpg",1,5
6,"stimuli/m2.jpg","stimuli/m5.jpg",NA,NA,NA,2,"stimuli/Electronic device & accessory.png","stimuli/Kitchen & utensil.png","stimuli/Outdoor activity & sport item.png","stimuli/Hand labour tool & accessory.png",4,"Hand labour tool & accessory","stimuli/objects/painttray.jpg",0,5
6,"stimuli/m2.jpg","stimuli/m5.jpg",NA,NA,NA,1,"stimuli/Outdoor activity & sport item.png","stimuli/Hand labour tool & accessory.png","stimuli/Electronic device & accessory.png","stimuli/Kitchen & utensil.png",1,"Outdoor activity & sport item","stimuli/objects/hockeygoalieglove.jpg",1,5
6,"stimuli/m5.jpg","stimuli/m2.jpg",NA,NA,NA,1,"stimuli/Electronic device & accessory.png","stimuli/Kitchen & utensil.png","stimuli/Outdoor activity & sport item.png","stimuli/Hand labour tool & accessory.png",4,"Hand labour tool & accessory","stimuli/objects/drillbit03a.jpg",0,5
6,"stimuli/m5.jpg","stimuli/m2.jpg",NA,NA,NA,1,"stimuli/Outdoor activity & sport item.png","stimuli/Electronic device & accessory.png","stimuli/Kitchen & utensil.png","stimuli/Hand labour tool & accessory.png",1,"Outdoor activity & sport item","stimuli/objects/exercisemachine.jpg",0,5
6,"stimuli/m5.jpg","stimuli/m2.jpg",NA,NA,NA,1,"stimuli/Outdoor activity & sport item.png","stimuli/Hand labour tool & accessory.png","stimuli/Kitchen & utensil.png","stimuli/Electronic device & accessory.png",4,"Electronic device & accessory","stimuli/objects/telephone01b.jpg",1,5
6,"stimuli/m5.jpg","stimuli/m2.jpg",NA,NA,NA,2,"stimuli/Kitchen & utensil.png","stimuli/Outdoor activity & sport item.png","stimuli/Electronic device & accessory.png","stimuli/Hand labour tool & accessory.png",1,"Kitchen & utensil","stimuli/objects/spatula04.jpg",0,5
6,"stimuli/m2.jpg","stimuli/m5.jpg",NA,NA,NA,2,"stimuli/Outdoor activity & sport item.png","stimuli/Kitchen & utensil.png","stimuli/Hand labour tool & accessory.png","stimuli/Electronic device & accessory.png",4,"Electronic device & accessory","stimuli/objects/wire.jpg",1,5
6,"stimuli/m2.jpg","stimuli/m5.jpg",NA,NA,NA,1,"stimuli/Outdoor activity & sport item.png","stimuli/Kitchen & utensil.png","stimuli/Hand labour tool & accessory.png","stimuli/Electronic device & accessory.png",4,"Electronic device & accessory","stimuli/objects/videocamera01a.jpg",0,5
6,"stimuli/m5.jpg","stimuli/m2.jpg",NA,NA,NA,1,"stimuli/Electronic device & accessory.png","stimuli/Kitchen & utensil.png","stimuli/Hand labour tool & accessory.png","stimuli/Outdoor activity & sport item.png",4,"Outdoor activity & sport item","stimuli/objects/fishinghook03.jpg",0,5
6,"stimuli/m2.jpg","stimuli/m5.jpg",NA,NA,NA,2,"stimuli/Kitchen & utensil.png","stimuli/Hand labour tool & accessory.png","stimuli/Outdoor activity & sport item.png","stimuli/Electronic device & accessory.png",4,"Electronic device & accessory","stimuli/objects/dvdcase01.jpg",1,5
6,"stimuli/m5.jpg","stimuli/m2.jpg",NA,NA,NA,1,"stimuli/Hand labour tool & accessory.png","stimuli/Kitchen & utensil.png","stimuli/Outdoor activity & sport item.png","stimuli/Electronic device & accessory.png",4,"Electronic device & accessory","stimuli/objects/slidetray.jpg",1,5
6,"stimuli/m2.jpg","stimuli/m5.jpg",NA,NA,NA,2,"stimuli/Kitchen & utensil.png","stimuli/Outdoor activity & sport item.png","stimuli/Electronic device & accessory.png","stimuli/Hand labour tool & accessory.png",3,"Electronic device & accessory","stimuli/objects/antenna.jpg",1,5
6,"stimuli/m5.jpg","stimuli/m2.jpg",NA,NA,NA,1,"stimuli/Kitchen & utensil.png","stimuli/Outdoor activity & sport item.png","stimuli/Hand labour tool & accessory.png","stimuli/Electronic device & accessory.png",4,"Electronic device & accessory","stimuli/objects/crocodileclips.jpg",1,5
6,"stimuli/m5.jpg","stimuli/m2.jpg",NA,NA,NA,1,"stimuli/Hand labour tool & accessory.png","stimuli/Kitchen & utensil.png","stimuli/Electronic device & accessory.png","stimuli/Outdoor activity & sport item.png",3,"Electronic device & accessory","stimuli/objects/atm.jpg",1,5
6,"stimuli/m2.jpg","stimuli/m5.jpg",NA,NA,NA,1,"stimuli/Kitchen & utensil.png","stimuli/Hand labour tool & accessory.png","stimuli/Outdoor activity & sport item.png","stimuli/Electronic device & accessory.png",3,"Outdoor activity & sport item","stimuli/objects/boatmotor.jpg",1,5
6,"stimuli/m5.jpg","stimuli/m2.jpg",NA,NA,NA,1,"stimuli/Kitchen & utensil.png","stimuli/Outdoor activity & sport item.png","stimuli/Electronic device & accessory.png","stimuli/Hand labour tool & accessory.png",3,"Electronic device & accessory","stimuli/objects/vhstape.jpg",1,5
6,"stimuli/m2.jpg","stimuli/m5.jpg",NA,NA,NA,1,"stimuli/Hand labour tool & accessory.png","stimuli/Kitchen & utensil.png","stimuli/Outdoor activity & sport item.png","stimuli/Electronic device & accessory.png",3,"Outdoor activity & sport item","stimuli/objects/baseballbat.jpg",1,5
6,"stimuli/m2.jpg","stimuli/m5.jpg",NA,NA,NA,2,"stimuli/Hand labour tool & accessory.png","stimuli/Outdoor activity & sport item.png","stimuli/Electronic device & accessory.png","stimuli/Kitchen & utensil.png",3,"Electronic device & accessory","stimuli/objects/lectern01.jpg",1,5
6,"stimuli/m2.jpg","stimuli/m5.jpg",NA,NA,NA,1,"stimuli/Kitchen & utensil.png","stimuli/Outdoor activity & sport item.png","stimuli/Hand labour tool & accessory.png","stimuli/Electronic device & accessory.png",2,"Outdoor activity & sport item","stimuli/objects/skiboot01a.jpg",1,5
6,"stimuli/m5.jpg","stimuli/m2.jpg",NA,NA,NA,2,"stimuli/Outdoor activity & sport item.png","stimuli/Hand labour tool & accessory.png","stimuli/Kitchen & utensil.png","stimuli/Electronic device & accessory.png",1,"Outdoor activity & sport item","stimuli/objects/skihelmet01.jpg",1,5
6,"stimuli/m5.jpg","stimuli/m2.jpg",NA,NA,NA,2,"stimuli/Kitchen & utensil.png","stimuli/Outdoor activity & sport item.png","stimuli/Hand labour tool & accessory.png","stimuli/Electronic device & accessory.png",2,"Outdoor activity & sport item","stimuli/objects/downhillski.jpg",1,5
6,"stimuli/m2.jpg","stimuli/m5.jpg",NA,NA,NA,2,"stimuli/Electronic device & accessory.png","stimuli/Hand labour tool & accessory.png","stimuli/Outdoor activity & sport item.png","stimuli/Kitchen & utensil.png",1,"Electronic device & accessory","stimuli/objects/computerkeyboard02.jpg",1,5
6,"stimuli/m5.jpg","stimuli/m2.jpg",NA,NA,NA,2,"stimuli/Kitchen & utensil.png","stimuli/Hand labour tool & accessory.png","stimuli/Electronic device & accessory.png","stimuli/Outdoor activity & sport item.png",4,"Outdoor activity & sport item","stimuli/objects/cooler01.jpg",1,5
6,"stimuli/m5.jpg","stimuli/m2.jpg",NA,NA,NA,1,"stimuli/Electronic device & accessory.png","stimuli/Outdoor activity & sport item.png","stimuli/Hand labour tool & accessory.png","stimuli/Kitchen & utensil.png",1,"Electronic device & accessory","stimuli/objects/alarmclock01.jpg",1,5
6,"stimuli/m2.jpg","stimuli/m5.jpg",NA,NA,NA,2,"stimuli/Outdoor activity & sport item.png","stimuli/Hand labour tool & accessory.png","stimuli/Kitchen & utensil.png","stimuli/Electronic device & accessory.png",4,"Electronic device & accessory","stimuli/objects/headphones02b.jpg",1,5
6,"stimuli/m2.jpg","stimuli/m5.jpg",NA,NA,NA,2,"stimuli/Hand labour tool & accessory.png","stimuli/Electronic device & accessory.png","stimuli/Outdoor activity & sport item.png","stimuli/Kitchen & utensil.png",4,"Kitchen & utensil","stimuli/objects/watercooler.jpg",0,5
6,"stimuli/m5.jpg","stimuli/m2.jpg",NA,NA,NA,1,"stimuli/Hand labour tool & accessory.png","stimuli/Electronic device & accessory.png","stimuli/Outdoor activity & sport item.png","stimuli/Kitchen & utensil.png",4,"Kitchen & utensil","stimuli/objects/coffeepot03a.jpg",0,5
6,"","",NA,NA,NA,NA,"","","","",NA,"","",NA,NA
