"participant","pract_resp.keys","pract_resp.corr","pract_resp.rt","first_character","second_character","Cue","left_categ","centleft_categ","centright_categ","right_categ","corr_ans","image","trial_cond","cuedCharacter","task_resp.keys","task_resp.corr","task_resp.rt"
9,NA,NA,NA,"","",NA,"","","","",NA,"",NA,"",NA,NA,NA
9,NA,NA,NA,"","",NA,"","","","",NA,"",NA,"",NA,NA,NA
9,NA,NA,NA,"","",NA,"","","","",NA,"",NA,"",NA,NA,NA
9,NA,NA,NA,"","",NA,"","","","",NA,"",NA,"",NA,NA,NA
9,NA,NA,NA,"","",NA,"","","","",NA,"",NA,"",NA,NA,NA
9,NA,NA,NA,"","",NA,"","","","",NA,"",NA,"",NA,NA,NA
9,NA,0,NA,"stimuli/m1.jpg","stimuli/m4.jpg",2,"stimuli/Stationary & school supply.png","stimuli/Vehicle.png","stimuli/Gamestoy & entertainment.png","stimuli/Clothing.png",4,"stimuli/objects/sneaker03b.jpg",1,"stimuli/m4.jpg",NA,NA,NA
9,2,0,1.261,"stimuli/m1.jpg","stimuli/m4.jpg",2,"stimuli/Stationary & school supply.png","stimuli/Clothing.png","stimuli/Vehicle.png","stimuli/Gamestoy & entertainment.png",1,"stimuli/objects/paperclip01b.jpg",0,"stimuli/m4.jpg",NA,NA,NA
9,3,0,0.961,"stimuli/m1.jpg","stimuli/m4.jpg",1,"stimuli/Vehicle.png","stimuli/Stationary & school supply.png","stimuli/Clothing.png","stimuli/Gamestoy & entertainment.png",2,"stimuli/objects/protractor.jpg",1,"stimuli/m1.jpg",NA,NA,NA
9,1,0,1.012,"stimuli/m4.jpg","stimuli/m1.jpg",1,"stimuli/Stationary & school supply.png","stimuli/Vehicle.png","stimuli/Gamestoy & entertainment.png","stimuli/Clothing.png",4,"stimuli/objects/hikingshoe01.jpg",1,"stimuli/m4.jpg",NA,NA,NA
9,4,0,1.152,"stimuli/m1.jpg","stimuli/m4.jpg",1,"stimuli/Clothing.png","stimuli/Stationary & school supply.png","stimuli/Vehicle.png","stimuli/Gamestoy & entertainment.png",2,"stimuli/objects/book01b.jpg",1,"stimuli/m1.jpg",NA,NA,NA
9,2,0,1.038,"stimuli/m4.jpg","stimuli/m1.jpg",1,"stimuli/Stationary & school supply.png","stimuli/Gamestoy & entertainment.png","stimuli/Vehicle.png","stimuli/Clothing.png",4,"stimuli/objects/shoelace.jpg",1,"stimuli/m4.jpg",NA,NA,NA
9,3,0,1.046,"stimuli/m1.jpg","stimuli/m4.jpg",2,"stimuli/Clothing.png","stimuli/Stationary & school supply.png","stimuli/Vehicle.png","stimuli/Gamestoy & entertainment.png",1,"stimuli/objects/moccasin.jpg",1,"stimuli/m4.jpg",NA,NA,NA
9,2,1,0.229,"stimuli/m1.jpg","stimuli/m4.jpg",2,"stimuli/Gamestoy & entertainment.png","stimuli/Clothing.png","stimuli/Stationary & school supply.png","stimuli/Vehicle.png",2,"stimuli/objects/waders.jpg",1,"stimuli/m4.jpg",NA,NA,NA
9,4,0,1.463,"stimuli/m4.jpg","stimuli/m1.jpg",2,"stimuli/Vehicle.png","stimuli/Gamestoy & entertainment.png","stimuli/Stationary & school supply.png","stimuli/Clothing.png",3,"stimuli/objects/eraser.jpg",1,"stimuli/m1.jpg",NA,NA,NA
9,3,0,2.123,"stimuli/m4.jpg","stimuli/m1.jpg",2,"stimuli/Stationary & school supply.png","stimuli/Vehicle.png","stimuli/Clothing.png","stimuli/Gamestoy & entertainment.png",1,"stimuli/objects/fountainpen.jpg",1,"stimuli/m1.jpg",NA,NA,NA
9,2,1,1.863,"stimuli/m4.jpg","stimuli/m1.jpg",1,"stimuli/Vehicle.png","stimuli/Clothing.png","stimuli/Stationary & school supply.png","stimuli/Gamestoy & entertainment.png",2,"stimuli/objects/visor.jpg",1,"stimuli/m4.jpg",NA,NA,NA
9,2,1,0.949,"stimuli/m4.jpg","stimuli/m1.jpg",1,"stimuli/Stationary & school supply.png","stimuli/Clothing.png","stimuli/Vehicle.png","stimuli/Gamestoy & entertainment.png",2,"stimuli/objects/mitten04.jpg",1,"stimuli/m4.jpg",NA,NA,NA
9,2,1,1.846,"stimuli/m4.jpg","stimuli/m1.jpg",2,"stimuli/Clothing.png","stimuli/Stationary & school supply.png","stimuli/Vehicle.png","stimuli/Gamestoy & entertainment.png",2,"stimuli/objects/notebook03a.jpg",1,"stimuli/m1.jpg",NA,NA,NA
9,2,0,1.237,"stimuli/m4.jpg","stimuli/m1.jpg",1,"stimuli/Vehicle.png","stimuli/Clothing.png","stimuli/Gamestoy & entertainment.png","stimuli/Stationary & school supply.png",1,"stimuli/objects/locomotive.jpg",0,"stimuli/m4.jpg",NA,NA,NA
9,2,1,1.398,"stimuli/m4.jpg","stimuli/m1.jpg",2,"stimuli/Gamestoy & entertainment.png","stimuli/Stationary & school supply.png","stimuli/Vehicle.png","stimuli/Clothing.png",2,"stimuli/objects/mechanicalpencil02.jpg",1,"stimuli/m1.jpg",NA,NA,NA
9,4,0,1.937,"stimuli/m4.jpg","stimuli/m1.jpg",1,"stimuli/Gamestoy & entertainment.png","stimuli/Clothing.png","stimuli/Stationary & school supply.png","stimuli/Vehicle.png",1,"stimuli/objects/rattle.jpg",0,"stimuli/m4.jpg",NA,NA,NA
9,2,0,1.603,"stimuli/m4.jpg","stimuli/m1.jpg",1,"stimuli/Gamestoy & entertainment.png","stimuli/Vehicle.png","stimuli/Stationary & school supply.png","stimuli/Clothing.png",4,"stimuli/objects/sheriffhat.jpg",1,"stimuli/m4.jpg",NA,NA,NA
9,2,1,0.794,"stimuli/m4.jpg","stimuli/m1.jpg",1,"stimuli/Gamestoy & entertainment.png","stimuli/Clothing.png","stimuli/Vehicle.png","stimuli/Stationary & school supply.png",2,"stimuli/objects/jeans01.jpg",1,"stimuli/m4.jpg",NA,NA,NA
9,2,0,1.602,"stimuli/m1.jpg","stimuli/m4.jpg",2,"stimuli/Stationary & school supply.png","stimuli/Gamestoy & entertainment.png","stimuli/Vehicle.png","stimuli/Clothing.png",4,"stimuli/objects/bowtie.jpg",1,"stimuli/m4.jpg",NA,NA,NA
9,1,0,1.73,"stimuli/m1.jpg","stimuli/m4.jpg",1,"stimuli/Stationary & school supply.png","stimuli/Clothing.png","stimuli/Vehicle.png","stimuli/Gamestoy & entertainment.png",3,"stimuli/objects/porsche.jpg",0,"stimuli/m1.jpg",NA,NA,NA
9,1,0,0.838,"stimuli/m1.jpg","stimuli/m4.jpg",1,"stimuli/Vehicle.png","stimuli/Gamestoy & entertainment.png","stimuli/Clothing.png","stimuli/Stationary & school supply.png",3,"stimuli/objects/sandal.jpg",0,"stimuli/m1.jpg",NA,NA,NA
9,2,0,1.739,"stimuli/m4.jpg","stimuli/m1.jpg",2,"stimuli/Vehicle.png","stimuli/Clothing.png","stimuli/Gamestoy & entertainment.png","stimuli/Stationary & school supply.png",4,"stimuli/objects/chalkboard01.jpg",1,"stimuli/m1.jpg",NA,NA,NA
9,3,1,1.331,"stimuli/m4.jpg","stimuli/m1.jpg",1,"stimuli/Gamestoy & entertainment.png","stimuli/Stationary & school supply.png","stimuli/Clothing.png","stimuli/Vehicle.png",3,"stimuli/objects/tie02.jpg",1,"stimuli/m4.jpg",NA,NA,NA
9,4,1,1.27,"stimuli/m4.jpg","stimuli/m1.jpg",2,"stimuli/Vehicle.png","stimuli/Gamestoy & entertainment.png","stimuli/Clothing.png","stimuli/Stationary & school supply.png",4,"stimuli/objects/papertray.jpg",1,"stimuli/m1.jpg",NA,NA,NA
9,1,1,1.182,"stimuli/m4.jpg","stimuli/m1.jpg",1,"stimuli/Clothing.png","stimuli/Gamestoy & entertainment.png","stimuli/Vehicle.png","stimuli/Stationary & school supply.png",1,"stimuli/objects/shirt02.jpg",1,"stimuli/m4.jpg",NA,NA,NA
9,2,1,2.056,"stimuli/m4.jpg","stimuli/m1.jpg",2,"stimuli/Vehicle.png","stimuli/Stationary & school supply.png","stimuli/Gamestoy & entertainment.png","stimuli/Clothing.png",2,"stimuli/objects/pen04b.jpg",1,"stimuli/m1.jpg",NA,NA,NA
9,4,1,1.386,"stimuli/m4.jpg","stimuli/m1.jpg",2,"stimuli/Clothing.png","stimuli/Gamestoy & entertainment.png","stimuli/Vehicle.png","stimuli/Stationary & school supply.png",4,"stimuli/objects/divider02.jpg",1,"stimuli/m1.jpg",NA,NA,NA
9,3,0,1.195,"stimuli/m4.jpg","stimuli/m1.jpg",1,"stimuli/Vehicle.png","stimuli/Gamestoy & entertainment.png","stimuli/Clothing.png","stimuli/Stationary & school supply.png",4,"stimuli/objects/expandablefolder03a.jpg",0,"stimuli/m4.jpg",NA,NA,NA
9,2,0,1.465,"stimuli/m1.jpg","stimuli/m4.jpg",2,"stimuli/Vehicle.png","stimuli/Stationary & school supply.png","stimuli/Clothing.png","stimuli/Gamestoy & entertainment.png",3,"stimuli/objects/sock01a.jpg",1,"stimuli/m4.jpg",NA,NA,NA
9,2,0,1.699,"stimuli/m1.jpg","stimuli/m4.jpg",1,"stimuli/Gamestoy & entertainment.png","stimuli/Vehicle.png","stimuli/Clothing.png","stimuli/Stationary & school supply.png",4,"stimuli/objects/pencilsharpener02a.jpg",1,"stimuli/m1.jpg",NA,NA,NA
9,4,0,1.039,"stimuli/m4.jpg","stimuli/m1.jpg",2,"stimuli/Clothing.png","stimuli/Vehicle.png","stimuli/Gamestoy & entertainment.png","stimuli/Stationary & school supply.png",3,"stimuli/objects/interlockingbuildingblock03b.jpg",0,"stimuli/m1.jpg",NA,NA,NA
9,3,1,0.965,"stimuli/m4.jpg","stimuli/m1.jpg",2,"stimuli/Clothing.png","stimuli/Gamestoy & entertainment.png","stimuli/Stationary & school supply.png","stimuli/Vehicle.png",3,"stimuli/objects/scotchtape.jpg",1,"stimuli/m1.jpg",NA,NA,NA
9,1,0,1.401,"stimuli/m4.jpg","stimuli/m1.jpg",2,"stimuli/Stationary & school supply.png","stimuli/Vehicle.png","stimuli/Gamestoy & entertainment.png","stimuli/Clothing.png",2,"stimuli/objects/mailtruck.jpg",0,"stimuli/m1.jpg",NA,NA,NA
9,3,1,1.481,"stimuli/m1.jpg","stimuli/m4.jpg",2,"stimuli/Stationary & school supply.png","stimuli/Vehicle.png","stimuli/Clothing.png","stimuli/Gamestoy & entertainment.png",3,"stimuli/objects/flipflop01b.jpg",1,"stimuli/m4.jpg",NA,NA,NA
9,2,1,1.471,"stimuli/m1.jpg","stimuli/m4.jpg",2,"stimuli/Vehicle.png","stimuli/Clothing.png","stimuli/Stationary & school supply.png","stimuli/Gamestoy & entertainment.png",2,"stimuli/objects/witchhat.jpg",1,"stimuli/m4.jpg",NA,NA,NA
9,NA,NA,NA,"","",NA,"","","","",NA,"",NA,"",NA,NA,NA
9,NA,NA,NA,"stimuli/m2.jpg","stimuli/m5.jpg",2,"stimuli/Outdoor activity & sport item.png","stimuli/Hand labour tool & accessory.png","stimuli/Electronic device & accessory.png","stimuli/Kitchen & utensil.png",2,"stimuli/objects/jumpingjack.jpg",1,"stimuli/m5.jpg",3,0,3.045
9,NA,NA,NA,"stimuli/m2.jpg","stimuli/m5.jpg",2,"stimuli/Hand labour tool & accessory.png","stimuli/Outdoor activity & sport item.png","stimuli/Electronic device & accessory.png","stimuli/Kitchen & utensil.png",1,"stimuli/objects/boxcutter03a.jpg",1,"stimuli/m5.jpg",1,1,1.181
9,NA,NA,NA,"stimuli/m2.jpg","stimuli/m5.jpg",1,"stimuli/Hand labour tool & accessory.png","stimuli/Kitchen & utensil.png","stimuli/Electronic device & accessory.png","stimuli/Outdoor activity & sport item.png",2,"stimuli/objects/huntingknife.jpg",0,"stimuli/m2.jpg",3,0,0.997
9,NA,NA,NA,"stimuli/m5.jpg","stimuli/m2.jpg",2,"stimuli/Kitchen & utensil.png","stimuli/Electronic device & accessory.png","stimuli/Hand labour tool & accessory.png","stimuli/Outdoor activity & sport item.png",4,"stimuli/objects/footballhelmet.jpg",1,"stimuli/m2.jpg",4,1,1.054
9,NA,NA,NA,"stimuli/m5.jpg","stimuli/m2.jpg",1,"stimuli/Outdoor activity & sport item.png","stimuli/Hand labour tool & accessory.png","stimuli/Kitchen & utensil.png","stimuli/Electronic device & accessory.png",2,"stimuli/objects/handrake01a.jpg",1,"stimuli/m5.jpg",2,1,0.781
9,NA,NA,NA,"stimuli/m2.jpg","stimuli/m5.jpg",1,"stimuli/Outdoor activity & sport item.png","stimuli/Electronic device & accessory.png","stimuli/Hand labour tool & accessory.png","stimuli/Kitchen & utensil.png",1,"stimuli/objects/crosscountryski.jpg",1,"stimuli/m2.jpg",1,1,1.848
9,NA,NA,NA,"stimuli/m5.jpg","stimuli/m2.jpg",2,"stimuli/Hand labour tool & accessory.png","stimuli/Electronic device & accessory.png","stimuli/Outdoor activity & sport item.png","stimuli/Kitchen & utensil.png",2,"stimuli/objects/television.jpg",0,"stimuli/m2.jpg",1,0,1.23
9,NA,NA,NA,"stimuli/m5.jpg","stimuli/m2.jpg",2,"stimuli/Kitchen & utensil.png","stimuli/Outdoor activity & sport item.png","stimuli/Hand labour tool & accessory.png","stimuli/Electronic device & accessory.png",2,"stimuli/objects/hose.jpg",1,"stimuli/m2.jpg",2,1,1.839
9,NA,NA,NA,"stimuli/m2.jpg","stimuli/m5.jpg",2,"stimuli/Hand labour tool & accessory.png","stimuli/Electronic device & accessory.png","stimuli/Kitchen & utensil.png","stimuli/Outdoor activity & sport item.png",1,"stimuli/objects/solderingiron.jpg",1,"stimuli/m5.jpg",2,0,1.987
9,NA,NA,NA,"stimuli/m2.jpg","stimuli/m5.jpg",2,"stimuli/Electronic device & accessory.png","stimuli/Kitchen & utensil.png","stimuli/Hand labour tool & accessory.png","stimuli/Outdoor activity & sport item.png",3,"stimuli/objects/gavel.jpg",1,"stimuli/m5.jpg",1,0,0.898
9,NA,NA,NA,"stimuli/m5.jpg","stimuli/m2.jpg",1,"stimuli/Kitchen & utensil.png","stimuli/Electronic device & accessory.png","stimuli/Outdoor activity & sport item.png","stimuli/Hand labour tool & accessory.png",4,"stimuli/objects/boxcutter03a.jpg",1,"stimuli/m5.jpg",NA,0,NA
9,NA,NA,NA,"stimuli/m2.jpg","stimuli/m5.jpg",2,"stimuli/Electronic device & accessory.png","stimuli/Hand labour tool & accessory.png","stimuli/Outdoor activity & sport item.png","stimuli/Kitchen & utensil.png",1,"stimuli/objects/walkietalkie.jpg",0,"stimuli/m5.jpg",2,0,1.621
9,NA,NA,NA,"stimuli/m2.jpg","stimuli/m5.jpg",1,"stimuli/Kitchen & utensil.png","stimuli/Electronic device & accessory.png","stimuli/Hand labour tool & accessory.png","stimuli/Outdoor activity & sport item.png",1,"stimuli/objects/coffeemaker.jpg",0,"stimuli/m2.jpg",4,0,1.923
9,NA,NA,NA,"stimuli/m5.jpg","stimuli/m2.jpg",2,"stimuli/Outdoor activity & sport item.png","stimuli/Electronic device & accessory.png","stimuli/Kitchen & utensil.png","stimuli/Hand labour tool & accessory.png",1,"stimuli/objects/bicycle.jpg",1,"stimuli/m2.jpg",3,0,1.733
9,NA,NA,NA,"stimuli/m2.jpg","stimuli/m5.jpg",1,"stimuli/Kitchen & utensil.png","stimuli/Outdoor activity & sport item.png","stimuli/Electronic device & accessory.png","stimuli/Hand labour tool & accessory.png",2,"stimuli/objects/punchingbag.jpg",1,"stimuli/m2.jpg",4,0,1.837
9,NA,NA,NA,"stimuli/m5.jpg","stimuli/m2.jpg",1,"stimuli/Electronic device & accessory.png","stimuli/Outdoor activity & sport item.png","stimuli/Hand labour tool & accessory.png","stimuli/Kitchen & utensil.png",2,"stimuli/objects/footballhelmet.jpg",0,"stimuli/m5.jpg",3,0,0.987
9,NA,NA,NA,"stimuli/m5.jpg","stimuli/m2.jpg",1,"stimuli/Kitchen & utensil.png","stimuli/Hand labour tool & accessory.png","stimuli/Electronic device & accessory.png","stimuli/Outdoor activity & sport item.png",4,"stimuli/objects/swing.jpg",0,"stimuli/m5.jpg",2,0,1.088
9,NA,NA,NA,"stimuli/m2.jpg","stimuli/m5.jpg",2,"stimuli/Hand labour tool & accessory.png","stimuli/Electronic device & accessory.png","stimuli/Outdoor activity & sport item.png","stimuli/Kitchen & utensil.png",1,"stimuli/objects/pitchfork.jpg",1,"stimuli/m5.jpg",3,0,1.931
9,NA,NA,NA,"stimuli/m5.jpg","stimuli/m2.jpg",2,"stimuli/Hand labour tool & accessory.png","stimuli/Outdoor activity & sport item.png","stimuli/Electronic device & accessory.png","stimuli/Kitchen & utensil.png",2,"stimuli/objects/bicycle.jpg",1,"stimuli/m2.jpg",2,1,1.736
9,NA,NA,NA,"stimuli/m5.jpg","stimuli/m2.jpg",1,"stimuli/Hand labour tool & accessory.png","stimuli/Outdoor activity & sport item.png","stimuli/Kitchen & utensil.png","stimuli/Electronic device & accessory.png",3,"stimuli/objects/freezer02.jpg",0,"stimuli/m5.jpg",1,0,1.038
9,NA,NA,NA,"stimuli/m2.jpg","stimuli/m5.jpg",1,"stimuli/Kitchen & utensil.png","stimuli/Hand labour tool & accessory.png","stimuli/Electronic device & accessory.png","stimuli/Outdoor activity & sport item.png",2,"stimuli/objects/handrake01a.jpg",0,"stimuli/m2.jpg",4,0,1.523
9,NA,NA,NA,"stimuli/m5.jpg","stimuli/m2.jpg",1,"stimuli/Outdoor activity & sport item.png","stimuli/Electronic device & accessory.png","stimuli/Hand labour tool & accessory.png","stimuli/Kitchen & utensil.png",3,"stimuli/objects/jumpingjack.jpg",1,"stimuli/m5.jpg",2,0,1.702
9,NA,NA,NA,"stimuli/m5.jpg","stimuli/m2.jpg",2,"stimuli/Electronic device & accessory.png","stimuli/Kitchen & utensil.png","stimuli/Hand labour tool & accessory.png","stimuli/Outdoor activity & sport item.png",4,"stimuli/objects/bicycle.jpg",1,"stimuli/m2.jpg",4,1,2.17
9,NA,NA,NA,"stimuli/m5.jpg","stimuli/m2.jpg",1,"stimuli/Hand labour tool & accessory.png","stimuli/Outdoor activity & sport item.png","stimuli/Electronic device & accessory.png","stimuli/Kitchen & utensil.png",1,"stimuli/objects/jumpingjack.jpg",1,"stimuli/m5.jpg",2,0,1.988
9,NA,NA,NA,"stimuli/m2.jpg","stimuli/m5.jpg",2,"stimuli/Outdoor activity & sport item.png","stimuli/Electronic device & accessory.png","stimuli/Hand labour tool & accessory.png","stimuli/Kitchen & utensil.png",4,"stimuli/objects/jug.jpg",0,"stimuli/m5.jpg",3,0,0.797
9,NA,NA,NA,"stimuli/m2.jpg","stimuli/m5.jpg",1,"stimuli/Electronic device & accessory.png","stimuli/Hand labour tool & accessory.png","stimuli/Kitchen & utensil.png","stimuli/Outdoor activity & sport item.png",4,"stimuli/objects/racquetballracket.jpg",1,"stimuli/m2.jpg",4,1,0.815
9,NA,NA,NA,"stimuli/m2.jpg","stimuli/m5.jpg",2,"stimuli/Kitchen & utensil.png","stimuli/Outdoor activity & sport item.png","stimuli/Electronic device & accessory.png","stimuli/Hand labour tool & accessory.png",4,"stimuli/objects/jumpingjack.jpg",1,"stimuli/m5.jpg",1,0,1.466
9,NA,NA,NA,"stimuli/m2.jpg","stimuli/m5.jpg",2,"stimuli/Hand labour tool & accessory.png","stimuli/Kitchen & utensil.png","stimuli/Electronic device & accessory.png","stimuli/Outdoor activity & sport item.png",1,"stimuli/objects/hedgetrimmer.jpg",1,"stimuli/m5.jpg",1,1,1.203
9,NA,NA,NA,"stimuli/m5.jpg","stimuli/m2.jpg",1,"stimuli/Kitchen & utensil.png","stimuli/Outdoor activity & sport item.png","stimuli/Electronic device & accessory.png","stimuli/Hand labour tool & accessory.png",4,"stimuli/objects/gavel.jpg",1,"stimuli/m5.jpg",4,1,1.33
9,NA,NA,NA,"stimuli/m2.jpg","stimuli/m5.jpg",2,"stimuli/Electronic device & accessory.png","stimuli/Hand labour tool & accessory.png","stimuli/Kitchen & utensil.png","stimuli/Outdoor activity & sport item.png",2,"stimuli/objects/gavel.jpg",1,"stimuli/m5.jpg",2,1,0.996
9,NA,NA,NA,"stimuli/m2.jpg","stimuli/m5.jpg",1,"stimuli/Kitchen & utensil.png","stimuli/Hand labour tool & accessory.png","stimuli/Outdoor activity & sport item.png","stimuli/Electronic device & accessory.png",3,"stimuli/objects/racquetballracket.jpg",1,"stimuli/m2.jpg",3,1,1.319
9,NA,NA,NA,"stimuli/m5.jpg","stimuli/m2.jpg",2,"stimuli/Kitchen & utensil.png","stimuli/Electronic device & accessory.png","stimuli/Outdoor activity & sport item.png","stimuli/Hand labour tool & accessory.png",3,"stimuli/objects/punchingbag.jpg",1,"stimuli/m2.jpg",3,1,1.014
9,NA,NA,NA,"stimuli/m2.jpg","stimuli/m5.jpg",2,"stimuli/Outdoor activity & sport item.png","stimuli/Hand labour tool & accessory.png","stimuli/Kitchen & utensil.png","stimuli/Electronic device & accessory.png",4,"stimuli/objects/camera01a.jpg",0,"stimuli/m5.jpg",2,0,0.699
9,NA,NA,NA,"stimuli/m2.jpg","stimuli/m5.jpg",2,"stimuli/Outdoor activity & sport item.png","stimuli/Electronic device & accessory.png","stimuli/Kitchen & utensil.png","stimuli/Hand labour tool & accessory.png",4,"stimuli/objects/jumpingjack.jpg",1,"stimuli/m5.jpg",4,1,1.097
9,NA,NA,NA,"stimuli/m2.jpg","stimuli/m5.jpg",1,"stimuli/Electronic device & accessory.png","stimuli/Kitchen & utensil.png","stimuli/Outdoor activity & sport item.png","stimuli/Hand labour tool & accessory.png",3,"stimuli/objects/swing.jpg",1,"stimuli/m2.jpg",3,1,1.304
9,NA,NA,NA,"stimuli/m5.jpg","stimuli/m2.jpg",1,"stimuli/Hand labour tool & accessory.png","stimuli/Kitchen & utensil.png","stimuli/Outdoor activity & sport item.png","stimuli/Electronic device & accessory.png",1,"stimuli/objects/pitchfork.jpg",1,"stimuli/m5.jpg",1,1,0.698
9,NA,NA,NA,"stimuli/m2.jpg","stimuli/m5.jpg",1,"stimuli/Electronic device & accessory.png","stimuli/Outdoor activity & sport item.png","stimuli/Hand labour tool & accessory.png","stimuli/Kitchen & utensil.png",2,"stimuli/objects/racquetballracket.jpg",1,"stimuli/m2.jpg",3,0,1.805
9,NA,NA,NA,"stimuli/m2.jpg","stimuli/m5.jpg",1,"stimuli/Outdoor activity & sport item.png","stimuli/Hand labour tool & accessory.png","stimuli/Electronic device & accessory.png","stimuli/Kitchen & utensil.png",1,"stimuli/objects/telescope.jpg",1,"stimuli/m2.jpg",1,1,1.132
9,NA,NA,NA,"stimuli/m5.jpg","stimuli/m2.jpg",2,"stimuli/Hand labour tool & accessory.png","stimuli/Kitchen & utensil.png","stimuli/Electronic device & accessory.png","stimuli/Outdoor activity & sport item.png",4,"stimuli/objects/footballhelmet.jpg",1,"stimuli/m2.jpg",4,1,1.446
9,NA,NA,NA,"stimuli/m5.jpg","stimuli/m2.jpg",2,"stimuli/Kitchen & utensil.png","stimuli/Hand labour tool & accessory.png","stimuli/Outdoor activity & sport item.png","stimuli/Electronic device & accessory.png",3,"stimuli/objects/swing.jpg",1,"stimuli/m2.jpg",3,1,1.503
9,NA,NA,NA,"stimuli/m5.jpg","stimuli/m2.jpg",1,"stimuli/Outdoor activity & sport item.png","stimuli/Hand labour tool & accessory.png","stimuli/Electronic device & accessory.png","stimuli/Kitchen & utensil.png",2,"stimuli/objects/pitchfork.jpg",1,"stimuli/m5.jpg",2,1,0.622
9,NA,NA,NA,"stimuli/m2.jpg","stimuli/m5.jpg",1,"stimuli/Hand labour tool & accessory.png","stimuli/Outdoor activity & sport item.png","stimuli/Electronic device & accessory.png","stimuli/Kitchen & utensil.png",2,"stimuli/objects/footballhelmet.jpg",1,"stimuli/m2.jpg",2,1,1.597
9,NA,NA,NA,"stimuli/m5.jpg","stimuli/m2.jpg",2,"stimuli/Hand labour tool & accessory.png","stimuli/Outdoor activity & sport item.png","stimuli/Kitchen & utensil.png","stimuli/Electronic device & accessory.png",2,"stimuli/objects/rollerblade.jpg",1,"stimuli/m2.jpg",2,1,0.713
9,NA,NA,NA,"stimuli/m2.jpg","stimuli/m5.jpg",1,"stimuli/Outdoor activity & sport item.png","stimuli/Kitchen & utensil.png","stimuli/Hand labour tool & accessory.png","stimuli/Electronic device & accessory.png",1,"stimuli/objects/crosscountryski.jpg",1,"stimuli/m2.jpg",1,1,0.856
9,NA,NA,NA,"stimuli/m5.jpg","stimuli/m2.jpg",1,"stimuli/Kitchen & utensil.png","stimuli/Outdoor activity & sport item.png","stimuli/Hand labour tool & accessory.png","stimuli/Electronic device & accessory.png",3,"stimuli/objects/solderingiron.jpg",1,"stimuli/m5.jpg",3,1,1.164
9,NA,NA,NA,"stimuli/m5.jpg","stimuli/m2.jpg",2,"stimuli/Kitchen & utensil.png","stimuli/Hand labour tool & accessory.png","stimuli/Electronic device & accessory.png","stimuli/Outdoor activity & sport item.png",2,"stimuli/objects/boxcutter03a.jpg",0,"stimuli/m2.jpg",4,0,1.268
9,NA,NA,NA,"stimuli/m2.jpg","stimuli/m5.jpg",2,"stimuli/Kitchen & utensil.png","stimuli/Electronic device & accessory.png","stimuli/Hand labour tool & accessory.png","stimuli/Outdoor activity & sport item.png",3,"stimuli/objects/gavel.jpg",1,"stimuli/m5.jpg",3,1,1.448
9,NA,NA,NA,"stimuli/m5.jpg","stimuli/m2.jpg",2,"stimuli/Outdoor activity & sport item.png","stimuli/Hand labour tool & accessory.png","stimuli/Kitchen & utensil.png","stimuli/Electronic device & accessory.png",4,"stimuli/objects/jack.jpg",0,"stimuli/m2.jpg",1,0,1.332
9,NA,NA,NA,"","",NA,"","","","",NA,"",NA,"",NA,NA,NA
