"participant","recog_resp.keys","recog_resp.rt","conf_resp.keys","conf_resp.rt","resp_assoc.keys","resp_assoc.rt","images","corr_ans","type"
10,"",NA,NA,NA,"",NA,"","",""
10,"",NA,NA,NA,"",NA,"","",""
10,"",NA,NA,NA,"",NA,"","",""
10,"right",2.193675,2,2.102845,"",NA,"stimuli/objects/snowbrush.jpg","right","new"
10,"right",1.522375,4,1.44107,"",NA,"stimuli/objects/gymnasticring.jpg","right","new"
10,"left",1.413695,4,1.96302,"right",1.132805,"","",""
10,"",NA,NA,NA,"",NA,"stimuli/objects/electricoutlet.jpg","left","old"
10,"left",1.17217,4,1.069,"right",1.35853,"","",""
10,"",NA,NA,NA,"",NA,"stimuli/objects/pastaspoon.jpg","left","old"
10,"left",1.116415,4,0.34842,"right",0.58968,"","",""
10,"",NA,NA,NA,"",NA,"stimuli/objects/expansioncard.jpg","left","old"
10,"left",1.09769,4,0.411665,"right",1.04828,"","",""
10,"",NA,NA,NA,"",NA,"stimuli/objects/snowblower.jpg","left","old"
10,"right",3.64982,2,0.34624,"",NA,"stimuli/objects/generator.jpg","right","new"
10,"left",0.780045,4,1.35011,"left",0.476925,"","",""
10,"",NA,NA,NA,"",NA,"stimuli/objects/baseball01a.jpg","left","old"
10,"right",3.98774,2,0.47703,"",NA,"stimuli/objects/laptop01a.jpg","right","new"
10,"right",3.690965,2,0.513335,"",NA,"stimuli/objects/videotape01b.jpg","right","new"
10,"right",3.36415,2,1.193365,"",NA,"stimuli/objects/studiolight.jpg","right","new"
10,"right",1.898555,2,2.309745,"",NA,"stimuli/objects/megaphone.jpg","right","new"
10,"left",0.96757,4,0.79237,"left",0.42549,"","",""
10,"",NA,NA,NA,"",NA,"stimuli/objects/shoulderpad.jpg","right","new"
10,"left",1.12983,4,0.950005,"right",0.47675,"","",""
10,"",NA,NA,NA,"",NA,"stimuli/objects/axe01.jpg","left","old"
10,"left",0.909895,4,1.004625,"left",0.438805,"","",""
10,"",NA,NA,NA,"",NA,"stimuli/objects/podium.jpg","left","old"
10,"left",4.9796,2,0.778125,"right",1.80755,"","",""
10,"",NA,NA,NA,"",NA,"stimuli/objects/taperecorder.jpg","right","new"
10,"left",3.45344,2,1.15865,"right",0.7942,"","",""
10,"",NA,NA,NA,"",NA,"stimuli/objects/powercable.jpg","right","new"
10,"right",1.51345,3,1.793455,"",NA,"stimuli/objects/snowshoe.jpg","right","new"
10,"left",1.129475,4,1.41083,"right",1.404115,"","",""
10,"",NA,NA,NA,"",NA,"stimuli/objects/weedwacker.jpg","left","old"
10,"left",1.64654,4,1.25356,"right",0.52154,"","",""
10,"",NA,NA,NA,"",NA,"stimuli/objects/dvdcase01.jpg","left","old"
10,"right",1.89668,2,1.311935,"",NA,"stimuli/objects/butterdish.jpg","right","new"
10,"left",2.554695,2,1.21849,"right",0.57801,"","",""
10,"",NA,NA,NA,"",NA,"stimuli/objects/soundmixer.jpg","right","new"
10,"left",2.264375,4,0.96415,"right",1.301165,"","",""
10,"",NA,NA,NA,"",NA,"stimuli/objects/nintendods.jpg","left","old"
10,"right",4.557735,2,0.835185,"",NA,"stimuli/objects/umbrella04.jpg","right","new"
10,"left",1.33574,4,0.45117,"left",0.81491,"","",""
10,"",NA,NA,NA,"",NA,"stimuli/objects/hockeygoaliepad.jpg","left","old"
10,"right",1.76268,1,3.552065,"",NA,"stimuli/objects/carjack.jpg","right","new"
10,"right",1.89881,2,0.66269,"",NA,"stimuli/objects/sippycup.jpg","right","new"
10,"left",0.851775,4,1.044705,"left",1.7964,"","",""
10,"",NA,NA,NA,"",NA,"stimuli/objects/anchor.jpg","left","old"
10,"left",1.450645,4,1.15004,"right",3.114805,"","",""
10,"",NA,NA,NA,"",NA,"stimuli/objects/gps.jpg","left","old"
10,"left",1.18008,4,0.445055,"right",0.5136,"","",""
10,"",NA,NA,NA,"",NA,"stimuli/objects/cellphone.jpg","left","old"
10,"right",4.21442,1,0.610375,"",NA,"stimuli/objects/bastingbrush.jpg","right","new"
10,"left",0.85557,4,0.7474,"right",0.42819,"","",""
10,"",NA,NA,NA,"",NA,"stimuli/objects/lightbulb01.jpg","left","old"
10,"right",2.318795,2,1.20862,"",NA,"stimuli/objects/nailgun.jpg","right","new"
10,"right",5.159295,2,0.541065,"",NA,"stimuli/objects/icebucket.jpg","right","new"
10,"left",1.03689,4,0.913545,"right",0.559825,"","",""
10,"",NA,NA,NA,"",NA,"stimuli/objects/rope03.jpg","left","old"
10,"left",2.743055,3,1.406955,"right",0.998695,"","",""
10,"",NA,NA,NA,"",NA,"stimuli/objects/lectern01.jpg","left","old"
10,"left",6.79031,4,5.158215,"left",0.826605,"","",""
10,"",NA,NA,NA,"",NA,"stimuli/objects/spicerack.jpg","left","old"
10,"left",2.10275,4,0.613685,"right",3.18976,"","",""
10,"",NA,NA,NA,"",NA,"stimuli/objects/pipewrench.jpg","left","old"
10,"right",2.449365,1,0.376535,"",NA,"stimuli/objects/glass02a.jpg","right","new"
10,"right",1.636345,2,0.44689,"",NA,"stimuli/objects/jigsaw.jpg","left","old"
10,"right",1.91132,1,0.69651,"",NA,"stimuli/objects/electricmixer.jpg","right","new"
10,"right",4.267605,2,0.997175,"",NA,"stimuli/objects/battery02b.jpg","right","new"
10,"left",1.15236,4,0.54715,"right",1.792475,"","",""
10,"",NA,NA,NA,"",NA,"stimuli/objects/pressurewasher.jpg","left","old"
10,"left",2.02286,4,0.380015,"right",9.05051,"","",""
10,"",NA,NA,NA,"",NA,"stimuli/objects/photocopier.jpg","left","old"
10,"right",1.21932,4,0.37557,"",NA,"stimuli/objects/snowman.jpg","right","new"
10,"left",1.15259,4,0.29584,"left",0.80871,"","",""
10,"",NA,NA,NA,"",NA,"stimuli/objects/canoepaddle02.jpg","left","old"
10,"left",2.75956,2,0.858565,"left",1.36453,"","",""
10,"",NA,NA,NA,"",NA,"stimuli/objects/leafblower01.jpg","right","new"
10,"left",1.60292,2,0.730045,"right",0.862735,"","",""
10,"",NA,NA,NA,"",NA,"stimuli/objects/chisel02b.jpg","right","new"
10,"left",1.07103,4,1.581,"left",1.584445,"","",""
10,"",NA,NA,NA,"",NA,"stimuli/objects/toyhardhat.jpg","left","old"
10,"left",1.41888,3,1.562005,"right",0.742725,"","",""
10,"",NA,NA,NA,"",NA,"stimuli/objects/pda.jpg","right","new"
10,"right",1.56346,3,1.710965,"",NA,"stimuli/objects/golfball.jpg","right","new"
10,"left",1.223245,4,0.37695,"left",0.49481,"","",""
10,"",NA,NA,NA,"",NA,"stimuli/objects/cookingpot.jpg","left","old"
10,"left",1.085535,4,1.86008,"left",0.67493,"","",""
10,"",NA,NA,NA,"",NA,"stimuli/objects/iceskate.jpg","left","old"
10,"left",2.109645,3,0.77901,"right",0.499795,"","",""
10,"",NA,NA,NA,"",NA,"stimuli/objects/boltcutter.jpg","left","old"
10,"left",1.111085,4,0.634865,"right",1.466545,"","",""
10,"",NA,NA,NA,"",NA,"stimuli/objects/ducttape.jpg","right","new"
10,"right",0.8912,1,2.697265,"",NA,"stimuli/objects/cooler01.jpg","left","old"
10,"right",2.49128,2,0.995435,"",NA,"stimuli/objects/minifridge.jpg","right","new"
10,"left",0.941405,4,0.992095,"left",0.693075,"","",""
10,"",NA,NA,NA,"",NA,"stimuli/objects/cookiecutter.jpg","left","old"
10,"left",3.42126,3,0.63305,"right",0.51686,"","",""
10,"",NA,NA,NA,"",NA,"stimuli/objects/flooringstapler.jpg","left","old"
10,"right",2.209525,2,1.881905,"",NA,"stimuli/objects/microphone01.jpg","right","new"
10,"left",1.56741,1,2.227525,"right",0.360485,"","",""
10,"",NA,NA,NA,"",NA,"stimuli/objects/webcam.jpg","right","new"
10,"left",1.053455,3,1.314635,"right",1.41767,"","",""
10,"",NA,NA,NA,"",NA,"stimuli/objects/sledgehammer.jpg","left","old"
10,"right",1.27765,2,0.396075,"",NA,"stimuli/objects/spotlight.jpg","right","new"
10,"right",1.77083,3,0.429795,"",NA,"stimuli/objects/measuringtape01.jpg","right","new"
10,"left",2.063025,4,0.4808,"right",0.81245,"","",""
10,"",NA,NA,NA,"",NA,"stimuli/objects/djmixer02.jpg","left","old"
10,"right",1.104935,3,0.99586,"",NA,"stimuli/objects/punchingball.jpg","right","new"
10,"left",0.96678,4,0.39856,"right",0.442995,"","",""
10,"",NA,NA,NA,"",NA,"stimuli/objects/wheelbarrow01.jpg","left","old"
10,"left",3.393445,3,0.28616,"left",0.81289,"","",""
10,"",NA,NA,NA,"",NA,"stimuli/objects/cowbell.jpg","left","old"
10,"left",2.59073,2,0.419475,"right",0.50977,"","",""
10,"",NA,NA,NA,"",NA,"stimuli/objects/microwave.jpg","right","new"
10,"right",2.087355,2,1.914795,"",NA,"stimuli/objects/icepack.jpg","right","new"
10,"right",1.5411,3,0.63901,"",NA,"stimuli/objects/clock01a.jpg","right","new"
10,"right",0.87189,3,0.361785,"",NA,"stimuli/objects/walkman.jpg","right","new"
10,"left",1.762475,2,0.512775,"right",0.29838,"","",""
10,"",NA,NA,NA,"",NA,"stimuli/objects/cclamp.jpg","right","new"
10,"left",1.339435,4,0.217835,"right",0.402165,"","",""
10,"",NA,NA,NA,"",NA,"stimuli/objects/phonejack.jpg","left","old"
10,"left",1.972755,2,0.330575,"left",0.447925,"","",""
10,"",NA,NA,NA,"",NA,"stimuli/objects/tongs01b.jpg","right","new"
10,"left",2.80435,2,0.458195,"left",0.38611,"","",""
10,"",NA,NA,NA,"",NA,"stimuli/objects/baseballbat.jpg","left","old"
10,"right",1.21778,2,0.945775,"",NA,"stimuli/objects/faxmachine.jpg","right","new"
10,"left",1.020695,4,0.37968,"left",2.532775,"","",""
10,"",NA,NA,NA,"",NA,"stimuli/objects/desktopcomputer.jpg","left","old"
10,"left",2.17029,4,0.610875,"left",1.226125,"","",""
10,"",NA,NA,NA,"",NA,"stimuli/objects/treadmill.jpg","left","old"
10,"right",5.430355,1,2.047095,"",NA,"stimuli/objects/downhillski.jpg","left","old"
10,"right",1.387,3,0.279705,"",NA,"stimuli/objects/cashregister01.jpg","right","new"
10,"left",1.221285,4,0.66241,"left",0.450245,"","",""
10,"",NA,NA,NA,"",NA,"stimuli/objects/saladspinner.jpg","left","old"
10,"left",1.485495,4,0.28319,"left",0.67597,"","",""
10,"",NA,NA,NA,"",NA,"stimuli/objects/bowl02a.jpg","left","old"
10,"right",1.68717,3,0.59655,"",NA,"stimuli/objects/printer02.jpg","right","new"
10,"left",1.638065,3,0.645555,"right",0.63424,"","",""
10,"",NA,NA,NA,"",NA,"stimuli/objects/screwdriver04b.jpg","right","new"
10,"right",1.21965,4,1.636385,"",NA,"stimuli/objects/football.jpg","right","new"
10,"left",1.202595,4,0.252125,"left",0.427995,"","",""
10,"",NA,NA,NA,"",NA,"stimuli/objects/espressomachine.jpg","left","old"
10,"right",0.98852,3,1.566665,"",NA,"stimuli/objects/toolbox02.jpg","right","new"
10,"right",1.10497,3,0.202685,"",NA,"stimuli/objects/avcable.jpg","right","new"
10,"left",0.92638,4,0.217695,"left",0.33287,"","",""
10,"",NA,NA,NA,"",NA,"stimuli/objects/handmixer01d.jpg","left","old"
10,"right",1.89013,4,1.930745,"",NA,"stimuli/objects/pylon01.jpg","right","new"
10,"left",1.04587,4,1.161635,"left",0.543685,"","",""
10,"",NA,NA,NA,"",NA,"stimuli/objects/bikepump01.jpg","left","old"
10,"right",2.738885,3,1.739725,"",NA,"stimuli/objects/tableknife02.jpg","right","new"
10,"right",3.73552,3,0.90981,"",NA,"stimuli/objects/skateboard.jpg","right","new"
10,"right",1.318915,3,0.58026,"",NA,"stimuli/objects/mitresaw.jpg","right","new"
10,"left",0.8959,4,0.362595,"left",2.01917,"","",""
10,"",NA,NA,NA,"",NA,"stimuli/objects/satellitedish01.jpg","left","old"
10,"left",2.01454,4,0.729835,"right",0.4362,"","",""
10,"",NA,NA,NA,"",NA,"stimuli/objects/setsquare.jpg","left","old"
10,"right",2.720745,3,2.01222,"",NA,"stimuli/objects/tripod01.jpg","right","new"
10,"right",1.337415,3,0.381725,"",NA,"stimuli/objects/speaker04.jpg","right","new"
10,"left",1.4294,4,1.53225,"left",2.715695,"","",""
10,"",NA,NA,NA,"",NA,"stimuli/objects/hourglass.jpg","left","old"
10,"right",5.740435,2,0.3627,"",NA,"stimuli/objects/carlighter02.jpg","right","new"
10,"left",1.502315,4,0.42051,"right",3.227495,"","",""
10,"",NA,NA,NA,"",NA,"stimuli/objects/fanblades.jpg","left","old"
10,"right",1.03743,4,1.063435,"",NA,"stimuli/objects/exercisebench.jpg","right","new"
10,"right",1.65686,3,0.395155,"",NA,"stimuli/objects/peppermill02b.jpg","right","new"
10,"right",1.189265,4,0.39839,"",NA,"stimuli/objects/winerack.jpg","right","new"
10,"left",1.670185,4,0.350865,"left",0.629005,"","",""
10,"",NA,NA,NA,"",NA,"stimuli/objects/cork02.jpg","left","old"
10,"left",1.19438,4,0.53475,"left",0.41636,"","",""
10,"",NA,NA,NA,"",NA,"stimuli/objects/woodenspoon.jpg","left","old"
10,"left",1.436505,3,0.812065,"left",0.353655,"","",""
10,"",NA,NA,NA,"",NA,"stimuli/objects/oven.jpg","left","old"
10,"left",1.151915,3,0.347955,"right",0.349765,"","",""
10,"",NA,NA,NA,"",NA,"stimuli/objects/gardenshears01a.jpg","left","old"
10,"right",1.6776,3,0.9209,"",NA,"stimuli/objects/remotecontrol04.jpg","right","new"
10,"right",1.90528,4,0.330535,"",NA,"stimuli/objects/kitchenscale01a.jpg","right","new"
10,"left",1.987305,4,0.36144,"right",0.510805,"","",""
10,"",NA,NA,NA,"",NA,"stimuli/objects/level03a.jpg","left","old"
10,"right",1.708455,2,0.379215,"",NA,"stimuli/objects/lock03a.jpg","right","new"
10,"left",1.154195,4,0.48521,"left",0.415255,"","",""
10,"",NA,NA,NA,"",NA,"stimuli/objects/hockeygoalieglove.jpg","left","old"
10,"left",1.389715,3,0.676195,"right",1.131405,"","",""
10,"",NA,NA,NA,"",NA,"stimuli/objects/lamp04a.jpg","left","old"
10,"right",1.187745,3,0.246725,"",NA,"stimuli/objects/toasteroven.jpg","right","new"
10,"left",1.10141,4,0.78575,"right",0.54615,"","",""
10,"",NA,NA,NA,"",NA,"stimuli/objects/wire.jpg","left","old"
10,"right",1.18375,3,0.370025,"",NA,"stimuli/objects/audiocablesplitter.jpg","right","new"
10,"left",0.85293,4,0.517395,"left",0.5125,"","",""
10,"",NA,NA,NA,"",NA,"stimuli/objects/martiniglass01b.jpg","left","old"
10,"left",0.92435,4,0.362095,"left",0.3576,"","",""
10,"",NA,NA,NA,"",NA,"stimuli/objects/catchermask.jpg","left","old"
10,"right",1.153155,3,0.344355,"",NA,"stimuli/objects/garlicpress02a.jpg","right","new"
10,"left",1.1381,3,0.515345,"right",0.384365,"","",""
10,"",NA,NA,NA,"",NA,"stimuli/objects/paintbrush01.jpg","right","new"
10,"right",1.60327,3,1.21203,"",NA,"stimuli/objects/bikewheel.jpg","left","old"
10,"right",1.03602,3,0.29541,"",NA,"stimuli/objects/metalscissors.jpg","right","new"
10,"left",1.137285,4,0.604075,"left",0.51454,"","",""
10,"",NA,NA,NA,"",NA,"stimuli/objects/usbkey.jpg","left","old"
10,"right",3.935745,2,4.213975,"",NA,"stimuli/objects/radio01.jpg","right","new"
10,"right",1.869695,1,0.409745,"",NA,"stimuli/objects/boogieboard.jpg","right","new"
10,"left",1.070335,4,0.296295,"right",0.31022,"","",""
10,"",NA,NA,NA,"",NA,"stimuli/objects/antenna.jpg","left","old"
10,"right",2.27833,3,1.819115,"",NA,"stimuli/objects/stepladder.jpg","right","new"
10,"left",1.39163,4,0.79487,"right",0.40297,"","",""
10,"",NA,NA,NA,"",NA,"stimuli/objects/atm.jpg","left","old"
10,"left",1.481225,4,0.24956,"right",0.67537,"","",""
10,"",NA,NA,NA,"",NA,"stimuli/objects/aircompressor.jpg","left","old"
10,"right",1.545585,2,0.21197,"",NA,"stimuli/objects/ladder.jpg","left","old"
10,"right",1.188545,2,0.31288,"",NA,"stimuli/objects/golfbag.jpg","right","new"
10,"left",0.958065,4,0.2963,"left",2.81747,"","",""
10,"",NA,NA,NA,"",NA,"stimuli/objects/funnel.jpg","left","old"
10,"right",1.30938,1,1.109975,"",NA,"stimuli/objects/frisbee.jpg","right","new"
10,"right",1.40954,2,0.878565,"",NA,"stimuli/objects/ceilingspeaker.jpg","right","new"
10,"right",1.10323,3,0.57189,"",NA,"stimuli/objects/basketballhoop01.jpg","right","new"
10,"left",0.900135,4,0.74605,"left",0.448915,"","",""
10,"",NA,NA,NA,"",NA,"stimuli/objects/measuringcup01.jpg","left","old"
10,"left",1.624525,4,1.25652,"right",0.29416,"","",""
10,"",NA,NA,NA,"",NA,"stimuli/objects/dvdplayer.jpg","left","old"
10,"right",0.935865,4,0.39947,"",NA,"stimuli/objects/bowlingball.jpg","right","new"
10,"right",0.87829,1,0.845845,"",NA,"stimuli/objects/waterbottle03.jpg","left","old"
10,"left",1.492085,4,0.826845,"left",0.43589,"","",""
10,"",NA,NA,NA,"",NA,"stimuli/objects/gasburner.jpg","left","old"
10,"right",1.140865,2,0.72895,"",NA,"stimuli/objects/binoculars01b.jpg","right","new"
10,"",NA,NA,NA,"",NA,"","",""
10,"right",1.91829,4,0.330315,"",NA,"stimuli/objects/nutcracker01.jpg","right","new"
10,"left",0.96763,4,0.56168,"left",0.34251,"","",""
10,"",NA,NA,NA,"",NA,"stimuli/objects/volleyball.jpg","left","old"
10,"right",1.270405,4,0.16887,"",NA,"stimuli/objects/cheeseknife01.jpg","right","new"
10,"right",1.637025,4,0.634265,"",NA,"stimuli/objects/pickaxe02.jpg","right","new"
10,"left",2.454795,4,0.352915,"left",2.276955,"","",""
10,"",NA,NA,NA,"",NA,"stimuli/objects/wateringcan.jpg","left","old"
10,"right",1.38623,3,0.33038,"",NA,"stimuli/objects/floodlight.jpg","right","new"
10,"right",0.96804,3,0.29421,"",NA,"stimuli/objects/basketball01.jpg","right","new"
10,"left",1.642735,4,0.30932,"left",0.431155,"","",""
10,"",NA,NA,NA,"",NA,"stimuli/objects/cleaver01.jpg","left","old"
10,"right",1.105745,3,1.66118,"",NA,"stimuli/objects/beermug01a.jpg","right","new"
10,"left",1.099635,3,0.72353,"right",0.577165,"","",""
10,"",NA,NA,NA,"",NA,"stimuli/objects/fluorescentlightbulb.jpg","left","old"
10,"right",1.26682,3,1.24122,"",NA,"stimuli/objects/icecubetray01a.jpg","right","new"
10,"right",1.808955,4,1.63481,"",NA,"stimuli/objects/straw.jpg","right","new"
10,"left",4.348715,2,0.30344,"right",0.414515,"","",""
10,"",NA,NA,NA,"",NA,"stimuli/objects/mug01.jpg","right","new"
10,"left",0.96932,4,0.261835,"left",0.327595,"","",""
10,"",NA,NA,NA,"",NA,"stimuli/objects/breadknife.jpg","left","old"
10,"left",1.10172,4,0.567305,"left",1.30828,"","",""
10,"",NA,NA,NA,"",NA,"stimuli/objects/bowrake.jpg","right","new"
10,"left",1.08614,4,0.6159,"right",0.26661,"","",""
10,"",NA,NA,NA,"",NA,"stimuli/objects/filmnegative.jpg","left","old"
10,"left",0.950135,4,0.14313,"right",0.49731,"","",""
10,"",NA,NA,NA,"",NA,"stimuli/objects/thermos.jpg","left","old"
10,"right",2.15304,4,0.94836,"",NA,"stimuli/objects/parachute.jpg","right","new"
10,"left",1.22175,4,0.346955,"right",2.058945,"","",""
10,"",NA,NA,NA,"",NA,"stimuli/objects/bucket02.jpg","left","old"
10,"left",2.521115,3,1.944975,"left",2.699515,"","",""
10,"",NA,NA,NA,"",NA,"stimuli/objects/reflector.jpg","left","old"
10,"right",1.460025,4,1.049355,"",NA,"stimuli/objects/hockeypuck.jpg","left","old"
10,"left",0.992775,4,0.49827,"left",0.46606,"","",""
10,"",NA,NA,NA,"",NA,"stimuli/objects/magneticcompass.jpg","left","old"
10,"left",1.007915,4,0.430215,"right",0.376405,"","",""
10,"",NA,NA,NA,"",NA,"stimuli/objects/bungeecord02.jpg","left","old"
10,"left",1.57269,2,0.31887,"right",0.259205,"","",""
10,"",NA,NA,NA,"",NA,"stimuli/objects/cuttingpliers02.jpg","right","new"
10,"left",1.10696,3,0.285705,"right",0.576535,"","",""
10,"",NA,NA,NA,"",NA,"stimuli/objects/pliers02b.jpg","left","old"
10,"left",1.82304,3,0.597275,"right",0.392525,"","",""
10,"",NA,NA,NA,"",NA,"stimuli/objects/snowshovel.jpg","left","old"
10,"left",0.73696,3,1.09717,"left",0.77974,"","",""
10,"",NA,NA,NA,"",NA,"stimuli/objects/baseballglove.jpg","left","old"
10,"right",1.107925,2,1.745145,"",NA,"stimuli/objects/fanheater.jpg","right","new"
10,"left",2.75956,2,0.096625,"left",0.11225,"","",""
10,"",NA,NA,NA,"",NA,"stimuli/objects/wineglass01.jpg","right","new"
10,"right",1.777345,2,1.012245,"",NA,"stimuli/objects/spoon01.jpg","left","old"
10,"right",0.917655,4,0.066275,"",NA,"stimuli/objects/alarmsystem.jpg","right","new"
10,"right",1.25469,4,0.18146,"",NA,"stimuli/objects/lockingplier.jpg","right","new"
10,"left",1.75014,4,0.22785,"right",0.11608,"","",""
10,"",NA,NA,NA,"",NA,"stimuli/objects/sewingmachine01a.jpg","left","old"
10,"right",1.00567,3,0.19366,"",NA,"stimuli/objects/handblender.jpg","right","new"
10,"left",1.291205,4,0.09685,"right",0.178975,"","",""
10,"",NA,NA,NA,"",NA,"stimuli/objects/hoe.jpg","left","old"
10,"right",1.014415,4,0.108145,"",NA,"stimuli/objects/tennisball01b.jpg","right","new"
10,"right",1.967905,4,0.125765,"",NA,"stimuli/objects/file.jpg","right","new"
10,"right",0.803625,4,0.246165,"",NA,"stimuli/objects/diaperbag.jpg","right","new"
10,"right",0.98542,3,0.449665,"",NA,"stimuli/objects/halogenlightbulb.jpg","right","new"
10,"right",1.040065,3,0.110925,"",NA,"stimuli/objects/lightswitch01.jpg","right","new"
10,"left",0.9153,4,0.17774,"left",0.390845,"","",""
10,"",NA,NA,NA,"",NA,"stimuli/objects/tupperware03a.jpg","left","old"
10,"right",1.8258,3,0.243995,"",NA,"stimuli/objects/shopvac.jpg","right","new"
10,"right",1.1409,1,0.459545,"",NA,"stimuli/objects/contactlens.jpg","left","old"
10,"left",1.21245,4,0.111095,"left",0.260135,"","",""
10,"",NA,NA,NA,"",NA,"stimuli/objects/handgripper.jpg","left","old"
10,"right",1.00457,2,1.177855,"",NA,"stimuli/objects/bottleopener01.jpg","right","new"
10,"left",1.471295,2,0.24475,"left",0.229905,"","",""
10,"",NA,NA,NA,"",NA,"stimuli/objects/skihelmet01.jpg","left","old"
10,"right",1.342785,2,0.9103,"",NA,"stimuli/objects/toaster01.jpg","right","new"
10,"right",3.419225,2,0.05878,"",NA,"stimuli/objects/kneepad01c.jpg","right","new"
10,"left",0.91765,4,0.00064,"right",0.21021,"","",""
10,"",NA,NA,NA,"",NA,"stimuli/objects/saw02b.jpg","left","old"
10,"right",2.9895,2,0.06011,"",NA,"stimuli/objects/soccerball.jpg","left","old"
10,"right",0.90575,4,0.10115,"",NA,"stimuli/objects/kite.jpg","right","new"
10,"left",1.844585,2,0.063295,"left",0.06558,"","",""
10,"",NA,NA,NA,"",NA,"stimuli/objects/boatmotor.jpg","left","old"
10,"right",0.883785,4,0.06,"",NA,"stimuli/objects/slidetray.jpg","left","old"
10,"left",1.399535,2,0.000575,"left",0.207715,"","",""
10,"",NA,NA,NA,"",NA,"stimuli/objects/backpack01a.jpg","left","old"
10,"right",0.885505,3,0.20977,"",NA,"stimuli/objects/smokedetector02.jpg","right","new"
10,"left",1.13433,4,0.04482,"left",0.459505,"","",""
10,"",NA,NA,NA,"",NA,"stimuli/objects/charcoalbarbecue.jpg","left","old"
10,"left",1.519945,4,0.24331,"right",0.113235,"","",""
10,"",NA,NA,NA,"",NA,"stimuli/objects/hammer01.jpg","left","old"
10,"left",0.9418,4,0.797435,"left",3.66838,"","",""
10,"",NA,NA,NA,"",NA,"stimuli/objects/paintroller01.jpg","left","old"
10,"left",0.757375,4,0.131825,"left",0.09582,"","",""
10,"",NA,NA,NA,"",NA,"stimuli/objects/tray.jpg","left","old"
10,"left",0.759205,4,0.22821,"left",0.10697,"","",""
10,"",NA,NA,NA,"",NA,"stimuli/objects/toyhockeystick01.jpg","left","old"
10,"left",0.715795,4,0.250695,"right",0.078735,"","",""
10,"",NA,NA,NA,"",NA,"stimuli/objects/chandelier.jpg","left","old"
10,"left",2.15311,2,0.51027,"right",0.13103,"","",""
10,"",NA,NA,NA,"",NA,"stimuli/objects/computerkeyboard02.jpg","left","old"
10,"right",2.050775,2,0.877145,"",NA,"stimuli/objects/stroller.jpg","right","new"
10,"right",1.133195,3,0.196515,"",NA,"stimuli/objects/solderingwire.jpg","right","new"
10,"right",0.983105,1,1.894245,"",NA,"stimuli/objects/caulking.jpg","left","old"
10,"left",2.032515,2,0.000695,"right",0.228495,"","",""
10,"",NA,NA,NA,"",NA,"stimuli/objects/mallet01b.jpg","left","old"
10,"left",0.847515,4,0.086225,"left",0.729005,"","",""
10,"",NA,NA,NA,"",NA,"stimuli/objects/towel01.jpg","left","old"
10,"left",0.891205,4,0.01706,"right",0.11563,"","",""
10,"",NA,NA,NA,"",NA,"stimuli/objects/telephone01b.jpg","left","old"
10,"right",2.700705,2,1.091335,"",NA,"stimuli/objects/alarmclock01.jpg","left","old"
10,"left",1.020625,3,0.09395,"left",0.15103,"","",""
10,"",NA,NA,NA,"",NA,"stimuli/objects/rollingpin01a.jpg","left","old"
10,"right",0.81909,4,0.127935,"",NA,"stimuli/objects/wetfloorsign.jpg","right","new"
10,"right",2.772975,2,0.224355,"",NA,"stimuli/objects/hedgeshears.jpg","left","old"
10,"right",1.02538,4,0.28409,"",NA,"stimuli/objects/wafflemaker.jpg","right","new"
10,"left",2.2559,2,0.097645,"right",0.24653,"","",""
10,"",NA,NA,NA,"",NA,"stimuli/objects/monitor.jpg","right","new"
10,"left",0.74195,4,0.134225,"left",0.07692,"","",""
10,"",NA,NA,NA,"",NA,"stimuli/objects/hockeygoaliemask.jpg","left","old"
10,"right",1.12161,3,0.296525,"",NA,"stimuli/objects/waterbottleholder.jpg","right","new"
10,"right",0.986065,4,0.092975,"",NA,"stimuli/objects/eggslicer.jpg","right","new"
10,"right",2.15867,4,0.029835,"",NA,"stimuli/objects/speedball.jpg","right","new"
10,"right",1.05335,4,0.10907,"",NA,"stimuli/objects/wiicontroller.jpg","right","new"
10,"left",1.08323,4,0.000595,"left",0.18428,"","",""
10,"",NA,NA,NA,"",NA,"stimuli/objects/shinpad.jpg","left","old"
10,"left",1.249465,2,0.11256,"left",0.11058,"","",""
10,"",NA,NA,NA,"",NA,"stimuli/objects/plate01b.jpg","right","new"
10,"left",1.132765,4,0.59408,"right",1.559875,"","",""
10,"",NA,NA,NA,"",NA,"stimuli/objects/wheel01.jpg","left","old"
10,"left",1.48335,3,0.22528,"left",0.177355,"","",""
10,"",NA,NA,NA,"",NA,"stimuli/objects/pitcher02b.jpg","left","old"
10,"left",1.501525,4,0.000595,"right",0.03178,"","",""
10,"",NA,NA,NA,"",NA,"stimuli/objects/loppingshears.jpg","right","new"
10,"left",0.988435,3,0.21003,"left",0.308385,"","",""
10,"",NA,NA,NA,"",NA,"stimuli/objects/muffintray01.jpg","left","old"
10,"left",0.840305,4,0.04433,"right",0.54861,"","",""
10,"",NA,NA,NA,"",NA,"stimuli/objects/fan.jpg","left","old"
10,"left",0.92654,4,0.01579,"right",0.39249,"","",""
10,"",NA,NA,NA,"",NA,"stimuli/objects/jumpercables.jpg","left","old"
10,"left",1.52622,4,0.19699,"left",0.043505,"","",""
10,"",NA,NA,NA,"",NA,"stimuli/objects/toothpick02.jpg","left","old"
10,"right",0.83782,4,0.111675,"",NA,"stimuli/objects/grill.jpg","right","new"
10,"right",0.71951,4,0.137725,"",NA,"stimuli/objects/trampoline.jpg","right","new"
10,"right",0.99348,4,0.194855,"",NA,"stimuli/objects/cakeplatter.jpg","right","new"
10,"left",1.203215,4,0.084195,"left",0.29294,"","",""
10,"",NA,NA,NA,"",NA,"stimuli/objects/corkscrew03a.jpg","left","old"
10,"left",1.267715,4,0.049235,"left",0.12911,"","",""
10,"",NA,NA,NA,"",NA,"stimuli/objects/canister.jpg","left","old"
10,"left",0.88526,4,0.08498,"left",1.19232,"","",""
10,"",NA,NA,NA,"",NA,"stimuli/objects/poolnet.jpg","left","old"
10,"left",1.236095,3,0.37668,"right",0.183535,"","",""
10,"",NA,NA,NA,"",NA,"stimuli/objects/metalbrush.jpg","left","old"
10,"right",0.975745,4,0.616195,"",NA,"stimuli/objects/drinkshaker.jpg","right","new"
10,"left",1.424645,4,0.082835,"left",0.133555,"","",""
10,"",NA,NA,NA,"",NA,"stimuli/objects/swimgoggles.jpg","left","old"
10,"right",1.033625,3,0.21789,"",NA,"stimuli/objects/swissarmyknife01a.jpg","right","new"
10,"left",1.29306,4,0.062985,"right",8.777025,"","",""
10,"",NA,NA,NA,"",NA,"stimuli/objects/fuse.jpg","left","old"
10,"left",1.38779,4,0.479715,"left",0.583975,"","",""
10,"",NA,NA,NA,"",NA,"stimuli/objects/fishingrod.jpg","left","old"
10,"right",1.002595,3,0.11688,"",NA,"stimuli/objects/jackhammer.jpg","right","new"
10,"left",0.931365,4,0.292225,"left",0.309215,"","",""
10,"",NA,NA,NA,"",NA,"stimuli/objects/snowboard.jpg","left","old"
10,"right",1.05417,3,3.11924,"",NA,"stimuli/objects/tablesaw.jpg","right","new"
10,"right",0.835645,3,0.378695,"",NA,"stimuli/objects/wirestripper.jpg","right","new"
10,"right",0.956365,2,0.12527,"",NA,"stimuli/objects/surfboard.jpg","left","old"
10,"left",0.98504,4,0.452965,"right",0.332905,"","",""
10,"",NA,NA,NA,"",NA,"stimuli/objects/vhstape.jpg","left","old"
10,"left",0.777285,4,0.1789,"right",0.26138,"","",""
10,"",NA,NA,NA,"",NA,"stimuli/objects/stubbywrench01a.jpg","left","old"
10,"left",1.37931,3,1.24746,"left",0.215905,"","",""
10,"",NA,NA,NA,"",NA,"stimuli/objects/chainsaw.jpg","left","old"
10,"right",0.838185,3,0.36715,"",NA,"stimuli/objects/computermouse06.jpg","right","new"
10,"left",0.77048,4,0.23105,"right",0.231075,"","",""
10,"",NA,NA,NA,"",NA,"stimuli/objects/securitycamera.jpg","left","old"
10,"right",2.541115,2,0.2447,"",NA,"stimuli/objects/extensioncord.jpg","left","old"
10,"right",0.81675,4,0.076405,"",NA,"stimuli/objects/tent.jpg","right","new"
10,"right",0.983765,3,0.378855,"",NA,"stimuli/objects/boxingglove01.jpg","right","new"
10,"right",1.053465,2,0.37863,"",NA,"stimuli/objects/headphones02b.jpg","left","old"
10,"left",1.503935,4,0.630565,"left",0.347245,"","",""
10,"",NA,NA,NA,"",NA,"stimuli/objects/butterknife.jpg","left","old"
10,"left",1.070255,4,0.282045,"left",0.08206,"","",""
10,"",NA,NA,NA,"",NA,"stimuli/objects/pot01.jpg","left","old"
10,"left",2.30372,3,0.97768,"right",2.5778,"","",""
10,"",NA,NA,NA,"",NA,"stimuli/objects/shovel01.jpg","right","new"
10,"left",1.38752,4,2.926175,"right",0.35862,"","",""
10,"",NA,NA,NA,"",NA,"stimuli/objects/carantenna.jpg","left","old"
10,"left",0.75209,3,0.144285,"left",0.24399,"","",""
10,"",NA,NA,NA,"",NA,"stimuli/objects/bikehelmet.jpg","left","old"
10,"left",1.00664,3,0.04543,"right",0.3776,"","",""
10,"",NA,NA,NA,"",NA,"stimuli/objects/drill01b.jpg","left","old"
10,"left",0.625585,4,0.110455,"right",0.81253,"","",""
10,"",NA,NA,NA,"",NA,"stimuli/objects/ipod.jpg","left","old"
10,"left",0.79947,4,0.2849,"left",0.077295,"","",""
10,"",NA,NA,NA,"",NA,"stimuli/objects/travelmug.jpg","left","old"
10,"right",2.323105,2,1.11184,"",NA,"stimuli/objects/ladle02a.jpg","right","new"
10,"left",1.305555,4,0.09564,"left",0.7203,"","",""
10,"",NA,NA,NA,"",NA,"stimuli/objects/shotglass.jpg","left","old"
10,"right",1.49852,3,3.1081,"",NA,"stimuli/objects/birdie.jpg","right","new"
10,"right",1.85198,3,0.26139,"",NA,"stimuli/objects/cameracase01a.jpg","right","new"
10,"right",1.631765,2,0.093915,"",NA,"stimuli/objects/fonduefork01.jpg","right","new"
10,"right",1.08553,3,0.10844,"",NA,"stimuli/objects/crocodileclips.jpg","left","old"
10,"right",1.252415,3,0.09569,"",NA,"stimuli/objects/dolly01.jpg","right","new"
10,"right",1.271415,3,0.398015,"",NA,"stimuli/objects/cassettetape01a.jpg","right","new"
10,"left",1.03862,4,0.06029,"right",0.095605,"","",""
10,"",NA,NA,NA,"",NA,"stimuli/objects/patioumbrella.jpg","left","old"
10,"right",1.5828,4,0.278445,"",NA,"stimuli/objects/lifejacket.jpg","right","new"
10,"right",1.63209,2,0.13247,"",NA,"stimuli/objects/mortarandpestle.jpg","right","new"
10,"right",0.7905,2,0.14518,"",NA,"stimuli/objects/needlenosepliers01.jpg","right","new"
10,"right",0.818175,3,0.27534,"",NA,"stimuli/objects/heatpump.jpg","right","new"
10,"left",0.770625,4,0.22593,"left",0.243675,"","",""
10,"",NA,NA,NA,"",NA,"stimuli/objects/skiboot01a.jpg","left","old"
10,"right",0.83484,4,0.11073,"",NA,"stimuli/objects/skigoggles01.jpg","right","new"
10,"right",2.32048,2,1.3968,"",NA,"stimuli/objects/tennisracket.jpg","right","new"
10,"right",0.872485,2,0.148185,"",NA,"stimuli/objects/beachumbrella01.jpg","right","new"
10,"right",0.993555,2,0.21141,"",NA,"stimuli/objects/hockeystick.jpg","right","new"
10,"right",1.07655,1,1.009755,"",NA,"stimuli/objects/barbecue03.jpg","right","new"
10,"right",0.791855,3,0.444815,"",NA,"stimuli/objects/flashlight02b.jpg","right","new"
10,"right",0.80922,3,0.412875,"",NA,"stimuli/objects/flask.jpg","right","new"
10,"",NA,NA,NA,"",NA,"","",""
