"participant","recog_resp.keys","recog_resp.rt","conf_resp.keys","conf_resp.rt","resp_assoc.keys","resp_assoc.rt","images","corr_ans","type"
11,"",NA,NA,NA,"",NA,"","",""
11,"",NA,NA,NA,"",NA,"","",""
11,"",NA,NA,NA,"",NA,"","",""
11,"left",1.625885,4,3.16067,"left",3.34858,"","",""
11,"",NA,NA,NA,"",NA,"stimuli/objects/pot01.jpg","left","old"
11,"left",1.519225,4,0.348605,"right",2.19963,"","",""
11,"",NA,NA,NA,"",NA,"stimuli/objects/hoe.jpg","left","old"
11,"left",2.745495,2,1.15061,"right",1.65755,"","",""
11,"",NA,NA,NA,"",NA,"stimuli/objects/ceilingspeaker.jpg","right","new"
11,"left",2.48755,4,2.24167,"right",0.60999,"","",""
11,"",NA,NA,NA,"",NA,"stimuli/objects/taperecorder.jpg","right","new"
11,"left",2.396405,4,1.106945,"right",0.43505,"","",""
11,"",NA,NA,NA,"",NA,"stimuli/objects/metalbrush.jpg","left","old"
11,"left",1.811585,4,1.93749,"right",0.50487,"","",""
11,"",NA,NA,NA,"",NA,"stimuli/objects/headphones02b.jpg","left","old"
11,"left",1.50834,4,1.1386,"right",0.48489,"","",""
11,"",NA,NA,NA,"",NA,"stimuli/objects/atm.jpg","left","old"
11,"left",2.64219,2,0.734535,"right",1.625845,"","",""
11,"",NA,NA,NA,"",NA,"stimuli/objects/faxmachine.jpg","right","new"
11,"left",1.544585,4,0.904625,"left",0.384515,"","",""
11,"",NA,NA,NA,"",NA,"stimuli/objects/exercisebench.jpg","right","new"
11,"right",2.99652,2,1.480515,"",NA,"stimuli/objects/boogieboard.jpg","right","new"
11,"right",1.2689,2,0.42748,"",NA,"stimuli/objects/toasteroven.jpg","right","new"
11,"right",2.795385,2,0.425705,"",NA,"stimuli/objects/battery02b.jpg","right","new"
11,"left",1.134695,2,1.072165,"right",0.75576,"","",""
11,"",NA,NA,NA,"",NA,"stimuli/objects/audiocablesplitter.jpg","right","new"
11,"left",1.183475,4,0.972655,"right",0.33021,"","",""
11,"",NA,NA,NA,"",NA,"stimuli/objects/crocodileclips.jpg","left","old"
11,"left",1.571365,4,0.83695,"right",0.407895,"","",""
11,"",NA,NA,NA,"",NA,"stimuli/objects/carantenna.jpg","left","old"
11,"right",1.814735,2,0.570195,"",NA,"stimuli/objects/walkman.jpg","right","new"
11,"left",0.91959,4,3.272055,"left",0.77526,"","",""
11,"",NA,NA,NA,"",NA,"stimuli/objects/pliers02b.jpg","left","old"
11,"right",1.29715,2,0.499075,"",NA,"stimuli/objects/paintbrush01.jpg","right","new"
11,"right",0.96846,3,0.66238,"",NA,"stimuli/objects/frisbee.jpg","right","new"
11,"left",1.0471,4,1.08565,"right",0.468845,"","",""
11,"",NA,NA,NA,"",NA,"stimuli/objects/ethernetcable02.jpg","left","old"
11,"left",2.233125,3,0.554205,"right",0.346325,"","",""
11,"",NA,NA,NA,"",NA,"stimuli/objects/printer02.jpg","right","new"
11,"left",0.98749,2,0.485145,"right",0.665625,"","",""
11,"",NA,NA,NA,"",NA,"stimuli/objects/powercable.jpg","right","new"
11,"left",0.941195,3,1.053615,"left",0.8025,"","",""
11,"",NA,NA,NA,"",NA,"stimuli/objects/coffeemachine.jpg","left","old"
11,"left",0.99703,3,0.674295,"right",0.38647,"","",""
11,"",NA,NA,NA,"",NA,"stimuli/objects/laptop01a.jpg","right","new"
11,"left",1.2109,2,1.22239,"right",0.73163,"","",""
11,"",NA,NA,NA,"",NA,"stimuli/objects/stubbywrench01a.jpg","left","old"
11,"left",1.006255,4,0.862395,"right",0.56115,"","",""
11,"",NA,NA,NA,"",NA,"stimuli/objects/propanetank01.jpg","left","old"
11,"left",1.293145,4,0.786495,"left",0.40311,"","",""
11,"",NA,NA,NA,"",NA,"stimuli/objects/watercooler.jpg","left","old"
11,"left",2.890335,3,0.387045,"right",2.00552,"","",""
11,"",NA,NA,NA,"",NA,"stimuli/objects/icebucket.jpg","right","new"
11,"right",3.33475,3,0.454235,"",NA,"stimuli/objects/stepladder.jpg","right","new"
11,"right",1.661355,2,0.503965,"",NA,"stimuli/objects/computerkeyboard02.jpg","left","old"
11,"right",1.103475,2,0.355715,"",NA,"stimuli/objects/microphone01.jpg","right","new"
11,"right",1.275505,2,0.27635,"",NA,"stimuli/objects/icepack.jpg","right","new"
11,"right",0.84322,2,0.32712,"",NA,"stimuli/objects/lock03a.jpg","right","new"
11,"left",1.510695,4,1.522605,"left",0.535915,"","",""
11,"",NA,NA,NA,"",NA,"stimuli/objects/exercisebike.jpg","left","old"
11,"left",1.426365,2,0.602595,"left",0.421615,"","",""
11,"",NA,NA,NA,"",NA,"stimuli/objects/tongs01b.jpg","right","new"
11,"left",0.949205,3,1.025435,"left",0.49912,"","",""
11,"",NA,NA,NA,"",NA,"stimuli/objects/hockeygoaliemask.jpg","left","old"
11,"right",1.367235,2,0.32083,"",NA,"stimuli/objects/cclamp.jpg","right","new"
11,"right",0.914795,2,0.31051,"",NA,"stimuli/objects/binoculars01b.jpg","right","new"
11,"left",1.95462,2,0.698475,"left",0.74279,"","",""
11,"",NA,NA,NA,"",NA,"stimuli/objects/reflector.jpg","left","old"
11,"right",1.007265,4,0.80041,"",NA,"stimuli/objects/snowman.jpg","right","new"
11,"right",2.774935,4,0.47538,"",NA,"stimuli/objects/peppermill02b.jpg","right","new"
11,"right",1.277015,4,0.493735,"",NA,"stimuli/objects/cashregister01.jpg","right","new"
11,"right",1.191835,2,0.38107,"",NA,"stimuli/objects/kitchenscale01a.jpg","right","new"
11,"left",1.700705,4,1.52534,"right",0.584075,"","",""
11,"",NA,NA,NA,"",NA,"stimuli/objects/djmixer02.jpg","left","old"
11,"left",1.142885,3,0.59043,"left",1.132825,"","",""
11,"",NA,NA,NA,"",NA,"stimuli/objects/wateringcan.jpg","left","old"
11,"left",1.17988,3,0.73495,"right",0.7108,"","",""
11,"",NA,NA,NA,"",NA,"stimuli/objects/videotape01b.jpg","right","new"
11,"left",1.796175,4,0.63661,"left",0.3327,"","",""
11,"",NA,NA,NA,"",NA,"stimuli/objects/cleaver01.jpg","left","old"
11,"left",1.154945,4,0.553225,"left",0.30124,"","",""
11,"",NA,NA,NA,"",NA,"stimuli/objects/thermos.jpg","left","old"
11,"right",3.989915,2,0.73793,"",NA,"stimuli/objects/bikelock.jpg","left","old"
11,"right",1.44707,2,0.31227,"",NA,"stimuli/objects/leafblower01.jpg","right","new"
11,"right",0.97977,2,1.44799,"",NA,"stimuli/objects/bungeecord02.jpg","left","old"
11,"right",1.06172,3,0.496185,"",NA,"stimuli/objects/electricmixer.jpg","right","new"
11,"left",0.930955,4,0.955755,"left",0.741635,"","",""
11,"",NA,NA,NA,"",NA,"stimuli/objects/martiniglass01b.jpg","left","old"
11,"left",1.466405,4,0.729845,"right",0.957745,"","",""
11,"",NA,NA,NA,"",NA,"stimuli/objects/handgripper.jpg","left","old"
11,"left",1.55953,4,0.86003,"right",0.34688,"","",""
11,"",NA,NA,NA,"",NA,"stimuli/objects/chisel02b.jpg","right","new"
11,"right",1.404325,2,0.372945,"",NA,"stimuli/objects/screwdriver04b.jpg","right","new"
11,"right",4.350035,1,0.677945,"",NA,"stimuli/objects/basketballhoop01.jpg","right","new"
11,"left",1.24636,4,0.726335,"right",0.2711,"","",""
11,"",NA,NA,NA,"",NA,"stimuli/objects/extensioncord.jpg","left","old"
11,"left",1.070175,4,0.986615,"left",0.389735,"","",""
11,"",NA,NA,NA,"",NA,"stimuli/objects/snowshoe.jpg","right","new"
11,"left",2.98243,4,0.870315,"left",0.39855,"","",""
11,"",NA,NA,NA,"",NA,"stimuli/objects/canister.jpg","left","old"
11,"left",0.926035,4,0.80971,"right",1.124365,"","",""
11,"",NA,NA,NA,"",NA,"stimuli/objects/mallet01b.jpg","left","old"
11,"right",2.309925,1,0.475085,"",NA,"stimuli/objects/wheelbarrow01.jpg","left","old"
11,"right",1.286315,3,0.277095,"",NA,"stimuli/objects/sledgehammer.jpg","left","old"
11,"right",1.157365,4,0.67793,"",NA,"stimuli/objects/umbrella04.jpg","right","new"
11,"right",1.327805,1,0.306815,"",NA,"stimuli/objects/minifridge.jpg","right","new"
11,"right",1.14725,2,0.332465,"",NA,"stimuli/objects/gymnasticring.jpg","right","new"
11,"left",1.410555,2,0.70904,"left",1.01311,"","",""
11,"",NA,NA,NA,"",NA,"stimuli/objects/sippycup.jpg","right","new"
11,"left",1.274265,3,0.396325,"right",3.677705,"","",""
11,"",NA,NA,NA,"",NA,"stimuli/objects/knifesharpener.jpg","left","old"
11,"left",2.44473,3,0.66995,"left",0.438125,"","",""
11,"",NA,NA,NA,"",NA,"stimuli/objects/breadknife.jpg","left","old"
11,"right",4.584395,2,0.356215,"",NA,"stimuli/objects/tripod01.jpg","right","new"
11,"left",2.497155,1,1.295855,"right",1.241945,"","",""
11,"",NA,NA,NA,"",NA,"stimuli/objects/radio01.jpg","right","new"
11,"left",1.527185,4,0.354315,"right",0.314155,"","",""
11,"",NA,NA,NA,"",NA,"stimuli/objects/hockeypuck.jpg","left","old"
11,"left",1.10245,4,2.107935,"right",0.394225,"","",""
11,"",NA,NA,NA,"",NA,"stimuli/objects/dvdcase01.jpg","left","old"
11,"left",1.540325,1,1.217615,"right",3.23829,"","",""
11,"",NA,NA,NA,"",NA,"stimuli/objects/winerack.jpg","right","new"
11,"left",0.94274,4,0.7073,"left",0.31974,"","",""
11,"",NA,NA,NA,"",NA,"stimuli/objects/baseballglove.jpg","left","old"
11,"left",3.85982,4,0.38598,"right",1.66144,"","",""
11,"",NA,NA,NA,"",NA,"stimuli/objects/snowbrush.jpg","right","new"
11,"left",0.797205,4,0.458285,"right",0.56549,"","",""
11,"",NA,NA,NA,"",NA,"stimuli/objects/telephone01b.jpg","left","old"
11,"left",1.80725,2,0.589675,"right",0.5342,"","",""
11,"",NA,NA,NA,"",NA,"stimuli/objects/videocamera01a.jpg","left","old"
11,"right",1.15532,2,0.90768,"",NA,"stimuli/objects/bowlingball.jpg","right","new"
11,"left",1.25778,4,1.72394,"right",0.305805,"","",""
11,"",NA,NA,NA,"",NA,"stimuli/objects/squeegee01b.jpg","left","old"
11,"left",0.991745,4,0.784785,"right",0.00067,"","",""
11,"",NA,NA,NA,"",NA,"stimuli/objects/fan.jpg","left","old"
11,"left",1.00565,3,1.0498,"left",0.757515,"","",""
11,"",NA,NA,NA,"",NA,"stimuli/objects/punchingball.jpg","right","new"
11,"right",6.043425,3,1.228505,"",NA,"stimuli/objects/clock01a.jpg","right","new"
11,"left",1.0114,4,1.037995,"left",1.890445,"","",""
11,"",NA,NA,NA,"",NA,"stimuli/objects/anchor.jpg","left","old"
11,"left",1.09559,3,0.95847,"left",0.817085,"","",""
11,"",NA,NA,NA,"",NA,"stimuli/objects/microwave.jpg","right","new"
11,"right",1.914095,1,1.5879,"",NA,"stimuli/objects/bastingbrush.jpg","right","new"
11,"right",1.108125,2,0.3718,"",NA,"stimuli/objects/garlicpress02a.jpg","right","new"
11,"right",1.461825,1,0.70967,"",NA,"stimuli/objects/avcable.jpg","right","new"
11,"right",1.549485,1,0.371585,"",NA,"stimuli/objects/megaphone.jpg","right","new"
11,"left",0.88507,4,0.943245,"right",0.356435,"","",""
11,"",NA,NA,NA,"",NA,"stimuli/objects/filmnegative.jpg","left","old"
11,"left",1.421915,4,2.22325,"left",0.317355,"","",""
11,"",NA,NA,NA,"",NA,"stimuli/objects/spatula04.jpg","left","old"
11,"left",1.94501,3,0.721015,"right",0.444935,"","",""
11,"",NA,NA,NA,"",NA,"stimuli/objects/chainsaw.jpg","left","old"
11,"left",0.76054,4,1.329525,"left",0.55265,"","",""
11,"",NA,NA,NA,"",NA,"stimuli/objects/football.jpg","right","new"
11,"right",3.25514,1,0.29104,"",NA,"stimuli/objects/golfbag.jpg","right","new"
11,"left",3.480945,3,0.858405,"left",1.55143,"","",""
11,"",NA,NA,NA,"",NA,"stimuli/objects/catchermask.jpg","left","old"
11,"left",1.52959,4,0.72626,"right",0.37321,"","",""
11,"",NA,NA,NA,"",NA,"stimuli/objects/snowblower.jpg","left","old"
11,"left",1.093835,4,1.371345,"right",0.336735,"","",""
11,"",NA,NA,NA,"",NA,"stimuli/objects/chandelier.jpg","left","old"
11,"left",0.863285,4,0.49067,"right",0.000835,"","",""
11,"",NA,NA,NA,"",NA,"stimuli/objects/pressurewasher.jpg","left","old"
11,"left",0.795165,4,0.59421,"right",1.104475,"","",""
11,"",NA,NA,NA,"",NA,"stimuli/objects/dvdplayer.jpg","left","old"
11,"left",0.91087,4,0.671935,"right",0.000695,"","",""
11,"",NA,NA,NA,"",NA,"stimuli/objects/photocopier.jpg","left","old"
11,"right",2.93692,1,1.30601,"",NA,"stimuli/objects/glass02a.jpg","right","new"
11,"left",0.87711,4,0.709575,"right",0.68514,"","",""
11,"",NA,NA,NA,"",NA,"stimuli/objects/ducttape.jpg","right","new"
11,"left",1.02579,4,0.65813,"left",0.29411,"","",""
11,"",NA,NA,NA,"",NA,"stimuli/objects/dishrack.jpg","left","old"
11,"left",0.99201,4,0.872145,"right",0.29811,"","",""
11,"",NA,NA,NA,"",NA,"stimuli/objects/gps.jpg","left","old"
11,"left",0.936545,4,0.80474,"left",0.28818,"","",""
11,"",NA,NA,NA,"",NA,"stimuli/objects/measuringcup01.jpg","left","old"
11,"left",2.640845,1,0.705805,"left",0.722405,"","",""
11,"",NA,NA,NA,"",NA,"stimuli/objects/butterdish.jpg","right","new"
11,"right",1.14377,1,0.623425,"",NA,"stimuli/objects/puttyknife.jpg","left","old"
11,"left",0.75741,4,0.94223,"left",0.368215,"","",""
11,"",NA,NA,NA,"",NA,"stimuli/objects/spoon01.jpg","left","old"
11,"left",0.928475,4,0.277145,"left",0.27095,"","",""
11,"",NA,NA,NA,"",NA,"stimuli/objects/aluminiumfoil.jpg","left","old"
11,"left",1.184875,4,0.31793,"left",0.415215,"","",""
11,"",NA,NA,NA,"",NA,"stimuli/objects/towel01.jpg","left","old"
11,"right",1.189685,1,0.29035,"",NA,"stimuli/objects/golfball.jpg","right","new"
11,"left",3.035005,2,0.659475,"right",1.420455,"","",""
11,"",NA,NA,NA,"",NA,"stimuli/objects/pipewrench.jpg","left","old"
11,"left",1.557635,4,0.808035,"right",0.28769,"","",""
11,"",NA,NA,NA,"",NA,"stimuli/objects/lectern01.jpg","left","old"
11,"right",1.026855,2,1.10009,"",NA,"stimuli/objects/spotlight.jpg","right","new"
11,"left",1.379095,3,2.0279,"right",1.652205,"","",""
11,"",NA,NA,NA,"",NA,"stimuli/objects/webcam.jpg","right","new"
11,"right",1.542455,4,0.887275,"",NA,"stimuli/objects/carlighter02.jpg","right","new"
11,"right",2.158565,2,0.488905,"",NA,"stimuli/objects/carjack.jpg","right","new"
11,"left",1.028325,3,1.074385,"left",1.989095,"","",""
11,"",NA,NA,NA,"",NA,"stimuli/objects/fluorescentlightbulb.jpg","left","old"
11,"right",2.67045,3,1.191795,"",NA,"stimuli/objects/generator.jpg","right","new"
11,"right",1.807905,2,0.46019,"",NA,"stimuli/objects/nailgun.jpg","right","new"
11,"right",1.060685,2,0.35927,"",NA,"stimuli/objects/studiolight.jpg","right","new"
11,"right",0.831565,2,0.37584,"",NA,"stimuli/objects/speaker04.jpg","right","new"
11,"right",1.92673,3,0.622705,"",NA,"stimuli/objects/skateboard.jpg","right","new"
11,"right",1.09153,2,0.272955,"",NA,"stimuli/objects/measuringtape01.jpg","right","new"
11,"left",1.37873,4,1.4718,"left",0.26494,"","",""
11,"",NA,NA,NA,"",NA,"stimuli/objects/shoulderpad.jpg","right","new"
11,"left",1.4338,4,0.28496,"right",1.18539,"","",""
11,"",NA,NA,NA,"",NA,"stimuli/objects/toyhockeystick01.jpg","left","old"
11,"left",1.00748,4,0.694325,"left",0.26709,"","",""
11,"",NA,NA,NA,"",NA,"stimuli/objects/potatomasher03b.jpg","left","old"
11,"left",3.69531,4,0.254975,"left",0.34875,"","",""
11,"",NA,NA,NA,"",NA,"stimuli/objects/corkscrew03a.jpg","left","old"
11,"left",0.692865,4,0.24312,"left",0.260515,"","",""
11,"",NA,NA,NA,"",NA,"stimuli/objects/tupperware03a.jpg","left","old"
11,"left",0.629445,4,0.90075,"left",0.455025,"","",""
11,"",NA,NA,NA,"",NA,"stimuli/objects/soccerball.jpg","left","old"
11,"left",6.961745,4,0.08409,"left",1.837805,"","",""
11,"",NA,NA,NA,"",NA,"stimuli/objects/gasburner.jpg","left","old"
11,"left",1.3747,4,0.25713,"left",0.588005,"","",""
11,"",NA,NA,NA,"",NA,"stimuli/objects/butterknife.jpg","left","old"
11,"right",1.29409,1,0.289115,"",NA,"stimuli/objects/toolbox02.jpg","right","new"
11,"left",3.129615,3,0.477945,"right",0.921735,"","",""
11,"",NA,NA,NA,"",NA,"stimuli/objects/soundmixer.jpg","right","new"
11,"right",1.807915,1,0.302905,"",NA,"stimuli/objects/remotecontrol04.jpg","right","new"
11,"left",0.82885,4,0.5256,"left",0.351715,"","",""
11,"",NA,NA,NA,"",NA,"stimuli/objects/badmintonracket.jpg","left","old"
11,"right",1.65474,1,0.33788,"",NA,"stimuli/objects/pylon01.jpg","right","new"
11,"right",1.345235,1,0.290715,"",NA,"stimuli/objects/pda.jpg","right","new"
11,"right",0.890455,1,0.37446,"",NA,"stimuli/objects/toyhardhat.jpg","left","old"
11,"left",0.91188,4,0.36519,"left",0.531695,"","",""
11,"",NA,NA,NA,"",NA,"stimuli/objects/volleyball.jpg","left","old"
11,"right",1.143735,1,0.53457,"",NA,"stimuli/objects/metalscissors.jpg","right","new"
11,"left",2.622595,1,0.320995,"right",0.995115,"","",""
11,"",NA,NA,NA,"",NA,"stimuli/objects/mitresaw.jpg","right","new"
11,"left",1.85525,2,1.587975,"left",0.386415,"","",""
11,"",NA,NA,NA,"",NA,"stimuli/objects/tableknife02.jpg","right","new"
11,"",NA,NA,NA,"",NA,"","",""
11,"left",1.704675,1,0.54235,"left",1.05812,"","",""
11,"",NA,NA,NA,"",NA,"stimuli/objects/beachumbrella01.jpg","right","new"
11,"left",2.500155,4,1.15128,"left",0.61134,"","",""
11,"",NA,NA,NA,"",NA,"stimuli/objects/oven.jpg","left","old"
11,"right",1.53852,1,0.286945,"",NA,"stimuli/objects/kneepad01c.jpg","right","new"
11,"right",0.89702,2,0.44465,"",NA,"stimuli/objects/toaster01.jpg","right","new"
11,"right",1.029745,2,0.31344,"",NA,"stimuli/objects/flashlight02b.jpg","right","new"
11,"right",0.826825,2,0.560515,"",NA,"stimuli/objects/trampoline.jpg","right","new"
11,"right",1.201345,4,0.540115,"",NA,"stimuli/objects/shopvac.jpg","right","new"
11,"left",1.074415,4,0.475715,"left",3.632355,"","",""
11,"",NA,NA,NA,"",NA,"stimuli/objects/waterbottle03.jpg","left","old"
11,"left",4.052955,1,0.32934,"right",1.176795,"","",""
11,"",NA,NA,NA,"",NA,"stimuli/objects/tablesaw.jpg","right","new"
11,"right",2.020985,1,0.37011,"",NA,"stimuli/objects/skigoggles01.jpg","right","new"
11,"left",1.2042,2,1.16419,"left",0.729855,"","",""
11,"",NA,NA,NA,"",NA,"stimuli/objects/charcoalbarbecue.jpg","left","old"
11,"left",1.150205,4,0.650135,"left",0.398465,"","",""
11,"",NA,NA,NA,"",NA,"stimuli/objects/mortarandpestle.jpg","right","new"
11,"left",1.325065,2,0.83678,"left",0.435505,"","",""
11,"",NA,NA,NA,"",NA,"stimuli/objects/boxingglove01.jpg","right","new"
11,"left",1.12502,2,0.60388,"right",1.110695,"","",""
11,"",NA,NA,NA,"",NA,"stimuli/objects/lawnmower.jpg","left","old"
11,"left",2.147755,2,0.53761,"right",0.334805,"","",""
11,"",NA,NA,NA,"",NA,"stimuli/objects/monitor.jpg","right","new"
11,"left",0.79195,2,0.47419,"left",1.07071,"","",""
11,"",NA,NA,NA,"",NA,"stimuli/objects/iceskate.jpg","left","old"
11,"right",1.345565,1,0.26521,"",NA,"stimuli/objects/needlenosepliers01.jpg","right","new"
11,"right",0.95075,2,0.39108,"",NA,"stimuli/objects/basketball01.jpg","right","new"
11,"right",1.41009,2,0.31966,"",NA,"stimuli/objects/axe01.jpg","left","old"
11,"right",1.8626,4,0.34536,"",NA,"stimuli/objects/birdie.jpg","right","new"
11,"left",1.04705,4,0.407415,"right",3.27201,"","",""
11,"",NA,NA,NA,"",NA,"stimuli/objects/gluetube.jpg","left","old"
11,"left",2.34003,4,0.25532,"left",1.02269,"","",""
11,"",NA,NA,NA,"",NA,"stimuli/objects/hourglass.jpg","left","old"
11,"right",2.54035,1,0.3311,"",NA,"stimuli/objects/dolly01.jpg","right","new"
11,"right",2.027895,1,0.537365,"",NA,"stimuli/objects/setsquare.jpg","left","old"
11,"right",1.28151,1,0.37397,"",NA,"stimuli/objects/swissarmyknife01a.jpg","right","new"
11,"right",1.296095,2,1.156525,"",NA,"stimuli/objects/diaperbag.jpg","right","new"
11,"right",1.16464,2,0.29132,"",NA,"stimuli/objects/drinkshaker.jpg","right","new"
11,"right",0.649625,2,0.271055,"",NA,"stimuli/objects/flask.jpg","right","new"
11,"right",1.061065,2,0.25674,"",NA,"stimuli/objects/staplegun.jpg","left","old"
11,"right",1.6563,1,0.52572,"",NA,"stimuli/objects/barbecue03.jpg","right","new"
11,"left",1.147395,4,0.352245,"right",1.28839,"","",""
11,"",NA,NA,NA,"",NA,"stimuli/objects/boatmotor.jpg","left","old"
11,"right",1.31764,4,0.82255,"",NA,"stimuli/objects/tent.jpg","right","new"
11,"left",1.121,4,0.32132,"left",1.048695,"","",""
11,"",NA,NA,NA,"",NA,"stimuli/objects/sportbag.jpg","left","old"
11,"right",4.36143,1,0.46147,"",NA,"stimuli/objects/wiicontroller.jpg","right","new"
11,"right",2.286635,1,1.07528,"",NA,"stimuli/objects/bottleopener01.jpg","right","new"
11,"right",0.931865,1,0.26028,"",NA,"stimuli/objects/pickaxe02.jpg","right","new"
11,"left",0.881685,4,0.36004,"left",0.960275,"","",""
11,"",NA,NA,NA,"",NA,"stimuli/objects/contactlens.jpg","left","old"
11,"left",1.50601,4,0.298875,"right",0.412595,"","",""
11,"",NA,NA,NA,"",NA,"stimuli/objects/gastank.jpg","left","old"
11,"right",1.06741,4,0.807745,"",NA,"stimuli/objects/stroller.jpg","right","new"
11,"left",1.861515,2,1.18739,"left",0.506015,"","",""
11,"",NA,NA,NA,"",NA,"stimuli/objects/hockeystick.jpg","right","new"
11,"left",0.794565,4,0.7393,"right",0.303765,"","",""
11,"",NA,NA,NA,"",NA,"stimuli/objects/wire.jpg","left","old"
11,"left",1.384925,4,0.87302,"right",0.317855,"","",""
11,"",NA,NA,NA,"",NA,"stimuli/objects/painttray.jpg","left","old"
11,"right",1.981215,1,0.30738,"",NA,"stimuli/objects/halogenlightbulb.jpg","right","new"
11,"right",1.064725,1,0.29193,"",NA,"stimuli/objects/leafrake.jpg","left","old"
11,"left",0.813625,4,0.321935,"right",0.280765,"","",""
11,"",NA,NA,NA,"",NA,"stimuli/objects/tape02a.jpg","left","old"
11,"right",1.137135,1,0.27284,"",NA,"stimuli/objects/heatpump.jpg","right","new"
11,"left",0.984145,2,0.29652,"right",0.598515,"","",""
11,"",NA,NA,NA,"",NA,"stimuli/objects/fonduefork01.jpg","right","new"
11,"left",1.155385,4,1.35859,"right",0.28526,"","",""
11,"",NA,NA,NA,"",NA,"stimuli/objects/scanner.jpg","left","old"
11,"right",1.00134,4,0.68681,"",NA,"stimuli/objects/wetfloorsign.jpg","right","new"
11,"left",1.09622,4,0.337685,"right",0.37,"","",""
11,"",NA,NA,NA,"",NA,"stimuli/objects/expansioncard.jpg","left","old"
11,"left",1.05797,4,1.024435,"left",0.277095,"","",""
11,"",NA,NA,NA,"",NA,"stimuli/objects/shotglass.jpg","left","old"
11,"left",0.97227,4,0.299265,"left",0.23396,"","",""
11,"",NA,NA,NA,"",NA,"stimuli/objects/skiboot01a.jpg","left","old"
11,"left",1.256215,2,1.33921,"right",0.45254,"","",""
11,"",NA,NA,NA,"",NA,"stimuli/objects/cassettetape01a.jpg","right","new"
11,"left",0.748395,4,0.702875,"left",0.057645,"","",""
11,"",NA,NA,NA,"",NA,"stimuli/objects/surfboard.jpg","left","old"
11,"left",1.913305,4,1.356205,"right",0.70761,"","",""
11,"",NA,NA,NA,"",NA,"stimuli/objects/nutcracker01.jpg","right","new"
11,"left",1.44741,4,0.371575,"left",0.00746,"","",""
11,"",NA,NA,NA,"",NA,"stimuli/objects/eggslicer.jpg","right","new"
11,"left",0.911195,4,0.52093,"right",1.019955,"","",""
11,"",NA,NA,NA,"",NA,"stimuli/objects/outletadapter.jpg","left","old"
11,"right",2.75787,1,0.19212,"",NA,"stimuli/objects/handblender.jpg","right","new"
11,"left",0.89447,4,0.476675,"left",0.73695,"","",""
11,"",NA,NA,NA,"",NA,"stimuli/objects/cooler01.jpg","left","old"
11,"left",1.265415,4,0.322005,"right",0.04584,"","",""
11,"",NA,NA,NA,"",NA,"stimuli/objects/floodlight.jpg","right","new"
11,"left",1.61916,4,0.67295,"left",0.858675,"","",""
11,"",NA,NA,NA,"",NA,"stimuli/objects/bottlecap.jpg","left","old"
11,"left",0.800555,4,0.32554,"right",0.34593,"","",""
11,"",NA,NA,NA,"",NA,"stimuli/objects/ipad02.jpg","left","old"
11,"left",0.77034,1,1.13108,"right",1.160945,"","",""
11,"",NA,NA,NA,"",NA,"stimuli/objects/solderingwire.jpg","right","new"
11,"left",1.22568,2,0.87779,"right",0.21717,"","",""
11,"",NA,NA,NA,"",NA,"stimuli/objects/fanheater.jpg","right","new"
11,"left",0.80349,4,0.424935,"left",0.32437,"","",""
11,"",NA,NA,NA,"",NA,"stimuli/objects/beermug01a.jpg","right","new"
11,"right",1.532525,4,0.381035,"",NA,"stimuli/objects/alarmsystem.jpg","right","new"
11,"left",2.0292,2,0.59401,"right",0.2687,"","",""
11,"",NA,NA,NA,"",NA,"stimuli/objects/desktopcomputer.jpg","left","old"
11,"left",1.156795,2,1.491545,"left",0.314285,"","",""
11,"",NA,NA,NA,"",NA,"stimuli/objects/treadmill.jpg","left","old"
11,"left",0.903795,2,0.345515,"left",0.176735,"","",""
11,"",NA,NA,NA,"",NA,"stimuli/objects/wineglass01.jpg","right","new"
11,"right",1.028925,1,0.286325,"",NA,"stimuli/objects/parachute.jpg","right","new"
11,"left",0.89752,2,0.319565,"left",0.58191,"","",""
11,"",NA,NA,NA,"",NA,"stimuli/objects/coffeepot03a.jpg","left","old"
11,"right",2.624085,1,0.1486,"",NA,"stimuli/objects/level03a.jpg","left","old"
11,"left",1.0261,2,0.63939,"right",0.48499,"","",""
11,"",NA,NA,NA,"",NA,"stimuli/objects/phonejack.jpg","left","old"
11,"left",1.59955,2,0.564065,"right",0.655685,"","",""
11,"",NA,NA,NA,"",NA,"stimuli/objects/flooringstapler.jpg","left","old"
11,"right",1.569805,1,0.445475,"",NA,"stimuli/objects/speedball.jpg","right","new"
11,"right",1.240765,1,0.35913,"",NA,"stimuli/objects/shovel01.jpg","right","new"
11,"right",1.21551,2,0.32684,"",NA,"stimuli/objects/cameracase01a.jpg","right","new"
11,"left",1.463805,2,0.40918,"right",0.778785,"","",""
11,"",NA,NA,NA,"",NA,"stimuli/objects/file.jpg","right","new"
11,"left",1.537005,4,0.352045,"right",0.38186,"","",""
11,"",NA,NA,NA,"",NA,"stimuli/objects/caulking.jpg","left","old"
11,"left",2.037615,2,0.75326,"right",0.844375,"","",""
11,"",NA,NA,NA,"",NA,"stimuli/objects/aircompressor.jpg","left","old"
11,"left",0.88755,2,0.352185,"right",1.87722,"","",""
11,"",NA,NA,NA,"",NA,"stimuli/objects/fanblades.jpg","left","old"
11,"left",1.311075,2,2.51818,"right",0.47113,"","",""
11,"",NA,NA,NA,"",NA,"stimuli/objects/sewingmachine01a.jpg","left","old"
11,"left",1.889345,1,0.673545,"left",0.31853,"","",""
11,"",NA,NA,NA,"",NA,"stimuli/objects/icecubetray01a.jpg","right","new"
11,"left",1.10254,4,0.722615,"right",0.265335,"","",""
11,"",NA,NA,NA,"",NA,"stimuli/objects/slidetray.jpg","left","old"
11,"right",1.18631,1,0.41998,"",NA,"stimuli/objects/ladle02a.jpg","right","new"
11,"left",1.59319,4,0.534995,"right",0.64838,"","",""
11,"",NA,NA,NA,"",NA,"stimuli/objects/gardenshears01a.jpg","left","old"
11,"left",1.74609,1,1.15758,"left",0.921605,"","",""
11,"",NA,NA,NA,"",NA,"stimuli/objects/bucket02.jpg","left","old"
11,"right",1.14244,1,0.280435,"",NA,"stimuli/objects/lamp04a.jpg","left","old"
11,"left",0.836325,4,0.574225,"left",0.269985,"","",""
11,"",NA,NA,NA,"",NA,"stimuli/objects/tennisracket.jpg","right","new"
11,"left",0.91183,4,0.359665,"left",0.140765,"","",""
11,"",NA,NA,NA,"",NA,"stimuli/objects/hockeygoalieglove.jpg","left","old"
11,"left",1.84739,4,0.931105,"left",0.065465,"","",""
11,"",NA,NA,NA,"",NA,"stimuli/objects/fishinghook03.jpg","left","old"
11,"left",1.20605,4,0.192715,"right",0.51619,"","",""
11,"",NA,NA,NA,"",NA,"stimuli/objects/usbkey.jpg","left","old"
11,"left",0.85801,4,0.42597,"left",0.259455,"","",""
11,"",NA,NA,NA,"",NA,"stimuli/objects/plate01b.jpg","right","new"
11,"left",0.68953,4,0.929565,"left",0.369075,"","",""
11,"",NA,NA,NA,"",NA,"stimuli/objects/servingspoon01.jpg","left","old"
11,"left",0.828165,4,0.22244,"right",0.298895,"","",""
11,"",NA,NA,NA,"",NA,"stimuli/objects/toothpick02.jpg","left","old"
11,"left",0.79535,4,0.109065,"right",0.166775,"","",""
11,"",NA,NA,NA,"",NA,"stimuli/objects/peeler01.jpg","left","old"
11,"left",1.557215,4,0.34013,"right",0.917415,"","",""
11,"",NA,NA,NA,"",NA,"stimuli/objects/cuttingpliers02.jpg","right","new"
11,"right",1.0397,1,0.341215,"",NA,"stimuli/objects/skihelmet01.jpg","left","old"
11,"left",0.96807,2,0.30782,"right",0.416875,"","",""
11,"",NA,NA,NA,"",NA,"stimuli/objects/satellitedish01.jpg","left","old"
11,"left",0.96458,4,0.670095,"left",0.24875,"","",""
11,"",NA,NA,NA,"",NA,"stimuli/objects/cork02.jpg","left","old"
11,"left",1.00392,2,0.38913,"right",0.39392,"","",""
11,"",NA,NA,NA,"",NA,"stimuli/objects/loppingshears.jpg","right","new"
11,"left",1.05534,2,0.662695,"left",0.28253,"","",""
11,"",NA,NA,NA,"",NA,"stimuli/objects/exercisemachine.jpg","left","old"
11,"right",2.806195,1,0.75953,"",NA,"stimuli/objects/shinpad.jpg","left","old"
11,"right",0.928015,2,0.75565,"",NA,"stimuli/objects/wafflemaker.jpg","right","new"
11,"right",1.28635,4,0.34732,"",NA,"stimuli/objects/tennisball01b.jpg","right","new"
11,"left",2.629885,2,0.41106,"right",0.35416,"","",""
11,"",NA,NA,NA,"",NA,"stimuli/objects/electricoutlet.jpg","left","old"
11,"right",1.30371,4,1.304865,"",NA,"stimuli/objects/smokedetector02.jpg","right","new"
11,"left",1.86578,2,0.59083,"right",2.250695,"","",""
11,"",NA,NA,NA,"",NA,"stimuli/objects/ladder.jpg","left","old"
11,"left",2.684555,2,0.158315,"right",1.1987,"","",""
11,"",NA,NA,NA,"",NA,"stimuli/objects/lockingplier.jpg","right","new"
11,"right",1.385815,1,0.600475,"",NA,"stimuli/objects/waterbottleholder.jpg","right","new"
11,"left",1.266195,2,0.33408,"right",0.552935,"","",""
11,"",NA,NA,NA,"",NA,"stimuli/objects/cheeseknife01.jpg","right","new"
11,"right",6.66517,2,1.060225,"",NA,"stimuli/objects/computermouse06.jpg","right","new"
11,"right",1.027745,2,0.290725,"",NA,"stimuli/objects/lightswitch01.jpg","right","new"
11,"right",1.497805,1,1.136715,"",NA,"stimuli/objects/airconditioner.jpg","left","old"
11,"left",1.08168,4,0.94325,"left",1.56639,"","",""
11,"",NA,NA,NA,"",NA,"stimuli/objects/paintroller01.jpg","left","old"
11,"left",1.04809,2,0.2534,"right",0.30581,"","",""
11,"",NA,NA,NA,"",NA,"stimuli/objects/bowrake.jpg","right","new"
11,"left",2.482835,2,0.30949,"left",0.261815,"","",""
11,"",NA,NA,NA,"",NA,"stimuli/objects/patioumbrella.jpg","left","old"
11,"left",0.887175,4,0.304465,"left",0.294085,"","",""
11,"",NA,NA,NA,"",NA,"stimuli/objects/fishingrod.jpg","left","old"
11,"left",0.818055,4,0.30463,"left",0.06192,"","",""
11,"",NA,NA,NA,"",NA,"stimuli/objects/mug01.jpg","right","new"
11,"left",1.035715,4,0.315135,"right",1.1846,"","",""
11,"",NA,NA,NA,"",NA,"stimuli/objects/securitycamera.jpg","left","old"
11,"left",1.45392,2,0.33038,"right",0.516825,"","",""
11,"",NA,NA,NA,"",NA,"stimuli/objects/wirestripper.jpg","right","new"
11,"left",1.28911,3,0.622145,"left",0.44213,"","",""
11,"",NA,NA,NA,"",NA,"stimuli/objects/rollingpin01a.jpg","left","old"
11,"left",1.187285,4,0.9252,"left",0.01908,"","",""
11,"",NA,NA,NA,"",NA,"stimuli/objects/saladspinner.jpg","left","old"
11,"right",1.71034,1,0.270955,"",NA,"stimuli/objects/jackhammer.jpg","right","new"
11,"left",0.86145,4,0.29379,"left",0.2859,"","",""
11,"",NA,NA,NA,"",NA,"stimuli/objects/snowboard.jpg","left","old"
11,"left",1.158585,4,0.27348,"right",0.271725,"","",""
11,"",NA,NA,NA,"",NA,"stimuli/objects/papershredder.jpg","left","old"
11,"left",0.928735,4,0.53256,"left",0.314235,"","",""
11,"",NA,NA,NA,"",NA,"stimuli/objects/spicerack.jpg","left","old"
11,"left",0.977805,1,1.47154,"right",1.035525,"","",""
11,"",NA,NA,NA,"",NA,"stimuli/objects/weight01.jpg","left","old"
11,"left",0.790585,2,0.192725,"left",0.233425,"","",""
11,"",NA,NA,NA,"",NA,"stimuli/objects/kiddiepool.jpg","left","old"
11,"left",0.61125,4,1.80767,"left",0.279175,"","",""
11,"",NA,NA,NA,"",NA,"stimuli/objects/travelmug.jpg","left","old"
11,"right",1.06084,4,0.54273,"",NA,"stimuli/objects/kite.jpg","right","new"
11,"left",0.901165,1,0.905805,"left",1.08197,"","",""
11,"",NA,NA,NA,"",NA,"stimuli/objects/grill.jpg","right","new"
11,"left",1.74143,4,0.305205,"right",1.51298,"","",""
11,"",NA,NA,NA,"",NA,"stimuli/objects/cowbell.jpg","left","old"
11,"right",1.16362,1,0.405095,"",NA,"stimuli/objects/cakeplatter.jpg","right","new"
11,"right",0.957905,4,0.35972,"",NA,"stimuli/objects/lifejacket.jpg","right","new"
11,"left",0.79039,4,0.44222,"left",0.47467,"","",""
11,"",NA,NA,NA,"",NA,"stimuli/objects/bikehelmet.jpg","left","old"
11,"left",0.774635,4,0.257,"left",0.28052,"","",""
11,"",NA,NA,NA,"",NA,"stimuli/objects/swimgoggles.jpg","left","old"
11,"right",1.36662,2,0.61348,"",NA,"stimuli/objects/straw.jpg","right","new"
11,"left",0.93073,4,0.25823,"left",0.290085,"","",""
11,"",NA,NA,NA,"",NA,"stimuli/objects/bowl02a.jpg","left","old"
11,"left",1.166025,2,0.75778,"left",0.25688,"","",""
11,"",NA,NA,NA,"",NA,"stimuli/objects/baseball01a.jpg","left","old"
11,"left",2.01535,2,0.728245,"right",0.65006,"","",""
11,"",NA,NA,NA,"",NA,"stimuli/objects/boltcutter.jpg","left","old"
11,"left",0.94221,2,0.321715,"left",0.038045,"","",""
11,"",NA,NA,NA,"",NA,"stimuli/objects/pitcher02b.jpg","left","old"
11,"left",1.155235,4,0.46693,"left",0.23655,"","",""
11,"",NA,NA,NA,"",NA,"stimuli/objects/bikewheel.jpg","left","old"
11,"",NA,NA,NA,"",NA,"","",""
