"participant","pract_resp.keys","pract_resp.corr","pract_resp.rt","first_character","second_character","Cue","left_categ","centleft_categ","centright_categ","right_categ","corr_ans","image","trial_cond","cuedCharacter","task_resp.keys","task_resp.corr","task_resp.rt"
12,NA,NA,NA,"","",NA,"","","","",NA,"",NA,"",NA,NA,NA
12,NA,NA,NA,"","",NA,"","","","",NA,"",NA,"",NA,NA,NA
12,NA,NA,NA,"","",NA,"","","","",NA,"",NA,"",NA,NA,NA
12,NA,NA,NA,"","",NA,"","","","",NA,"",NA,"",NA,NA,NA
12,NA,NA,NA,"","",NA,"","","","",NA,"",NA,"",NA,NA,NA
12,NA,NA,NA,"","",NA,"","","","",NA,"",NA,"",NA,NA,NA
12,1,0,1.65,"stimuli/m1.jpg","stimuli/m4.jpg",2,"stimuli/Stationary & school supply.png","stimuli/Vehicle.png","stimuli/Gamestoy & entertainment.png","stimuli/Clothing.png",4,"stimuli/objects/sneaker03b.jpg",1,"stimuli/m4.jpg",NA,NA,NA
12,2,0,1.43,"stimuli/m1.jpg","stimuli/m4.jpg",2,"stimuli/Stationary & school supply.png","stimuli/Clothing.png","stimuli/Vehicle.png","stimuli/Gamestoy & entertainment.png",1,"stimuli/objects/paperclip01b.jpg",0,"stimuli/m4.jpg",NA,NA,NA
12,3,0,1.394,"stimuli/m1.jpg","stimuli/m4.jpg",1,"stimuli/Vehicle.png","stimuli/Stationary & school supply.png","stimuli/Clothing.png","stimuli/Gamestoy & entertainment.png",2,"stimuli/objects/protractor.jpg",1,"stimuli/m1.jpg",NA,NA,NA
12,4,1,1.575,"stimuli/m4.jpg","stimuli/m1.jpg",1,"stimuli/Stationary & school supply.png","stimuli/Vehicle.png","stimuli/Gamestoy & entertainment.png","stimuli/Clothing.png",4,"stimuli/objects/hikingshoe01.jpg",1,"stimuli/m4.jpg",NA,NA,NA
12,1,0,1.672,"stimuli/m1.jpg","stimuli/m4.jpg",1,"stimuli/Clothing.png","stimuli/Stationary & school supply.png","stimuli/Vehicle.png","stimuli/Gamestoy & entertainment.png",2,"stimuli/objects/book01b.jpg",1,"stimuli/m1.jpg",NA,NA,NA
12,4,1,0.888,"stimuli/m4.jpg","stimuli/m1.jpg",1,"stimuli/Stationary & school supply.png","stimuli/Gamestoy & entertainment.png","stimuli/Vehicle.png","stimuli/Clothing.png",4,"stimuli/objects/shoelace.jpg",1,"stimuli/m4.jpg",NA,NA,NA
12,1,1,1.623,"stimuli/m1.jpg","stimuli/m4.jpg",2,"stimuli/Clothing.png","stimuli/Stationary & school supply.png","stimuli/Vehicle.png","stimuli/Gamestoy & entertainment.png",1,"stimuli/objects/moccasin.jpg",1,"stimuli/m4.jpg",NA,NA,NA
12,2,1,0.946,"stimuli/m1.jpg","stimuli/m4.jpg",2,"stimuli/Gamestoy & entertainment.png","stimuli/Clothing.png","stimuli/Stationary & school supply.png","stimuli/Vehicle.png",2,"stimuli/objects/waders.jpg",1,"stimuli/m4.jpg",NA,NA,NA
12,3,1,3.296,"stimuli/m4.jpg","stimuli/m1.jpg",2,"stimuli/Vehicle.png","stimuli/Gamestoy & entertainment.png","stimuli/Stationary & school supply.png","stimuli/Clothing.png",3,"stimuli/objects/eraser.jpg",1,"stimuli/m1.jpg",NA,NA,NA
12,4,0,1.556,"stimuli/m4.jpg","stimuli/m1.jpg",2,"stimuli/Stationary & school supply.png","stimuli/Vehicle.png","stimuli/Clothing.png","stimuli/Gamestoy & entertainment.png",1,"stimuli/objects/fountainpen.jpg",1,"stimuli/m1.jpg",NA,NA,NA
12,2,1,1.704,"stimuli/m4.jpg","stimuli/m1.jpg",1,"stimuli/Vehicle.png","stimuli/Clothing.png","stimuli/Stationary & school supply.png","stimuli/Gamestoy & entertainment.png",2,"stimuli/objects/visor.jpg",1,"stimuli/m4.jpg",NA,NA,NA
12,2,1,2.35,"stimuli/m4.jpg","stimuli/m1.jpg",1,"stimuli/Stationary & school supply.png","stimuli/Clothing.png","stimuli/Vehicle.png","stimuli/Gamestoy & entertainment.png",2,"stimuli/objects/mitten04.jpg",1,"stimuli/m4.jpg",NA,NA,NA
12,4,0,1.604,"stimuli/m4.jpg","stimuli/m1.jpg",2,"stimuli/Clothing.png","stimuli/Stationary & school supply.png","stimuli/Vehicle.png","stimuli/Gamestoy & entertainment.png",2,"stimuli/objects/notebook03a.jpg",1,"stimuli/m1.jpg",NA,NA,NA
12,2,0,1.225,"stimuli/m4.jpg","stimuli/m1.jpg",1,"stimuli/Vehicle.png","stimuli/Clothing.png","stimuli/Gamestoy & entertainment.png","stimuli/Stationary & school supply.png",1,"stimuli/objects/locomotive.jpg",0,"stimuli/m4.jpg",NA,NA,NA
12,2,1,1.024,"stimuli/m4.jpg","stimuli/m1.jpg",2,"stimuli/Gamestoy & entertainment.png","stimuli/Stationary & school supply.png","stimuli/Vehicle.png","stimuli/Clothing.png",2,"stimuli/objects/mechanicalpencil02.jpg",1,"stimuli/m1.jpg",NA,NA,NA
12,3,0,1.677,"stimuli/m4.jpg","stimuli/m1.jpg",1,"stimuli/Gamestoy & entertainment.png","stimuli/Clothing.png","stimuli/Stationary & school supply.png","stimuli/Vehicle.png",1,"stimuli/objects/rattle.jpg",0,"stimuli/m4.jpg",NA,NA,NA
12,4,1,1.264,"stimuli/m4.jpg","stimuli/m1.jpg",1,"stimuli/Gamestoy & entertainment.png","stimuli/Vehicle.png","stimuli/Stationary & school supply.png","stimuli/Clothing.png",4,"stimuli/objects/sheriffhat.jpg",1,"stimuli/m4.jpg",NA,NA,NA
12,NA,NA,NA,"","",NA,"","","","",NA,"",NA,"",NA,NA,NA
12,NA,NA,NA,"stimuli/m2.jpg","stimuli/m5.jpg",2,"stimuli/Outdoor activity & sport item.png","stimuli/Hand labour tool & accessory.png","stimuli/Electronic device & accessory.png","stimuli/Kitchen & utensil.png",2,"stimuli/objects/jumpingjack.jpg",1,"stimuli/m5.jpg",3,0,2.689
12,NA,NA,NA,"stimuli/m2.jpg","stimuli/m5.jpg",2,"stimuli/Hand labour tool & accessory.png","stimuli/Outdoor activity & sport item.png","stimuli/Electronic device & accessory.png","stimuli/Kitchen & utensil.png",1,"stimuli/objects/boxcutter03a.jpg",1,"stimuli/m5.jpg",1,1,2.346
12,NA,NA,NA,"stimuli/m2.jpg","stimuli/m5.jpg",1,"stimuli/Hand labour tool & accessory.png","stimuli/Kitchen & utensil.png","stimuli/Electronic device & accessory.png","stimuli/Outdoor activity & sport item.png",2,"stimuli/objects/huntingknife.jpg",0,"stimuli/m2.jpg",2,1,1.337
12,NA,NA,NA,"stimuli/m5.jpg","stimuli/m2.jpg",2,"stimuli/Kitchen & utensil.png","stimuli/Electronic device & accessory.png","stimuli/Hand labour tool & accessory.png","stimuli/Outdoor activity & sport item.png",4,"stimuli/objects/footballhelmet.jpg",1,"stimuli/m2.jpg",1,0,1.17
12,NA,NA,NA,"stimuli/m5.jpg","stimuli/m2.jpg",1,"stimuli/Outdoor activity & sport item.png","stimuli/Hand labour tool & accessory.png","stimuli/Kitchen & utensil.png","stimuli/Electronic device & accessory.png",2,"stimuli/objects/handrake01a.jpg",1,"stimuli/m5.jpg",2,1,2.329
12,NA,NA,NA,"stimuli/m2.jpg","stimuli/m5.jpg",1,"stimuli/Outdoor activity & sport item.png","stimuli/Electronic device & accessory.png","stimuli/Hand labour tool & accessory.png","stimuli/Kitchen & utensil.png",1,"stimuli/objects/crosscountryski.jpg",1,"stimuli/m2.jpg",4,0,1.413
12,NA,NA,NA,"stimuli/m5.jpg","stimuli/m2.jpg",2,"stimuli/Hand labour tool & accessory.png","stimuli/Electronic device & accessory.png","stimuli/Outdoor activity & sport item.png","stimuli/Kitchen & utensil.png",2,"stimuli/objects/television.jpg",0,"stimuli/m2.jpg",1,0,1.698
12,NA,NA,NA,"stimuli/m5.jpg","stimuli/m2.jpg",2,"stimuli/Kitchen & utensil.png","stimuli/Outdoor activity & sport item.png","stimuli/Hand labour tool & accessory.png","stimuli/Electronic device & accessory.png",2,"stimuli/objects/hose.jpg",1,"stimuli/m2.jpg",1,0,1.543
12,NA,NA,NA,"stimuli/m2.jpg","stimuli/m5.jpg",2,"stimuli/Hand labour tool & accessory.png","stimuli/Electronic device & accessory.png","stimuli/Kitchen & utensil.png","stimuli/Outdoor activity & sport item.png",1,"stimuli/objects/solderingiron.jpg",1,"stimuli/m5.jpg",4,0,1.589
12,NA,NA,NA,"stimuli/m2.jpg","stimuli/m5.jpg",2,"stimuli/Electronic device & accessory.png","stimuli/Kitchen & utensil.png","stimuli/Hand labour tool & accessory.png","stimuli/Outdoor activity & sport item.png",3,"stimuli/objects/gavel.jpg",1,"stimuli/m5.jpg",3,1,1.464
12,NA,NA,NA,"stimuli/m5.jpg","stimuli/m2.jpg",1,"stimuli/Kitchen & utensil.png","stimuli/Electronic device & accessory.png","stimuli/Outdoor activity & sport item.png","stimuli/Hand labour tool & accessory.png",4,"stimuli/objects/boxcutter03a.jpg",1,"stimuli/m5.jpg",1,0,1.37
12,NA,NA,NA,"stimuli/m2.jpg","stimuli/m5.jpg",2,"stimuli/Electronic device & accessory.png","stimuli/Hand labour tool & accessory.png","stimuli/Outdoor activity & sport item.png","stimuli/Kitchen & utensil.png",1,"stimuli/objects/walkietalkie.jpg",0,"stimuli/m5.jpg",2,0,2.505
12,NA,NA,NA,"stimuli/m2.jpg","stimuli/m5.jpg",1,"stimuli/Kitchen & utensil.png","stimuli/Electronic device & accessory.png","stimuli/Hand labour tool & accessory.png","stimuli/Outdoor activity & sport item.png",1,"stimuli/objects/coffeemaker.jpg",0,"stimuli/m2.jpg",4,0,0.819
12,NA,NA,NA,"stimuli/m5.jpg","stimuli/m2.jpg",2,"stimuli/Outdoor activity & sport item.png","stimuli/Electronic device & accessory.png","stimuli/Kitchen & utensil.png","stimuli/Hand labour tool & accessory.png",1,"stimuli/objects/bicycle.jpg",1,"stimuli/m2.jpg",3,0,1.264
12,NA,NA,NA,"stimuli/m2.jpg","stimuli/m5.jpg",1,"stimuli/Kitchen & utensil.png","stimuli/Outdoor activity & sport item.png","stimuli/Electronic device & accessory.png","stimuli/Hand labour tool & accessory.png",2,"stimuli/objects/punchingbag.jpg",1,"stimuli/m2.jpg",4,0,1.581
12,NA,NA,NA,"stimuli/m5.jpg","stimuli/m2.jpg",1,"stimuli/Electronic device & accessory.png","stimuli/Outdoor activity & sport item.png","stimuli/Hand labour tool & accessory.png","stimuli/Kitchen & utensil.png",2,"stimuli/objects/footballhelmet.jpg",0,"stimuli/m5.jpg",2,1,1.333
12,NA,NA,NA,"stimuli/m5.jpg","stimuli/m2.jpg",1,"stimuli/Kitchen & utensil.png","stimuli/Hand labour tool & accessory.png","stimuli/Electronic device & accessory.png","stimuli/Outdoor activity & sport item.png",4,"stimuli/objects/swing.jpg",0,"stimuli/m5.jpg",2,0,0.472
12,NA,NA,NA,"stimuli/m2.jpg","stimuli/m5.jpg",2,"stimuli/Hand labour tool & accessory.png","stimuli/Electronic device & accessory.png","stimuli/Outdoor activity & sport item.png","stimuli/Kitchen & utensil.png",1,"stimuli/objects/pitchfork.jpg",1,"stimuli/m5.jpg",3,0,2.505
12,NA,NA,NA,"stimuli/m5.jpg","stimuli/m2.jpg",2,"stimuli/Hand labour tool & accessory.png","stimuli/Outdoor activity & sport item.png","stimuli/Electronic device & accessory.png","stimuli/Kitchen & utensil.png",2,"stimuli/objects/bicycle.jpg",1,"stimuli/m2.jpg",4,0,1.219
12,NA,NA,NA,"stimuli/m5.jpg","stimuli/m2.jpg",1,"stimuli/Hand labour tool & accessory.png","stimuli/Outdoor activity & sport item.png","stimuli/Kitchen & utensil.png","stimuli/Electronic device & accessory.png",3,"stimuli/objects/freezer02.jpg",0,"stimuli/m5.jpg",1,0,2.396
12,NA,NA,NA,"stimuli/m2.jpg","stimuli/m5.jpg",1,"stimuli/Kitchen & utensil.png","stimuli/Hand labour tool & accessory.png","stimuli/Electronic device & accessory.png","stimuli/Outdoor activity & sport item.png",2,"stimuli/objects/handrake01a.jpg",0,"stimuli/m2.jpg",3,0,3.022
12,NA,NA,NA,"stimuli/m5.jpg","stimuli/m2.jpg",1,"stimuli/Outdoor activity & sport item.png","stimuli/Electronic device & accessory.png","stimuli/Hand labour tool & accessory.png","stimuli/Kitchen & utensil.png",3,"stimuli/objects/jumpingjack.jpg",1,"stimuli/m5.jpg",1,0,2.399
12,NA,NA,NA,"stimuli/m5.jpg","stimuli/m2.jpg",2,"stimuli/Electronic device & accessory.png","stimuli/Kitchen & utensil.png","stimuli/Hand labour tool & accessory.png","stimuli/Outdoor activity & sport item.png",4,"stimuli/objects/bicycle.jpg",1,"stimuli/m2.jpg",2,0,1.13
12,NA,NA,NA,"stimuli/m5.jpg","stimuli/m2.jpg",1,"stimuli/Hand labour tool & accessory.png","stimuli/Outdoor activity & sport item.png","stimuli/Electronic device & accessory.png","stimuli/Kitchen & utensil.png",1,"stimuli/objects/jumpingjack.jpg",1,"stimuli/m5.jpg",2,0,2.02
12,NA,NA,NA,"stimuli/m2.jpg","stimuli/m5.jpg",2,"stimuli/Outdoor activity & sport item.png","stimuli/Electronic device & accessory.png","stimuli/Hand labour tool & accessory.png","stimuli/Kitchen & utensil.png",4,"stimuli/objects/jug.jpg",0,"stimuli/m5.jpg",3,0,2.907
12,NA,NA,NA,"stimuli/m2.jpg","stimuli/m5.jpg",1,"stimuli/Electronic device & accessory.png","stimuli/Hand labour tool & accessory.png","stimuli/Kitchen & utensil.png","stimuli/Outdoor activity & sport item.png",4,"stimuli/objects/racquetballracket.jpg",1,"stimuli/m2.jpg",4,1,1.186
12,NA,NA,NA,"stimuli/m2.jpg","stimuli/m5.jpg",2,"stimuli/Kitchen & utensil.png","stimuli/Outdoor activity & sport item.png","stimuli/Electronic device & accessory.png","stimuli/Hand labour tool & accessory.png",4,"stimuli/objects/jumpingjack.jpg",1,"stimuli/m5.jpg",2,0,2.114
12,NA,NA,NA,"stimuli/m2.jpg","stimuli/m5.jpg",2,"stimuli/Hand labour tool & accessory.png","stimuli/Kitchen & utensil.png","stimuli/Electronic device & accessory.png","stimuli/Outdoor activity & sport item.png",1,"stimuli/objects/hedgetrimmer.jpg",1,"stimuli/m5.jpg",1,1,1.398
12,NA,NA,NA,"stimuli/m5.jpg","stimuli/m2.jpg",1,"stimuli/Kitchen & utensil.png","stimuli/Outdoor activity & sport item.png","stimuli/Electronic device & accessory.png","stimuli/Hand labour tool & accessory.png",4,"stimuli/objects/gavel.jpg",1,"stimuli/m5.jpg",2,0,0.896
12,NA,NA,NA,"stimuli/m2.jpg","stimuli/m5.jpg",2,"stimuli/Electronic device & accessory.png","stimuli/Hand labour tool & accessory.png","stimuli/Kitchen & utensil.png","stimuli/Outdoor activity & sport item.png",2,"stimuli/objects/gavel.jpg",1,"stimuli/m5.jpg",4,0,1.123
12,NA,NA,NA,"stimuli/m2.jpg","stimuli/m5.jpg",1,"stimuli/Kitchen & utensil.png","stimuli/Hand labour tool & accessory.png","stimuli/Outdoor activity & sport item.png","stimuli/Electronic device & accessory.png",3,"stimuli/objects/racquetballracket.jpg",1,"stimuli/m2.jpg",3,1,1.459
12,NA,NA,NA,"stimuli/m5.jpg","stimuli/m2.jpg",2,"stimuli/Kitchen & utensil.png","stimuli/Electronic device & accessory.png","stimuli/Outdoor activity & sport item.png","stimuli/Hand labour tool & accessory.png",3,"stimuli/objects/punchingbag.jpg",1,"stimuli/m2.jpg",3,1,0.908
12,NA,NA,NA,"stimuli/m2.jpg","stimuli/m5.jpg",2,"stimuli/Outdoor activity & sport item.png","stimuli/Hand labour tool & accessory.png","stimuli/Kitchen & utensil.png","stimuli/Electronic device & accessory.png",4,"stimuli/objects/camera01a.jpg",0,"stimuli/m5.jpg",2,0,1.613
12,NA,NA,NA,"stimuli/m2.jpg","stimuli/m5.jpg",2,"stimuli/Outdoor activity & sport item.png","stimuli/Electronic device & accessory.png","stimuli/Kitchen & utensil.png","stimuli/Hand labour tool & accessory.png",4,"stimuli/objects/jumpingjack.jpg",1,"stimuli/m5.jpg",4,1,2.168
12,NA,NA,NA,"stimuli/m2.jpg","stimuli/m5.jpg",1,"stimuli/Electronic device & accessory.png","stimuli/Kitchen & utensil.png","stimuli/Outdoor activity & sport item.png","stimuli/Hand labour tool & accessory.png",3,"stimuli/objects/swing.jpg",1,"stimuli/m2.jpg",2,0,2.78
12,NA,NA,NA,"stimuli/m5.jpg","stimuli/m2.jpg",1,"stimuli/Hand labour tool & accessory.png","stimuli/Kitchen & utensil.png","stimuli/Outdoor activity & sport item.png","stimuli/Electronic device & accessory.png",1,"stimuli/objects/pitchfork.jpg",1,"stimuli/m5.jpg",1,1,1.386
12,NA,NA,NA,"stimuli/m2.jpg","stimuli/m5.jpg",1,"stimuli/Electronic device & accessory.png","stimuli/Outdoor activity & sport item.png","stimuli/Hand labour tool & accessory.png","stimuli/Kitchen & utensil.png",2,"stimuli/objects/racquetballracket.jpg",1,"stimuli/m2.jpg",2,1,1.465
12,NA,NA,NA,"stimuli/m2.jpg","stimuli/m5.jpg",1,"stimuli/Outdoor activity & sport item.png","stimuli/Hand labour tool & accessory.png","stimuli/Electronic device & accessory.png","stimuli/Kitchen & utensil.png",1,"stimuli/objects/telescope.jpg",1,"stimuli/m2.jpg",1,1,1.463
12,NA,NA,NA,"stimuli/m5.jpg","stimuli/m2.jpg",2,"stimuli/Hand labour tool & accessory.png","stimuli/Kitchen & utensil.png","stimuli/Electronic device & accessory.png","stimuli/Outdoor activity & sport item.png",4,"stimuli/objects/footballhelmet.jpg",1,"stimuli/m2.jpg",2,0,2.855
12,NA,NA,NA,"stimuli/m5.jpg","stimuli/m2.jpg",2,"stimuli/Kitchen & utensil.png","stimuli/Hand labour tool & accessory.png","stimuli/Outdoor activity & sport item.png","stimuli/Electronic device & accessory.png",3,"stimuli/objects/swing.jpg",1,"stimuli/m2.jpg",3,1,3.736
12,NA,NA,NA,"stimuli/m5.jpg","stimuli/m2.jpg",1,"stimuli/Outdoor activity & sport item.png","stimuli/Hand labour tool & accessory.png","stimuli/Electronic device & accessory.png","stimuli/Kitchen & utensil.png",2,"stimuli/objects/pitchfork.jpg",1,"stimuli/m5.jpg",2,1,1.83
12,NA,NA,NA,"stimuli/m2.jpg","stimuli/m5.jpg",1,"stimuli/Hand labour tool & accessory.png","stimuli/Outdoor activity & sport item.png","stimuli/Electronic device & accessory.png","stimuli/Kitchen & utensil.png",2,"stimuli/objects/footballhelmet.jpg",1,"stimuli/m2.jpg",1,0,1.432
12,NA,NA,NA,"stimuli/m5.jpg","stimuli/m2.jpg",2,"stimuli/Hand labour tool & accessory.png","stimuli/Outdoor activity & sport item.png","stimuli/Kitchen & utensil.png","stimuli/Electronic device & accessory.png",2,"stimuli/objects/rollerblade.jpg",1,"stimuli/m2.jpg",2,1,0.883
12,NA,NA,NA,"stimuli/m2.jpg","stimuli/m5.jpg",1,"stimuli/Outdoor activity & sport item.png","stimuli/Kitchen & utensil.png","stimuli/Hand labour tool & accessory.png","stimuli/Electronic device & accessory.png",1,"stimuli/objects/crosscountryski.jpg",1,"stimuli/m2.jpg",1,1,1.323
12,NA,NA,NA,"stimuli/m5.jpg","stimuli/m2.jpg",1,"stimuli/Kitchen & utensil.png","stimuli/Outdoor activity & sport item.png","stimuli/Hand labour tool & accessory.png","stimuli/Electronic device & accessory.png",3,"stimuli/objects/solderingiron.jpg",1,"stimuli/m5.jpg",3,1,2.258
12,NA,NA,NA,"stimuli/m5.jpg","stimuli/m2.jpg",2,"stimuli/Kitchen & utensil.png","stimuli/Hand labour tool & accessory.png","stimuli/Electronic device & accessory.png","stimuli/Outdoor activity & sport item.png",2,"stimuli/objects/boxcutter03a.jpg",0,"stimuli/m2.jpg",4,0,3.047
12,NA,NA,NA,"stimuli/m2.jpg","stimuli/m5.jpg",2,"stimuli/Kitchen & utensil.png","stimuli/Electronic device & accessory.png","stimuli/Hand labour tool & accessory.png","stimuli/Outdoor activity & sport item.png",3,"stimuli/objects/gavel.jpg",1,"stimuli/m5.jpg",3,1,2.727
12,NA,NA,NA,"stimuli/m5.jpg","stimuli/m2.jpg",2,"stimuli/Outdoor activity & sport item.png","stimuli/Hand labour tool & accessory.png","stimuli/Kitchen & utensil.png","stimuli/Electronic device & accessory.png",4,"stimuli/objects/jack.jpg",0,"stimuli/m2.jpg",1,0,1.513
