"participant","recog_resp.keys","recog_resp.rt","conf_resp.keys","conf_resp.rt","resp_assoc.keys","resp_assoc.rt","images","corr_ans","type"
22,"",NA,NA,NA,"",NA,"","",""
22,"",NA,NA,NA,"",NA,"","",""
22,"",NA,NA,NA,"",NA,"","",""
22,"left",3.1619,4,3.4388,"left",6.059,"","",""
22,"",NA,NA,NA,"",NA,"stimuli/objects/wheelbarrow01.jpg","left","old"
22,"left",2.3428,4,1.8162,"left",2.9487,"","",""
22,"",NA,NA,NA,"",NA,"stimuli/objects/gasburner.jpg","left","old"
22,"right",3.1958,3,2.2697,"",NA,"stimuli/objects/satellitedish01.jpg","left","old"
22,"left",2.4458,4,0.9833,"right",0.9755,"","",""
22,"",NA,NA,NA,"",NA,"stimuli/objects/lightbulb01.jpg","left","old"
22,"right",3.129,2,0.9644,"",NA,"stimuli/objects/flooringstapler.jpg","left","old"
22,"left",1.9991,3,1.8136,"left",1.3184,"","",""
22,"",NA,NA,NA,"",NA,"stimuli/objects/hockeygoalieglove.jpg","left","old"
22,"left",1.2895,3,1.0741,"left",1.3608,"","",""
22,"",NA,NA,NA,"",NA,"stimuli/objects/expansioncard.jpg","left","old"
22,"left",2.637,3,1.9324,"right",2.21,"","",""
22,"",NA,NA,NA,"",NA,"stimuli/objects/gps.jpg","left","old"
22,"right",1.461,4,2.7038,"",NA,"stimuli/objects/walkman.jpg","right","new"
22,"right",1.8241,3,0.4407,"",NA,"stimuli/objects/leafblower01.jpg","right","new"
22,"left",1.2073,3,1.2496,"left",0.4794,"","",""
22,"",NA,NA,NA,"",NA,"stimuli/objects/baseballbat.jpg","left","old"
22,"right",2.4901,3,1.4392,"",NA,"stimuli/objects/pastaspoon.jpg","left","old"
22,"right",1.2395,3,1.8051,"",NA,"stimuli/objects/cclamp.jpg","right","new"
22,"right",2.23,3,0.9651,"",NA,"stimuli/objects/binoculars01b.jpg","right","new"
22,"left",1.0632,4,0.7998,"left",0.3597,"","",""
22,"",NA,NA,NA,"",NA,"stimuli/objects/baseball01a.jpg","left","old"
22,"right",1.2671,4,0.7161,"",NA,"stimuli/objects/icepack.jpg","right","new"
22,"right",3.2356,2,0.9011,"",NA,"stimuli/objects/sledgehammer.jpg","left","old"
22,"right",0.9271,3,0.4172,"",NA,"stimuli/objects/ceilingspeaker.jpg","right","new"
22,"right",1.886,3,0.8707,"",NA,"stimuli/objects/phonejack.jpg","left","old"
22,"left",1.4031,3,1.2209,"left",0.2331,"","",""
22,"",NA,NA,NA,"",NA,"stimuli/objects/axe01.jpg","left","old"
22,"left",0.851,3,1.0668,"left",0.5366,"","",""
22,"",NA,NA,NA,"",NA,"stimuli/objects/ladder.jpg","left","old"
22,"left",1.4901,3,0.8226,"right",1.3294,"","",""
22,"",NA,NA,NA,"",NA,"stimuli/objects/pressurewasher.jpg","left","old"
22,"right",0.7579,3,0.4397,"",NA,"stimuli/objects/battery02b.jpg","right","new"
22,"left",0.9926,4,1.1662,"left",3.0372,"","",""
22,"",NA,NA,NA,"",NA,"stimuli/objects/atm.jpg","left","old"
22,"right",1.8487,3,1.6689,"",NA,"stimuli/objects/nintendods.jpg","left","old"
22,"right",1.4849,4,0.4479,"",NA,"stimuli/objects/cashregister01.jpg","right","new"
22,"right",0.6952,4,0.8708,"",NA,"stimuli/objects/remotecontrol04.jpg","right","new"
22,"right",0.7778,4,0.7664,"",NA,"stimuli/objects/snowman.jpg","right","new"
22,"right",0.9505,4,0.494,"",NA,"stimuli/objects/snowshoe.jpg","right","new"
22,"right",0.9497,4,0.3542,"",NA,"stimuli/objects/shoulderpad.jpg","right","new"
22,"right",0.8473,3,1.1104,"",NA,"stimuli/objects/punchingball.jpg","right","new"
22,"left",1.4026,4,0.5821,"right",1.0916,"","",""
22,"",NA,NA,NA,"",NA,"stimuli/objects/ducttape.jpg","right","new"
22,"right",0.8074,3,0.3753,"",NA,"stimuli/objects/glass02a.jpg","right","new"
22,"right",0.7377,4,0.3814,"",NA,"stimuli/objects/clock01a.jpg","right","new"
22,"right",1.6588,3,0.5418,"",NA,"stimuli/objects/basketballhoop01.jpg","right","new"
22,"left",1.2572,3,0.811,"left",0.3303,"","",""
22,"",NA,NA,NA,"",NA,"stimuli/objects/powercable.jpg","right","new"
22,"right",1.265,3,1.2458,"",NA,"stimuli/objects/desktopcomputer.jpg","left","old"
22,"left",2.6796,3,1.1503,"left",0.9324,"","",""
22,"",NA,NA,NA,"",NA,"stimuli/objects/bowl02a.jpg","left","old"
22,"left",1.2744,4,0.5187,"left",0.4573,"","",""
22,"",NA,NA,NA,"",NA,"stimuli/objects/level03a.jpg","left","old"
22,"left",0.9311,4,0.2994,"right",0.4671,"","",""
22,"",NA,NA,NA,"",NA,"stimuli/objects/podium.jpg","left","old"
22,"right",1.5577,3,0.5478,"",NA,"stimuli/objects/lock03a.jpg","right","new"
22,"right",0.8648,3,0.401,"",NA,"stimuli/objects/toasteroven.jpg","right","new"
22,"right",1.9679,3,0.5294,"",NA,"stimuli/objects/gardenshears01a.jpg","left","old"
22,"right",0.7529,4,0.4148,"",NA,"stimuli/objects/electricmixer.jpg","right","new"
22,"left",0.8486,3,0.459,"right",1.618,"","",""
22,"",NA,NA,NA,"",NA,"stimuli/objects/waterbottle03.jpg","left","old"
22,"left",1.6783,4,0.2932,"right",1.982,"","",""
22,"",NA,NA,NA,"",NA,"stimuli/objects/weedwacker.jpg","left","old"
22,"left",1.3211,4,1.1888,"left",0.4718,"","",""
22,"",NA,NA,NA,"",NA,"stimuli/objects/cookiecutter.jpg","left","old"
22,"right",1.731,2,0.7147,"",NA,"stimuli/objects/djmixer02.jpg","left","old"
22,"left",1.5551,3,0.285,"right",0.7985,"","",""
22,"",NA,NA,NA,"",NA,"stimuli/objects/usbkey.jpg","left","old"
22,"left",1.0075,4,0.2241,"right",0.999,"","",""
22,"",NA,NA,NA,"",NA,"stimuli/objects/cork02.jpg","left","old"
22,"right",1.4035,4,0.7438,"",NA,"stimuli/objects/snowbrush.jpg","right","new"
22,"right",1.743,3,0.3487,"",NA,"stimuli/objects/frisbee.jpg","right","new"
22,"right",0.9636,4,0.3161,"",NA,"stimuli/objects/spotlight.jpg","right","new"
22,"right",0.8974,2,0.3327,"",NA,"stimuli/objects/measuringtape01.jpg","right","new"
22,"left",0.923,4,0.2829,"right",4.8814,"","",""
22,"",NA,NA,NA,"",NA,"stimuli/objects/hourglass.jpg","left","old"
22,"right",1.5884,2,0.2498,"",NA,"stimuli/objects/minifridge.jpg","right","new"
22,"right",1.1263,3,0.5586,"",NA,"stimuli/objects/pda.jpg","right","new"
22,"right",1.1935,3,0.2638,"",NA,"stimuli/objects/taperecorder.jpg","right","new"
22,"left",2.7183,3,0.5595,"left",0.9193,"","",""
22,"",NA,NA,NA,"",NA,"stimuli/objects/golfball.jpg","right","new"
22,"left",0.9727,4,0.2327,"left",0.3304,"","",""
22,"",NA,NA,NA,"",NA,"stimuli/objects/hockeygoaliepad.jpg","left","old"
22,"left",1.5392,4,0.3493,"left",0.581,"","",""
22,"",NA,NA,NA,"",NA,"stimuli/objects/bikepump01.jpg","left","old"
22,"right",1.6039,3,0.2343,"",NA,"stimuli/objects/bikewheel.jpg","left","old"
22,"right",0.6825,4,0.3055,"",NA,"stimuli/objects/aircompressor.jpg","left","old"
22,"left",0.9237,4,0.2559,"right",0.6882,"","",""
22,"",NA,NA,NA,"",NA,"stimuli/objects/cowbell.jpg","left","old"
22,"left",1.1563,4,0.2714,"right",0.4465,"","",""
22,"",NA,NA,NA,"",NA,"stimuli/objects/electricoutlet.jpg","left","old"
22,"right",4.0867,2,0.3462,"",NA,"stimuli/objects/measuringcup01.jpg","left","old"
22,"left",0.8368,4,0.6487,"left",0.3416,"","",""
22,"",NA,NA,NA,"",NA,"stimuli/objects/iceskate.jpg","left","old"
22,"right",1.763,3,0.3301,"",NA,"stimuli/objects/avcable.jpg","right","new"
22,"left",0.9131,4,0.31,"left",0.3125,"","",""
22,"",NA,NA,NA,"",NA,"stimuli/objects/spicerack.jpg","left","old"
22,"right",0.9517,2,0.3348,"",NA,"stimuli/objects/jigsaw.jpg","left","old"
22,"right",1.8306,2,0.2392,"",NA,"stimuli/objects/skateboard.jpg","right","new"
22,"right",0.8593,2,6.3612,"",NA,"stimuli/objects/wire.jpg","left","old"
22,"right",0.9773,3,0.692,"",NA,"stimuli/objects/butterdish.jpg","right","new"
22,"right",1.1743,3,0.3063,"",NA,"stimuli/objects/kitchenscale01a.jpg","right","new"
22,"right",0.8294,4,0.3043,"",NA,"stimuli/objects/winerack.jpg","right","new"
22,"right",0.9121,3,0.5008,"",NA,"stimuli/objects/pylon01.jpg","right","new"
22,"right",0.7474,4,0.3096,"",NA,"stimuli/objects/antenna.jpg","left","old"
22,"right",0.9743,3,1.257,"",NA,"stimuli/objects/speaker04.jpg","right","new"
22,"left",1.2786,2,1.2862,"right",1.9274,"","",""
22,"",NA,NA,NA,"",NA,"stimuli/objects/oven.jpg","left","old"
22,"right",0.7754,4,0.2746,"",NA,"stimuli/objects/gymnasticring.jpg","right","new"
22,"right",1.5064,3,0.3338,"",NA,"stimuli/objects/tongs01b.jpg","right","new"
22,"right",1.4002,3,0.1327,"",NA,"stimuli/objects/microphone01.jpg","right","new"
22,"right",1.1749,2,0.2323,"",NA,"stimuli/objects/bastingbrush.jpg","right","new"
22,"right",1.0924,3,0.2932,"",NA,"stimuli/objects/studiolight.jpg","right","new"
22,"right",0.9031,3,0.4942,"",NA,"stimuli/objects/metalscissors.jpg","right","new"
22,"right",0.7679,3,0.2655,"",NA,"stimuli/objects/sippycup.jpg","right","new"
22,"right",1.2281,4,0.5668,"",NA,"stimuli/objects/tableknife02.jpg","right","new"
22,"right",1.117,4,0.2399,"",NA,"stimuli/objects/laptop01a.jpg","right","new"
22,"right",0.9288,3,1.3415,"",NA,"stimuli/objects/videotape01b.jpg","right","new"
22,"left",1.0417,4,0.2983,"right",0.7543,"","",""
22,"",NA,NA,NA,"",NA,"stimuli/objects/dvdcase01.jpg","left","old"
22,"left",1.1948,3,0.3502,"left",0.3378,"","",""
22,"",NA,NA,NA,"",NA,"stimuli/objects/lamp04a.jpg","left","old"
22,"left",1.1742,3,0.5859,"left",0.2807,"","",""
22,"",NA,NA,NA,"",NA,"stimuli/objects/catchermask.jpg","left","old"
22,"right",2.3379,2,1.424,"",NA,"stimuli/objects/handmixer01d.jpg","left","old"
22,"right",0.8069,4,0.2019,"",NA,"stimuli/objects/webcam.jpg","right","new"
22,"right",1.104,3,0.2275,"",NA,"stimuli/objects/carjack.jpg","right","new"
22,"right",1.156,2,2.8989,"",NA,"stimuli/objects/bowlingball.jpg","right","new"
22,"right",0.8896,3,0.2656,"",NA,"stimuli/objects/faxmachine.jpg","right","new"
22,"right",1.0424,3,0.2558,"",NA,"stimuli/objects/chisel02b.jpg","right","new"
22,"left",0.8106,4,0.2754,"left",0.3203,"","",""
22,"",NA,NA,NA,"",NA,"stimuli/objects/treadmill.jpg","left","old"
22,"left",0.9609,4,0.1968,"right",0.2356,"","",""
22,"",NA,NA,NA,"",NA,"stimuli/objects/cooler01.jpg","left","old"
22,"left",0.8974,4,0.3843,"left",0.5707,"","",""
22,"",NA,NA,NA,"",NA,"stimuli/objects/cellphone.jpg","left","old"
22,"right",0.7713,3,0.241,"",NA,"stimuli/objects/garlicpress02a.jpg","right","new"
22,"left",1.6504,4,0.4715,"left",0.219,"","",""
22,"",NA,NA,NA,"",NA,"stimuli/objects/football.jpg","right","new"
22,"left",0.9786,4,0.1839,"left",1.5859,"","",""
22,"",NA,NA,NA,"",NA,"stimuli/objects/espressomachine.jpg","left","old"
22,"right",0.8914,3,0.2016,"",NA,"stimuli/objects/dvdplayer.jpg","left","old"
22,"right",2.7031,3,0.1344,"",NA,"stimuli/objects/printer02.jpg","right","new"
22,"left",0.7554,4,0.1915,"left",0.1911,"","",""
22,"",NA,NA,NA,"",NA,"stimuli/objects/funnel.jpg","left","old"
22,"right",0.9288,4,0.1796,"",NA,"stimuli/objects/umbrella04.jpg","right","new"
22,"right",1.4076,3,0.1699,"",NA,"stimuli/objects/microwave.jpg","right","new"
22,"left",0.8988,3,0.2032,"left",1.1326,"","",""
22,"",NA,NA,NA,"",NA,"stimuli/objects/rope03.jpg","left","old"
22,"left",1.6284,4,0.1554,"right",0.2062,"","",""
22,"",NA,NA,NA,"",NA,"stimuli/objects/anchor.jpg","left","old"
22,"right",1.1886,3,0.3148,"",NA,"stimuli/objects/snowblower.jpg","left","old"
22,"right",0.8907,4,0.1982,"",NA,"stimuli/objects/radio01.jpg","right","new"
22,"left",0.9408,4,0.1646,"left",0.1941,"","",""
22,"",NA,NA,NA,"",NA,"stimuli/objects/martiniglass01b.jpg","left","old"
22,"right",1.4705,3,0.1663,"",NA,"stimuli/objects/icebucket.jpg","right","new"
22,"right",1.0496,2,0.6838,"",NA,"stimuli/objects/megaphone.jpg","right","new"
22,"right",0.7082,3,0.3514,"",NA,"stimuli/objects/carlighter02.jpg","right","new"
22,"right",0.9048,3,0.1625,"",NA,"stimuli/objects/nailgun.jpg","right","new"
22,"right",0.8784,2,1.3415,"",NA,"stimuli/objects/boogieboard.jpg","right","new"
22,"left",1.2175,4,0.649,"left",0.2162,"","",""
22,"",NA,NA,NA,"",NA,"stimuli/objects/downhillski.jpg","left","old"
22,"left",0.9903,4,0.3078,"right",0.3488,"","",""
22,"",NA,NA,NA,"",NA,"stimuli/objects/boltcutter.jpg","left","old"
22,"left",0.9163,4,0.208,"right",0.189,"","",""
22,"",NA,NA,NA,"",NA,"stimuli/objects/setsquare.jpg","left","old"
22,"left",0.992,4,0.2354,"right",0.3963,"","",""
22,"",NA,NA,NA,"",NA,"stimuli/objects/lectern01.jpg","left","old"
22,"right",1.4337,3,0.2986,"",NA,"stimuli/objects/toyhardhat.jpg","left","old"
22,"right",1.1506,3,0.1591,"",NA,"stimuli/objects/stepladder.jpg","right","new"
22,"right",1.0625,3,0.1484,"",NA,"stimuli/objects/audiocablesplitter.jpg","right","new"
22,"right",0.6981,3,0.2203,"",NA,"stimuli/objects/screwdriver04b.jpg","right","new"
22,"right",0.7836,3,0.4413,"",NA,"stimuli/objects/tripod01.jpg","right","new"
22,"right",1.1246,3,0.2222,"",NA,"stimuli/objects/photocopier.jpg","left","old"
22,"left",0.8687,4,0.2047,"left",0.2231,"","",""
22,"",NA,NA,NA,"",NA,"stimuli/objects/canoepaddle02.jpg","left","old"
22,"left",1.9257,3,3.4071,"left",0.3253,"","",""
22,"",NA,NA,NA,"",NA,"stimuli/objects/golfbag.jpg","right","new"
22,"right",0.7223,4,0.1365,"",NA,"stimuli/objects/exercisebench.jpg","right","new"
22,"right",1.3915,3,0.3142,"",NA,"stimuli/objects/saladspinner.jpg","left","old"
22,"right",1.1765,4,0.1354,"",NA,"stimuli/objects/woodenspoon.jpg","left","old"
22,"left",0.857,3,0.1659,"left",2.175,"","",""
22,"",NA,NA,NA,"",NA,"stimuli/objects/cookingpot.jpg","left","old"
22,"right",0.7578,4,0.1692,"",NA,"stimuli/objects/generator.jpg","right","new"
22,"right",0.8742,3,0.2232,"",NA,"stimuli/objects/toolbox02.jpg","right","new"
22,"right",1.1252,4,0.2162,"",NA,"stimuli/objects/peppermill02b.jpg","right","new"
22,"left",2.8231,2,0.1645,"right",1.6657,"","",""
22,"",NA,NA,NA,"",NA,"stimuli/objects/fanblades.jpg","left","old"
22,"right",1.4242,4,0.8326,"",NA,"stimuli/objects/soundmixer.jpg","right","new"
22,"left",0.8279,4,0.163,"right",0.999,"","",""
22,"",NA,NA,NA,"",NA,"stimuli/objects/pipewrench.jpg","left","old"
22,"right",1.6002,4,0.249,"",NA,"stimuli/objects/mitresaw.jpg","right","new"
22,"left",1.1266,3,0.1343,"left",1.3098,"","",""
22,"",NA,NA,NA,"",NA,"stimuli/objects/paintbrush01.jpg","right","new"
22,"",NA,NA,NA,"",NA,"","",""
22,"left",2.3516,4,0.2673,"right",0.6185,"","",""
22,"",NA,NA,NA,"",NA,"stimuli/objects/wateringcan.jpg","left","old"
22,"right",0.932,3,1.2715,"",NA,"stimuli/objects/flashlight02b.jpg","right","new"
22,"right",0.8544,3,0.1937,"",NA,"stimuli/objects/computermouse06.jpg","right","new"
22,"right",0.5528,4,0.2574,"",NA,"stimuli/objects/slidetray.jpg","left","old"
22,"right",0.6642,3,0.1944,"",NA,"stimuli/objects/travelmug.jpg","left","old"
22,"left",0.7589,3,0.1373,"right",0.2074,"","",""
22,"",NA,NA,NA,"",NA,"stimuli/objects/shotglass.jpg","left","old"
22,"left",0.9558,4,0.2269,"left",0.3152,"","",""
22,"",NA,NA,NA,"",NA,"stimuli/objects/mug01.jpg","right","new"
22,"left",1.6087,4,0.1631,"left",1.5342,"","",""
22,"",NA,NA,NA,"",NA,"stimuli/objects/spoon01.jpg","left","old"
22,"left",1.3787,2,0.1914,"right",0.576,"","",""
22,"",NA,NA,NA,"",NA,"stimuli/objects/bucket02.jpg","left","old"
22,"left",1.3001,4,0.4149,"left",0.0974,"","",""
22,"",NA,NA,NA,"",NA,"stimuli/objects/shovel01.jpg","right","new"
22,"left",0.9943,4,0.1662,"right",0.2374,"","",""
22,"",NA,NA,NA,"",NA,"stimuli/objects/handgripper.jpg","left","old"
22,"right",0.7346,4,0.1201,"",NA,"stimuli/objects/lifejacket.jpg","right","new"
22,"right",1.1534,3,0.208,"",NA,"stimuli/objects/tennisball01b.jpg","right","new"
22,"right",0.7072,4,0.1613,"",NA,"stimuli/objects/beachumbrella01.jpg","right","new"
22,"left",1.1723,3,0.2366,"left",0.7885,"","",""
22,"",NA,NA,NA,"",NA,"stimuli/objects/boatmotor.jpg","left","old"
22,"right",1.7942,4,0.52,"",NA,"stimuli/objects/handblender.jpg","right","new"
22,"right",1.3056,4,0.272,"",NA,"stimuli/objects/jumpercables.jpg","left","old"
22,"right",0.7794,3,0.1522,"",NA,"stimuli/objects/tablesaw.jpg","right","new"
22,"right",0.7722,2,1.2529,"",NA,"stimuli/objects/fluorescentlightbulb.jpg","left","old"
22,"left",0.8239,4,0.3711,"left",0.238,"","",""
22,"",NA,NA,NA,"",NA,"stimuli/objects/hockeygoaliemask.jpg","left","old"
22,"left",1.1277,4,0.7372,"left",0.5147,"","",""
22,"",NA,NA,NA,"",NA,"stimuli/objects/hockeystick.jpg","right","new"
22,"left",1.4352,3,0.1685,"right",0.3351,"","",""
22,"",NA,NA,NA,"",NA,"stimuli/objects/cassettetape01a.jpg","right","new"
22,"right",0.8773,3,0.2382,"",NA,"stimuli/objects/pitcher02b.jpg","left","old"
22,"right",0.9655,3,0.1547,"",NA,"stimuli/objects/cheeseknife01.jpg","right","new"
22,"left",0.8711,3,0.2556,"right",0.6684,"","",""
22,"",NA,NA,NA,"",NA,"stimuli/objects/drill01b.jpg","left","old"
22,"right",1.0462,2,0.2246,"",NA,"stimuli/objects/cakeplatter.jpg","right","new"
22,"left",0.8244,4,0.1493,"left",0.2161,"","",""
22,"",NA,NA,NA,"",NA,"stimuli/objects/skiboot01a.jpg","left","old"
22,"right",0.771,3,0.1914,"",NA,"stimuli/objects/eggslicer.jpg","right","new"
22,"left",0.8449,4,0.1931,"left",0.2144,"","",""
22,"",NA,NA,NA,"",NA,"stimuli/objects/toothpick02.jpg","left","old"
22,"right",0.6767,3,0.1482,"",NA,"stimuli/objects/grill.jpg","right","new"
22,"right",2.018,3,0.6893,"",NA,"stimuli/objects/nutcracker01.jpg","right","new"
22,"left",0.7225,4,0.133,"right",0.3668,"","",""
22,"",NA,NA,NA,"",NA,"stimuli/objects/corkscrew03a.jpg","left","old"
22,"right",1.174,4,0.0894,"",NA,"stimuli/objects/straw.jpg","right","new"
22,"left",2.268,2,0.0703,"left",0.7817,"","",""
22,"",NA,NA,NA,"",NA,"stimuli/objects/breadknife.jpg","left","old"
22,"right",0.6799,4,0.3477,"",NA,"stimuli/objects/fuse.jpg","left","old"
22,"left",0.7879,4,0.1302,"left",0.2416,"","",""
22,"",NA,NA,NA,"",NA,"stimuli/objects/rollingpin01a.jpg","left","old"
22,"right",0.5873,2,0.5238,"",NA,"stimuli/objects/thermos.jpg","left","old"
22,"right",0.9701,3,0.1319,"",NA,"stimuli/objects/beermug01a.jpg","right","new"
22,"right",0.778,4,0.0452,"",NA,"stimuli/objects/kite.jpg","right","new"
22,"left",0.8388,4,1.4824,"left",0.8861,"","",""
22,"",NA,NA,NA,"",NA,"stimuli/objects/chandelier.jpg","left","old"
22,"right",0.7599,4,0.3148,"",NA,"stimuli/objects/heatpump.jpg","right","new"
22,"left",0.9105,4,1.152,"left",0.2511,"","",""
22,"",NA,NA,NA,"",NA,"stimuli/objects/tupperware03a.jpg","left","old"
22,"right",0.8319,4,0.1589,"",NA,"stimuli/objects/icecubetray01a.jpg","right","new"
22,"right",0.8734,4,0.2354,"",NA,"stimuli/objects/smokedetector02.jpg","right","new"
22,"left",0.9103,4,0.4791,"left",0.2659,"","",""
22,"",NA,NA,NA,"",NA,"stimuli/objects/hoe.jpg","left","old"
22,"left",2.4826,3,0.8893,"left",0.0481,"","",""
22,"",NA,NA,NA,"",NA,"stimuli/objects/soccerball.jpg","left","old"
22,"right",0.8049,4,0.5649,"",NA,"stimuli/objects/toyhockeystick01.jpg","left","old"
22,"right",0.8934,4,0.3832,"",NA,"stimuli/objects/wetfloorsign.jpg","right","new"
22,"right",0.7677,2,0.3773,"",NA,"stimuli/objects/hedgeshears.jpg","left","old"
22,"left",1.5686,4,0.3533,"left",0.1416,"","",""
22,"",NA,NA,NA,"",NA,"stimuli/objects/volleyball.jpg","left","old"
22,"right",0.9003,2,0.2159,"",NA,"stimuli/objects/computerkeyboard02.jpg","left","old"
22,"right",0.8289,3,0.1385,"",NA,"stimuli/objects/stroller.jpg","right","new"
22,"right",0.5908,4,0.2064,"",NA,"stimuli/objects/telephone01b.jpg","left","old"
22,"right",0.8466,3,0.2652,"",NA,"stimuli/objects/basketball01.jpg","right","new"
22,"right",1.0457,4,0.251,"",NA,"stimuli/objects/speedball.jpg","right","new"
22,"right",0.8152,2,1.4233,"",NA,"stimuli/objects/tennisracket.jpg","right","new"
22,"right",0.7634,3,0.1521,"",NA,"stimuli/objects/lightswitch01.jpg","right","new"
22,"left",1.0102,4,0.1698,"right",1.0322,"","",""
22,"",NA,NA,NA,"",NA,"stimuli/objects/wheel01.jpg","left","old"
22,"right",0.6939,4,0.1383,"",NA,"stimuli/objects/halogenlightbulb.jpg","right","new"
22,"left",1.9096,2,0.1335,"right",1.5639,"","",""
22,"",NA,NA,NA,"",NA,"stimuli/objects/pliers02b.jpg","left","old"
22,"right",0.9119,2,1.7645,"",NA,"stimuli/objects/alarmclock01.jpg","left","old"
22,"left",1.2914,3,0.156,"right",0.5864,"","",""
22,"",NA,NA,NA,"",NA,"stimuli/objects/paintroller01.jpg","left","old"
22,"right",1.5579,3,0.2827,"",NA,"stimuli/objects/extensioncord.jpg","left","old"
22,"left",1.4759,2,0.0967,"left",0.1865,"","",""
22,"",NA,NA,NA,"",NA,"stimuli/objects/fishingrod.jpg","left","old"
22,"right",1.0578,3,0.1669,"",NA,"stimuli/objects/plate01b.jpg","right","new"
22,"left",0.9143,3,0.1742,"left",0.2898,"","",""
22,"",NA,NA,NA,"",NA,"stimuli/objects/charcoalbarbecue.jpg","left","old"
22,"right",1.2739,2,0.152,"",NA,"stimuli/objects/boxingglove01.jpg","right","new"
22,"left",1.3767,2,0.1723,"left",0.39,"","",""
22,"",NA,NA,NA,"",NA,"stimuli/objects/crocodileclips.jpg","left","old"
22,"right",0.9804,3,0.2316,"",NA,"stimuli/objects/backpack01a.jpg","left","old"
22,"right",0.6943,3,0.1508,"",NA,"stimuli/objects/fanheater.jpg","right","new"
22,"right",0.7317,3,0.071,"",NA,"stimuli/objects/toaster01.jpg","right","new"
22,"left",0.9779,3,0.0841,"right",0.9265,"","",""
22,"",NA,NA,NA,"",NA,"stimuli/objects/vhstape.jpg","left","old"
22,"right",1.6172,4,0.1822,"",NA,"stimuli/objects/flask.jpg","right","new"
22,"right",1.1544,3,0.2325,"",NA,"stimuli/objects/jackhammer.jpg","right","new"
22,"left",1.4437,2,0.1852,"right",1.9936,"","",""
22,"",NA,NA,NA,"",NA,"stimuli/objects/needlenosepliers01.jpg","right","new"
22,"right",2.9424,2,0.4515,"",NA,"stimuli/objects/snowboard.jpg","left","old"
22,"right",0.6742,4,0.1867,"",NA,"stimuli/objects/ladle02a.jpg","right","new"
22,"right",0.6717,4,0.1431,"",NA,"stimuli/objects/reflector.jpg","left","old"
22,"left",1.3163,3,0.46,"left",0.4405,"","",""
22,"",NA,NA,NA,"",NA,"stimuli/objects/hockeypuck.jpg","left","old"
22,"left",2.1121,4,0.3007,"left",0.1172,"","",""
22,"",NA,NA,NA,"",NA,"stimuli/objects/chainsaw.jpg","left","old"
22,"right",0.7177,2,0.6814,"",NA,"stimuli/objects/bungeecord02.jpg","left","old"
22,"left",0.9738,4,0.1866,"left",0.393,"","",""
22,"",NA,NA,NA,"",NA,"stimuli/objects/sewingmachine01a.jpg","left","old"
22,"right",0.7078,4,0.6308,"",NA,"stimuli/objects/shopvac.jpg","right","new"
22,"right",0.8826,4,0.259,"",NA,"stimuli/objects/tray.jpg","left","old"
22,"right",0.5952,3,0.3017,"",NA,"stimuli/objects/patioumbrella.jpg","left","old"
22,"left",1.3814,3,0.165,"left",0.2583,"","",""
22,"",NA,NA,NA,"",NA,"stimuli/objects/bowrake.jpg","right","new"
22,"right",1.5621,3,0.1562,"",NA,"stimuli/objects/ipod.jpg","left","old"
22,"left",1.2319,4,0.3165,"left",0.2653,"","",""
22,"",NA,NA,NA,"",NA,"stimuli/objects/headphones02b.jpg","left","old"
22,"right",1.5586,3,0.1008,"",NA,"stimuli/objects/caulking.jpg","left","old"
22,"right",1.0619,4,0.1758,"",NA,"stimuli/objects/swissarmyknife01a.jpg","right","new"
22,"left",1.0139,4,0.1669,"left",0.1913,"","",""
22,"",NA,NA,NA,"",NA,"stimuli/objects/skihelmet01.jpg","left","old"
22,"right",1.1913,3,0.119,"",NA,"stimuli/objects/surfboard.jpg","left","old"
22,"right",0.8769,3,0.1881,"",NA,"stimuli/objects/kneepad01c.jpg","right","new"
22,"left",0.8916,4,0.1856,"left",0.2435,"","",""
22,"",NA,NA,NA,"",NA,"stimuli/objects/baseballglove.jpg","left","old"
22,"left",0.9128,4,0.1974,"right",0.2811,"","",""
22,"",NA,NA,NA,"",NA,"stimuli/objects/towel01.jpg","left","old"
22,"right",2.9163,4,0.1038,"",NA,"stimuli/objects/mallet01b.jpg","left","old"
22,"right",0.9268,4,0.062,"",NA,"stimuli/objects/cameracase01a.jpg","right","new"
22,"right",0.7567,4,0.0601,"",NA,"stimuli/objects/monitor.jpg","right","new"
22,"right",0.7194,3,0.1067,"",NA,"stimuli/objects/tent.jpg","right","new"
22,"right",2.007,2,0.109,"",NA,"stimuli/objects/cuttingpliers02.jpg","right","new"
22,"right",1.791,4,0.2099,"",NA,"stimuli/objects/barbecue03.jpg","right","new"
22,"right",0.9574,4,0.3656,"",NA,"stimuli/objects/diaperbag.jpg","right","new"
22,"right",0.6465,4,0.1382,"",NA,"stimuli/objects/skigoggles01.jpg","right","new"
22,"right",0.6333,2,0.9008,"",NA,"stimuli/objects/parachute.jpg","right","new"
22,"right",1.5263,3,0.1146,"",NA,"stimuli/objects/contactlens.jpg","left","old"
22,"left",0.8326,4,0.199,"left",0.218,"","",""
22,"",NA,NA,NA,"",NA,"stimuli/objects/cleaver01.jpg","left","old"
22,"right",1.2523,4,0.0783,"",NA,"stimuli/objects/file.jpg","right","new"
22,"left",1.0434,4,0.198,"left",0.3883,"","",""
22,"",NA,NA,NA,"",NA,"stimuli/objects/carantenna.jpg","left","old"
22,"right",0.7381,3,0.1329,"",NA,"stimuli/objects/fonduefork01.jpg","right","new"
22,"left",0.7116,4,0.1555,"left",0.9344,"","",""
22,"",NA,NA,NA,"",NA,"stimuli/objects/filmnegative.jpg","left","old"
22,"right",0.8277,3,0.148,"",NA,"stimuli/objects/wineglass01.jpg","right","new"
22,"left",0.8109,3,0.2516,"left",0.254,"","",""
22,"",NA,NA,NA,"",NA,"stimuli/objects/saw02b.jpg","left","old"
22,"left",1.2955,4,0.2386,"left",0.2526,"","",""
22,"",NA,NA,NA,"",NA,"stimuli/objects/bikehelmet.jpg","left","old"
22,"right",1.3754,2,0.166,"",NA,"stimuli/objects/wafflemaker.jpg","right","new"
22,"left",0.7469,4,0.1655,"left",0.2661,"","",""
22,"",NA,NA,NA,"",NA,"stimuli/objects/swimgoggles.jpg","left","old"
22,"right",1.1008,2,1.5882,"",NA,"stimuli/objects/magneticcompass.jpg","left","old"
22,"right",0.7677,4,0.258,"",NA,"stimuli/objects/waterbottleholder.jpg","right","new"
22,"right",0.6954,4,0.2304,"",NA,"stimuli/objects/floodlight.jpg","right","new"
22,"left",0.8716,4,0.1999,"left",0.318,"","",""
22,"",NA,NA,NA,"",NA,"stimuli/objects/poolnet.jpg","left","old"
22,"right",0.7175,3,0.419,"",NA,"stimuli/objects/bottleopener01.jpg","right","new"
22,"right",1.0811,4,0.1656,"",NA,"stimuli/objects/wirestripper.jpg","right","new"
22,"left",0.7958,4,0.1513,"left",0.3421,"","",""
22,"",NA,NA,NA,"",NA,"stimuli/objects/securitycamera.jpg","left","old"
22,"right",0.8616,4,0.1325,"",NA,"stimuli/objects/metalbrush.jpg","left","old"
22,"right",0.7578,4,0.1695,"",NA,"stimuli/objects/lockingplier.jpg","right","new"
22,"right",0.5412,2,0.6748,"",NA,"stimuli/objects/dolly01.jpg","right","new"
22,"left",1.5094,2,0.0997,"right",2.0006,"","",""
22,"",NA,NA,NA,"",NA,"stimuli/objects/butterknife.jpg","left","old"
22,"left",1.4243,2,0.0841,"right",0.2138,"","",""
22,"",NA,NA,NA,"",NA,"stimuli/objects/solderingwire.jpg","right","new"
22,"left",1.4944,3,0.1072,"left",0.1702,"","",""
22,"",NA,NA,NA,"",NA,"stimuli/objects/snowshovel.jpg","left","old"
22,"left",0.8819,3,0.2933,"left",0.3417,"","",""
22,"",NA,NA,NA,"",NA,"stimuli/objects/stubbywrench01a.jpg","left","old"
22,"right",0.7448,3,0.1371,"",NA,"stimuli/objects/trampoline.jpg","right","new"
22,"right",0.6808,4,0.0819,"",NA,"stimuli/objects/birdie.jpg","right","new"
22,"right",0.7575,4,0.0833,"",NA,"stimuli/objects/pot01.jpg","left","old"
22,"right",0.642,4,0.148,"",NA,"stimuli/objects/pickaxe02.jpg","right","new"
22,"right",0.6671,4,0.156,"",NA,"stimuli/objects/alarmsystem.jpg","right","new"
22,"right",0.6131,4,0.2004,"",NA,"stimuli/objects/drinkshaker.jpg","right","new"
22,"right",0.883,2,0.3599,"",NA,"stimuli/objects/shinpad.jpg","left","old"
22,"left",0.9418,4,0.1668,"left",0.22,"","",""
22,"",NA,NA,NA,"",NA,"stimuli/objects/fan.jpg","left","old"
22,"right",1.3073,3,0.5466,"",NA,"stimuli/objects/loppingshears.jpg","right","new"
22,"right",2.0336,3,0.2064,"",NA,"stimuli/objects/hammer01.jpg","left","old"
22,"right",0.7411,2,0.2139,"",NA,"stimuli/objects/muffintray01.jpg","left","old"
22,"right",0.5487,4,0.1882,"",NA,"stimuli/objects/canister.jpg","left","old"
22,"right",0.7301,4,0.1853,"",NA,"stimuli/objects/mortarandpestle.jpg","right","new"
22,"right",0.6768,4,0.1337,"",NA,"stimuli/objects/wiicontroller.jpg","right","new"
22,"",NA,NA,NA,"",NA,"","",""
