"participant","recog_resp.keys","recog_resp.rt","conf_resp.keys","conf_resp.rt","resp_assoc.keys","resp_assoc.rt","images","corr_ans","type"
24,"",NA,NA,NA,"",NA,"","",""
24,"",NA,NA,NA,"",NA,"","",""
24,"",NA,NA,NA,"",NA,"","",""
24,"left",3.6064,4,4.9417,"right",4.3013,"","",""
24,"",NA,NA,NA,"",NA,"stimuli/objects/drillbit03a.jpg","left","old"
24,"left",2.7517,4,1.8748,"left",3.4866,"","",""
24,"",NA,NA,NA,"",NA,"stimuli/objects/rope03.jpg","left","old"
24,"left",3.0475,4,1.9722,"left",2.2773,"","",""
24,"",NA,NA,NA,"",NA,"stimuli/objects/phonejack.jpg","left","old"
24,"right",5.0791,2,2.4568,"",NA,"stimuli/objects/megaphone.jpg","right","new"
24,"right",3.895,3,1.4607,"",NA,"stimuli/objects/frisbee.jpg","right","new"
24,"left",1.982,4,1.1109,"left",4.3314,"","",""
24,"",NA,NA,NA,"",NA,"stimuli/objects/muffintray01.jpg","left","old"
24,"left",2.6265,4,1.2378,"right",1.6872,"","",""
24,"",NA,NA,NA,"",NA,"stimuli/objects/crocodileclips.jpg","left","old"
24,"right",3.1633,3,3.5814,"",NA,"stimuli/objects/screwdriver04b.jpg","right","new"
24,"right",3.2412,1,1.2225,"",NA,"stimuli/objects/football.jpg","right","new"
24,"right",2.1046,2,1.435,"",NA,"stimuli/objects/winerack.jpg","right","new"
24,"right",1.9142,2,1.3626,"",NA,"stimuli/objects/ceilingspeaker.jpg","right","new"
24,"left",2.1576,3,1.4818,"right",3.6272,"","",""
24,"",NA,NA,NA,"",NA,"stimuli/objects/cooler01.jpg","left","old"
24,"left",2.8471,4,1.5361,"right",2.6815,"","",""
24,"",NA,NA,NA,"",NA,"stimuli/objects/metalbrush.jpg","left","old"
24,"left",1.6197,4,0.8816,"left",2.3139,"","",""
24,"",NA,NA,NA,"",NA,"stimuli/objects/swimgoggles.jpg","left","old"
24,"left",2.0909,4,1.5023,"right",1.3285,"","",""
24,"",NA,NA,NA,"",NA,"stimuli/objects/tray.jpg","left","old"
24,"right",2.8023,1,1.9234,"",NA,"stimuli/objects/icebucket.jpg","right","new"
24,"left",3.9044,2,3.7856,"right",2.9801,"","",""
24,"",NA,NA,NA,"",NA,"stimuli/objects/mitresaw.jpg","right","new"
24,"left",3.9203,3,1.9016,"left",3.0626,"","",""
24,"",NA,NA,NA,"",NA,"stimuli/objects/corkscrew03a.jpg","left","old"
24,"right",3.1342,2,1.2251,"",NA,"stimuli/objects/peppermill02b.jpg","right","new"
24,"left",2.0134,4,1.6912,"left",2.1158,"","",""
24,"",NA,NA,NA,"",NA,"stimuli/objects/treadmill.jpg","left","old"
24,"left",2.6914,3,1.8216,"right",1.143,"","",""
24,"",NA,NA,NA,"",NA,"stimuli/objects/lightbulb01.jpg","left","old"
24,"left",1.9515,4,1.1934,"right",0.6414,"","",""
24,"",NA,NA,NA,"",NA,"stimuli/objects/telephone01b.jpg","left","old"
24,"left",1.9904,3,1.672,"right",1.0335,"","",""
24,"",NA,NA,NA,"",NA,"stimuli/objects/audiocablesplitter.jpg","right","new"
24,"right",3.3421,2,1.3984,"",NA,"stimuli/objects/powercable.jpg","right","new"
24,"left",2.0282,4,1.8353,"left",1.1018,"","",""
24,"",NA,NA,NA,"",NA,"stimuli/objects/surfboard.jpg","left","old"
24,"right",1.8319,4,2.5228,"",NA,"stimuli/objects/microphone01.jpg","right","new"
24,"right",3.4458,1,0.953,"",NA,"stimuli/objects/avcable.jpg","right","new"
24,"right",1.6963,3,2.0613,"",NA,"stimuli/objects/electricmixer.jpg","right","new"
24,"left",1.732,4,1.5134,"left",1.2318,"","",""
24,"",NA,NA,NA,"",NA,"stimuli/objects/volleyball.jpg","left","old"
24,"right",2.4457,2,1.4937,"",NA,"stimuli/objects/garlicpress02a.jpg","right","new"
24,"right",1.1705,4,1.0959,"",NA,"stimuli/objects/bowlingball.jpg","right","new"
24,"right",1.6344,1,1.181,"",NA,"stimuli/objects/tripod01.jpg","right","new"
24,"right",1.4289,2,1.4223,"",NA,"stimuli/objects/punchingball.jpg","right","new"
24,"left",2.3927,4,1.4996,"left",1.8122,"","",""
24,"",NA,NA,NA,"",NA,"stimuli/objects/wheelbarrow01.jpg","left","old"
24,"right",1.1998,2,1.1778,"",NA,"stimuli/objects/skateboard.jpg","right","new"
24,"right",1.4316,4,1.2676,"",NA,"stimuli/objects/leafblower01.jpg","right","new"
24,"left",2.1844,4,1.3744,"right",0.804,"","",""
24,"",NA,NA,NA,"",NA,"stimuli/objects/staplegun.jpg","left","old"
24,"right",1.6645,2,1.6136,"",NA,"stimuli/objects/snowbrush.jpg","right","new"
24,"left",1.5238,4,2.1418,"right",2.2481,"","",""
24,"",NA,NA,NA,"",NA,"stimuli/objects/waterbottle03.jpg","left","old"
24,"left",1.6086,4,1.0802,"right",0.6888,"","",""
24,"",NA,NA,NA,"",NA,"stimuli/objects/electricoutlet.jpg","left","old"
24,"right",3.6127,1,1.7783,"",NA,"stimuli/objects/binoculars01b.jpg","right","new"
24,"right",1.5153,4,1.4225,"",NA,"stimuli/objects/cashregister01.jpg","right","new"
24,"left",1.74,4,0.3403,"right",0.724,"","",""
24,"",NA,NA,NA,"",NA,"stimuli/objects/djmixer02.jpg","left","old"
24,"left",1.4859,4,0.9151,"right",1.378,"","",""
24,"",NA,NA,NA,"",NA,"stimuli/objects/atm.jpg","left","old"
24,"right",1.9889,2,0.7908,"",NA,"stimuli/objects/carjack.jpg","right","new"
24,"right",1.1623,2,1.1791,"",NA,"stimuli/objects/webcam.jpg","right","new"
24,"left",1.3877,4,0.9432,"right",2.8422,"","",""
24,"",NA,NA,NA,"",NA,"stimuli/objects/sewingmachine01a.jpg","left","old"
24,"left",1.3518,4,1.1089,"right",1.6723,"","",""
24,"",NA,NA,NA,"",NA,"stimuli/objects/cellphone.jpg","left","old"
24,"right",1.5991,4,1.4385,"",NA,"stimuli/objects/boogieboard.jpg","right","new"
24,"right",1.4885,4,1.2707,"",NA,"stimuli/objects/toolbox02.jpg","right","new"
24,"right",3.7166,4,0.4691,"",NA,"stimuli/objects/walkman.jpg","right","new"
24,"left",4.5661,2,1.0167,"left",1.2946,"","",""
24,"",NA,NA,NA,"",NA,"stimuli/objects/paintbrush01.jpg","right","new"
24,"left",1.6136,4,1.0033,"left",2.2612,"","",""
24,"",NA,NA,NA,"",NA,"stimuli/objects/chandelier.jpg","left","old"
24,"right",1.297,4,1.39,"",NA,"stimuli/objects/pylon01.jpg","right","new"
24,"left",2.228,3,1.2725,"left",1.2531,"","",""
24,"",NA,NA,NA,"",NA,"stimuli/objects/bastingbrush.jpg","right","new"
24,"right",5.6126,2,1.4831,"",NA,"stimuli/objects/remotecontrol04.jpg","right","new"
24,"right",1.264,4,1.1747,"",NA,"stimuli/objects/toasteroven.jpg","right","new"
24,"right",1.4479,4,1.0297,"",NA,"stimuli/objects/snowshoe.jpg","right","new"
24,"right",1.9679,1,1.5313,"",NA,"stimuli/objects/studiolight.jpg","right","new"
24,"left",1.6419,4,0.5626,"right",0.7772,"","",""
24,"",NA,NA,NA,"",NA,"stimuli/objects/painttray.jpg","left","old"
24,"left",1.5578,3,1.2487,"right",1.4224,"","",""
24,"",NA,NA,NA,"",NA,"stimuli/objects/headphones02b.jpg","left","old"
24,"left",1.4932,4,1.2119,"left",0.6105,"","",""
24,"",NA,NA,NA,"",NA,"stimuli/objects/bowl02a.jpg","left","old"
24,"left",2.1213,4,0.8279,"right",0.5762,"","",""
24,"",NA,NA,NA,"",NA,"stimuli/objects/pda.jpg","right","new"
24,"left",1.6005,4,0.5277,"left",2.4138,"","",""
24,"",NA,NA,NA,"",NA,"stimuli/objects/towel01.jpg","left","old"
24,"right",1.9581,1,2.6007,"",NA,"stimuli/objects/outletadapter.jpg","left","old"
24,"right",1.8236,3,0.8154,"",NA,"stimuli/objects/soundmixer.jpg","right","new"
24,"left",1.2098,4,1.0505,"right",1.1357,"","",""
24,"",NA,NA,NA,"",NA,"stimuli/objects/ducttape.jpg","right","new"
24,"left",2.4955,4,1.0722,"right",0.9421,"","",""
24,"",NA,NA,NA,"",NA,"stimuli/objects/aircompressor.jpg","left","old"
24,"left",1.4185,4,0.685,"left",1.3733,"","",""
24,"",NA,NA,NA,"",NA,"stimuli/objects/tableknife02.jpg","right","new"
24,"right",1.3601,2,0.6598,"",NA,"stimuli/objects/laptop01a.jpg","right","new"
24,"left",1.9893,2,0.9034,"left",1.263,"","",""
24,"",NA,NA,NA,"",NA,"stimuli/objects/servingspoon01.jpg","left","old"
24,"right",1.438,3,1.8531,"",NA,"stimuli/objects/kitchenscale01a.jpg","right","new"
24,"right",1.1725,3,0.8797,"",NA,"stimuli/objects/measuringtape01.jpg","right","new"
24,"left",1.9766,3,1.1952,"left",1.7833,"","",""
24,"",NA,NA,NA,"",NA,"stimuli/objects/catchermask.jpg","left","old"
24,"right",3.2088,1,0.4758,"",NA,"stimuli/objects/minifridge.jpg","right","new"
24,"left",1.0428,4,0.7833,"left",0.6552,"","",""
24,"",NA,NA,NA,"",NA,"stimuli/objects/gasburner.jpg","left","old"
24,"left",1.077,4,0.5608,"right",1.2886,"","",""
24,"",NA,NA,NA,"",NA,"stimuli/objects/coffeemachine.jpg","left","old"
24,"right",2.1698,2,0.3757,"",NA,"stimuli/objects/metalscissors.jpg","right","new"
24,"left",1.0122,4,0.7894,"right",0.9733,"","",""
24,"",NA,NA,NA,"",NA,"stimuli/objects/snowshovel.jpg","left","old"
24,"right",1.3721,1,0.5809,"",NA,"stimuli/objects/sippycup.jpg","right","new"
24,"right",2.5543,1,0.9056,"",NA,"stimuli/objects/nailgun.jpg","right","new"
24,"left",4.6071,3,1.2542,"right",1.1063,"","",""
24,"",NA,NA,NA,"",NA,"stimuli/objects/taperecorder.jpg","right","new"
24,"left",1.8904,4,1.4862,"right",0.453,"","",""
24,"",NA,NA,NA,"",NA,"stimuli/objects/mallet01b.jpg","left","old"
24,"left",1.086,4,1.1856,"left",0.5922,"","",""
24,"",NA,NA,NA,"",NA,"stimuli/objects/bungeecord02.jpg","left","old"
24,"left",2.128,4,0.6528,"right",0.7498,"","",""
24,"",NA,NA,NA,"",NA,"stimuli/objects/vhstape.jpg","left","old"
24,"left",1.9417,4,0.6629,"left",1.1496,"","",""
24,"",NA,NA,NA,"",NA,"stimuli/objects/spicerack.jpg","left","old"
24,"right",8.1882,2,1.3545,"",NA,"stimuli/objects/securitycamera.jpg","left","old"
24,"right",1.2506,4,1.5416,"",NA,"stimuli/objects/battery02b.jpg","right","new"
24,"right",1.0896,4,0.4667,"",NA,"stimuli/objects/butterdish.jpg","right","new"
24,"left",4.9057,2,1.2629,"left",1.6467,"","",""
24,"",NA,NA,NA,"",NA,"stimuli/objects/basketballhoop01.jpg","right","new"
24,"left",1.3247,4,0.5071,"left",0.9376,"","",""
24,"",NA,NA,NA,"",NA,"stimuli/objects/jar02.jpg","left","old"
24,"right",2.3373,2,1.2229,"",NA,"stimuli/objects/carlighter02.jpg","right","new"
24,"right",2.1148,3,1.1023,"",NA,"stimuli/objects/shoulderpad.jpg","right","new"
24,"right",2.1841,4,0.9245,"",NA,"stimuli/objects/generator.jpg","right","new"
24,"left",1.9908,4,1.2492,"right",1.3287,"","",""
24,"",NA,NA,NA,"",NA,"stimuli/objects/airconditioner.jpg","left","old"
24,"left",1.7393,4,0.518,"left",0.9355,"","",""
24,"",NA,NA,NA,"",NA,"stimuli/objects/bucket02.jpg","left","old"
24,"right",1.9511,4,0.5723,"",NA,"stimuli/objects/snowman.jpg","right","new"
24,"right",1.4992,4,0.5962,"",NA,"stimuli/objects/spotlight.jpg","right","new"
24,"left",1.7901,4,0.2884,"left",0.9509,"","",""
24,"",NA,NA,NA,"",NA,"stimuli/objects/radio01.jpg","right","new"
24,"left",1.1078,4,0.4497,"right",0.6369,"","",""
24,"",NA,NA,NA,"",NA,"stimuli/objects/stepladder.jpg","right","new"
24,"left",1.2165,4,0.5018,"right",0.483,"","",""
24,"",NA,NA,NA,"",NA,"stimuli/objects/hammer01.jpg","left","old"
24,"left",1.6151,2,0.3639,"right",0.9055,"","",""
24,"",NA,NA,NA,"",NA,"stimuli/objects/wire.jpg","left","old"
24,"right",1.2277,3,1.9312,"",NA,"stimuli/objects/golfbag.jpg","right","new"
24,"right",1.2457,4,1.2056,"",NA,"stimuli/objects/gymnasticring.jpg","right","new"
24,"right",1.1208,4,1.1584,"",NA,"stimuli/objects/icepack.jpg","right","new"
24,"left",1.4401,4,0.5962,"left",0.6871,"","",""
24,"",NA,NA,NA,"",NA,"stimuli/objects/backpack01a.jpg","left","old"
24,"left",1.1566,4,0.6558,"left",0.6784,"","",""
24,"",NA,NA,NA,"",NA,"stimuli/objects/badmintonracket.jpg","left","old"
24,"left",1.4185,4,1.2579,"right",0.3856,"","",""
24,"",NA,NA,NA,"",NA,"stimuli/objects/chisel02b.jpg","right","new"
24,"right",1.6745,2,0.7582,"",NA,"stimuli/objects/clock01a.jpg","right","new"
24,"left",1.1028,4,0.5273,"left",1.2303,"","",""
24,"",NA,NA,NA,"",NA,"stimuli/objects/bottlecap.jpg","left","old"
24,"left",2.906,2,0.5842,"right",1.1882,"","",""
24,"",NA,NA,NA,"",NA,"stimuli/objects/cclamp.jpg","right","new"
24,"left",2.192,4,0.5467,"right",1.3907,"","",""
24,"",NA,NA,NA,"",NA,"stimuli/objects/toyhardhat.jpg","left","old"
24,"right",1.545,2,0.5553,"",NA,"stimuli/objects/baseball01a.jpg","left","old"
24,"left",1.021,4,1.0258,"left",0.7578,"","",""
24,"",NA,NA,NA,"",NA,"stimuli/objects/lifesaver.jpg","left","old"
24,"left",3.2322,2,0.3643,"right",1.1224,"","",""
24,"",NA,NA,NA,"",NA,"stimuli/objects/faxmachine.jpg","right","new"
24,"left",1.6283,4,1.4491,"right",0.4363,"","",""
24,"",NA,NA,NA,"",NA,"stimuli/objects/videocamera01a.jpg","left","old"
24,"left",1.187,4,0.7549,"left",0.4745,"","",""
24,"",NA,NA,NA,"",NA,"stimuli/objects/martiniglass01b.jpg","left","old"
24,"left",1.8699,4,0.4416,"right",0.4575,"","",""
24,"",NA,NA,NA,"",NA,"stimuli/objects/fuse.jpg","left","old"
24,"right",1.4497,2,0.3265,"",NA,"stimuli/objects/glass02a.jpg","right","new"
24,"left",4.8012,4,1.1309,"right",0.5418,"","",""
24,"",NA,NA,NA,"",NA,"stimuli/objects/flooringstapler.jpg","left","old"
24,"left",2.4819,2,0.351,"left",1.0445,"","",""
24,"",NA,NA,NA,"",NA,"stimuli/objects/breadknife.jpg","left","old"
24,"right",2.2025,2,0.4827,"",NA,"stimuli/objects/skihelmet01.jpg","left","old"
24,"right",2.1519,2,0.6525,"",NA,"stimuli/objects/hockeypuck.jpg","left","old"
24,"right",1.2627,4,1.1888,"",NA,"stimuli/objects/speaker04.jpg","right","new"
24,"right",1.3083,4,0.6652,"",NA,"stimuli/objects/exercisebench.jpg","right","new"
24,"left",1.2761,4,0.5625,"left",0.4306,"","",""
24,"",NA,NA,NA,"",NA,"stimuli/objects/butterknife.jpg","left","old"
24,"left",1.61,2,0.7339,"left",0.6409,"","",""
24,"",NA,NA,NA,"",NA,"stimuli/objects/pitcher02b.jpg","left","old"
24,"left",3.6332,1,0.4677,"left",1.5023,"","",""
24,"",NA,NA,NA,"",NA,"stimuli/objects/toyhockeystick01.jpg","left","old"
24,"left",2.0183,4,1.3965,"left",0.8368,"","",""
24,"",NA,NA,NA,"",NA,"stimuli/objects/gps.jpg","left","old"
24,"right",9.1709,2,1.3207,"",NA,"stimuli/objects/microwave.jpg","right","new"
24,"right",2.1463,2,0.6632,"",NA,"stimuli/objects/cowbell.jpg","left","old"
24,"left",1.5863,4,1.6938,"right",1.7532,"","",""
24,"",NA,NA,NA,"",NA,"stimuli/objects/tape02a.jpg","left","old"
24,"left",1.3342,4,0.666,"left",0.4253,"","",""
24,"",NA,NA,NA,"",NA,"stimuli/objects/contactlens.jpg","left","old"
24,"right",1.8162,2,0.3178,"",NA,"stimuli/objects/printer02.jpg","right","new"
24,"right",2.1569,4,0.6333,"",NA,"stimuli/objects/ipad02.jpg","left","old"
24,"right",1.2416,2,0.2407,"",NA,"stimuli/objects/golfball.jpg","right","new"
24,"left",1.142,4,0.4819,"left",1.026,"","",""
24,"",NA,NA,NA,"",NA,"stimuli/objects/oven.jpg","left","old"
24,"left",1.742,4,0.5417,"right",0.9574,"","",""
24,"",NA,NA,NA,"",NA,"stimuli/objects/videotape01b.jpg","right","new"
24,"left",1.1363,4,0.6296,"right",0.4322,"","",""
24,"",NA,NA,NA,"",NA,"stimuli/objects/puttyknife.jpg","left","old"
24,"right",1.0482,4,0.5629,"",NA,"stimuli/objects/lock03a.jpg","right","new"
24,"right",0.9116,4,0.4644,"",NA,"stimuli/objects/tongs01b.jpg","right","new"
24,"right",0.7094,4,0.2378,"",NA,"stimuli/objects/umbrella04.jpg","right","new"
24,"left",1.2068,2,2.1135,"right",1.0582,"","",""
24,"",NA,NA,NA,"",NA,"stimuli/objects/podium.jpg","left","old"
24,"",NA,NA,NA,"",NA,"","",""
24,"right",1.8766,4,1.845,"",NA,"stimuli/objects/solderingwire.jpg","right","new"
24,"left",2.4999,4,1.3122,"right",1.2166,"","",""
24,"",NA,NA,NA,"",NA,"stimuli/objects/fishinghook03.jpg","left","old"
24,"right",1.8156,4,0.4361,"",NA,"stimuli/objects/pickaxe02.jpg","right","new"
24,"right",0.9584,4,0.4221,"",NA,"stimuli/objects/handblender.jpg","right","new"
24,"left",1.6999,1,2.5134,"right",0.9749,"","",""
24,"",NA,NA,NA,"",NA,"stimuli/objects/satellitedish01.jpg","left","old"
24,"left",3.3896,3,0.0746,"right",1.1771,"","",""
24,"",NA,NA,NA,"",NA,"stimuli/objects/espressomachine.jpg","left","old"
24,"right",1.6226,3,0.3307,"",NA,"stimuli/objects/plate01b.jpg","right","new"
24,"right",1.02,3,0.4774,"",NA,"stimuli/objects/waterbottleholder.jpg","right","new"
24,"left",1.8172,3,0.4496,"left",0.9264,"","",""
24,"",NA,NA,NA,"",NA,"stimuli/objects/patioumbrella.jpg","left","old"
24,"left",1.9503,3,0.3964,"left",0.9392,"","",""
24,"",NA,NA,NA,"",NA,"stimuli/objects/lawnmower.jpg","left","old"
24,"right",1.3504,4,1.966,"",NA,"stimuli/objects/speedball.jpg","right","new"
24,"left",1.9443,2,0.1935,"left",1.9045,"","",""
24,"",NA,NA,NA,"",NA,"stimuli/objects/shovel01.jpg","right","new"
24,"left",2.362,3,0.387,"left",1.0817,"","",""
24,"",NA,NA,NA,"",NA,"stimuli/objects/drinkshaker.jpg","right","new"
24,"left",1.4821,4,0.0953,"right",0.7084,"","",""
24,"",NA,NA,NA,"",NA,"stimuli/objects/expansioncard.jpg","left","old"
24,"right",1.3227,4,1.5153,"",NA,"stimuli/objects/ipod.jpg","left","old"
24,"left",1.8677,3,1.2867,"right",0.4771,"","",""
24,"",NA,NA,NA,"",NA,"stimuli/objects/usbcable01a.jpg","left","old"
24,"right",1.7455,3,0.9177,"",NA,"stimuli/objects/beachumbrella01.jpg","right","new"
24,"left",1.6611,4,0.6693,"right",1.2133,"","",""
24,"",NA,NA,NA,"",NA,"stimuli/objects/propanetank01.jpg","left","old"
24,"right",1.4043,4,0.2586,"",NA,"stimuli/objects/smokedetector02.jpg","right","new"
24,"right",1.0151,4,0.1353,"",NA,"stimuli/objects/trampoline.jpg","right","new"
24,"right",1.1465,4,5e-04,"",NA,"stimuli/objects/needlenosepliers01.jpg","right","new"
24,"right",0.8866,4,0.6155,"",NA,"stimuli/objects/toaster01.jpg","right","new"
24,"left",2.0009,4,0.1217,"left",1.3655,"","",""
24,"",NA,NA,NA,"",NA,"stimuli/objects/pressurewasher.jpg","left","old"
24,"left",1.7325,4,0.0728,"left",1.2089,"","",""
24,"",NA,NA,NA,"",NA,"stimuli/objects/handmixer01d.jpg","left","old"
24,"right",1.6982,2,1.6607,"",NA,"stimuli/objects/saw02b.jpg","left","old"
24,"left",1.6166,4,0.0773,"left",1.1985,"","",""
24,"",NA,NA,NA,"",NA,"stimuli/objects/saladspinner.jpg","left","old"
24,"left",1.3262,4,1.0548,"left",0.9259,"","",""
24,"",NA,NA,NA,"",NA,"stimuli/objects/measuringcup01.jpg","left","old"
24,"right",1.3108,2,1.0454,"",NA,"stimuli/objects/boxingglove01.jpg","right","new"
24,"right",2.331,3,0.6494,"",NA,"stimuli/objects/mug01.jpg","right","new"
24,"right",1.6114,4,0.5605,"",NA,"stimuli/objects/bottleopener01.jpg","right","new"
24,"left",2.78,1,0.1243,"right",0.9706,"","",""
24,"",NA,NA,NA,"",NA,"stimuli/objects/fanheater.jpg","right","new"
24,"left",2.037,4,1.3263,"right",1.0009,"","",""
24,"",NA,NA,NA,"",NA,"stimuli/objects/fan.jpg","left","old"
24,"right",1.3121,4,0.7962,"",NA,"stimuli/objects/cameracase01a.jpg","right","new"
24,"left",2.0425,4,0.7903,"left",0.8311,"","",""
24,"",NA,NA,NA,"",NA,"stimuli/objects/anchor.jpg","left","old"
24,"left",1.8408,4,0.9923,"right",0.8936,"","",""
24,"",NA,NA,NA,"",NA,"stimuli/objects/papershredder.jpg","left","old"
24,"left",1.2656,4,0.0646,"left",0.5442,"","",""
24,"",NA,NA,NA,"",NA,"stimuli/objects/sportbag.jpg","left","old"
24,"right",0.9734,4,0.8591,"",NA,"stimuli/objects/computermouse06.jpg","right","new"
24,"left",2.2626,1,0.1122,"left",1.0063,"","",""
24,"",NA,NA,NA,"",NA,"stimuli/objects/cork02.jpg","left","old"
24,"left",1.7567,4,0.5736,"right",0.3677,"","",""
24,"",NA,NA,NA,"",NA,"stimuli/objects/dvdplayer.jpg","left","old"
24,"left",1.1321,4,0.892,"left",0.3164,"","",""
24,"",NA,NA,NA,"",NA,"stimuli/objects/snowboard.jpg","left","old"
24,"right",1.182,4,0.8793,"",NA,"stimuli/objects/wafflemaker.jpg","right","new"
24,"right",2.1422,1,0.4309,"",NA,"stimuli/objects/basketball01.jpg","right","new"
24,"right",1.3144,1,0.7022,"",NA,"stimuli/objects/lockingplier.jpg","right","new"
24,"right",0.8689,4,0.5188,"",NA,"stimuli/objects/birdie.jpg","right","new"
24,"right",0.9011,4,0.6757,"",NA,"stimuli/objects/swissarmyknife01a.jpg","right","new"
24,"right",1.1298,4,0.028,"",NA,"stimuli/objects/canoepaddle02.jpg","left","old"
24,"right",0.9751,4,0.1276,"",NA,"stimuli/objects/straw.jpg","right","new"
24,"right",1.4306,4,0.1032,"",NA,"stimuli/objects/eggslicer.jpg","right","new"
24,"left",2.6154,1,0.2317,"left",1.1988,"","",""
24,"",NA,NA,NA,"",NA,"stimuli/objects/grill.jpg","right","new"
24,"left",2.0301,2,1.6268,"right",0.8644,"","",""
24,"",NA,NA,NA,"",NA,"stimuli/objects/nintendods.jpg","left","old"
24,"left",2.463,3,0.5552,"right",1.247,"","",""
24,"",NA,NA,NA,"",NA,"stimuli/objects/kneepad01c.jpg","right","new"
24,"left",1.3231,4,0.1309,"right",0.37,"","",""
24,"",NA,NA,NA,"",NA,"stimuli/objects/lectern01.jpg","left","old"
24,"left",1.0529,4,0.7098,"right",0.4503,"","",""
24,"",NA,NA,NA,"",NA,"stimuli/objects/antenna.jpg","left","old"
24,"right",2.2093,4,0.3446,"",NA,"stimuli/objects/mortarandpestle.jpg","right","new"
24,"right",1.7257,2,0.4328,"",NA,"stimuli/objects/jigsaw.jpg","left","old"
24,"left",1.435,4,0.3658,"left",1.2947,"","",""
24,"",NA,NA,NA,"",NA,"stimuli/objects/leafrake.jpg","left","old"
24,"right",1.1688,2,0.4831,"",NA,"stimuli/objects/cuttingpliers02.jpg","right","new"
24,"right",1.5033,4,0.2421,"",NA,"stimuli/objects/tablesaw.jpg","right","new"
24,"left",1.9495,3,0.062,"right",0.4511,"","",""
24,"",NA,NA,NA,"",NA,"stimuli/objects/knifesharpener.jpg","left","old"
24,"right",1.1605,4,0.3267,"",NA,"stimuli/objects/parachute.jpg","right","new"
24,"right",0.8678,4,0.1108,"",NA,"stimuli/objects/beermug01a.jpg","right","new"
24,"left",1.7241,3,0.1519,"right",1.1769,"","",""
24,"",NA,NA,NA,"",NA,"stimuli/objects/scanner.jpg","left","old"
24,"right",1.9945,3,0.8151,"",NA,"stimuli/objects/flashlight02b.jpg","right","new"
24,"left",1.473,4,0.1589,"left",1.1577,"","",""
24,"",NA,NA,NA,"",NA,"stimuli/objects/iceskate.jpg","left","old"
24,"left",1.8087,4,0.3454,"left",0.8424,"","",""
24,"",NA,NA,NA,"",NA,"stimuli/objects/watercooler.jpg","left","old"
24,"left",1.8314,3,0.4284,"right",0.4404,"","",""
24,"",NA,NA,NA,"",NA,"stimuli/objects/sledgehammer.jpg","left","old"
24,"left",1.1864,4,0.5511,"left",0.8587,"","",""
24,"",NA,NA,NA,"",NA,"stimuli/objects/downhillski.jpg","left","old"
24,"right",1.193,4,0.2424,"",NA,"stimuli/objects/monitor.jpg","right","new"
24,"left",1.3602,4,6e-04,"right",0.4433,"","",""
24,"",NA,NA,NA,"",NA,"stimuli/objects/setsquare.jpg","left","old"
24,"right",1.2953,4,0.1909,"",NA,"stimuli/objects/potatomasher03b.jpg","left","old"
24,"left",1.5969,4,1.8855,"right",0.8496,"","",""
24,"",NA,NA,NA,"",NA,"stimuli/objects/hoe.jpg","left","old"
24,"left",1.8566,2,0.1126,"left",1.7777,"","",""
24,"",NA,NA,NA,"",NA,"stimuli/objects/pastaspoon.jpg","left","old"
24,"left",2.8103,1,0.3399,"left",0.929,"","",""
24,"",NA,NA,NA,"",NA,"stimuli/objects/baseballglove.jpg","left","old"
24,"left",1.658,1,0.6576,"right",0.3526,"","",""
24,"",NA,NA,NA,"",NA,"stimuli/objects/loppingshears.jpg","right","new"
24,"left",1.5428,4,0.2916,"right",5.5915,"","",""
24,"",NA,NA,NA,"",NA,"stimuli/objects/wateringcan.jpg","left","old"
24,"right",1.2576,4,1.6895,"",NA,"stimuli/objects/heatpump.jpg","right","new"
24,"right",2.6495,1,0.1128,"",NA,"stimuli/objects/fishingrod.jpg","left","old"
24,"right",3.0671,2,0.3805,"",NA,"stimuli/objects/thermos.jpg","left","old"
24,"right",1.2879,4,0.4122,"",NA,"stimuli/objects/wiicontroller.jpg","right","new"
24,"left",2.1733,1,1.7301,"right",1.1513,"","",""
24,"",NA,NA,NA,"",NA,"stimuli/objects/slidetray.jpg","left","old"
24,"left",3.6263,1,1.1957,"left",1.2872,"","",""
24,"",NA,NA,NA,"",NA,"stimuli/objects/shinpad.jpg","left","old"
24,"right",2.5881,1,0.8157,"",NA,"stimuli/objects/peeler01.jpg","left","old"
24,"left",1.4146,4,1.4889,"left",0.6435,"","",""
24,"",NA,NA,NA,"",NA,"stimuli/objects/barbecue03.jpg","right","new"
24,"left",1.471,2,1.252,"left",0.8304,"","",""
24,"",NA,NA,NA,"",NA,"stimuli/objects/rollingpin01a.jpg","left","old"
24,"right",1.0012,4,0.455,"",NA,"stimuli/objects/kite.jpg","right","new"
24,"right",1.1159,4,0.2473,"",NA,"stimuli/objects/bowrake.jpg","right","new"
24,"left",2.162,4,0.0835,"right",0.4748,"","",""
24,"",NA,NA,NA,"",NA,"stimuli/objects/pipewrench.jpg","left","old"
24,"right",1.6477,2,0.9503,"",NA,"stimuli/objects/cheeseknife01.jpg","right","new"
24,"left",1.5111,3,0.6567,"right",0.4623,"","",""
24,"",NA,NA,NA,"",NA,"stimuli/objects/ethernetcable02.jpg","left","old"
24,"right",1.1306,4,0.1682,"",NA,"stimuli/objects/lifejacket.jpg","right","new"
24,"left",1.7809,4,0.9706,"left",1.0089,"","",""
24,"",NA,NA,NA,"",NA,"stimuli/objects/bikelock.jpg","left","old"
24,"right",1.1959,4,0.3302,"",NA,"stimuli/objects/flask.jpg","right","new"
24,"left",1.2903,4,0.0285,"right",0.4187,"","",""
24,"",NA,NA,NA,"",NA,"stimuli/objects/ladder.jpg","left","old"
24,"right",2.0256,4,0.035,"",NA,"stimuli/objects/skigoggles01.jpg","right","new"
24,"right",1.65,4,0.287,"",NA,"stimuli/objects/alarmsystem.jpg","right","new"
24,"left",1.8336,4,0.1307,"left",0.8716,"","",""
24,"",NA,NA,NA,"",NA,"stimuli/objects/magneticcompass.jpg","left","old"
24,"left",1.8711,1,0.8451,"right",0.5501,"","",""
24,"",NA,NA,NA,"",NA,"stimuli/objects/boltcutter.jpg","left","old"
24,"right",1.4275,4,0.0474,"",NA,"stimuli/objects/tennisball01b.jpg","right","new"
24,"right",1.1314,4,0.0725,"",NA,"stimuli/objects/nutcracker01.jpg","right","new"
24,"right",1.0701,4,1.6748,"",NA,"stimuli/objects/stroller.jpg","right","new"
24,"left",1.2607,4,0.1462,"right",0.6118,"","",""
24,"",NA,NA,NA,"",NA,"stimuli/objects/cassettetape01a.jpg","right","new"
24,"left",2.2444,4,1.6977,"right",0.7225,"","",""
24,"",NA,NA,NA,"",NA,"stimuli/objects/filmroll.jpg","left","old"
24,"right",1.0574,4,1.0453,"",NA,"stimuli/objects/bikewheel.jpg","left","old"
24,"right",0.7899,4,0.0399,"",NA,"stimuli/objects/diaperbag.jpg","right","new"
24,"left",1.4406,4,1.104,"right",0.8887,"","",""
24,"",NA,NA,NA,"",NA,"stimuli/objects/filmnegative.jpg","left","old"
24,"left",1.3296,4,0.0326,"left",0.8327,"","",""
24,"",NA,NA,NA,"",NA,"stimuli/objects/coffeepot03a.jpg","left","old"
24,"right",1.068,4,0.4703,"",NA,"stimuli/objects/dolly01.jpg","right","new"
24,"right",1.3399,2,0.328,"",NA,"stimuli/objects/cakeplatter.jpg","right","new"
24,"left",1.2185,4,0.045,"right",1.1828,"","",""
24,"",NA,NA,NA,"",NA,"stimuli/objects/outdoorheater.jpg","left","old"
24,"right",1.6124,1,0.092,"",NA,"stimuli/objects/hockeystick.jpg","right","new"
24,"right",0.9967,2,0.4926,"",NA,"stimuli/objects/icecubetray01a.jpg","right","new"
24,"left",1.2847,4,7e-04,"left",0.4321,"","",""
24,"",NA,NA,NA,"",NA,"stimuli/objects/shotglass.jpg","left","old"
24,"right",1.2682,2,0.3535,"",NA,"stimuli/objects/fonduefork01.jpg","right","new"
24,"left",1.3431,4,0.0622,"left",1.7431,"","",""
24,"",NA,NA,NA,"",NA,"stimuli/objects/chainsaw.jpg","left","old"
24,"left",1.6555,4,6e-04,"left",0.6471,"","",""
24,"",NA,NA,NA,"",NA,"stimuli/objects/tennisracket.jpg","right","new"
24,"right",1.8077,1,0.4693,"",NA,"stimuli/objects/halogenlightbulb.jpg","right","new"
24,"left",1.5363,4,1.8144,"left",0.8968,"","",""
24,"",NA,NA,NA,"",NA,"stimuli/objects/poolnet.jpg","left","old"
24,"right",1.2632,4,0.5222,"",NA,"stimuli/objects/file.jpg","right","new"
24,"left",1.0584,4,0.247,"left",0.3267,"","",""
24,"",NA,NA,NA,"",NA,"stimuli/objects/ellipticalmachine.jpg","left","old"
24,"left",3.1126,4,1.8766,"left",0.4296,"","",""
24,"",NA,NA,NA,"",NA,"stimuli/objects/spoon01.jpg","left","old"
24,"right",1.1661,4,0.0754,"",NA,"stimuli/objects/lightswitch01.jpg","right","new"
24,"right",1.6181,1,0.4534,"",NA,"stimuli/objects/axe01.jpg","left","old"
24,"right",1.2963,2,0.2762,"",NA,"stimuli/objects/wirestripper.jpg","right","new"
24,"left",0.891,4,0.001,"left",0.3707,"","",""
24,"",NA,NA,NA,"",NA,"stimuli/objects/exercisebike.jpg","left","old"
24,"left",1.3014,4,0.683,"right",0.3337,"","",""
24,"",NA,NA,NA,"",NA,"stimuli/objects/wheel01.jpg","left","old"
24,"right",1.0299,4,0.001,"",NA,"stimuli/objects/wetfloorsign.jpg","right","new"
24,"right",0.9173,4,0.621,"",NA,"stimuli/objects/tent.jpg","right","new"
24,"left",1.0987,4,0.9418,"left",0.3168,"","",""
24,"",NA,NA,NA,"",NA,"stimuli/objects/gluetube.jpg","left","old"
24,"right",1.045,2,0.1314,"",NA,"stimuli/objects/soccerball.jpg","left","old"
24,"left",0.927,4,0.3478,"right",0.293,"","",""
24,"",NA,NA,NA,"",NA,"stimuli/objects/stubbywrench01a.jpg","left","old"
24,"left",1.0997,4,0.5965,"left",0.3287,"","",""
24,"",NA,NA,NA,"",NA,"stimuli/objects/hourglass.jpg","left","old"
24,"left",0.9621,4,0.7276,"right",0.3681,"","",""
24,"",NA,NA,NA,"",NA,"stimuli/objects/weight01.jpg","left","old"
24,"right",0.9079,4,0.2926,"",NA,"stimuli/objects/shopvac.jpg","right","new"
24,"left",1.9138,1,0.8071,"left",0.8649,"","",""
24,"",NA,NA,NA,"",NA,"stimuli/objects/extensioncord.jpg","left","old"
24,"right",1.6913,2,0.2492,"",NA,"stimuli/objects/wineglass01.jpg","right","new"
24,"right",1.3958,2,7e-04,"",NA,"stimuli/objects/adjustablewrench01b.jpg","left","old"
24,"left",1.2706,4,0.7957,"left",0.9229,"","",""
24,"",NA,NA,NA,"",NA,"stimuli/objects/gravyboat.jpg","left","old"
24,"right",1.0568,3,1.202,"",NA,"stimuli/objects/ladle02a.jpg","right","new"
24,"left",1.1649,4,0.4755,"left",0.0507,"","",""
24,"",NA,NA,NA,"",NA,"stimuli/objects/dishrack.jpg","left","old"
24,"left",2.3657,4,0.41,"left",0.5642,"","",""
24,"",NA,NA,NA,"",NA,"stimuli/objects/charcoalbarbecue.jpg","left","old"
24,"left",1.4825,4,5e-04,"left",0.3707,"","",""
24,"",NA,NA,NA,"",NA,"stimuli/objects/jackhammer.jpg","right","new"
24,"right",1.0654,4,0.2816,"",NA,"stimuli/objects/floodlight.jpg","right","new"
24,"left",1.3271,4,0.3248,"left",0.3247,"","",""
24,"",NA,NA,NA,"",NA,"stimuli/objects/cookiecutter.jpg","left","old"
24,"",NA,NA,NA,"",NA,"","",""
