"participant","pract_resp.keys","pract_resp.corr","pract_resp.rt","first_character","second_character","Cue","left_categ","centleft_categ","centright_categ","right_categ","corr_ans","image","trial_cond","cuedCharacter","task_resp.keys","task_resp.corr","task_resp.rt"
38,NA,NA,NA,"","",NA,"","","","",NA,"",NA,"",NA,NA,NA
38,NA,NA,NA,"","",NA,"","","","",NA,"",NA,"",NA,NA,NA
38,NA,NA,NA,"","",NA,"","","","",NA,"",NA,"",NA,NA,NA
38,NA,NA,NA,"","",NA,"","","","",NA,"",NA,"",NA,NA,NA
38,NA,NA,NA,"","",NA,"","","","",NA,"",NA,"",NA,NA,NA
38,NA,NA,NA,"","",NA,"","","","",NA,"",NA,"",NA,NA,NA
38,2,0,1.5478,"stimuli/m1.jpg","stimuli/m4.jpg",2,"stimuli/Stationary & school supply.png","stimuli/Vehicle.png","stimuli/Gamestoy & entertainment.png","stimuli/Clothing.png",4,"stimuli/objects/sneaker03b.jpg",1,"stimuli/m4.jpg",NA,NA,NA
38,3,0,0.8496,"stimuli/m1.jpg","stimuli/m4.jpg",2,"stimuli/Stationary & school supply.png","stimuli/Clothing.png","stimuli/Vehicle.png","stimuli/Gamestoy & entertainment.png",1,"stimuli/objects/paperclip01b.jpg",0,"stimuli/m4.jpg",NA,NA,NA
38,4,0,2.887,"stimuli/m1.jpg","stimuli/m4.jpg",1,"stimuli/Vehicle.png","stimuli/Stationary & school supply.png","stimuli/Clothing.png","stimuli/Gamestoy & entertainment.png",2,"stimuli/objects/protractor.jpg",1,"stimuli/m1.jpg",NA,NA,NA
38,2,0,2.6116,"stimuli/m4.jpg","stimuli/m1.jpg",1,"stimuli/Stationary & school supply.png","stimuli/Vehicle.png","stimuli/Gamestoy & entertainment.png","stimuli/Clothing.png",4,"stimuli/objects/hikingshoe01.jpg",1,"stimuli/m4.jpg",NA,NA,NA
38,1,0,2.8228,"stimuli/m1.jpg","stimuli/m4.jpg",1,"stimuli/Clothing.png","stimuli/Stationary & school supply.png","stimuli/Vehicle.png","stimuli/Gamestoy & entertainment.png",2,"stimuli/objects/book01b.jpg",1,"stimuli/m1.jpg",NA,NA,NA
38,4,1,1.7972,"stimuli/m4.jpg","stimuli/m1.jpg",1,"stimuli/Stationary & school supply.png","stimuli/Gamestoy & entertainment.png","stimuli/Vehicle.png","stimuli/Clothing.png",4,"stimuli/objects/shoelace.jpg",1,"stimuli/m4.jpg",NA,NA,NA
38,1,1,2.4398,"stimuli/m1.jpg","stimuli/m4.jpg",2,"stimuli/Clothing.png","stimuli/Stationary & school supply.png","stimuli/Vehicle.png","stimuli/Gamestoy & entertainment.png",1,"stimuli/objects/moccasin.jpg",1,"stimuli/m4.jpg",NA,NA,NA
38,2,1,0.704,"stimuli/m1.jpg","stimuli/m4.jpg",2,"stimuli/Gamestoy & entertainment.png","stimuli/Clothing.png","stimuli/Stationary & school supply.png","stimuli/Vehicle.png",2,"stimuli/objects/waders.jpg",1,"stimuli/m4.jpg",NA,NA,NA
38,NA,0,NA,"stimuli/m4.jpg","stimuli/m1.jpg",2,"stimuli/Vehicle.png","stimuli/Gamestoy & entertainment.png","stimuli/Stationary & school supply.png","stimuli/Clothing.png",3,"stimuli/objects/eraser.jpg",1,"stimuli/m1.jpg",NA,NA,NA
38,1,1,0.8261,"stimuli/m4.jpg","stimuli/m1.jpg",2,"stimuli/Stationary & school supply.png","stimuli/Vehicle.png","stimuli/Clothing.png","stimuli/Gamestoy & entertainment.png",1,"stimuli/objects/fountainpen.jpg",1,"stimuli/m1.jpg",NA,NA,NA
38,2,1,1.8233,"stimuli/m4.jpg","stimuli/m1.jpg",1,"stimuli/Vehicle.png","stimuli/Clothing.png","stimuli/Stationary & school supply.png","stimuli/Gamestoy & entertainment.png",2,"stimuli/objects/visor.jpg",1,"stimuli/m4.jpg",NA,NA,NA
38,2,1,0.481,"stimuli/m4.jpg","stimuli/m1.jpg",1,"stimuli/Stationary & school supply.png","stimuli/Clothing.png","stimuli/Vehicle.png","stimuli/Gamestoy & entertainment.png",2,"stimuli/objects/mitten04.jpg",1,"stimuli/m4.jpg",NA,NA,NA
38,2,1,0.6664,"stimuli/m4.jpg","stimuli/m1.jpg",2,"stimuli/Clothing.png","stimuli/Stationary & school supply.png","stimuli/Vehicle.png","stimuli/Gamestoy & entertainment.png",2,"stimuli/objects/notebook03a.jpg",1,"stimuli/m1.jpg",NA,NA,NA
38,2,0,2.1017,"stimuli/m4.jpg","stimuli/m1.jpg",1,"stimuli/Vehicle.png","stimuli/Clothing.png","stimuli/Gamestoy & entertainment.png","stimuli/Stationary & school supply.png",1,"stimuli/objects/locomotive.jpg",0,"stimuli/m4.jpg",NA,NA,NA
38,2,1,2.7305,"stimuli/m4.jpg","stimuli/m1.jpg",2,"stimuli/Gamestoy & entertainment.png","stimuli/Stationary & school supply.png","stimuli/Vehicle.png","stimuli/Clothing.png",2,"stimuli/objects/mechanicalpencil02.jpg",1,"stimuli/m1.jpg",NA,NA,NA
38,NA,NA,NA,"","",NA,"","","","",NA,"",NA,"",NA,NA,NA
38,NA,NA,NA,"stimuli/m2.jpg","stimuli/m5.jpg",2,"stimuli/Outdoor activity & sport item.png","stimuli/Hand labour tool & accessory.png","stimuli/Electronic device & accessory.png","stimuli/Kitchen & utensil.png",2,"stimuli/objects/jumpingjack.jpg",1,"stimuli/m5.jpg",3,0,1.3974
38,NA,NA,NA,"stimuli/m2.jpg","stimuli/m5.jpg",2,"stimuli/Hand labour tool & accessory.png","stimuli/Outdoor activity & sport item.png","stimuli/Electronic device & accessory.png","stimuli/Kitchen & utensil.png",1,"stimuli/objects/boxcutter03a.jpg",1,"stimuli/m5.jpg",1,1,2.0005
38,NA,NA,NA,"stimuli/m2.jpg","stimuli/m5.jpg",1,"stimuli/Hand labour tool & accessory.png","stimuli/Kitchen & utensil.png","stimuli/Electronic device & accessory.png","stimuli/Outdoor activity & sport item.png",2,"stimuli/objects/huntingknife.jpg",0,"stimuli/m2.jpg",3,0,1.0954
38,NA,NA,NA,"stimuli/m5.jpg","stimuli/m2.jpg",2,"stimuli/Kitchen & utensil.png","stimuli/Electronic device & accessory.png","stimuli/Hand labour tool & accessory.png","stimuli/Outdoor activity & sport item.png",4,"stimuli/objects/footballhelmet.jpg",1,"stimuli/m2.jpg",4,1,0.908
38,NA,NA,NA,"stimuli/m5.jpg","stimuli/m2.jpg",1,"stimuli/Outdoor activity & sport item.png","stimuli/Hand labour tool & accessory.png","stimuli/Kitchen & utensil.png","stimuli/Electronic device & accessory.png",2,"stimuli/objects/handrake01a.jpg",1,"stimuli/m5.jpg",2,1,0.985
38,NA,NA,NA,"stimuli/m2.jpg","stimuli/m5.jpg",1,"stimuli/Outdoor activity & sport item.png","stimuli/Electronic device & accessory.png","stimuli/Hand labour tool & accessory.png","stimuli/Kitchen & utensil.png",1,"stimuli/objects/crosscountryski.jpg",1,"stimuli/m2.jpg",4,0,0.8965
38,NA,NA,NA,"stimuli/m5.jpg","stimuli/m2.jpg",2,"stimuli/Hand labour tool & accessory.png","stimuli/Electronic device & accessory.png","stimuli/Outdoor activity & sport item.png","stimuli/Kitchen & utensil.png",2,"stimuli/objects/television.jpg",0,"stimuli/m2.jpg",3,0,1.271
38,NA,NA,NA,"stimuli/m5.jpg","stimuli/m2.jpg",2,"stimuli/Kitchen & utensil.png","stimuli/Outdoor activity & sport item.png","stimuli/Hand labour tool & accessory.png","stimuli/Electronic device & accessory.png",2,"stimuli/objects/hose.jpg",1,"stimuli/m2.jpg",4,0,1.172
38,NA,NA,NA,"stimuli/m2.jpg","stimuli/m5.jpg",2,"stimuli/Hand labour tool & accessory.png","stimuli/Electronic device & accessory.png","stimuli/Kitchen & utensil.png","stimuli/Outdoor activity & sport item.png",1,"stimuli/objects/solderingiron.jpg",1,"stimuli/m5.jpg",1,1,1.6661
38,NA,NA,NA,"stimuli/m2.jpg","stimuli/m5.jpg",2,"stimuli/Electronic device & accessory.png","stimuli/Kitchen & utensil.png","stimuli/Hand labour tool & accessory.png","stimuli/Outdoor activity & sport item.png",3,"stimuli/objects/gavel.jpg",1,"stimuli/m5.jpg",1,0,1.7778
38,NA,NA,NA,"stimuli/m5.jpg","stimuli/m2.jpg",1,"stimuli/Kitchen & utensil.png","stimuli/Electronic device & accessory.png","stimuli/Outdoor activity & sport item.png","stimuli/Hand labour tool & accessory.png",4,"stimuli/objects/boxcutter03a.jpg",1,"stimuli/m5.jpg",4,1,1.8398
38,NA,NA,NA,"stimuli/m2.jpg","stimuli/m5.jpg",2,"stimuli/Electronic device & accessory.png","stimuli/Hand labour tool & accessory.png","stimuli/Outdoor activity & sport item.png","stimuli/Kitchen & utensil.png",1,"stimuli/objects/walkietalkie.jpg",0,"stimuli/m5.jpg",2,0,2.0727
38,NA,NA,NA,"stimuli/m2.jpg","stimuli/m5.jpg",1,"stimuli/Kitchen & utensil.png","stimuli/Electronic device & accessory.png","stimuli/Hand labour tool & accessory.png","stimuli/Outdoor activity & sport item.png",1,"stimuli/objects/coffeemaker.jpg",0,"stimuli/m2.jpg",4,0,1.2579
38,NA,NA,NA,"stimuli/m5.jpg","stimuli/m2.jpg",2,"stimuli/Outdoor activity & sport item.png","stimuli/Electronic device & accessory.png","stimuli/Kitchen & utensil.png","stimuli/Hand labour tool & accessory.png",1,"stimuli/objects/bicycle.jpg",1,"stimuli/m2.jpg",3,0,1.5841
38,NA,NA,NA,"stimuli/m2.jpg","stimuli/m5.jpg",1,"stimuli/Kitchen & utensil.png","stimuli/Outdoor activity & sport item.png","stimuli/Electronic device & accessory.png","stimuli/Hand labour tool & accessory.png",2,"stimuli/objects/punchingbag.jpg",1,"stimuli/m2.jpg",1,0,1.4795
38,NA,NA,NA,"stimuli/m5.jpg","stimuli/m2.jpg",1,"stimuli/Electronic device & accessory.png","stimuli/Outdoor activity & sport item.png","stimuli/Hand labour tool & accessory.png","stimuli/Kitchen & utensil.png",2,"stimuli/objects/footballhelmet.jpg",0,"stimuli/m5.jpg",3,0,1.0029
38,NA,NA,NA,"stimuli/m5.jpg","stimuli/m2.jpg",1,"stimuli/Kitchen & utensil.png","stimuli/Hand labour tool & accessory.png","stimuli/Electronic device & accessory.png","stimuli/Outdoor activity & sport item.png",4,"stimuli/objects/swing.jpg",0,"stimuli/m5.jpg",4,1,1.4256
38,NA,NA,NA,"stimuli/m2.jpg","stimuli/m5.jpg",2,"stimuli/Hand labour tool & accessory.png","stimuli/Electronic device & accessory.png","stimuli/Outdoor activity & sport item.png","stimuli/Kitchen & utensil.png",1,"stimuli/objects/pitchfork.jpg",1,"stimuli/m5.jpg",3,0,1.0804
38,NA,NA,NA,"stimuli/m5.jpg","stimuli/m2.jpg",2,"stimuli/Hand labour tool & accessory.png","stimuli/Outdoor activity & sport item.png","stimuli/Electronic device & accessory.png","stimuli/Kitchen & utensil.png",2,"stimuli/objects/bicycle.jpg",1,"stimuli/m2.jpg",3,0,1.4863
38,NA,NA,NA,"stimuli/m5.jpg","stimuli/m2.jpg",1,"stimuli/Hand labour tool & accessory.png","stimuli/Outdoor activity & sport item.png","stimuli/Kitchen & utensil.png","stimuli/Electronic device & accessory.png",3,"stimuli/objects/freezer02.jpg",0,"stimuli/m5.jpg",2,0,0.7836
38,NA,NA,NA,"stimuli/m2.jpg","stimuli/m5.jpg",1,"stimuli/Kitchen & utensil.png","stimuli/Hand labour tool & accessory.png","stimuli/Electronic device & accessory.png","stimuli/Outdoor activity & sport item.png",2,"stimuli/objects/handrake01a.jpg",0,"stimuli/m2.jpg",3,0,1.508
38,NA,NA,NA,"stimuli/m5.jpg","stimuli/m2.jpg",1,"stimuli/Outdoor activity & sport item.png","stimuli/Electronic device & accessory.png","stimuli/Hand labour tool & accessory.png","stimuli/Kitchen & utensil.png",3,"stimuli/objects/jumpingjack.jpg",1,"stimuli/m5.jpg",2,0,1.8714
38,NA,NA,NA,"stimuli/m5.jpg","stimuli/m2.jpg",2,"stimuli/Electronic device & accessory.png","stimuli/Kitchen & utensil.png","stimuli/Hand labour tool & accessory.png","stimuli/Outdoor activity & sport item.png",4,"stimuli/objects/bicycle.jpg",1,"stimuli/m2.jpg",4,1,0.8645
38,NA,NA,NA,"stimuli/m5.jpg","stimuli/m2.jpg",1,"stimuli/Hand labour tool & accessory.png","stimuli/Outdoor activity & sport item.png","stimuli/Electronic device & accessory.png","stimuli/Kitchen & utensil.png",1,"stimuli/objects/jumpingjack.jpg",1,"stimuli/m5.jpg",3,0,2.1516
38,NA,NA,NA,"stimuli/m2.jpg","stimuli/m5.jpg",2,"stimuli/Outdoor activity & sport item.png","stimuli/Electronic device & accessory.png","stimuli/Hand labour tool & accessory.png","stimuli/Kitchen & utensil.png",4,"stimuli/objects/jug.jpg",0,"stimuli/m5.jpg",3,0,1.2487
38,NA,NA,NA,"stimuli/m2.jpg","stimuli/m5.jpg",1,"stimuli/Electronic device & accessory.png","stimuli/Hand labour tool & accessory.png","stimuli/Kitchen & utensil.png","stimuli/Outdoor activity & sport item.png",4,"stimuli/objects/racquetballracket.jpg",1,"stimuli/m2.jpg",4,1,1.1098
38,NA,NA,NA,"stimuli/m2.jpg","stimuli/m5.jpg",2,"stimuli/Kitchen & utensil.png","stimuli/Outdoor activity & sport item.png","stimuli/Electronic device & accessory.png","stimuli/Hand labour tool & accessory.png",4,"stimuli/objects/jumpingjack.jpg",1,"stimuli/m5.jpg",1,0,1.1311
38,NA,NA,NA,"stimuli/m2.jpg","stimuli/m5.jpg",2,"stimuli/Hand labour tool & accessory.png","stimuli/Kitchen & utensil.png","stimuli/Electronic device & accessory.png","stimuli/Outdoor activity & sport item.png",1,"stimuli/objects/hedgetrimmer.jpg",1,"stimuli/m5.jpg",4,0,1.5321
38,NA,NA,NA,"stimuli/m5.jpg","stimuli/m2.jpg",1,"stimuli/Kitchen & utensil.png","stimuli/Outdoor activity & sport item.png","stimuli/Electronic device & accessory.png","stimuli/Hand labour tool & accessory.png",4,"stimuli/objects/gavel.jpg",1,"stimuli/m5.jpg",4,1,2.0664
38,NA,NA,NA,"stimuli/m2.jpg","stimuli/m5.jpg",2,"stimuli/Electronic device & accessory.png","stimuli/Hand labour tool & accessory.png","stimuli/Kitchen & utensil.png","stimuli/Outdoor activity & sport item.png",2,"stimuli/objects/gavel.jpg",1,"stimuli/m5.jpg",2,1,1.4648
38,NA,NA,NA,"stimuli/m2.jpg","stimuli/m5.jpg",1,"stimuli/Kitchen & utensil.png","stimuli/Hand labour tool & accessory.png","stimuli/Outdoor activity & sport item.png","stimuli/Electronic device & accessory.png",3,"stimuli/objects/racquetballracket.jpg",1,"stimuli/m2.jpg",4,0,1.6388
38,NA,NA,NA,"stimuli/m5.jpg","stimuli/m2.jpg",2,"stimuli/Kitchen & utensil.png","stimuli/Electronic device & accessory.png","stimuli/Outdoor activity & sport item.png","stimuli/Hand labour tool & accessory.png",3,"stimuli/objects/punchingbag.jpg",1,"stimuli/m2.jpg",3,1,1.0692
38,NA,NA,NA,"stimuli/m2.jpg","stimuli/m5.jpg",2,"stimuli/Outdoor activity & sport item.png","stimuli/Hand labour tool & accessory.png","stimuli/Kitchen & utensil.png","stimuli/Electronic device & accessory.png",4,"stimuli/objects/camera01a.jpg",0,"stimuli/m5.jpg",2,0,0.9816
38,NA,NA,NA,"stimuli/m2.jpg","stimuli/m5.jpg",2,"stimuli/Outdoor activity & sport item.png","stimuli/Electronic device & accessory.png","stimuli/Kitchen & utensil.png","stimuli/Hand labour tool & accessory.png",4,"stimuli/objects/jumpingjack.jpg",1,"stimuli/m5.jpg",4,1,0.7888
38,NA,NA,NA,"stimuli/m2.jpg","stimuli/m5.jpg",1,"stimuli/Electronic device & accessory.png","stimuli/Kitchen & utensil.png","stimuli/Outdoor activity & sport item.png","stimuli/Hand labour tool & accessory.png",3,"stimuli/objects/swing.jpg",1,"stimuli/m2.jpg",3,1,1.279
38,NA,NA,NA,"stimuli/m5.jpg","stimuli/m2.jpg",1,"stimuli/Hand labour tool & accessory.png","stimuli/Kitchen & utensil.png","stimuli/Outdoor activity & sport item.png","stimuli/Electronic device & accessory.png",1,"stimuli/objects/pitchfork.jpg",1,"stimuli/m5.jpg",1,1,2.1141
38,NA,NA,NA,"stimuli/m2.jpg","stimuli/m5.jpg",1,"stimuli/Electronic device & accessory.png","stimuli/Outdoor activity & sport item.png","stimuli/Hand labour tool & accessory.png","stimuli/Kitchen & utensil.png",2,"stimuli/objects/racquetballracket.jpg",1,"stimuli/m2.jpg",2,1,1.3471
38,NA,NA,NA,"stimuli/m2.jpg","stimuli/m5.jpg",1,"stimuli/Outdoor activity & sport item.png","stimuli/Hand labour tool & accessory.png","stimuli/Electronic device & accessory.png","stimuli/Kitchen & utensil.png",1,"stimuli/objects/telescope.jpg",1,"stimuli/m2.jpg",1,1,0.6406
38,NA,NA,NA,"stimuli/m5.jpg","stimuli/m2.jpg",2,"stimuli/Hand labour tool & accessory.png","stimuli/Kitchen & utensil.png","stimuli/Electronic device & accessory.png","stimuli/Outdoor activity & sport item.png",4,"stimuli/objects/footballhelmet.jpg",1,"stimuli/m2.jpg",1,0,1.7329
38,NA,NA,NA,"stimuli/m5.jpg","stimuli/m2.jpg",2,"stimuli/Kitchen & utensil.png","stimuli/Hand labour tool & accessory.png","stimuli/Outdoor activity & sport item.png","stimuli/Electronic device & accessory.png",3,"stimuli/objects/swing.jpg",1,"stimuli/m2.jpg",3,1,1.8661
38,NA,NA,NA,"stimuli/m5.jpg","stimuli/m2.jpg",1,"stimuli/Outdoor activity & sport item.png","stimuli/Hand labour tool & accessory.png","stimuli/Electronic device & accessory.png","stimuli/Kitchen & utensil.png",2,"stimuli/objects/pitchfork.jpg",1,"stimuli/m5.jpg",2,1,2.2689
38,NA,NA,NA,"stimuli/m2.jpg","stimuli/m5.jpg",1,"stimuli/Hand labour tool & accessory.png","stimuli/Outdoor activity & sport item.png","stimuli/Electronic device & accessory.png","stimuli/Kitchen & utensil.png",2,"stimuli/objects/footballhelmet.jpg",1,"stimuli/m2.jpg",2,1,1.6679
38,NA,NA,NA,"stimuli/m5.jpg","stimuli/m2.jpg",2,"stimuli/Hand labour tool & accessory.png","stimuli/Outdoor activity & sport item.png","stimuli/Kitchen & utensil.png","stimuli/Electronic device & accessory.png",2,"stimuli/objects/rollerblade.jpg",1,"stimuli/m2.jpg",2,1,1.1204
38,NA,NA,NA,"stimuli/m2.jpg","stimuli/m5.jpg",1,"stimuli/Outdoor activity & sport item.png","stimuli/Kitchen & utensil.png","stimuli/Hand labour tool & accessory.png","stimuli/Electronic device & accessory.png",1,"stimuli/objects/crosscountryski.jpg",1,"stimuli/m2.jpg",1,1,2.4049
38,NA,NA,NA,"stimuli/m5.jpg","stimuli/m2.jpg",1,"stimuli/Kitchen & utensil.png","stimuli/Outdoor activity & sport item.png","stimuli/Hand labour tool & accessory.png","stimuli/Electronic device & accessory.png",3,"stimuli/objects/solderingiron.jpg",1,"stimuli/m5.jpg",3,1,2.9327
38,NA,NA,NA,"stimuli/m5.jpg","stimuli/m2.jpg",2,"stimuli/Kitchen & utensil.png","stimuli/Hand labour tool & accessory.png","stimuli/Electronic device & accessory.png","stimuli/Outdoor activity & sport item.png",2,"stimuli/objects/boxcutter03a.jpg",0,"stimuli/m2.jpg",4,0,2.933
38,NA,NA,NA,"stimuli/m2.jpg","stimuli/m5.jpg",2,"stimuli/Kitchen & utensil.png","stimuli/Electronic device & accessory.png","stimuli/Hand labour tool & accessory.png","stimuli/Outdoor activity & sport item.png",3,"stimuli/objects/gavel.jpg",1,"stimuli/m5.jpg",4,0,2.7401
38,NA,NA,NA,"stimuli/m5.jpg","stimuli/m2.jpg",2,"stimuli/Outdoor activity & sport item.png","stimuli/Hand labour tool & accessory.png","stimuli/Kitchen & utensil.png","stimuli/Electronic device & accessory.png",4,"stimuli/objects/jack.jpg",0,"stimuli/m2.jpg",1,0,1.5677
38,NA,NA,NA,"","",NA,"","","","",NA,"",NA,"",NA,NA,NA
