"participant","recog_resp.keys","recog_resp.rt","conf_resp.keys","conf_resp.rt","resp_assoc.keys","resp_assoc.rt","images","corr_ans","type"
42,"",NA,NA,NA,"",NA,"","",""
42,"",NA,NA,NA,"",NA,"","",""
42,"",NA,NA,NA,"",NA,"","",""
42,"left",2.0185,4,1.9107,"right",5.2885,"","",""
42,"",NA,NA,NA,"",NA,"stimuli/objects/fishingrod.jpg","left","old"
42,"left",3.5049,4,1.2664,"left",1.2983,"","",""
42,"",NA,NA,NA,"",NA,"stimuli/objects/tupperware03a.jpg","left","old"
42,"right",3.9868,4,1.6805,"",NA,"stimuli/objects/skigoggles01.jpg","right","new"
42,"right",2.7553,4,1.1507,"",NA,"stimuli/objects/wetfloorsign.jpg","right","new"
42,"left",4.3574,2,2.3026,"left",4.964,"","",""
42,"",NA,NA,NA,"",NA,"stimuli/objects/drinkshaker.jpg","right","new"
42,"right",3.8794,3,1.6173,"",NA,"stimuli/objects/pickaxe02.jpg","right","new"
42,"left",2.9766,3,1.4983,"left",2.8329,"","",""
42,"",NA,NA,NA,"",NA,"stimuli/objects/snowboard.jpg","left","old"
42,"left",2.8538,3,2.7814,"right",1.5174,"","",""
42,"",NA,NA,NA,"",NA,"stimuli/objects/tablesaw.jpg","right","new"
42,"left",2.605,3,1.1156,"left",1.1822,"","",""
42,"",NA,NA,NA,"",NA,"stimuli/objects/beermug01a.jpg","right","new"
42,"left",2.7358,4,1.9466,"right",0.8851,"","",""
42,"",NA,NA,NA,"",NA,"stimuli/objects/wateringcan.jpg","left","old"
42,"left",2.2852,4,1.3556,"left",3.4511,"","",""
42,"",NA,NA,NA,"",NA,"stimuli/objects/bikehelmet.jpg","left","old"
42,"left",1.8381,4,1.6104,"left",0.6082,"","",""
42,"",NA,NA,NA,"",NA,"stimuli/objects/securitycamera.jpg","left","old"
42,"left",3.707,3,0.6968,"right",1.9158,"","",""
42,"",NA,NA,NA,"",NA,"stimuli/objects/beachumbrella01.jpg","right","new"
42,"left",1.6001,4,3.7966,"left",1.1531,"","",""
42,"",NA,NA,NA,"",NA,"stimuli/objects/soccerball.jpg","left","old"
42,"right",2.4888,3,1.7481,"",NA,"stimuli/objects/barbecue03.jpg","right","new"
42,"right",3.04,3,1.3696,"",NA,"stimuli/objects/floodlight.jpg","right","new"
42,"left",1.0774,4,1.0186,"right",1.9347,"","",""
42,"",NA,NA,NA,"",NA,"stimuli/objects/vhstape.jpg","left","old"
42,"left",2.2954,4,1.6021,"left",0.6999,"","",""
42,"",NA,NA,NA,"",NA,"stimuli/objects/charcoalbarbecue.jpg","left","old"
42,"left",2.3062,4,1.2692,"right",0.6166,"","",""
42,"",NA,NA,NA,"",NA,"stimuli/objects/slidetray.jpg","left","old"
42,"left",0.9201,4,1.6174,"left",1.3653,"","",""
42,"",NA,NA,NA,"",NA,"stimuli/objects/rollingpin01a.jpg","left","old"
42,"right",4.9574,4,2.2659,"",NA,"stimuli/objects/lifejacket.jpg","right","new"
42,"left",1.9687,2,0.8846,"left",0.9179,"","",""
42,"",NA,NA,NA,"",NA,"stimuli/objects/cleaver01.jpg","left","old"
42,"left",1.5385,4,1.0685,"left",0.3055,"","",""
42,"",NA,NA,NA,"",NA,"stimuli/objects/backpack01a.jpg","left","old"
42,"left",3.0947,2,0.3737,"right",0.5904,"","",""
42,"",NA,NA,NA,"",NA,"stimuli/objects/pot01.jpg","left","old"
42,"right",1.2392,4,0.6248,"",NA,"stimuli/objects/tent.jpg","right","new"
42,"right",1.4255,1,3.5509,"",NA,"stimuli/objects/toyhockeystick01.jpg","left","old"
42,"left",2.6733,3,0.5195,"right",0.6414,"","",""
42,"",NA,NA,NA,"",NA,"stimuli/objects/cuttingpliers02.jpg","right","new"
42,"left",2.8454,4,0.3536,"left",0.3503,"","",""
42,"",NA,NA,NA,"",NA,"stimuli/objects/kneepad01c.jpg","right","new"
42,"left",0.9917,4,0.7858,"left",0.3339,"","",""
42,"",NA,NA,NA,"",NA,"stimuli/objects/magneticcompass.jpg","left","old"
42,"left",1.5772,4,0.7856,"left",0.4939,"","",""
42,"",NA,NA,NA,"",NA,"stimuli/objects/shotglass.jpg","left","old"
42,"left",2.06,2,0.5585,"left",1.1672,"","",""
42,"",NA,NA,NA,"",NA,"stimuli/objects/eggslicer.jpg","right","new"
42,"left",1.3121,4,1.4823,"right",0.5552,"","",""
42,"",NA,NA,NA,"",NA,"stimuli/objects/bowrake.jpg","right","new"
42,"left",1.8989,4,0.6655,"right",0.5975,"","",""
42,"",NA,NA,NA,"",NA,"stimuli/objects/stubbywrench01a.jpg","left","old"
42,"right",3.5735,4,1.2104,"",NA,"stimuli/objects/straw.jpg","right","new"
42,"right",3.8081,4,0.3872,"",NA,"stimuli/objects/speedball.jpg","right","new"
42,"left",0.8762,4,3.2032,"left",0.3691,"","",""
42,"",NA,NA,NA,"",NA,"stimuli/objects/filmnegative.jpg","left","old"
42,"right",3.4002,4,0.5878,"",NA,"stimuli/objects/cakeplatter.jpg","right","new"
42,"right",7.1971,3,0.2992,"",NA,"stimuli/objects/grill.jpg","right","new"
42,"left",5.8673,4,1.8867,"right",1.0537,"","",""
42,"",NA,NA,NA,"",NA,"stimuli/objects/chainsaw.jpg","left","old"
42,"left",3.9543,4,2.5616,"right",0.5083,"","",""
42,"",NA,NA,NA,"",NA,"stimuli/objects/hockeypuck.jpg","left","old"
42,"right",2.4883,4,1.6667,"",NA,"stimuli/objects/flask.jpg","right","new"
42,"left",1.8528,4,0.9832,"right",1.5004,"","",""
42,"",NA,NA,NA,"",NA,"stimuli/objects/wheel01.jpg","left","old"
42,"right",6.5204,2,1.0724,"",NA,"stimuli/objects/snowshovel.jpg","left","old"
42,"right",1.9628,2,0.9832,"",NA,"stimuli/objects/file.jpg","right","new"
42,"left",2.4143,4,1.3674,"left",0.3891,"","",""
42,"",NA,NA,NA,"",NA,"stimuli/objects/contactlens.jpg","left","old"
42,"right",1.2443,4,0.5722,"",NA,"stimuli/objects/parachute.jpg","right","new"
42,"left",1.628,3,1.0486,"right",0.2876,"","",""
42,"",NA,NA,NA,"",NA,"stimuli/objects/loppingshears.jpg","right","new"
42,"right",1.8913,4,0.9956,"",NA,"stimuli/objects/handblender.jpg","right","new"
42,"left",2.9387,3,2.6723,"right",1.6648,"","",""
42,"",NA,NA,NA,"",NA,"stimuli/objects/extensioncord.jpg","left","old"
42,"right",8.4065,4,1.8821,"",NA,"stimuli/objects/swissarmyknife01a.jpg","right","new"
42,"right",5.26,2,1.5262,"",NA,"stimuli/objects/crocodileclips.jpg","left","old"
42,"right",2.2152,4,0.4272,"",NA,"stimuli/objects/cameracase01a.jpg","right","new"
42,"left",4.3035,3,0.2984,"right",2.457,"","",""
42,"",NA,NA,NA,"",NA,"stimuli/objects/wiicontroller.jpg","right","new"
42,"left",1.1752,4,1.9923,"left",0.3005,"","",""
42,"",NA,NA,NA,"",NA,"stimuli/objects/spoon01.jpg","left","old"
42,"right",1.5325,3,0.5845,"",NA,"stimuli/objects/bottleopener01.jpg","right","new"
42,"right",4.3321,2,1.6367,"",NA,"stimuli/objects/fanheater.jpg","right","new"
42,"left",5.6039,2,1.9285,"left",1.6144,"","",""
42,"",NA,NA,NA,"",NA,"stimuli/objects/patioumbrella.jpg","left","old"
42,"left",2.0865,3,2.9111,"left",0.9768,"","",""
42,"",NA,NA,NA,"",NA,"stimuli/objects/hockeygoaliemask.jpg","left","old"
42,"right",2.7975,4,0.9095,"",NA,"stimuli/objects/cheeseknife01.jpg","right","new"
42,"right",1.5048,4,1.1459,"",NA,"stimuli/objects/diaperbag.jpg","right","new"
42,"right",1.6217,4,0.4489,"",NA,"stimuli/objects/mallet01b.jpg","left","old"
42,"right",1.2197,4,0.7777,"",NA,"stimuli/objects/mug01.jpg","right","new"
42,"right",1.9028,4,0.784,"",NA,"stimuli/objects/computermouse06.jpg","right","new"
42,"right",2.1552,3,1.2495,"",NA,"stimuli/objects/alarmsystem.jpg","right","new"
42,"left",3.1704,2,3.6369,"right",3.0624,"","",""
42,"",NA,NA,NA,"",NA,"stimuli/objects/fluorescentlightbulb.jpg","left","old"
42,"right",4.3225,4,0.9988,"",NA,"stimuli/objects/birdie.jpg","right","new"
42,"right",6.1013,4,0.2225,"",NA,"stimuli/objects/fonduefork01.jpg","right","new"
42,"left",1.7328,4,0.2478,"left",0.5306,"","",""
42,"",NA,NA,NA,"",NA,"stimuli/objects/ipod.jpg","left","old"
42,"right",2.4527,3,0.6282,"",NA,"stimuli/objects/tennisball01b.jpg","right","new"
42,"left",3.3108,2,0.3688,"right",0.5829,"","",""
42,"",NA,NA,NA,"",NA,"stimuli/objects/lockingplier.jpg","right","new"
42,"right",4.4031,3,0.6815,"",NA,"stimuli/objects/flashlight02b.jpg","right","new"
42,"right",3.2376,3,0.2865,"",NA,"stimuli/objects/shopvac.jpg","right","new"
42,"right",1.8062,3,1.3335,"",NA,"stimuli/objects/volleyball.jpg","left","old"
42,"left",1.2186,4,1.352,"left",1.2215,"","",""
42,"",NA,NA,NA,"",NA,"stimuli/objects/plate01b.jpg","right","new"
42,"left",1.3059,4,1.283,"right",0.535,"","",""
42,"",NA,NA,NA,"",NA,"stimuli/objects/chandelier.jpg","left","old"
42,"left",2.5236,4,1.1523,"left",0.5849,"","",""
42,"",NA,NA,NA,"",NA,"stimuli/objects/swimgoggles.jpg","left","old"
42,"right",2.5245,4,0.5368,"",NA,"stimuli/objects/basketball01.jpg","right","new"
42,"left",4.6214,3,1.8524,"left",2.3464,"","",""
42,"",NA,NA,NA,"",NA,"stimuli/objects/boxingglove01.jpg","right","new"
42,"left",2.069,4,0.6851,"right",1.1331,"","",""
42,"",NA,NA,NA,"",NA,"stimuli/objects/fuse.jpg","left","old"
42,"right",3.4938,3,0.8394,"",NA,"stimuli/objects/toaster01.jpg","right","new"
42,"right",2.3402,2,0.9997,"",NA,"stimuli/objects/skiboot01a.jpg","left","old"
42,"right",2.2396,2,1.0369,"",NA,"stimuli/objects/wafflemaker.jpg","right","new"
42,"right",2.1517,4,0.4342,"",NA,"stimuli/objects/alarmclock01.jpg","left","old"
42,"right",2.4862,3,1.083,"",NA,"stimuli/objects/mortarandpestle.jpg","right","new"
42,"left",1.5951,4,1.4956,"left",0.4073,"","",""
42,"",NA,NA,NA,"",NA,"stimuli/objects/travelmug.jpg","left","old"
42,"left",2.3557,2,0.4545,"right",0.3857,"","",""
42,"",NA,NA,NA,"",NA,"stimuli/objects/smokedetector02.jpg","right","new"
42,"left",1.5949,4,1.3194,"right",0.6276,"","",""
42,"",NA,NA,NA,"",NA,"stimuli/objects/jumpercables.jpg","left","old"
42,"left",2.8353,3,0.4274,"right",1.1339,"","",""
42,"",NA,NA,NA,"",NA,"stimuli/objects/bungeecord02.jpg","left","old"
42,"left",2.2604,4,0.9551,"right",0.9428,"","",""
42,"",NA,NA,NA,"",NA,"stimuli/objects/poolnet.jpg","left","old"
42,"right",1.5415,4,1.3431,"",NA,"stimuli/objects/computerkeyboard02.jpg","left","old"
42,"left",2.1366,4,1.156,"left",0.5077,"","",""
42,"",NA,NA,NA,"",NA,"stimuli/objects/boatmotor.jpg","left","old"
42,"right",1.3085,4,0.5207,"",NA,"stimuli/objects/ladle02a.jpg","right","new"
42,"left",1.2578,4,1.7251,"right",3.6467,"","",""
42,"",NA,NA,NA,"",NA,"stimuli/objects/pliers02b.jpg","left","old"
42,"left",5.1655,4,1.1193,"right",0.4664,"","",""
42,"",NA,NA,NA,"",NA,"stimuli/objects/towel01.jpg","left","old"
42,"left",6.3441,2,3.1114,"right",0.8509,"","",""
42,"",NA,NA,NA,"",NA,"stimuli/objects/handgripper.jpg","left","old"
42,"left",3.8528,3,0.5909,"right",2.5511,"","",""
42,"",NA,NA,NA,"",NA,"stimuli/objects/hammer01.jpg","left","old"
42,"left",1.6415,2,0.8736,"right",0.8026,"","",""
42,"",NA,NA,NA,"",NA,"stimuli/objects/heatpump.jpg","right","new"
42,"right",2.9421,2,0.877,"",NA,"stimuli/objects/toothpick02.jpg","left","old"
42,"left",1.3543,4,0.6995,"right",0.2594,"","",""
42,"",NA,NA,NA,"",NA,"stimuli/objects/reflector.jpg","left","old"
42,"right",1.4242,4,0.1382,"",NA,"stimuli/objects/icecubetray01a.jpg","right","new"
42,"left",1.1532,4,0.7269,"right",0.3017,"","",""
42,"",NA,NA,NA,"",NA,"stimuli/objects/carantenna.jpg","left","old"
42,"left",1.1927,4,0.6728,"left",0.265,"","",""
42,"",NA,NA,NA,"",NA,"stimuli/objects/muffintray01.jpg","left","old"
42,"right",1.6277,4,3.3287,"",NA,"stimuli/objects/monitor.jpg","right","new"
42,"left",1.6226,4,1.1971,"left",0.2526,"","",""
42,"",NA,NA,NA,"",NA,"stimuli/objects/sewingmachine01a.jpg","left","old"
42,"left",3.4628,4,0.9614,"right",0.3936,"","",""
42,"",NA,NA,NA,"",NA,"stimuli/objects/thermos.jpg","left","old"
42,"right",2.222,2,0.25,"",NA,"stimuli/objects/bucket02.jpg","left","old"
42,"left",3.7838,3,1.2491,"left",1.0928,"","",""
42,"",NA,NA,NA,"",NA,"stimuli/objects/baseballglove.jpg","left","old"
42,"left",4.4489,4,1.2575,"left",1.397,"","",""
42,"",NA,NA,NA,"",NA,"stimuli/objects/butterknife.jpg","left","old"
42,"left",1.157,4,0.8661,"right",0.7407,"","",""
42,"",NA,NA,NA,"",NA,"stimuli/objects/headphones02b.jpg","left","old"
42,"right",1.0973,4,0.4117,"",NA,"stimuli/objects/trampoline.jpg","right","new"
42,"right",2.5656,4,0.3281,"",NA,"stimuli/objects/skihelmet01.jpg","left","old"
42,"right",1.2735,4,0.7052,"",NA,"stimuli/objects/tennisracket.jpg","right","new"
42,"left",1.0209,4,0.6926,"right",0.307,"","",""
42,"",NA,NA,NA,"",NA,"stimuli/objects/paintroller01.jpg","left","old"
42,"left",1.307,4,1.1993,"left",0.3423,"","",""
42,"",NA,NA,NA,"",NA,"stimuli/objects/pitcher02b.jpg","left","old"
42,"right",2.7829,2,0.5577,"",NA,"stimuli/objects/shovel01.jpg","right","new"
42,"right",1.9576,4,0.2297,"",NA,"stimuli/objects/nutcracker01.jpg","right","new"
42,"right",3.5821,4,0.2682,"",NA,"stimuli/objects/cassettetape01a.jpg","right","new"
42,"left",0.9458,3,0.8082,"right",0.5339,"","",""
42,"",NA,NA,NA,"",NA,"stimuli/objects/caulking.jpg","left","old"
42,"left",2.7536,2,0.4913,"right",0.3943,"","",""
42,"",NA,NA,NA,"",NA,"stimuli/objects/waterbottleholder.jpg","right","new"
42,"right",4.3229,2,0.3013,"",NA,"stimuli/objects/jackhammer.jpg","right","new"
42,"right",1.7062,2,0.8421,"",NA,"stimuli/objects/hedgeshears.jpg","left","old"
42,"left",0.9672,1,1.1278,"left",1.7422,"","",""
42,"",NA,NA,NA,"",NA,"stimuli/objects/kite.jpg","right","new"
42,"right",3.7029,4,0.4536,"",NA,"stimuli/objects/lightswitch01.jpg","right","new"
42,"right",1.6973,4,0.3605,"",NA,"stimuli/objects/halogenlightbulb.jpg","right","new"
42,"right",1.197,4,0.4156,"",NA,"stimuli/objects/needlenosepliers01.jpg","right","new"
42,"right",2.3406,2,0.3283,"",NA,"stimuli/objects/canister.jpg","left","old"
42,"left",3.8641,2,0.2975,"right",1.0753,"","",""
42,"",NA,NA,NA,"",NA,"stimuli/objects/corkscrew03a.jpg","left","old"
42,"left",1.5959,4,0.5766,"right",0.3252,"","",""
42,"",NA,NA,NA,"",NA,"stimuli/objects/telephone01b.jpg","left","old"
42,"right",6.0491,4,0.7125,"",NA,"stimuli/objects/drill01b.jpg","left","old"
42,"left",0.9519,4,0.8467,"right",0.9757,"","",""
42,"",NA,NA,NA,"",NA,"stimuli/objects/fan.jpg","left","old"
42,"right",1.7647,4,0.8664,"",NA,"stimuli/objects/solderingwire.jpg","right","new"
42,"left",3.4239,3,0.7465,"right",0.9116,"","",""
42,"",NA,NA,NA,"",NA,"stimuli/objects/hoe.jpg","left","old"
42,"left",2.655,2,0.7618,"right",0.5829,"","",""
42,"",NA,NA,NA,"",NA,"stimuli/objects/wirestripper.jpg","right","new"
42,"right",3.6851,1,1.9113,"",NA,"stimuli/objects/shinpad.jpg","left","old"
42,"right",2.8097,4,0.8448,"",NA,"stimuli/objects/dolly01.jpg","right","new"
42,"left",1.6358,4,0.7172,"left",0.8059,"","",""
42,"",NA,NA,NA,"",NA,"stimuli/objects/tray.jpg","left","old"
42,"left",3.4366,4,1.5441,"left",1.431,"","",""
42,"",NA,NA,NA,"",NA,"stimuli/objects/breadknife.jpg","left","old"
42,"left",1.7237,4,0.9507,"left",1.0793,"","",""
42,"",NA,NA,NA,"",NA,"stimuli/objects/wineglass01.jpg","right","new"
42,"left",2.0204,3,1.0903,"left",2.5326,"","",""
42,"",NA,NA,NA,"",NA,"stimuli/objects/hockeystick.jpg","right","new"
42,"left",1.3255,4,0.4285,"left",0.5333,"","",""
42,"",NA,NA,NA,"",NA,"stimuli/objects/surfboard.jpg","left","old"
42,"left",1.7519,4,1.7162,"right",0.3652,"","",""
42,"",NA,NA,NA,"",NA,"stimuli/objects/metalbrush.jpg","left","old"
42,"right",1.2224,4,0.9751,"",NA,"stimuli/objects/stroller.jpg","right","new"
42,"right",1.0187,4,0.5508,"",NA,"stimuli/objects/saw02b.jpg","left","old"
42,"",NA,NA,NA,"",NA,"","",""
42,"left",2.5478,4,1.1365,"right",0.2297,"","",""
42,"",NA,NA,NA,"",NA,"stimuli/objects/wire.jpg","left","old"
42,"right",3.4729,4,1.0657,"",NA,"stimuli/objects/bowlingball.jpg","right","new"
42,"left",2.692,3,1.1102,"left",1.0995,"","",""
42,"",NA,NA,NA,"",NA,"stimuli/objects/funnel.jpg","left","old"
42,"right",2.1077,4,0.3176,"",NA,"stimuli/objects/toolbox02.jpg","right","new"
42,"left",2.1066,3,1.0306,"right",0.4968,"","",""
42,"",NA,NA,NA,"",NA,"stimuli/objects/electricoutlet.jpg","left","old"
42,"right",3.7907,4,0.3641,"",NA,"stimuli/objects/winerack.jpg","right","new"
42,"right",1.9954,4,0.5588,"",NA,"stimuli/objects/metalscissors.jpg","right","new"
42,"left",7.905,2,0.334,"right",0.3657,"","",""
42,"",NA,NA,NA,"",NA,"stimuli/objects/flooringstapler.jpg","left","old"
42,"right",1.5554,4,0.6712,"",NA,"stimuli/objects/taperecorder.jpg","right","new"
42,"left",12.5092,3,1.1405,"right",0.6129,"","",""
42,"",NA,NA,NA,"",NA,"stimuli/objects/phonejack.jpg","left","old"
42,"left",1.7879,4,0.8949,"left",0.2163,"","",""
42,"",NA,NA,NA,"",NA,"stimuli/objects/lightbulb01.jpg","left","old"
42,"right",3.9334,4,0.26,"",NA,"stimuli/objects/snowblower.jpg","left","old"
42,"left",1.6208,3,1.1903,"right",0.5239,"","",""
42,"",NA,NA,NA,"",NA,"stimuli/objects/cork02.jpg","left","old"
42,"right",3.4168,4,0.4014,"",NA,"stimuli/objects/cashregister01.jpg","right","new"
42,"right",2.2296,4,0.3953,"",NA,"stimuli/objects/peppermill02b.jpg","right","new"
42,"right",4.0737,2,0.539,"",NA,"stimuli/objects/hockeygoaliepad.jpg","left","old"
42,"right",4.8222,2,0.7574,"",NA,"stimuli/objects/powercable.jpg","right","new"
42,"right",1.4202,3,0.2369,"",NA,"stimuli/objects/lock03a.jpg","right","new"
42,"left",2.8079,3,6.1183,"left",0.8023,"","",""
42,"",NA,NA,NA,"",NA,"stimuli/objects/expansioncard.jpg","left","old"
42,"left",1.4443,4,2.9587,"right",1.4665,"","",""
42,"",NA,NA,NA,"",NA,"stimuli/objects/hourglass.jpg","left","old"
42,"right",2.5749,4,0.385,"",NA,"stimuli/objects/walkman.jpg","right","new"
42,"right",1.2882,3,0.8018,"",NA,"stimuli/objects/audiocablesplitter.jpg","right","new"
42,"right",3.4078,2,0.1516,"",NA,"stimuli/objects/pastaspoon.jpg","left","old"
42,"right",1.4715,3,0.302,"",NA,"stimuli/objects/screwdriver04b.jpg","right","new"
42,"right",2.172,4,0.5025,"",NA,"stimuli/objects/toasteroven.jpg","right","new"
42,"right",0.9451,1,0.9676,"",NA,"stimuli/objects/oven.jpg","left","old"
42,"left",0.971,4,0.2234,"right",0.4201,"","",""
42,"",NA,NA,NA,"",NA,"stimuli/objects/wheelbarrow01.jpg","left","old"
42,"right",3.7736,3,1.5153,"",NA,"stimuli/objects/desktopcomputer.jpg","left","old"
42,"right",1.41,3,0.3096,"",NA,"stimuli/objects/faxmachine.jpg","right","new"
42,"right",2.315,3,0.5866,"",NA,"stimuli/objects/espressomachine.jpg","left","old"
42,"left",2.2764,2,0.4344,"left",0.7496,"","",""
42,"",NA,NA,NA,"",NA,"stimuli/objects/golfball.jpg","right","new"
42,"left",1.279,3,2.2057,"left",0.4791,"","",""
42,"",NA,NA,NA,"",NA,"stimuli/objects/spicerack.jpg","left","old"
42,"right",1.9513,4,0.9703,"",NA,"stimuli/objects/videotape01b.jpg","right","new"
42,"right",1.3672,2,0.4821,"",NA,"stimuli/objects/boltcutter.jpg","left","old"
42,"right",3.0028,3,1.1367,"",NA,"stimuli/objects/antenna.jpg","left","old"
42,"right",4.2876,3,0.8569,"",NA,"stimuli/objects/measuringcup01.jpg","left","old"
42,"left",1.4513,3,1.7687,"right",0.5896,"","",""
42,"",NA,NA,NA,"",NA,"stimuli/objects/nintendods.jpg","left","old"
42,"left",1.2398,3,0.7335,"right",0.3765,"","",""
42,"",NA,NA,NA,"",NA,"stimuli/objects/setsquare.jpg","left","old"
42,"left",3.1514,3,0.5507,"right",0.1774,"","",""
42,"",NA,NA,NA,"",NA,"stimuli/objects/bikepump01.jpg","left","old"
42,"right",1.1083,4,0.3277,"",NA,"stimuli/objects/atm.jpg","left","old"
42,"right",2.5046,2,0.4538,"",NA,"stimuli/objects/butterdish.jpg","right","new"
42,"left",1.7872,3,1.0161,"left",0.9859,"","",""
42,"",NA,NA,NA,"",NA,"stimuli/objects/canoepaddle02.jpg","left","old"
42,"right",4.6398,4,1.2386,"",NA,"stimuli/objects/spotlight.jpg","right","new"
42,"right",2.7186,4,1.0252,"",NA,"stimuli/objects/lectern01.jpg","left","old"
42,"right",1.0118,4,0.6938,"",NA,"stimuli/objects/pylon01.jpg","right","new"
42,"right",1.3273,4,0.4737,"",NA,"stimuli/objects/frisbee.jpg","right","new"
42,"right",1.3967,4,0.2451,"",NA,"stimuli/objects/battery02b.jpg","right","new"
42,"right",0.9359,4,0.4734,"",NA,"stimuli/objects/sippycup.jpg","right","new"
42,"right",0.7418,4,0.4411,"",NA,"stimuli/objects/garlicpress02a.jpg","right","new"
42,"left",2.173,3,1.1344,"right",0.7388,"","",""
42,"",NA,NA,NA,"",NA,"stimuli/objects/gps.jpg","left","old"
42,"left",5.2399,2,0.2597,"right",1.2747,"","",""
42,"",NA,NA,NA,"",NA,"stimuli/objects/chisel02b.jpg","right","new"
42,"left",3.1685,3,0.893,"left",1.424,"","",""
42,"",NA,NA,NA,"",NA,"stimuli/objects/toyhardhat.jpg","left","old"
42,"right",4.3305,2,0.9288,"",NA,"stimuli/objects/binoculars01b.jpg","right","new"
42,"right",5.4975,4,0.7001,"",NA,"stimuli/objects/carlighter02.jpg","right","new"
42,"left",12.247,2,0.7085,"right",0.4387,"","",""
42,"",NA,NA,NA,"",NA,"stimuli/objects/sledgehammer.jpg","left","old"
42,"left",1.3638,4,4.2755,"right",1.3322,"","",""
42,"",NA,NA,NA,"",NA,"stimuli/objects/aircompressor.jpg","left","old"
42,"left",1.7459,1,0.8968,"left",0.2913,"","",""
42,"",NA,NA,NA,"",NA,"stimuli/objects/baseballbat.jpg","left","old"
42,"right",1.3769,4,1.7244,"",NA,"stimuli/objects/webcam.jpg","right","new"
42,"right",2.367,3,0.3781,"",NA,"stimuli/objects/minifridge.jpg","right","new"
42,"right",3.4641,3,1.245,"",NA,"stimuli/objects/clock01a.jpg","right","new"
42,"right",1.9158,3,0.5494,"",NA,"stimuli/objects/speaker04.jpg","right","new"
42,"left",0.8531,4,0.8342,"left",1.6927,"","",""
42,"",NA,NA,NA,"",NA,"stimuli/objects/lamp04a.jpg","left","old"
42,"right",1.285,4,1.2952,"",NA,"stimuli/objects/golfbag.jpg","right","new"
42,"right",1.5239,4,0.8123,"",NA,"stimuli/objects/carjack.jpg","right","new"
42,"right",1.5196,4,0.4592,"",NA,"stimuli/objects/soundmixer.jpg","right","new"
42,"left",2.3692,4,0.7492,"left",0.3135,"","",""
42,"",NA,NA,NA,"",NA,"stimuli/objects/saladspinner.jpg","left","old"
42,"left",6.9975,4,0.7714,"left",1.0484,"","",""
42,"",NA,NA,NA,"",NA,"stimuli/objects/hockeygoalieglove.jpg","left","old"
42,"left",1.2051,4,1.2504,"right",0.0327,"","",""
42,"",NA,NA,NA,"",NA,"stimuli/objects/rope03.jpg","left","old"
42,"right",2.719,4,0.1527,"",NA,"stimuli/objects/stepladder.jpg","right","new"
42,"right",1.3436,3,0.1129,"",NA,"stimuli/objects/printer02.jpg","right","new"
42,"right",1.2545,4,0.2024,"",NA,"stimuli/objects/snowbrush.jpg","right","new"
42,"right",4.3009,2,0.3277,"",NA,"stimuli/objects/weedwacker.jpg","left","old"
42,"right",1.2709,4,0.3322,"",NA,"stimuli/objects/laptop01a.jpg","right","new"
42,"right",2.3517,3,0.2844,"",NA,"stimuli/objects/shoulderpad.jpg","right","new"
42,"right",1.5322,4,0.2701,"",NA,"stimuli/objects/snowshoe.jpg","right","new"
42,"left",1.7796,4,0.9971,"left",0.5332,"","",""
42,"",NA,NA,NA,"",NA,"stimuli/objects/photocopier.jpg","left","old"
42,"right",0.8811,4,1.2511,"",NA,"stimuli/objects/football.jpg","right","new"
42,"right",2.4271,3,1.141,"",NA,"stimuli/objects/gardenshears01a.jpg","left","old"
42,"left",1.3441,4,1.2451,"left",0.9337,"","",""
42,"",NA,NA,NA,"",NA,"stimuli/objects/gasburner.jpg","left","old"
42,"left",1.4865,4,1.5196,"left",0.6493,"","",""
42,"",NA,NA,NA,"",NA,"stimuli/objects/usbkey.jpg","left","old"
42,"right",4.1633,3,0.5832,"",NA,"stimuli/objects/jigsaw.jpg","left","old"
42,"right",1.8728,3,0.1793,"",NA,"stimuli/objects/woodenspoon.jpg","left","old"
42,"left",3.2874,2,4.3521,"right",1.1025,"","",""
42,"",NA,NA,NA,"",NA,"stimuli/objects/pressurewasher.jpg","left","old"
42,"right",1.0574,4,0.4689,"",NA,"stimuli/objects/megaphone.jpg","right","new"
42,"right",1.1359,4,2.5134,"",NA,"stimuli/objects/tripod01.jpg","right","new"
42,"right",1.8367,4,0.3178,"",NA,"stimuli/objects/nailgun.jpg","right","new"
42,"right",3.2531,4,0.4003,"",NA,"stimuli/objects/basketballhoop01.jpg","right","new"
42,"left",5.3879,2,0.2678,"right",1.22,"","",""
42,"",NA,NA,NA,"",NA,"stimuli/objects/remotecontrol04.jpg","right","new"
42,"right",1.9006,3,0.3774,"",NA,"stimuli/objects/icebucket.jpg","right","new"
42,"right",11.9254,4,1.7435,"",NA,"stimuli/objects/measuringtape01.jpg","right","new"
42,"right",1.4298,4,0.7996,"",NA,"stimuli/objects/gymnasticring.jpg","right","new"
42,"left",1.1468,4,0.5009,"right",2.938,"","",""
42,"",NA,NA,NA,"",NA,"stimuli/objects/ladder.jpg","left","old"
42,"right",8.3592,3,0.4011,"",NA,"stimuli/objects/radio01.jpg","right","new"
42,"left",3.0113,4,1.2187,"right",1.92,"","",""
42,"",NA,NA,NA,"",NA,"stimuli/objects/podium.jpg","left","old"
42,"right",5.1541,4,0.302,"",NA,"stimuli/objects/leafblower01.jpg","right","new"
42,"left",8.4098,2,0.2273,"right",0.8721,"","",""
42,"",NA,NA,NA,"",NA,"stimuli/objects/microphone01.jpg","right","new"
42,"right",1.7751,4,0.3694,"",NA,"stimuli/objects/mitresaw.jpg","right","new"
42,"left",1.6599,4,0.2316,"left",0.3017,"","",""
42,"",NA,NA,NA,"",NA,"stimuli/objects/downhillski.jpg","left","old"
42,"right",0.911,4,0.2385,"",NA,"stimuli/objects/snowman.jpg","right","new"
42,"left",1.0405,3,0.6364,"left",2.5709,"","",""
42,"",NA,NA,NA,"",NA,"stimuli/objects/baseball01a.jpg","left","old"
42,"right",1.9812,4,0.4011,"",NA,"stimuli/objects/kitchenscale01a.jpg","right","new"
42,"right",2.0721,4,0.2996,"",NA,"stimuli/objects/ceilingspeaker.jpg","right","new"
42,"right",0.9226,4,0.7761,"",NA,"stimuli/objects/skateboard.jpg","right","new"
42,"left",2.0194,3,4.1108,"right",1.0187,"","",""
42,"",NA,NA,NA,"",NA,"stimuli/objects/dvdcase01.jpg","left","old"
42,"left",3.5194,4,0.8668,"left",0.763,"","",""
42,"",NA,NA,NA,"",NA,"stimuli/objects/fanblades.jpg","left","old"
42,"right",2.3768,3,0.9819,"",NA,"stimuli/objects/glass02a.jpg","right","new"
42,"left",1.5396,3,1.0181,"left",0.6174,"","",""
42,"",NA,NA,NA,"",NA,"stimuli/objects/martiniglass01b.jpg","left","old"
42,"right",2.2146,2,1.1271,"",NA,"stimuli/objects/microwave.jpg","right","new"
42,"right",2.2131,3,3.8227,"",NA,"stimuli/objects/generator.jpg","right","new"
42,"right",2.7691,3,0.8703,"",NA,"stimuli/objects/cooler01.jpg","left","old"
42,"right",3.5877,2,0.7715,"",NA,"stimuli/objects/pda.jpg","right","new"
42,"left",1.3366,4,1.5193,"right",1.5582,"","",""
42,"",NA,NA,NA,"",NA,"stimuli/objects/satellitedish01.jpg","left","old"
42,"left",1.3299,4,1.7395,"right",0.8609,"","",""
42,"",NA,NA,NA,"",NA,"stimuli/objects/cookiecutter.jpg","left","old"
42,"right",2.1428,4,0.3492,"",NA,"stimuli/objects/cclamp.jpg","right","new"
42,"left",1.1119,4,1.5501,"left",0.4836,"","",""
42,"",NA,NA,NA,"",NA,"stimuli/objects/waterbottle03.jpg","left","old"
42,"left",2.4272,4,1.2322,"right",0.4818,"","",""
42,"",NA,NA,NA,"",NA,"stimuli/objects/anchor.jpg","left","old"
42,"left",3.9818,2,0.1972,"right",0.6487,"","",""
42,"",NA,NA,NA,"",NA,"stimuli/objects/tongs01b.jpg","right","new"
42,"right",1.9096,3,0.2886,"",NA,"stimuli/objects/avcable.jpg","right","new"
42,"right",3.5196,3,0.3924,"",NA,"stimuli/objects/exercisebench.jpg","right","new"
42,"left",1.3512,4,1.3239,"right",1.7657,"","",""
42,"",NA,NA,NA,"",NA,"stimuli/objects/cellphone.jpg","left","old"
42,"left",7.412,2,0.3345,"right",0.5586,"","",""
42,"",NA,NA,NA,"",NA,"stimuli/objects/handmixer01d.jpg","left","old"
42,"left",3.5597,2,1.2753,"right",0.3588,"","",""
42,"",NA,NA,NA,"",NA,"stimuli/objects/axe01.jpg","left","old"
42,"right",1.3544,4,0.4463,"",NA,"stimuli/objects/electricmixer.jpg","right","new"
42,"right",7.9407,4,0.4544,"",NA,"stimuli/objects/paintbrush01.jpg","right","new"
42,"left",2.5065,2,0.1159,"left",0.4597,"","",""
42,"",NA,NA,NA,"",NA,"stimuli/objects/iceskate.jpg","left","old"
42,"right",8.269,2,0.9423,"",NA,"stimuli/objects/djmixer02.jpg","left","old"
42,"right",1.4312,2,0.7693,"",NA,"stimuli/objects/studiolight.jpg","right","new"
42,"right",1.2651,3,1.6936,"",NA,"stimuli/objects/cowbell.jpg","left","old"
42,"left",3.2831,3,0.9773,"right",0.562,"","",""
42,"",NA,NA,NA,"",NA,"stimuli/objects/ducttape.jpg","right","new"
42,"right",1.6496,3,1.2324,"",NA,"stimuli/objects/tableknife02.jpg","right","new"
42,"right",0.9894,4,0.2514,"",NA,"stimuli/objects/icepack.jpg","right","new"
42,"right",4.7214,2,0.9617,"",NA,"stimuli/objects/cookingpot.jpg","left","old"
42,"left",2.1551,4,1.4517,"right",0.0303,"","",""
42,"",NA,NA,NA,"",NA,"stimuli/objects/treadmill.jpg","left","old"
42,"right",1.4993,3,0.4676,"",NA,"stimuli/objects/umbrella04.jpg","right","new"
42,"right",1.4259,1,1.4947,"",NA,"stimuli/objects/level03a.jpg","left","old"
42,"right",1.2216,3,0.4448,"",NA,"stimuli/objects/bastingbrush.jpg","right","new"
42,"right",0.8852,3,0.4369,"",NA,"stimuli/objects/pipewrench.jpg","left","old"
42,"right",1.9375,1,0.2535,"",NA,"stimuli/objects/catchermask.jpg","left","old"
42,"left",2.6177,2,1.2139,"right",1.9469,"","",""
42,"",NA,NA,NA,"",NA,"stimuli/objects/dvdplayer.jpg","left","old"
42,"left",2.3043,2,0.7501,"left",0.9486,"","",""
42,"",NA,NA,NA,"",NA,"stimuli/objects/punchingball.jpg","right","new"
42,"right",1.8488,4,0.8426,"",NA,"stimuli/objects/boogieboard.jpg","right","new"
42,"left",1.2065,4,1.1825,"left",0.208,"","",""
42,"",NA,NA,NA,"",NA,"stimuli/objects/bowl02a.jpg","left","old"
42,"left",1.2903,4,0.3161,"left",0.449,"","",""
42,"",NA,NA,NA,"",NA,"stimuli/objects/bikewheel.jpg","left","old"
42,"",NA,NA,NA,"",NA,"","",""
