instructions_loop.thisRepN,instructions_loop.thisTrialN,instructions_loop.thisN,instructions_loop.thisIndex,instructions_loop.ran,text1,text2,text3,participant,date,expName,psychopyVersion,OS,frameRate,key_resp_2.keys,key_resp_2.rt,key_resp_3.keys,key_resp_3.rt,recog_resp.keys,recog_resp.rt,conf_resp.keys,conf_resp.rt,resp_assoc.keys,resp_assoc.rt,assoc_loop.thisRepN,assoc_loop.thisTrialN,assoc_loop.thisN,assoc_loop.thisIndex,assoc_loop.ran,recog_loop.thisRepN,recog_loop.thisTrialN,recog_loop.thisN,recog_loop.thisIndex,recog_loop.ran,images,corr_ans,type,order,key_resp_break.keys,key_resp_break.rt,list_loop.thisRepN,list_loop.thisTrialN,list_loop.thisN,list_loop.thisIndex,list_loop.ran,recog_list
0,0,0,0,1,Welcome to the last phase of this experiment!,.,Please press the space bar to continue,32,2022-01-27_17h24.14.754,premceCat2_ses-02_part-02_label-phase2,2020.2.10,MacIntel,60,,,,,,,,,,,,,,,,,,,,,,,,,,,,,,,,
0,1,1,1,1,.,"In this phase, you will see some objects. 

For each object, you should indicate whether you have seen it before during the experiment.

Press LEFT ARROW for YES
Press RIGHT ARROW for NO

",Please press the space bar to continue ,32,2022-01-27_17h24.14.754,premceCat2_ses-02_part-02_label-phase2,2020.2.10,MacIntel,60,,,,,,,,,,,,,,,,,,,,,,,,,,,,,,,,
0,2,2,2,1,.,"After that, you will be asked how confident you are of your choice.

Please rate the confidence in your choice with the numbers from 1 to 4 of your keyboard. 

The numbers correspond to:

1 = Very unsure
2 = Unsure
3 = Sure
4 = Very Sure",Please press the space bar to continue,32,2022-01-27_17h24.14.754,premceCat2_ses-02_part-02_label-phase2,2020.2.10,MacIntel,60,,,,,,,,,,,,,,,,,,,,,,,,,,,,,,,,
,,,,,,,,32,2022-01-27_17h24.14.754,premceCat2_ses-02_part-02_label-phase2,2020.2.10,MacIntel,60,space,5.1615,space,9.6537,left,1.3693,4,1.5392,left,2.2186,0,0,0,0,1,,,,,,,,,,,,,,,,,
,,,,,,,,32,2022-01-27_17h24.14.754,premceCat2_ses-02_part-02_label-phase2,2020.2.10,MacIntel,60,,,,,,,,,,,,,,,,0,0,0,130,1,stimuli/objects/hockeypuck.jpg,left,old,131,,,,,,,,
,,,,,,,,32,2022-01-27_17h24.14.754,premceCat2_ses-02_part-02_label-phase2,2020.2.10,MacIntel,60,,,,,right,1.5379,4,1.0345,,,,,,,,0,1,1,22,1,stimuli/objects/umbrella04.jpg,right,new,23,,,,,,,,
,,,,,,,,32,2022-01-27_17h24.14.754,premceCat2_ses-02_part-02_label-phase2,2020.2.10,MacIntel,60,,,,,left,0.8682,3,1.3697,right,4.4458,0,0,0,0,1,,,,,,,,,,,,,,,,,
,,,,,,,,32,2022-01-27_17h24.14.754,premceCat2_ses-02_part-02_label-phase2,2020.2.10,MacIntel,60,,,,,,,,,,,,,,,,0,2,2,97,1,stimuli/objects/djmixer02.jpg,left,old,98,,,,,,,,
,,,,,,,,32,2022-01-27_17h24.14.754,premceCat2_ses-02_part-02_label-phase2,2020.2.10,MacIntel,60,,,,,left,1.4105,4,1.7068,left,0.5114,0,0,0,0,1,,,,,,,,,,,,,,,,,
,,,,,,,,32,2022-01-27_17h24.14.754,premceCat2_ses-02_part-02_label-phase2,2020.2.10,MacIntel,60,,,,,,,,,,,,,,,,0,3,3,142,1,stimuli/objects/waterbottle03.jpg,left,old,143,,,,,,,,
,,,,,,,,32,2022-01-27_17h24.14.754,premceCat2_ses-02_part-02_label-phase2,2020.2.10,MacIntel,60,,,,,left,6.4703,4,1.9151,right,0.8461,0,0,0,0,1,,,,,,,,,,,,,,,,,
,,,,,,,,32,2022-01-27_17h24.14.754,premceCat2_ses-02_part-02_label-phase2,2020.2.10,MacIntel,60,,,,,,,,,,,,,,,,0,4,4,9,1,stimuli/objects/measuringtape01.jpg,right,new,10,,,,,,,,
,,,,,,,,32,2022-01-27_17h24.14.754,premceCat2_ses-02_part-02_label-phase2,2020.2.10,MacIntel,60,,,,,right,2.0133,3,1.2145,,,,,,,,0,5,5,110,1,stimuli/objects/lock03a.jpg,right,new,111,,,,,,,,
,,,,,,,,32,2022-01-27_17h24.14.754,premceCat2_ses-02_part-02_label-phase2,2020.2.10,MacIntel,60,,,,,left,1.8292,4,1.3388,right,0.8796,0,0,0,0,1,,,,,,,,,,,,,,,,,
,,,,,,,,32,2022-01-27_17h24.14.754,premceCat2_ses-02_part-02_label-phase2,2020.2.10,MacIntel,60,,,,,,,,,,,,,,,,0,6,6,115,1,stimuli/objects/flooringstapler.jpg,left,old,116,,,,,,,,
,,,,,,,,32,2022-01-27_17h24.14.754,premceCat2_ses-02_part-02_label-phase2,2020.2.10,MacIntel,60,,,,,left,1.9151,4,0.2336,right,0.5976,0,0,0,0,1,,,,,,,,,,,,,,,,,
,,,,,,,,32,2022-01-27_17h24.14.754,premceCat2_ses-02_part-02_label-phase2,2020.2.10,MacIntel,60,,,,,,,,,,,,,,,,0,7,7,89,1,stimuli/objects/ducttape.jpg,right,new,90,,,,,,,,
,,,,,,,,32,2022-01-27_17h24.14.754,premceCat2_ses-02_part-02_label-phase2,2020.2.10,MacIntel,60,,,,,left,1.6776,4,0.9023,left,2.5314,0,0,0,0,1,,,,,,,,,,,,,,,,,
,,,,,,,,32,2022-01-27_17h24.14.754,premceCat2_ses-02_part-02_label-phase2,2020.2.10,MacIntel,60,,,,,,,,,,,,,,,,0,8,8,122,1,stimuli/objects/wire.jpg,left,old,123,,,,,,,,
,,,,,,,,32,2022-01-27_17h24.14.754,premceCat2_ses-02_part-02_label-phase2,2020.2.10,MacIntel,60,,,,,left,1.1326,4,0.6808,left,0.3678,0,0,0,0,1,,,,,,,,,,,,,,,,,
,,,,,,,,32,2022-01-27_17h24.14.754,premceCat2_ses-02_part-02_label-phase2,2020.2.10,MacIntel,60,,,,,,,,,,,,,,,,0,9,9,15,1,stimuli/objects/spicerack.jpg,left,old,16,,,,,,,,
,,,,,,,,32,2022-01-27_17h24.14.754,premceCat2_ses-02_part-02_label-phase2,2020.2.10,MacIntel,60,,,,,left,1.7968,4,1.1322,left,1.1136,0,0,0,0,1,,,,,,,,,,,,,,,,,
,,,,,,,,32,2022-01-27_17h24.14.754,premceCat2_ses-02_part-02_label-phase2,2020.2.10,MacIntel,60,,,,,,,,,,,,,,,,0,10,10,34,1,stimuli/objects/surfboard.jpg,left,old,35,,,,,,,,
,,,,,,,,32,2022-01-27_17h24.14.754,premceCat2_ses-02_part-02_label-phase2,2020.2.10,MacIntel,60,,,,,right,1.2821,4,1.0479,,,,,,,,0,11,11,111,1,stimuli/objects/speaker04.jpg,right,new,112,,,,,,,,
,,,,,,,,32,2022-01-27_17h24.14.754,premceCat2_ses-02_part-02_label-phase2,2020.2.10,MacIntel,60,,,,,right,2.4812,3,0.724,,,,,,,,0,12,12,54,1,stimuli/objects/pda.jpg,right,new,55,,,,,,,,
,,,,,,,,32,2022-01-27_17h24.14.754,premceCat2_ses-02_part-02_label-phase2,2020.2.10,MacIntel,60,,,,,left,0.9119,4,0.7002,right,0.6111,0,0,0,0,1,,,,,,,,,,,,,,,,,
,,,,,,,,32,2022-01-27_17h24.14.754,premceCat2_ses-02_part-02_label-phase2,2020.2.10,MacIntel,60,,,,,,,,,,,,,,,,0,13,13,48,1,stimuli/objects/gasburner.jpg,left,old,49,,,,,,,,
,,,,,,,,32,2022-01-27_17h24.14.754,premceCat2_ses-02_part-02_label-phase2,2020.2.10,MacIntel,60,,,,,left,0.9358,4,0.4941,left,1.548,0,0,0,0,1,,,,,,,,,,,,,,,,,
,,,,,,,,32,2022-01-27_17h24.14.754,premceCat2_ses-02_part-02_label-phase2,2020.2.10,MacIntel,60,,,,,,,,,,,,,,,,0,14,14,44,1,stimuli/objects/toyhardhat.jpg,left,old,45,,,,,,,,
,,,,,,,,32,2022-01-27_17h24.14.754,premceCat2_ses-02_part-02_label-phase2,2020.2.10,MacIntel,60,,,,,right,1.1444,4,0.2303,,,,,,,,0,15,15,94,1,stimuli/objects/electricmixer.jpg,right,new,95,,,,,,,,
,,,,,,,,32,2022-01-27_17h24.14.754,premceCat2_ses-02_part-02_label-phase2,2020.2.10,MacIntel,60,,,,,left,0.786,4,0.4452,right,0.2625,0,0,0,0,1,,,,,,,,,,,,,,,,,
,,,,,,,,32,2022-01-27_17h24.14.754,premceCat2_ses-02_part-02_label-phase2,2020.2.10,MacIntel,60,,,,,,,,,,,,,,,,0,16,16,3,1,stimuli/objects/towel01.jpg,left,old,4,,,,,,,,
,,,,,,,,32,2022-01-27_17h24.14.754,premceCat2_ses-02_part-02_label-phase2,2020.2.10,MacIntel,60,,,,,left,0.8458,4,0.3296,left,0.2034,0,0,0,0,1,,,,,,,,,,,,,,,,,
,,,,,,,,32,2022-01-27_17h24.14.754,premceCat2_ses-02_part-02_label-phase2,2020.2.10,MacIntel,60,,,,,,,,,,,,,,,,0,17,17,49,1,stimuli/objects/badmintonracket.jpg,left,old,50,,,,,,,,
,,,,,,,,32,2022-01-27_17h24.14.754,premceCat2_ses-02_part-02_label-phase2,2020.2.10,MacIntel,60,,,,,left,1.2099,4,0.0948,left,0.3057,0,0,0,0,1,,,,,,,,,,,,,,,,,
,,,,,,,,32,2022-01-27_17h24.14.754,premceCat2_ses-02_part-02_label-phase2,2020.2.10,MacIntel,60,,,,,,,,,,,,,,,,0,18,18,140,1,stimuli/objects/volleyball.jpg,left,old,141,,,,,,,,
,,,,,,,,32,2022-01-27_17h24.14.754,premceCat2_ses-02_part-02_label-phase2,2020.2.10,MacIntel,60,,,,,left,0.9476,4,0.1956,right,0.0742,0,0,0,0,1,,,,,,,,,,,,,,,,,
,,,,,,,,32,2022-01-27_17h24.14.754,premceCat2_ses-02_part-02_label-phase2,2020.2.10,MacIntel,60,,,,,,,,,,,,,,,,0,19,19,135,1,stimuli/objects/drillbit03a.jpg,left,old,136,,,,,,,,
,,,,,,,,32,2022-01-27_17h24.14.754,premceCat2_ses-02_part-02_label-phase2,2020.2.10,MacIntel,60,,,,,left,1.3875,4,0.8323,left,0.2178,0,0,0,0,1,,,,,,,,,,,,,,,,,
,,,,,,,,32,2022-01-27_17h24.14.754,premceCat2_ses-02_part-02_label-phase2,2020.2.10,MacIntel,60,,,,,,,,,,,,,,,,0,20,20,28,1,stimuli/objects/backpack01a.jpg,left,old,29,,,,,,,,
,,,,,,,,32,2022-01-27_17h24.14.754,premceCat2_ses-02_part-02_label-phase2,2020.2.10,MacIntel,60,,,,,left,1.365,4,0.2618,right,0.646,0,0,0,0,1,,,,,,,,,,,,,,,,,
,,,,,,,,32,2022-01-27_17h24.14.754,premceCat2_ses-02_part-02_label-phase2,2020.2.10,MacIntel,60,,,,,,,,,,,,,,,,0,21,21,69,1,stimuli/objects/atm.jpg,left,old,70,,,,,,,,
,,,,,,,,32,2022-01-27_17h24.14.754,premceCat2_ses-02_part-02_label-phase2,2020.2.10,MacIntel,60,,,,,right,1.906,3,0.4689,,,,,,,,0,22,22,90,1,stimuli/objects/carlighter02.jpg,right,new,91,,,,,,,,
,,,,,,,,32,2022-01-27_17h24.14.754,premceCat2_ses-02_part-02_label-phase2,2020.2.10,MacIntel,60,,,,,right,2.2338,2,0.5815,,,,,,,,0,23,23,121,1,stimuli/objects/ceilingspeaker.jpg,right,new,122,,,,,,,,
,,,,,,,,32,2022-01-27_17h24.14.754,premceCat2_ses-02_part-02_label-phase2,2020.2.10,MacIntel,60,,,,,right,3.1894,2,0.6863,,,,,,,,0,24,24,18,1,stimuli/objects/cashregister01.jpg,right,new,19,,,,,,,,
,,,,,,,,32,2022-01-27_17h24.14.754,premceCat2_ses-02_part-02_label-phase2,2020.2.10,MacIntel,60,,,,,right,3.7429,2,0.3687,,,,,,,,0,25,25,73,1,stimuli/objects/clock01a.jpg,right,new,74,,,,,,,,
,,,,,,,,32,2022-01-27_17h24.14.754,premceCat2_ses-02_part-02_label-phase2,2020.2.10,MacIntel,60,,,,,left,0.8191,4,0.2382,right,1.032,0,0,0,0,1,,,,,,,,,,,,,,,,,
,,,,,,,,32,2022-01-27_17h24.14.754,premceCat2_ses-02_part-02_label-phase2,2020.2.10,MacIntel,60,,,,,,,,,,,,,,,,0,26,26,37,1,stimuli/objects/aircompressor.jpg,left,old,38,,,,,,,,
,,,,,,,,32,2022-01-27_17h24.14.754,premceCat2_ses-02_part-02_label-phase2,2020.2.10,MacIntel,60,,,,,right,2.9885,3,0.8334,,,,,,,,0,27,27,109,1,stimuli/objects/winerack.jpg,right,new,110,,,,,,,,
,,,,,,,,32,2022-01-27_17h24.14.754,premceCat2_ses-02_part-02_label-phase2,2020.2.10,MacIntel,60,,,,,right,1.5316,3,0.2059,,,,,,,,0,28,28,43,1,stimuli/objects/punchingball.jpg,right,new,44,,,,,,,,
,,,,,,,,32,2022-01-27_17h24.14.754,premceCat2_ses-02_part-02_label-phase2,2020.2.10,MacIntel,60,,,,,left,1.1045,4,0.6304,right,0.4441,0,0,0,0,1,,,,,,,,,,,,,,,,,
,,,,,,,,32,2022-01-27_17h24.14.754,premceCat2_ses-02_part-02_label-phase2,2020.2.10,MacIntel,60,,,,,,,,,,,,,,,,0,29,29,29,1,stimuli/objects/ipad02.jpg,left,old,30,,,,,,,,
,,,,,,,,32,2022-01-27_17h24.14.754,premceCat2_ses-02_part-02_label-phase2,2020.2.10,MacIntel,60,,,,,left,0.6077,4,0.3804,left,0.239,0,0,0,0,1,,,,,,,,,,,,,,,,,
,,,,,,,,32,2022-01-27_17h24.14.754,premceCat2_ses-02_part-02_label-phase2,2020.2.10,MacIntel,60,,,,,,,,,,,,,,,,0,30,30,23,1,stimuli/objects/football.jpg,right,new,24,,,,,,,,
,,,,,,,,32,2022-01-27_17h24.14.754,premceCat2_ses-02_part-02_label-phase2,2020.2.10,MacIntel,60,,,,,left,1.0259,4,0.4873,right,0.4584,0,0,0,0,1,,,,,,,,,,,,,,,,,
,,,,,,,,32,2022-01-27_17h24.14.754,premceCat2_ses-02_part-02_label-phase2,2020.2.10,MacIntel,60,,,,,,,,,,,,,,,,0,31,31,7,1,stimuli/objects/hammer01.jpg,left,old,8,,,,,,,,
,,,,,,,,32,2022-01-27_17h24.14.754,premceCat2_ses-02_part-02_label-phase2,2020.2.10,MacIntel,60,,,,,right,0.8698,4,0.5106,,,,,,,,0,32,32,4,1,stimuli/objects/microphone01.jpg,right,new,5,,,,,,,,
,,,,,,,,32,2022-01-27_17h24.14.754,premceCat2_ses-02_part-02_label-phase2,2020.2.10,MacIntel,60,,,,,right,1.6825,2,0.5638,,,,,,,,0,33,33,83,1,stimuli/objects/kitchenscale01a.jpg,right,new,84,,,,,,,,
,,,,,,,,32,2022-01-27_17h24.14.754,premceCat2_ses-02_part-02_label-phase2,2020.2.10,MacIntel,60,,,,,right,1.7802,3,0.4329,,,,,,,,0,34,34,75,1,stimuli/objects/stepladder.jpg,right,new,76,,,,,,,,
,,,,,,,,32,2022-01-27_17h24.14.754,premceCat2_ses-02_part-02_label-phase2,2020.2.10,MacIntel,60,,,,,left,0.8202,4,0.3783,right,1.3633,0,0,0,0,1,,,,,,,,,,,,,,,,,
,,,,,,,,32,2022-01-27_17h24.14.754,premceCat2_ses-02_part-02_label-phase2,2020.2.10,MacIntel,60,,,,,,,,,,,,,,,,0,35,35,10,1,stimuli/objects/vhstape.jpg,left,old,11,,,,,,,,
,,,,,,,,32,2022-01-27_17h24.14.754,premceCat2_ses-02_part-02_label-phase2,2020.2.10,MacIntel,60,,,,,right,2.4791,3,0.8077,,,,,,,,0,36,36,119,1,stimuli/objects/tongs01b.jpg,right,new,120,,,,,,,,
,,,,,,,,32,2022-01-27_17h24.14.754,premceCat2_ses-02_part-02_label-phase2,2020.2.10,MacIntel,60,,,,,left,2.576,3,1.3666,right,0.7435,0,0,0,0,1,,,,,,,,,,,,,,,,,
,,,,,,,,32,2022-01-27_17h24.14.754,premceCat2_ses-02_part-02_label-phase2,2020.2.10,MacIntel,60,,,,,,,,,,,,,,,,0,37,37,136,1,stimuli/objects/battery02b.jpg,right,new,137,,,,,,,,
,,,,,,,,32,2022-01-27_17h24.14.754,premceCat2_ses-02_part-02_label-phase2,2020.2.10,MacIntel,60,,,,,left,0.8038,4,0.4837,right,0.3681,0,0,0,0,1,,,,,,,,,,,,,,,,,
,,,,,,,,32,2022-01-27_17h24.14.754,premceCat2_ses-02_part-02_label-phase2,2020.2.10,MacIntel,60,,,,,,,,,,,,,,,,0,38,38,31,1,stimuli/objects/metalbrush.jpg,left,old,32,,,,,,,,
,,,,,,,,32,2022-01-27_17h24.14.754,premceCat2_ses-02_part-02_label-phase2,2020.2.10,MacIntel,60,,,,,right,1.1815,4,0.2882,,,,,,,,0,39,39,59,1,stimuli/objects/studiolight.jpg,right,new,60,,,,,,,,
,,,,,,,,32,2022-01-27_17h24.14.754,premceCat2_ses-02_part-02_label-phase2,2020.2.10,MacIntel,60,,,,,right,7.224,2,0.3619,,,,,,,,0,40,40,116,1,stimuli/objects/radio01.jpg,right,new,117,,,,,,,,
,,,,,,,,32,2022-01-27_17h24.14.754,premceCat2_ses-02_part-02_label-phase2,2020.2.10,MacIntel,60,,,,,left,1.0337,4,0.5976,left,0.3011,0,0,0,0,1,,,,,,,,,,,,,,,,,
,,,,,,,,32,2022-01-27_17h24.14.754,premceCat2_ses-02_part-02_label-phase2,2020.2.10,MacIntel,60,,,,,,,,,,,,,,,,0,41,41,24,1,stimuli/objects/skateboard.jpg,right,new,25,,,,,,,,
,,,,,,,,32,2022-01-27_17h24.14.754,premceCat2_ses-02_part-02_label-phase2,2020.2.10,MacIntel,60,,,,,left,1.7532,4,0.2602,left,1.3102,0,0,0,0,1,,,,,,,,,,,,,,,,,
,,,,,,,,32,2022-01-27_17h24.14.754,premceCat2_ses-02_part-02_label-phase2,2020.2.10,MacIntel,60,,,,,,,,,,,,,,,,0,42,42,70,1,stimuli/objects/oven.jpg,left,old,71,,,,,,,,
,,,,,,,,32,2022-01-27_17h24.14.754,premceCat2_ses-02_part-02_label-phase2,2020.2.10,MacIntel,60,,,,,right,0.8452,4,1.0188,,,,,,,,0,43,43,125,1,stimuli/objects/shoulderpad.jpg,right,new,126,,,,,,,,
,,,,,,,,32,2022-01-27_17h24.14.754,premceCat2_ses-02_part-02_label-phase2,2020.2.10,MacIntel,60,,,,,right,1.0582,3,0.3962,,,,,,,,0,44,44,46,1,stimuli/objects/walkman.jpg,right,new,47,,,,,,,,
,,,,,,,,32,2022-01-27_17h24.14.754,premceCat2_ses-02_part-02_label-phase2,2020.2.10,MacIntel,60,,,,,right,1.0402,2,0.2481,,,,,,,,0,45,45,12,1,stimuli/objects/garlicpress02a.jpg,right,new,13,,,,,,,,
,,,,,,,,32,2022-01-27_17h24.14.754,premceCat2_ses-02_part-02_label-phase2,2020.2.10,MacIntel,60,,,,,left,4.1681,4,0.2479,left,0.2294,0,0,0,0,1,,,,,,,,,,,,,,,,,
,,,,,,,,32,2022-01-27_17h24.14.754,premceCat2_ses-02_part-02_label-phase2,2020.2.10,MacIntel,60,,,,,,,,,,,,,,,,0,46,46,132,1,stimuli/objects/airconditioner.jpg,left,old,133,,,,,,,,
,,,,,,,,32,2022-01-27_17h24.14.754,premceCat2_ses-02_part-02_label-phase2,2020.2.10,MacIntel,60,,,,,right,0.814,3,0.2581,,,,,,,,0,47,47,8,1,stimuli/objects/basketballhoop01.jpg,right,new,9,,,,,,,,
,,,,,,,,32,2022-01-27_17h24.14.754,premceCat2_ses-02_part-02_label-phase2,2020.2.10,MacIntel,60,,,,,left,3.5446,3,0.6859,right,0.7728,0,0,0,0,1,,,,,,,,,,,,,,,,,
,,,,,,,,32,2022-01-27_17h24.14.754,premceCat2_ses-02_part-02_label-phase2,2020.2.10,MacIntel,60,,,,,,,,,,,,,,,,0,48,48,68,1,stimuli/objects/leafblower01.jpg,right,new,69,,,,,,,,
,,,,,,,,32,2022-01-27_17h24.14.754,premceCat2_ses-02_part-02_label-phase2,2020.2.10,MacIntel,60,,,,,right,0.8658,2,0.0428,,,,,,,,0,49,49,13,1,stimuli/objects/bastingbrush.jpg,right,new,14,,,,,,,,
,,,,,,,,32,2022-01-27_17h24.14.754,premceCat2_ses-02_part-02_label-phase2,2020.2.10,MacIntel,60,,,,,right,1.3668,4,0.2639,,,,,,,,0,50,50,39,1,stimuli/objects/sippycup.jpg,right,new,40,,,,,,,,
,,,,,,,,32,2022-01-27_17h24.14.754,premceCat2_ses-02_part-02_label-phase2,2020.2.10,MacIntel,60,,,,,right,2.2626,2,0.1841,,,,,,,,0,51,51,131,1,stimuli/objects/spotlight.jpg,right,new,132,,,,,,,,
,,,,,,,,32,2022-01-27_17h24.14.754,premceCat2_ses-02_part-02_label-phase2,2020.2.10,MacIntel,60,,,,,left,0.7301,4,0.3979,left,1.9454,0,0,0,0,1,,,,,,,,,,,,,,,,,
,,,,,,,,32,2022-01-27_17h24.14.754,premceCat2_ses-02_part-02_label-phase2,2020.2.10,MacIntel,60,,,,,,,,,,,,,,,,0,52,52,137,1,stimuli/objects/podium.jpg,left,old,138,,,,,,,,
,,,,,,,,32,2022-01-27_17h24.14.754,premceCat2_ses-02_part-02_label-phase2,2020.2.10,MacIntel,60,,,,,right,1.3725,2,0.2523,,,,,,,,0,53,53,85,1,stimuli/objects/golfball.jpg,right,new,86,,,,,,,,
,,,,,,,,32,2022-01-27_17h24.14.754,premceCat2_ses-02_part-02_label-phase2,2020.2.10,MacIntel,60,,,,,left,0.7513,4,0.565,left,0.2661,0,0,0,0,1,,,,,,,,,,,,,,,,,
,,,,,,,,32,2022-01-27_17h24.14.754,premceCat2_ses-02_part-02_label-phase2,2020.2.10,MacIntel,60,,,,,,,,,,,,,,,,0,54,54,120,1,stimuli/objects/muffintray01.jpg,left,old,121,,,,,,,,
,,,,,,,,32,2022-01-27_17h24.14.754,premceCat2_ses-02_part-02_label-phase2,2020.2.10,MacIntel,60,,,,,right,1.596,1,1.6159,,,,,,,,0,55,55,72,1,stimuli/objects/cclamp.jpg,right,new,73,,,,,,,,
,,,,,,,,32,2022-01-27_17h24.14.754,premceCat2_ses-02_part-02_label-phase2,2020.2.10,MacIntel,60,,,,,left,1.0697,4,0.0961,right,0.7956,0,0,0,0,1,,,,,,,,,,,,,,,,,
,,,,,,,,32,2022-01-27_17h24.14.754,premceCat2_ses-02_part-02_label-phase2,2020.2.10,MacIntel,60,,,,,,,,,,,,,,,,0,56,56,88,1,stimuli/objects/cowbell.jpg,left,old,89,,,,,,,,
,,,,,,,,32,2022-01-27_17h24.14.754,premceCat2_ses-02_part-02_label-phase2,2020.2.10,MacIntel,60,,,,,left,0.8666,4,0.1712,right,1.6649,0,0,0,0,1,,,,,,,,,,,,,,,,,
,,,,,,,,32,2022-01-27_17h24.14.754,premceCat2_ses-02_part-02_label-phase2,2020.2.10,MacIntel,60,,,,,,,,,,,,,,,,0,57,57,56,1,stimuli/objects/jar02.jpg,left,old,57,,,,,,,,
,,,,,,,,32,2022-01-27_17h24.14.754,premceCat2_ses-02_part-02_label-phase2,2020.2.10,MacIntel,60,,,,,left,0.8353,4,0.0485,left,0.3882,0,0,0,0,1,,,,,,,,,,,,,,,,,
,,,,,,,,32,2022-01-27_17h24.14.754,premceCat2_ses-02_part-02_label-phase2,2020.2.10,MacIntel,60,,,,,,,,,,,,,,,,0,58,58,45,1,stimuli/objects/butterknife.jpg,left,old,46,,,,,,,,
,,,,,,,,32,2022-01-27_17h24.14.754,premceCat2_ses-02_part-02_label-phase2,2020.2.10,MacIntel,60,,,,,left,0.8165,4,0.1774,right,0.227,0,0,0,0,1,,,,,,,,,,,,,,,,,
,,,,,,,,32,2022-01-27_17h24.14.754,premceCat2_ses-02_part-02_label-phase2,2020.2.10,MacIntel,60,,,,,,,,,,,,,,,,0,59,59,104,1,stimuli/objects/securitycamera.jpg,left,old,105,,,,,,,,
,,,,,,,,32,2022-01-27_17h24.14.754,premceCat2_ses-02_part-02_label-phase2,2020.2.10,MacIntel,60,,,,,left,2.5481,3,1.2302,right,0.1784,0,0,0,0,1,,,,,,,,,,,,,,,,,
,,,,,,,,32,2022-01-27_17h24.14.754,premceCat2_ses-02_part-02_label-phase2,2020.2.10,MacIntel,60,,,,,,,,,,,,,,,,0,60,60,71,1,stimuli/objects/faxmachine.jpg,right,new,72,,,,,,,,
,,,,,,,,32,2022-01-27_17h24.14.754,premceCat2_ses-02_part-02_label-phase2,2020.2.10,MacIntel,60,,,,,left,0.9847,3,0.2339,right,0.514,0,0,0,0,1,,,,,,,,,,,,,,,,,
,,,,,,,,32,2022-01-27_17h24.14.754,premceCat2_ses-02_part-02_label-phase2,2020.2.10,MacIntel,60,,,,,,,,,,,,,,,,0,61,61,76,1,stimuli/objects/megaphone.jpg,right,new,77,,,,,,,,
,,,,,,,,32,2022-01-27_17h24.14.754,premceCat2_ses-02_part-02_label-phase2,2020.2.10,MacIntel,60,,,,,left,1.5486,2,0.7062,left,0.2174,0,0,0,0,1,,,,,,,,,,,,,,,,,
,,,,,,,,32,2022-01-27_17h24.14.754,premceCat2_ses-02_part-02_label-phase2,2020.2.10,MacIntel,60,,,,,,,,,,,,,,,,0,62,62,27,1,stimuli/objects/catchermask.jpg,left,old,28,,,,,,,,
,,,,,,,,32,2022-01-27_17h24.14.754,premceCat2_ses-02_part-02_label-phase2,2020.2.10,MacIntel,60,,,,,left,0.95,4,0.1866,left,0.0644,0,0,0,0,1,,,,,,,,,,,,,,,,,
,,,,,,,,32,2022-01-27_17h24.14.754,premceCat2_ses-02_part-02_label-phase2,2020.2.10,MacIntel,60,,,,,,,,,,,,,,,,0,63,63,98,1,stimuli/objects/toyhockeystick01.jpg,left,old,99,,,,,,,,
,,,,,,,,32,2022-01-27_17h24.14.754,premceCat2_ses-02_part-02_label-phase2,2020.2.10,MacIntel,60,,,,,right,1.3514,2,0.3537,,,,,,,,0,64,64,113,1,stimuli/objects/powercable.jpg,right,new,114,,,,,,,,
,,,,,,,,32,2022-01-27_17h24.14.754,premceCat2_ses-02_part-02_label-phase2,2020.2.10,MacIntel,60,,,,,left,0.9642,4,0.0035,left,0.2121,0,0,0,0,1,,,,,,,,,,,,,,,,,
,,,,,,,,32,2022-01-27_17h24.14.754,premceCat2_ses-02_part-02_label-phase2,2020.2.10,MacIntel,60,,,,,,,,,,,,,,,,0,65,65,78,1,stimuli/objects/servingspoon01.jpg,left,old,79,,,,,,,,
,,,,,,,,32,2022-01-27_17h24.14.754,premceCat2_ses-02_part-02_label-phase2,2020.2.10,MacIntel,60,,,,,left,2.6809,3,0.4164,right,0.2209,0,0,0,0,1,,,,,,,,,,,,,,,,,
,,,,,,,,32,2022-01-27_17h24.14.754,premceCat2_ses-02_part-02_label-phase2,2020.2.10,MacIntel,60,,,,,,,,,,,,,,,,0,66,66,53,1,stimuli/objects/binoculars01b.jpg,right,new,54,,,,,,,,
,,,,,,,,32,2022-01-27_17h24.14.754,premceCat2_ses-02_part-02_label-phase2,2020.2.10,MacIntel,60,,,,,right,1.1833,2,0.0094,,,,,,,,0,67,67,92,1,stimuli/objects/carjack.jpg,right,new,93,,,,,,,,
,,,,,,,,32,2022-01-27_17h24.14.754,premceCat2_ses-02_part-02_label-phase2,2020.2.10,MacIntel,60,,,,,right,2.0555,3,0.096,,,,,,,,0,68,68,30,1,stimuli/objects/printer02.jpg,right,new,31,,,,,,,,
,,,,,,,,32,2022-01-27_17h24.14.754,premceCat2_ses-02_part-02_label-phase2,2020.2.10,MacIntel,60,,,,,right,1.051,1,0.3189,,,,,,,,0,69,69,81,1,stimuli/objects/avcable.jpg,right,new,82,,,,,,,,
,,,,,,,,32,2022-01-27_17h24.14.754,premceCat2_ses-02_part-02_label-phase2,2020.2.10,MacIntel,60,,,,,left,0.7922,4,0.2647,right,0.2565,0,0,0,0,1,,,,,,,,,,,,,,,,,
,,,,,,,,32,2022-01-27_17h24.14.754,premceCat2_ses-02_part-02_label-phase2,2020.2.10,MacIntel,60,,,,,,,,,,,,,,,,0,70,70,77,1,stimuli/objects/lightbulb01.jpg,left,old,78,,,,,,,,
,,,,,,,,32,2022-01-27_17h24.14.754,premceCat2_ses-02_part-02_label-phase2,2020.2.10,MacIntel,60,,,,,left,0.7332,4,1.0309,left,0.0004,0,0,0,0,1,,,,,,,,,,,,,,,,,
,,,,,,,,32,2022-01-27_17h24.14.754,premceCat2_ses-02_part-02_label-phase2,2020.2.10,MacIntel,60,,,,,,,,,,,,,,,,0,71,71,64,1,stimuli/objects/snowshovel.jpg,left,old,65,,,,,,,,
,,,,,,,,32,2022-01-27_17h24.14.754,premceCat2_ses-02_part-02_label-phase2,2020.2.10,MacIntel,60,,,,,right,1.3129,4,0.0645,,,,,,,,0,72,72,117,1,stimuli/objects/videotape01b.jpg,right,new,118,,,,,,,,
,,,,,,,,32,2022-01-27_17h24.14.754,premceCat2_ses-02_part-02_label-phase2,2020.2.10,MacIntel,60,,,,,left,0.7246,4,0.2988,left,0.3283,0,0,0,0,1,,,,,,,,,,,,,,,,,
,,,,,,,,32,2022-01-27_17h24.14.754,premceCat2_ses-02_part-02_label-phase2,2020.2.10,MacIntel,60,,,,,,,,,,,,,,,,0,73,73,107,1,stimuli/objects/martiniglass01b.jpg,left,old,108,,,,,,,,
,,,,,,,,32,2022-01-27_17h24.14.754,premceCat2_ses-02_part-02_label-phase2,2020.2.10,MacIntel,60,,,,,left,0.7893,4,0.3216,left,0.1282,0,0,0,0,1,,,,,,,,,,,,,,,,,
,,,,,,,,32,2022-01-27_17h24.14.754,premceCat2_ses-02_part-02_label-phase2,2020.2.10,MacIntel,60,,,,,,,,,,,,,,,,0,74,74,84,1,stimuli/objects/swimgoggles.jpg,left,old,85,,,,,,,,
,,,,,,,,32,2022-01-27_17h24.14.754,premceCat2_ses-02_part-02_label-phase2,2020.2.10,MacIntel,60,,,,,left,0.665,4,0.1296,left,0.4969,0,0,0,0,1,,,,,,,,,,,,,,,,,
,,,,,,,,32,2022-01-27_17h24.14.754,premceCat2_ses-02_part-02_label-phase2,2020.2.10,MacIntel,60,,,,,,,,,,,,,,,,0,75,75,52,1,stimuli/objects/bottlecap.jpg,left,old,53,,,,,,,,
,,,,,,,,32,2022-01-27_17h24.14.754,premceCat2_ses-02_part-02_label-phase2,2020.2.10,MacIntel,60,,,,,right,0.7117,4,0.0801,,,,,,,,0,76,76,112,1,stimuli/objects/gymnasticring.jpg,right,new,113,,,,,,,,
,,,,,,,,32,2022-01-27_17h24.14.754,premceCat2_ses-02_part-02_label-phase2,2020.2.10,MacIntel,60,,,,,left,2.5948,4,0.2045,left,0.0954,0,0,0,0,1,,,,,,,,,,,,,,,,,
,,,,,,,,32,2022-01-27_17h24.14.754,premceCat2_ses-02_part-02_label-phase2,2020.2.10,MacIntel,60,,,,,,,,,,,,,,,,0,77,77,17,1,stimuli/objects/exercisebench.jpg,right,new,18,,,,,,,,
,,,,,,,,32,2022-01-27_17h24.14.754,premceCat2_ses-02_part-02_label-phase2,2020.2.10,MacIntel,60,,,,,right,1.4587,4,0.0647,,,,,,,,0,78,78,93,1,stimuli/objects/icepack.jpg,right,new,94,,,,,,,,
,,,,,,,,32,2022-01-27_17h24.14.754,premceCat2_ses-02_part-02_label-phase2,2020.2.10,MacIntel,60,,,,,left,0.7968,4,0.0783,left,0.0697,0,0,0,0,1,,,,,,,,,,,,,,,,,
,,,,,,,,32,2022-01-27_17h24.14.754,premceCat2_ses-02_part-02_label-phase2,2020.2.10,MacIntel,60,,,,,,,,,,,,,,,,0,79,79,74,1,stimuli/objects/treadmill.jpg,left,old,75,,,,,,,,
,,,,,,,,32,2022-01-27_17h24.14.754,premceCat2_ses-02_part-02_label-phase2,2020.2.10,MacIntel,60,,,,,left,0.7657,4,0.0603,right,0.102,0,0,0,0,1,,,,,,,,,,,,,,,,,
,,,,,,,,32,2022-01-27_17h24.14.754,premceCat2_ses-02_part-02_label-phase2,2020.2.10,MacIntel,60,,,,,,,,,,,,,,,,0,80,80,65,1,stimuli/objects/tape02a.jpg,left,old,66,,,,,,,,
,,,,,,,,32,2022-01-27_17h24.14.754,premceCat2_ses-02_part-02_label-phase2,2020.2.10,MacIntel,60,,,,,right,1.6117,4,0.6154,,,,,,,,0,81,81,106,1,stimuli/objects/minifridge.jpg,right,new,107,,,,,,,,
,,,,,,,,32,2022-01-27_17h24.14.754,premceCat2_ses-02_part-02_label-phase2,2020.2.10,MacIntel,60,,,,,left,0.7474,4,0.1103,right,0.1643,0,0,0,0,1,,,,,,,,,,,,,,,,,
,,,,,,,,32,2022-01-27_17h24.14.754,premceCat2_ses-02_part-02_label-phase2,2020.2.10,MacIntel,60,,,,,,,,,,,,,,,,0,82,82,79,1,stimuli/objects/gps.jpg,left,old,80,,,,,,,,
,,,,,,,,32,2022-01-27_17h24.14.754,premceCat2_ses-02_part-02_label-phase2,2020.2.10,MacIntel,60,,,,,left,0.8819,4,0.5009,right,0.0967,0,0,0,0,1,,,,,,,,,,,,,,,,,
,,,,,,,,32,2022-01-27_17h24.14.754,premceCat2_ses-02_part-02_label-phase2,2020.2.10,MacIntel,60,,,,,,,,,,,,,,,,0,83,83,129,1,stimuli/objects/corkscrew03a.jpg,left,old,130,,,,,,,,
,,,,,,,,32,2022-01-27_17h24.14.754,premceCat2_ses-02_part-02_label-phase2,2020.2.10,MacIntel,60,,,,,right,0.8193,3,0.2999,,,,,,,,0,84,84,108,1,stimuli/objects/metalscissors.jpg,right,new,109,,,,,,,,
,,,,,,,,32,2022-01-27_17h24.14.754,premceCat2_ses-02_part-02_label-phase2,2020.2.10,MacIntel,60,,,,,left,1.2143,4,0.1604,right,0.3956,0,0,0,0,1,,,,,,,,,,,,,,,,,
,,,,,,,,32,2022-01-27_17h24.14.754,premceCat2_ses-02_part-02_label-phase2,2020.2.10,MacIntel,60,,,,,,,,,,,,,,,,0,85,85,50,1,stimuli/objects/chisel02b.jpg,right,new,51,,,,,,,,
,,,,,,,,32,2022-01-27_17h24.14.754,premceCat2_ses-02_part-02_label-phase2,2020.2.10,MacIntel,60,,,,,right,1.3123,4,0.0004,,,,,,,,0,86,86,139,1,stimuli/objects/frisbee.jpg,right,new,140,,,,,,,,
,,,,,,,,32,2022-01-27_17h24.14.754,premceCat2_ses-02_part-02_label-phase2,2020.2.10,MacIntel,60,,,,,left,1.1218,3,0.8817,right,0.9643,0,0,0,0,1,,,,,,,,,,,,,,,,,
,,,,,,,,32,2022-01-27_17h24.14.754,premceCat2_ses-02_part-02_label-phase2,2020.2.10,MacIntel,60,,,,,,,,,,,,,,,,0,87,87,101,1,stimuli/objects/fuse.jpg,left,old,102,,,,,,,,
,,,,,,,,32,2022-01-27_17h24.14.754,premceCat2_ses-02_part-02_label-phase2,2020.2.10,MacIntel,60,,,,,right,1.5483,2,0.8646,,,,,,,,0,88,88,86,1,stimuli/objects/toasteroven.jpg,right,new,87,,,,,,,,
,,,,,,,,32,2022-01-27_17h24.14.754,premceCat2_ses-02_part-02_label-phase2,2020.2.10,MacIntel,60,,,,,left,0.7168,3,0.913,left,0.5684,0,0,0,0,1,,,,,,,,,,,,,,,,,
,,,,,,,,32,2022-01-27_17h24.14.754,premceCat2_ses-02_part-02_label-phase2,2020.2.10,MacIntel,60,,,,,,,,,,,,,,,,0,89,89,5,1,stimuli/objects/electricoutlet.jpg,left,old,6,,,,,,,,
,,,,,,,,32,2022-01-27_17h24.14.754,premceCat2_ses-02_part-02_label-phase2,2020.2.10,MacIntel,60,,,,,right,0.9129,4,0.1208,,,,,,,,0,90,90,51,1,stimuli/objects/webcam.jpg,right,new,52,,,,,,,,
,,,,,,,,32,2022-01-27_17h24.14.754,premceCat2_ses-02_part-02_label-phase2,2020.2.10,MacIntel,60,,,,,left,0.7442,4,0.0298,right,0.3566,0,0,0,0,1,,,,,,,,,,,,,,,,,
,,,,,,,,32,2022-01-27_17h24.14.754,premceCat2_ses-02_part-02_label-phase2,2020.2.10,MacIntel,60,,,,,,,,,,,,,,,,0,91,91,62,1,stimuli/objects/tray.jpg,left,old,63,,,,,,,,
,,,,,,,,32,2022-01-27_17h24.14.754,premceCat2_ses-02_part-02_label-phase2,2020.2.10,MacIntel,60,,,,,left,1.1687,3,0.1646,left,0.2473,0,0,0,0,1,,,,,,,,,,,,,,,,,
,,,,,,,,32,2022-01-27_17h24.14.754,premceCat2_ses-02_part-02_label-phase2,2020.2.10,MacIntel,60,,,,,,,,,,,,,,,,0,92,92,95,1,stimuli/objects/telephone01b.jpg,left,old,96,,,,,,,,
,,,,,,,,32,2022-01-27_17h24.14.754,premceCat2_ses-02_part-02_label-phase2,2020.2.10,MacIntel,60,,,,,right,1.0363,3,0.164,,,,,,,,0,93,93,128,1,stimuli/objects/tripod01.jpg,right,new,129,,,,,,,,
,,,,,,,,32,2022-01-27_17h24.14.754,premceCat2_ses-02_part-02_label-phase2,2020.2.10,MacIntel,60,,,,,left,0.7657,4,0.1159,left,0.7791,0,0,0,0,1,,,,,,,,,,,,,,,,,
,,,,,,,,32,2022-01-27_17h24.14.754,premceCat2_ses-02_part-02_label-phase2,2020.2.10,MacIntel,60,,,,,,,,,,,,,,,,0,94,94,58,1,stimuli/objects/bungeecord02.jpg,left,old,59,,,,,,,,
,,,,,,,,32,2022-01-27_17h24.14.754,premceCat2_ses-02_part-02_label-phase2,2020.2.10,MacIntel,60,,,,,right,0.9249,3,0.3995,,,,,,,,0,95,95,124,1,stimuli/objects/baseball01a.jpg,left,old,125,,,,,,,,
,,,,,,,,32,2022-01-27_17h24.14.754,premceCat2_ses-02_part-02_label-phase2,2020.2.10,MacIntel,60,,,,,left,0.9145,4,0.0951,right,0.5198,0,0,0,0,1,,,,,,,,,,,,,,,,,
,,,,,,,,32,2022-01-27_17h24.14.754,premceCat2_ses-02_part-02_label-phase2,2020.2.10,MacIntel,60,,,,,,,,,,,,,,,,0,96,96,36,1,stimuli/objects/outletadapter.jpg,left,old,37,,,,,,,,
,,,,,,,,32,2022-01-27_17h24.14.754,premceCat2_ses-02_part-02_label-phase2,2020.2.10,MacIntel,60,,,,,right,1.5627,3,0.2424,,,,,,,,0,97,97,87,1,stimuli/objects/coffeemachine.jpg,left,old,88,,,,,,,,
,,,,,,,,32,2022-01-27_17h24.14.754,premceCat2_ses-02_part-02_label-phase2,2020.2.10,MacIntel,60,,,,,left,0.9648,2,0.3912,left,0.4824,0,0,0,0,1,,,,,,,,,,,,,,,,,
,,,,,,,,32,2022-01-27_17h24.14.754,premceCat2_ses-02_part-02_label-phase2,2020.2.10,MacIntel,60,,,,,,,,,,,,,,,,0,98,98,40,1,stimuli/objects/staplegun.jpg,left,old,41,,,,,,,,
,,,,,,,,32,2022-01-27_17h24.14.754,premceCat2_ses-02_part-02_label-phase2,2020.2.10,MacIntel,60,,,,,right,0.8051,4,0.0473,,,,,,,,0,99,99,42,1,stimuli/objects/snowshoe.jpg,right,new,43,,,,,,,,
,,,,,,,,32,2022-01-27_17h24.14.754,premceCat2_ses-02_part-02_label-phase2,2020.2.10,MacIntel,60,,,,,left,0.9891,4,0.3518,right,0.1882,0,0,0,0,1,,,,,,,,,,,,,,,,,
,,,,,,,,32,2022-01-27_17h24.14.754,premceCat2_ses-02_part-02_label-phase2,2020.2.10,MacIntel,60,,,,,,,,,,,,,,,,0,100,100,47,1,stimuli/objects/bucket02.jpg,left,old,48,,,,,,,,
,,,,,,,,32,2022-01-27_17h24.14.754,premceCat2_ses-02_part-02_label-phase2,2020.2.10,MacIntel,60,,,,,right,1.0377,2,0.5487,,,,,,,,0,101,101,102,1,stimuli/objects/skihelmet01.jpg,left,old,103,,,,,,,,
,,,,,,,,32,2022-01-27_17h24.14.754,premceCat2_ses-02_part-02_label-phase2,2020.2.10,MacIntel,60,,,,,left,1.1047,4,0.1275,right,0.4857,0,0,0,0,1,,,,,,,,,,,,,,,,,
,,,,,,,,32,2022-01-27_17h24.14.754,premceCat2_ses-02_part-02_label-phase2,2020.2.10,MacIntel,60,,,,,,,,,,,,,,,,0,102,102,14,1,stimuli/objects/mallet01b.jpg,left,old,15,,,,,,,,
,,,,,,,,32,2022-01-27_17h24.14.754,premceCat2_ses-02_part-02_label-phase2,2020.2.10,MacIntel,60,,,,,right,1.5289,4,0.4133,,,,,,,,0,103,103,63,1,stimuli/objects/butterdish.jpg,right,new,64,,,,,,,,
,,,,,,,,32,2022-01-27_17h24.14.754,premceCat2_ses-02_part-02_label-phase2,2020.2.10,MacIntel,60,,,,,left,0.7667,4,0.1128,left,0.1044,0,0,0,0,1,,,,,,,,,,,,,,,,,
,,,,,,,,32,2022-01-27_17h24.14.754,premceCat2_ses-02_part-02_label-phase2,2020.2.10,MacIntel,60,,,,,,,,,,,,,,,,0,104,104,35,1,stimuli/objects/chandelier.jpg,left,old,36,,,,,,,,
,,,,,,,,32,2022-01-27_17h24.14.754,premceCat2_ses-02_part-02_label-phase2,2020.2.10,MacIntel,60,,,,,right,2.4164,3,0.3364,,,,,,,,0,105,105,55,1,stimuli/objects/toolbox02.jpg,right,new,56,,,,,,,,
,,,,,,,,32,2022-01-27_17h24.14.754,premceCat2_ses-02_part-02_label-phase2,2020.2.10,MacIntel,60,,,,,left,0.7188,4,0.1995,right,0.2631,0,0,0,0,1,,,,,,,,,,,,,,,,,
,,,,,,,,32,2022-01-27_17h24.14.754,premceCat2_ses-02_part-02_label-phase2,2020.2.10,MacIntel,60,,,,,,,,,,,,,,,,0,106,106,123,1,stimuli/objects/breadknife.jpg,left,old,124,,,,,,,,
,,,,,,,,32,2022-01-27_17h24.14.754,premceCat2_ses-02_part-02_label-phase2,2020.2.10,MacIntel,60,,,,,right,1.2968,2,0.5299,,,,,,,,0,107,107,138,1,stimuli/objects/taperecorder.jpg,right,new,139,,,,,,,,
,,,,,,,,32,2022-01-27_17h24.14.754,premceCat2_ses-02_part-02_label-phase2,2020.2.10,MacIntel,60,,,,,left,0.7636,4,0.313,left,1.0664,0,0,0,0,1,,,,,,,,,,,,,,,,,
,,,,,,,,32,2022-01-27_17h24.14.754,premceCat2_ses-02_part-02_label-phase2,2020.2.10,MacIntel,60,,,,,,,,,,,,,,,,0,108,108,16,1,stimuli/objects/wheelbarrow01.jpg,left,old,17,,,,,,,,
,,,,,,,,32,2022-01-27_17h24.14.754,premceCat2_ses-02_part-02_label-phase2,2020.2.10,MacIntel,60,,,,,left,1.3688,3,0.7714,left,0.7724,0,0,0,0,1,,,,,,,,,,,,,,,,,
,,,,,,,,32,2022-01-27_17h24.14.754,premceCat2_ses-02_part-02_label-phase2,2020.2.10,MacIntel,60,,,,,,,,,,,,,,,,0,109,109,118,1,stimuli/objects/rope03.jpg,left,old,119,,,,,,,,
,,,,,,,,32,2022-01-27_17h24.14.754,premceCat2_ses-02_part-02_label-phase2,2020.2.10,MacIntel,60,,,,,right,0.8278,4,0.3702,,,,,,,,0,110,110,57,1,stimuli/objects/audiocablesplitter.jpg,right,new,58,,,,,,,,
,,,,,,,,32,2022-01-27_17h24.14.754,premceCat2_ses-02_part-02_label-phase2,2020.2.10,MacIntel,60,,,,,right,1.9166,3,0.2841,,,,,,,,0,111,111,126,1,stimuli/objects/tableknife02.jpg,right,new,127,,,,,,,,
,,,,,,,,32,2022-01-27_17h24.14.754,premceCat2_ses-02_part-02_label-phase2,2020.2.10,MacIntel,60,,,,,left,0.7627,4,0.1129,right,0.2971,0,0,0,0,1,,,,,,,,,,,,,,,,,
,,,,,,,,32,2022-01-27_17h24.14.754,premceCat2_ses-02_part-02_label-phase2,2020.2.10,MacIntel,60,,,,,,,,,,,,,,,,0,112,112,61,1,stimuli/objects/painttray.jpg,left,old,62,,,,,,,,
,,,,,,,,32,2022-01-27_17h24.14.754,premceCat2_ses-02_part-02_label-phase2,2020.2.10,MacIntel,60,,,,,right,1.2776,4,0.1145,,,,,,,,0,113,113,32,1,stimuli/objects/mitresaw.jpg,right,new,33,,,,,,,,
,,,,,,,,32,2022-01-27_17h24.14.754,premceCat2_ses-02_part-02_label-phase2,2020.2.10,MacIntel,60,,,,,right,1.0511,2,0.4133,,,,,,,,0,114,114,21,1,stimuli/objects/paintbrush01.jpg,right,new,22,,,,,,,,
,,,,,,,,32,2022-01-27_17h24.14.754,premceCat2_ses-02_part-02_label-phase2,2020.2.10,MacIntel,60,,,,,right,1.2625,3,0.3806,,,,,,,,0,115,115,96,1,stimuli/objects/golfbag.jpg,right,new,97,,,,,,,,
,,,,,,,,32,2022-01-27_17h24.14.754,premceCat2_ses-02_part-02_label-phase2,2020.2.10,MacIntel,60,,,,,right,0.9697,2,0.0985,,,,,,,,0,116,116,60,1,stimuli/objects/glass02a.jpg,right,new,61,,,,,,,,
,,,,,,,,32,2022-01-27_17h24.14.754,premceCat2_ses-02_part-02_label-phase2,2020.2.10,MacIntel,60,,,,,right,1.0881,2,0.5278,,,,,,,,0,117,117,99,1,stimuli/objects/sewingmachine01a.jpg,left,old,100,,,,,,,,
,,,,,,,,32,2022-01-27_17h24.14.754,premceCat2_ses-02_part-02_label-phase2,2020.2.10,MacIntel,60,,,,,left,1.2472,2,0.3384,left,0.9175,0,0,0,0,1,,,,,,,,,,,,,,,,,
,,,,,,,,32,2022-01-27_17h24.14.754,premceCat2_ses-02_part-02_label-phase2,2020.2.10,MacIntel,60,,,,,,,,,,,,,,,,0,118,118,127,1,stimuli/objects/cooler01.jpg,left,old,128,,,,,,,,
,,,,,,,,32,2022-01-27_17h24.14.754,premceCat2_ses-02_part-02_label-phase2,2020.2.10,MacIntel,60,,,,,right,0.9472,3,0.2143,,,,,,,,0,119,119,134,1,stimuli/objects/screwdriver04b.jpg,right,new,135,,,,,,,,
,,,,,,,,32,2022-01-27_17h24.14.754,premceCat2_ses-02_part-02_label-phase2,2020.2.10,MacIntel,60,,,,,left,0.9816,4,0.0876,left,0.1476,0,0,0,0,1,,,,,,,,,,,,,,,,,
,,,,,,,,32,2022-01-27_17h24.14.754,premceCat2_ses-02_part-02_label-phase2,2020.2.10,MacIntel,60,,,,,,,,,,,,,,,,0,120,120,103,1,stimuli/objects/bowl02a.jpg,left,old,104,,,,,,,,
,,,,,,,,32,2022-01-27_17h24.14.754,premceCat2_ses-02_part-02_label-phase2,2020.2.10,MacIntel,60,,,,,left,0.9197,3,0.564,left,0.7787,0,0,0,0,1,,,,,,,,,,,,,,,,,
,,,,,,,,32,2022-01-27_17h24.14.754,premceCat2_ses-02_part-02_label-phase2,2020.2.10,MacIntel,60,,,,,,,,,,,,,,,,0,121,121,105,1,stimuli/objects/cellphone.jpg,left,old,106,,,,,,,,
,,,,,,,,32,2022-01-27_17h24.14.754,premceCat2_ses-02_part-02_label-phase2,2020.2.10,MacIntel,60,,,,,right,0.9156,3,0.478,,,,,,,,0,122,122,25,1,stimuli/objects/bowlingball.jpg,right,new,26,,,,,,,,
,,,,,,,,32,2022-01-27_17h24.14.754,premceCat2_ses-02_part-02_label-phase2,2020.2.10,MacIntel,60,,,,,right,1.583,3,0.2813,,,,,,,,0,123,123,133,1,stimuli/objects/icebucket.jpg,right,new,134,,,,,,,,
,,,,,,,,32,2022-01-27_17h24.14.754,premceCat2_ses-02_part-02_label-phase2,2020.2.10,MacIntel,60,,,,,right,0.9375,3,1.3197,,,,,,,,0,124,124,38,1,stimuli/objects/soundmixer.jpg,right,new,39,,,,,,,,
,,,,,,,,32,2022-01-27_17h24.14.754,premceCat2_ses-02_part-02_label-phase2,2020.2.10,MacIntel,60,,,,,left,1.0392,1,0.4998,left,0.5852,0,0,0,0,1,,,,,,,,,,,,,,,,,
,,,,,,,,32,2022-01-27_17h24.14.754,premceCat2_ses-02_part-02_label-phase2,2020.2.10,MacIntel,60,,,,,,,,,,,,,,,,0,125,125,6,1,stimuli/objects/contactlens.jpg,left,old,7,,,,,,,,
,,,,,,,,32,2022-01-27_17h24.14.754,premceCat2_ses-02_part-02_label-phase2,2020.2.10,MacIntel,60,,,,,left,0.8944,4,0.1642,right,0.0679,0,0,0,0,1,,,,,,,,,,,,,,,,,
,,,,,,,,32,2022-01-27_17h24.14.754,premceCat2_ses-02_part-02_label-phase2,2020.2.10,MacIntel,60,,,,,,,,,,,,,,,,0,126,126,91,1,stimuli/objects/puttyknife.jpg,left,old,92,,,,,,,,
,,,,,,,,32,2022-01-27_17h24.14.754,premceCat2_ses-02_part-02_label-phase2,2020.2.10,MacIntel,60,,,,,right,2.1958,1,0.1642,,,,,,,,0,127,127,20,1,stimuli/objects/laptop01a.jpg,right,new,21,,,,,,,,
,,,,,,,,32,2022-01-27_17h24.14.754,premceCat2_ses-02_part-02_label-phase2,2020.2.10,MacIntel,60,,,,,right,1.0616,3,0.278,,,,,,,,0,128,128,41,1,stimuli/objects/pylon01.jpg,right,new,42,,,,,,,,
,,,,,,,,32,2022-01-27_17h24.14.754,premceCat2_ses-02_part-02_label-phase2,2020.2.10,MacIntel,60,,,,,left,1.1648,4,0.5535,left,0.3221,0,0,0,0,1,,,,,,,,,,,,,,,,,
,,,,,,,,32,2022-01-27_17h24.14.754,premceCat2_ses-02_part-02_label-phase2,2020.2.10,MacIntel,60,,,,,,,,,,,,,,,,0,129,129,2,1,stimuli/objects/crocodileclips.jpg,left,old,3,,,,,,,,
,,,,,,,,32,2022-01-27_17h24.14.754,premceCat2_ses-02_part-02_label-phase2,2020.2.10,MacIntel,60,,,,,right,1.6462,2,0.1145,,,,,,,,0,130,130,19,1,stimuli/objects/peppermill02b.jpg,right,new,20,,,,,,,,
,,,,,,,,32,2022-01-27_17h24.14.754,premceCat2_ses-02_part-02_label-phase2,2020.2.10,MacIntel,60,,,,,right,0.8503,2,0.1984,,,,,,,,0,131,131,1,1,stimuli/objects/headphones02b.jpg,left,old,2,,,,,,,,
,,,,,,,,32,2022-01-27_17h24.14.754,premceCat2_ses-02_part-02_label-phase2,2020.2.10,MacIntel,60,,,,,right,1.1826,4,0.0942,,,,,,,,0,132,132,66,1,stimuli/objects/nailgun.jpg,right,new,67,,,,,,,,
,,,,,,,,32,2022-01-27_17h24.14.754,premceCat2_ses-02_part-02_label-phase2,2020.2.10,MacIntel,60,,,,,right,0.9738,4,0.5942,,,,,,,,0,133,133,141,1,stimuli/objects/generator.jpg,right,new,142,,,,,,,,
,,,,,,,,32,2022-01-27_17h24.14.754,premceCat2_ses-02_part-02_label-phase2,2020.2.10,MacIntel,60,,,,,left,0.7446,4,0.3654,right,0.2942,0,0,0,0,1,,,,,,,,,,,,,,,,,
,,,,,,,,32,2022-01-27_17h24.14.754,premceCat2_ses-02_part-02_label-phase2,2020.2.10,MacIntel,60,,,,,,,,,,,,,,,,0,134,134,114,1,stimuli/objects/pitcher02b.jpg,left,old,115,,,,,,,,
,,,,,,,,32,2022-01-27_17h24.14.754,premceCat2_ses-02_part-02_label-phase2,2020.2.10,MacIntel,60,,,,,right,1.5662,1,1.4306,,,,,,,,0,135,135,80,1,stimuli/objects/snowman.jpg,right,new,81,,,,,,,,
,,,,,,,,32,2022-01-27_17h24.14.754,premceCat2_ses-02_part-02_label-phase2,2020.2.10,MacIntel,60,,,,,right,1.2418,3,0.2526,,,,,,,,0,136,136,82,1,stimuli/objects/snowbrush.jpg,right,new,83,,,,,,,,
,,,,,,,,32,2022-01-27_17h24.14.754,premceCat2_ses-02_part-02_label-phase2,2020.2.10,MacIntel,60,,,,,left,0.7839,4,0.1315,left,0.1797,0,0,0,0,1,,,,,,,,,,,,,,,,,
,,,,,,,,32,2022-01-27_17h24.14.754,premceCat2_ses-02_part-02_label-phase2,2020.2.10,MacIntel,60,,,,,,,,,,,,,,,,0,137,137,67,1,stimuli/objects/lifesaver.jpg,left,old,68,,,,,,,,
,,,,,,,,32,2022-01-27_17h24.14.754,premceCat2_ses-02_part-02_label-phase2,2020.2.10,MacIntel,60,,,,,left,1.0205,4,1.7066,right,0.1973,0,0,0,0,1,,,,,,,,,,,,,,,,,
,,,,,,,,32,2022-01-27_17h24.14.754,premceCat2_ses-02_part-02_label-phase2,2020.2.10,MacIntel,60,,,,,,,,,,,,,,,,0,138,138,0,1,stimuli/objects/phonejack.jpg,left,old,1,,,,,,,,
,,,,,,,,32,2022-01-27_17h24.14.754,premceCat2_ses-02_part-02_label-phase2,2020.2.10,MacIntel,60,,,,,left,0.6763,3,0.4491,right,0.115,0,0,0,0,1,,,,,,,,,,,,,,,,,
,,,,,,,,32,2022-01-27_17h24.14.754,premceCat2_ses-02_part-02_label-phase2,2020.2.10,MacIntel,60,,,,,,,,,,,,,,,,0,139,139,33,1,stimuli/objects/microwave.jpg,right,new,34,,,,,,,,
,,,,,,,,32,2022-01-27_17h24.14.754,premceCat2_ses-02_part-02_label-phase2,2020.2.10,MacIntel,60,,,,,right,0.7827,2,0.5785,,,,,,,,0,140,140,100,1,stimuli/objects/remotecontrol04.jpg,right,new,101,,,,,,,,
,,,,,,,,32,2022-01-27_17h24.14.754,premceCat2_ses-02_part-02_label-phase2,2020.2.10,MacIntel,60,,,,,left,0.8133,3,0.4151,left,0.5172,0,0,0,0,1,,,,,,,,,,,,,,,,,
,,,,,,,,32,2022-01-27_17h24.14.754,premceCat2_ses-02_part-02_label-phase2,2020.2.10,MacIntel,60,,,,,,,,,,,,,,,,0,141,141,11,1,stimuli/objects/videocamera01a.jpg,left,old,12,,,,,,,,
,,,,,,,,32,2022-01-27_17h24.14.754,premceCat2_ses-02_part-02_label-phase2,2020.2.10,MacIntel,60,,,,,right,1.1197,3,0.9203,,,,,,,,0,142,142,26,1,stimuli/objects/boogieboard.jpg,right,new,27,,,,,,,,
,,,,,,,,32,2022-01-27_17h24.14.754,premceCat2_ses-02_part-02_label-phase2,2020.2.10,MacIntel,60,,,,,,,,,,,,,,,,,,,,,,,,,space,2.8805,0,0,0,0,1,condition_files/ImagesforRecog1_1.csv
,,,,,,,,32,2022-01-27_17h24.14.754,premceCat2_ses-02_part-02_label-phase2,2020.2.10,MacIntel,60,,,,,left,1.2473,4,0.2623,right,0.1634,0,0,0,0,1,,,,,,,,,,,,,,,,,
,,,,,,,,32,2022-01-27_17h24.14.754,premceCat2_ses-02_part-02_label-phase2,2020.2.10,MacIntel,60,,,,,,,,,,,,,,,,0,0,0,112,1,stimuli/objects/filmroll.jpg,left,old,256,,,,,,,,
,,,,,,,,32,2022-01-27_17h24.14.754,premceCat2_ses-02_part-02_label-phase2,2020.2.10,MacIntel,60,,,,,left,1.0481,3,0.366,left,0.094,0,0,0,0,1,,,,,,,,,,,,,,,,,
,,,,,,,,32,2022-01-27_17h24.14.754,premceCat2_ses-02_part-02_label-phase2,2020.2.10,MacIntel,60,,,,,,,,,,,,,,,,0,1,1,124,1,stimuli/objects/basketball01.jpg,right,new,268,,,,,,,,
,,,,,,,,32,2022-01-27_17h24.14.754,premceCat2_ses-02_part-02_label-phase2,2020.2.10,MacIntel,60,,,,,right,1.388,3,0.1237,,,,,,,,0,2,2,62,1,stimuli/objects/spoon01.jpg,left,old,206,,,,,,,,
,,,,,,,,32,2022-01-27_17h24.14.754,premceCat2_ses-02_part-02_label-phase2,2020.2.10,MacIntel,60,,,,,left,0.7317,4,0.2201,right,0.273,0,0,0,0,1,,,,,,,,,,,,,,,,,
,,,,,,,,32,2022-01-27_17h24.14.754,premceCat2_ses-02_part-02_label-phase2,2020.2.10,MacIntel,60,,,,,,,,,,,,,,,,0,3,3,54,1,stimuli/objects/stubbywrench01a.jpg,left,old,198,,,,,,,,
,,,,,,,,32,2022-01-27_17h24.14.754,premceCat2_ses-02_part-02_label-phase2,2020.2.10,MacIntel,60,,,,,left,0.7144,4,0.0003,left,0.1145,0,0,0,0,1,,,,,,,,,,,,,,,,,
,,,,,,,,32,2022-01-27_17h24.14.754,premceCat2_ses-02_part-02_label-phase2,2020.2.10,MacIntel,60,,,,,,,,,,,,,,,,0,4,4,29,1,stimuli/objects/ipod.jpg,left,old,173,,,,,,,,
,,,,,,,,32,2022-01-27_17h24.14.754,premceCat2_ses-02_part-02_label-phase2,2020.2.10,MacIntel,60,,,,,right,0.9147,3,0.0441,,,,,,,,0,5,5,82,1,stimuli/objects/shopvac.jpg,right,new,226,,,,,,,,
,,,,,,,,32,2022-01-27_17h24.14.754,premceCat2_ses-02_part-02_label-phase2,2020.2.10,MacIntel,60,,,,,left,1.514,4,0.1617,right,0.0276,0,0,0,0,1,,,,,,,,,,,,,,,,,
,,,,,,,,32,2022-01-27_17h24.14.754,premceCat2_ses-02_part-02_label-phase2,2020.2.10,MacIntel,60,,,,,,,,,,,,,,,,0,6,6,18,1,stimuli/objects/dvdplayer.jpg,left,old,162,,,,,,,,
,,,,,,,,32,2022-01-27_17h24.14.754,premceCat2_ses-02_part-02_label-phase2,2020.2.10,MacIntel,60,,,,,left,0.7113,4,0.1281,right,0.3643,0,0,0,0,1,,,,,,,,,,,,,,,,,
,,,,,,,,32,2022-01-27_17h24.14.754,premceCat2_ses-02_part-02_label-phase2,2020.2.10,MacIntel,60,,,,,,,,,,,,,,,,0,7,7,108,1,stimuli/objects/slidetray.jpg,left,old,252,,,,,,,,
,,,,,,,,32,2022-01-27_17h24.14.754,premceCat2_ses-02_part-02_label-phase2,2020.2.10,MacIntel,60,,,,,left,0.7812,4,0.3953,left,0.1036,0,0,0,0,1,,,,,,,,,,,,,,,,,
,,,,,,,,32,2022-01-27_17h24.14.754,premceCat2_ses-02_part-02_label-phase2,2020.2.10,MacIntel,60,,,,,,,,,,,,,,,,0,8,8,119,1,stimuli/objects/cookiecutter.jpg,left,old,263,,,,,,,,
,,,,,,,,32,2022-01-27_17h24.14.754,premceCat2_ses-02_part-02_label-phase2,2020.2.10,MacIntel,60,,,,,left,0.7818,4,0.1292,right,0.3138,0,0,0,0,1,,,,,,,,,,,,,,,,,
,,,,,,,,32,2022-01-27_17h24.14.754,premceCat2_ses-02_part-02_label-phase2,2020.2.10,MacIntel,60,,,,,,,,,,,,,,,,0,9,9,1,1,stimuli/objects/expansioncard.jpg,left,old,145,,,,,,,,
,,,,,,,,32,2022-01-27_17h24.14.754,premceCat2_ses-02_part-02_label-phase2,2020.2.10,MacIntel,60,,,,,right,1.2284,2,0.6896,,,,,,,,0,10,10,66,1,stimuli/objects/heatpump.jpg,right,new,210,,,,,,,,
,,,,,,,,32,2022-01-27_17h24.14.754,premceCat2_ses-02_part-02_label-phase2,2020.2.10,MacIntel,60,,,,,left,0.7866,4,0.1458,right,0.0137,0,0,0,0,1,,,,,,,,,,,,,,,,,
,,,,,,,,32,2022-01-27_17h24.14.754,premceCat2_ses-02_part-02_label-phase2,2020.2.10,MacIntel,60,,,,,,,,,,,,,,,,0,11,11,61,1,stimuli/objects/setsquare.jpg,left,old,205,,,,,,,,
,,,,,,,,32,2022-01-27_17h24.14.754,premceCat2_ses-02_part-02_label-phase2,2020.2.10,MacIntel,60,,,,,left,1.4571,2,0.0351,left,0.8985,0,0,0,0,1,,,,,,,,,,,,,,,,,
,,,,,,,,32,2022-01-27_17h24.14.754,premceCat2_ses-02_part-02_label-phase2,2020.2.10,MacIntel,60,,,,,,,,,,,,,,,,0,12,12,48,1,stimuli/objects/eggslicer.jpg,right,new,192,,,,,,,,
,,,,,,,,32,2022-01-27_17h24.14.754,premceCat2_ses-02_part-02_label-phase2,2020.2.10,MacIntel,60,,,,,right,0.7481,1,0.9292,,,,,,,,0,13,13,88,1,stimuli/objects/charcoalbarbecue.jpg,left,old,232,,,,,,,,
,,,,,,,,32,2022-01-27_17h24.14.754,premceCat2_ses-02_part-02_label-phase2,2020.2.10,MacIntel,60,,,,,right,1.1659,2,0.0379,,,,,,,,0,14,14,114,1,stimuli/objects/drinkshaker.jpg,right,new,258,,,,,,,,
,,,,,,,,32,2022-01-27_17h24.14.754,premceCat2_ses-02_part-02_label-phase2,2020.2.10,MacIntel,60,,,,,left,1.2292,3,0.3335,right,0.1319,0,0,0,0,1,,,,,,,,,,,,,,,,,
,,,,,,,,32,2022-01-27_17h24.14.754,premceCat2_ses-02_part-02_label-phase2,2020.2.10,MacIntel,60,,,,,,,,,,,,,,,,0,15,15,37,1,stimuli/objects/papershredder.jpg,left,old,181,,,,,,,,
,,,,,,,,32,2022-01-27_17h24.14.754,premceCat2_ses-02_part-02_label-phase2,2020.2.10,MacIntel,60,,,,,left,0.9545,3,0.1217,left,0.0433,0,0,0,0,1,,,,,,,,,,,,,,,,,
,,,,,,,,32,2022-01-27_17h24.14.754,premceCat2_ses-02_part-02_label-phase2,2020.2.10,MacIntel,60,,,,,,,,,,,,,,,,0,16,16,139,1,stimuli/objects/measuringcup01.jpg,left,old,283,,,,,,,,
,,,,,,,,32,2022-01-27_17h24.14.754,premceCat2_ses-02_part-02_label-phase2,2020.2.10,MacIntel,60,,,,,left,0.7478,4,0.167,left,0.3803,0,0,0,0,1,,,,,,,,,,,,,,,,,
,,,,,,,,32,2022-01-27_17h24.14.754,premceCat2_ses-02_part-02_label-phase2,2020.2.10,MacIntel,60,,,,,,,,,,,,,,,,0,17,17,64,1,stimuli/objects/fishingrod.jpg,left,old,208,,,,,,,,
,,,,,,,,32,2022-01-27_17h24.14.754,premceCat2_ses-02_part-02_label-phase2,2020.2.10,MacIntel,60,,,,,left,0.6791,4,0.1642,left,0.4971,0,0,0,0,1,,,,,,,,,,,,,,,,,
,,,,,,,,32,2022-01-27_17h24.14.754,premceCat2_ses-02_part-02_label-phase2,2020.2.10,MacIntel,60,,,,,,,,,,,,,,,,0,18,18,67,1,stimuli/objects/nintendods.jpg,left,old,211,,,,,,,,
,,,,,,,,32,2022-01-27_17h24.14.754,premceCat2_ses-02_part-02_label-phase2,2020.2.10,MacIntel,60,,,,,right,0.7712,4,0.0003,,,,,,,,0,19,19,49,1,stimuli/objects/cakeplatter.jpg,right,new,193,,,,,,,,
,,,,,,,,32,2022-01-27_17h24.14.754,premceCat2_ses-02_part-02_label-phase2,2020.2.10,MacIntel,60,,,,,right,1.499,4,0.0788,,,,,,,,0,20,20,87,1,stimuli/objects/wiicontroller.jpg,right,new,231,,,,,,,,
,,,,,,,,32,2022-01-27_17h24.14.754,premceCat2_ses-02_part-02_label-phase2,2020.2.10,MacIntel,60,,,,,right,1.9071,3,0.0436,,,,,,,,0,21,21,52,1,stimuli/objects/extensioncord.jpg,left,old,196,,,,,,,,
,,,,,,,,32,2022-01-27_17h24.14.754,premceCat2_ses-02_part-02_label-phase2,2020.2.10,MacIntel,60,,,,,left,1.7665,1,1.2888,right,1.4303,0,0,0,0,1,,,,,,,,,,,,,,,,,
,,,,,,,,32,2022-01-27_17h24.14.754,premceCat2_ses-02_part-02_label-phase2,2020.2.10,MacIntel,60,,,,,,,,,,,,,,,,0,22,22,59,1,stimuli/objects/speedball.jpg,right,new,203,,,,,,,,
,,,,,,,,32,2022-01-27_17h24.14.754,premceCat2_ses-02_part-02_label-phase2,2020.2.10,MacIntel,60,,,,,left,0.9632,3,0.5854,right,1.3085,0,0,0,0,1,,,,,,,,,,,,,,,,,
,,,,,,,,32,2022-01-27_17h24.14.754,premceCat2_ses-02_part-02_label-phase2,2020.2.10,MacIntel,60,,,,,,,,,,,,,,,,0,23,23,134,1,stimuli/objects/filmnegative.jpg,left,old,278,,,,,,,,
,,,,,,,,32,2022-01-27_17h24.14.754,premceCat2_ses-02_part-02_label-phase2,2020.2.10,MacIntel,60,,,,,right,1.583,2,0.4466,,,,,,,,0,24,24,130,1,stimuli/objects/scanner.jpg,left,old,274,,,,,,,,
,,,,,,,,32,2022-01-27_17h24.14.754,premceCat2_ses-02_part-02_label-phase2,2020.2.10,MacIntel,60,,,,,right,1.0865,4,0.079,,,,,,,,0,25,25,42,1,stimuli/objects/tennisracket.jpg,right,new,186,,,,,,,,
,,,,,,,,32,2022-01-27_17h24.14.754,premceCat2_ses-02_part-02_label-phase2,2020.2.10,MacIntel,60,,,,,left,1.0332,3,0.4718,left,0.23,0,0,0,0,1,,,,,,,,,,,,,,,,,
,,,,,,,,32,2022-01-27_17h24.14.754,premceCat2_ses-02_part-02_label-phase2,2020.2.10,MacIntel,60,,,,,,,,,,,,,,,,0,26,26,105,1,stimuli/objects/cork02.jpg,left,old,249,,,,,,,,
,,,,,,,,32,2022-01-27_17h24.14.754,premceCat2_ses-02_part-02_label-phase2,2020.2.10,MacIntel,60,,,,,right,1.2424,3,0.236,,,,,,,,0,27,27,122,1,stimuli/objects/hockeystick.jpg,right,new,266,,,,,,,,
,,,,,,,,32,2022-01-27_17h24.14.754,premceCat2_ses-02_part-02_label-phase2,2020.2.10,MacIntel,60,,,,,right,1.197,2,0.5975,,,,,,,,0,28,28,8,1,stimuli/objects/sledgehammer.jpg,left,old,152,,,,,,,,
,,,,,,,,32,2022-01-27_17h24.14.754,premceCat2_ses-02_part-02_label-phase2,2020.2.10,MacIntel,60,,,,,right,0.8146,3,0.1391,,,,,,,,0,29,29,24,1,stimuli/objects/monitor.jpg,right,new,168,,,,,,,,
,,,,,,,,32,2022-01-27_17h24.14.754,premceCat2_ses-02_part-02_label-phase2,2020.2.10,MacIntel,60,,,,,left,0.8313,4,0.0773,right,0.0223,0,0,0,0,1,,,,,,,,,,,,,,,,,
,,,,,,,,32,2022-01-27_17h24.14.754,premceCat2_ses-02_part-02_label-phase2,2020.2.10,MacIntel,60,,,,,,,,,,,,,,,,0,30,30,75,1,stimuli/objects/ladder.jpg,left,old,219,,,,,,,,
,,,,,,,,32,2022-01-27_17h24.14.754,premceCat2_ses-02_part-02_label-phase2,2020.2.10,MacIntel,60,,,,,left,0.8828,4,0.2318,right,0.0429,0,0,0,0,1,,,,,,,,,,,,,,,,,
,,,,,,,,32,2022-01-27_17h24.14.754,premceCat2_ses-02_part-02_label-phase2,2020.2.10,MacIntel,60,,,,,,,,,,,,,,,,0,31,31,118,1,stimuli/objects/pressurewasher.jpg,left,old,262,,,,,,,,
,,,,,,,,32,2022-01-27_17h24.14.754,premceCat2_ses-02_part-02_label-phase2,2020.2.10,MacIntel,60,,,,,right,0.7128,4,0.0113,,,,,,,,0,32,32,110,1,stimuli/objects/bikewheel.jpg,left,old,254,,,,,,,,
,,,,,,,,32,2022-01-27_17h24.14.754,premceCat2_ses-02_part-02_label-phase2,2020.2.10,MacIntel,60,,,,,right,1.5527,3,1.3659,,,,,,,,0,33,33,132,1,stimuli/objects/wirestripper.jpg,right,new,276,,,,,,,,
,,,,,,,,32,2022-01-27_17h24.14.754,premceCat2_ses-02_part-02_label-phase2,2020.2.10,MacIntel,60,,,,,right,1.215,2,0.0003,,,,,,,,0,34,34,83,1,stimuli/objects/icecubetray01a.jpg,right,new,227,,,,,,,,
,,,,,,,,32,2022-01-27_17h24.14.754,premceCat2_ses-02_part-02_label-phase2,2020.2.10,MacIntel,60,,,,,left,0.89,4,0.0334,right,0.1571,0,0,0,0,1,,,,,,,,,,,,,,,,,
,,,,,,,,32,2022-01-27_17h24.14.754,premceCat2_ses-02_part-02_label-phase2,2020.2.10,MacIntel,60,,,,,,,,,,,,,,,,0,35,35,109,1,stimuli/objects/peeler01.jpg,left,old,253,,,,,,,,
,,,,,,,,32,2022-01-27_17h24.14.754,premceCat2_ses-02_part-02_label-phase2,2020.2.10,MacIntel,60,,,,,right,1.0224,3,0.0608,,,,,,,,0,36,36,140,1,stimuli/objects/wineglass01.jpg,right,new,284,,,,,,,,
,,,,,,,,32,2022-01-27_17h24.14.754,premceCat2_ses-02_part-02_label-phase2,2020.2.10,MacIntel,60,,,,,right,0.8131,2,0.0003,,,,,,,,0,37,37,101,1,stimuli/objects/lifejacket.jpg,right,new,245,,,,,,,,
,,,,,,,,32,2022-01-27_17h24.14.754,premceCat2_ses-02_part-02_label-phase2,2020.2.10,MacIntel,60,,,,,right,0.7742,4,1.3102,,,,,,,,0,38,38,46,1,stimuli/objects/waterbottleholder.jpg,right,new,190,,,,,,,,
,,,,,,,,32,2022-01-27_17h24.14.754,premceCat2_ses-02_part-02_label-phase2,2020.2.10,MacIntel,60,,,,,left,0.8397,4,0.0943,left,0.2605,0,0,0,0,1,,,,,,,,,,,,,,,,,
,,,,,,,,32,2022-01-27_17h24.14.754,premceCat2_ses-02_part-02_label-phase2,2020.2.10,MacIntel,60,,,,,,,,,,,,,,,,0,39,39,104,1,stimuli/objects/lectern01.jpg,left,old,248,,,,,,,,
,,,,,,,,32,2022-01-27_17h24.14.754,premceCat2_ses-02_part-02_label-phase2,2020.2.10,MacIntel,60,,,,,left,1.1527,4,0.0453,left,0.5641,0,0,0,0,1,,,,,,,,,,,,,,,,,
,,,,,,,,32,2022-01-27_17h24.14.754,premceCat2_ses-02_part-02_label-phase2,2020.2.10,MacIntel,60,,,,,,,,,,,,,,,,0,40,40,141,1,stimuli/objects/coffeepot03a.jpg,left,old,285,,,,,,,,
,,,,,,,,32,2022-01-27_17h24.14.754,premceCat2_ses-02_part-02_label-phase2,2020.2.10,MacIntel,60,,,,,right,1.3449,3,0.6963,,,,,,,,0,41,41,136,1,stimuli/objects/exercisebike.jpg,left,old,280,,,,,,,,
,,,,,,,,32,2022-01-27_17h24.14.754,premceCat2_ses-02_part-02_label-phase2,2020.2.10,MacIntel,60,,,,,right,1.4904,2,0.481,,,,,,,,0,42,42,138,1,stimuli/objects/beermug01a.jpg,right,new,282,,,,,,,,
,,,,,,,,32,2022-01-27_17h24.14.754,premceCat2_ses-02_part-02_label-phase2,2020.2.10,MacIntel,60,,,,,right,1.0769,1,1.0797,,,,,,,,0,43,43,77,1,stimuli/objects/thermos.jpg,left,old,221,,,,,,,,
,,,,,,,,32,2022-01-27_17h24.14.754,premceCat2_ses-02_part-02_label-phase2,2020.2.10,MacIntel,60,,,,,right,1.2371,3,0.8785,,,,,,,,0,44,44,98,1,stimuli/objects/cameracase01a.jpg,right,new,242,,,,,,,,
,,,,,,,,32,2022-01-27_17h24.14.754,premceCat2_ses-02_part-02_label-phase2,2020.2.10,MacIntel,60,,,,,right,0.7173,4,0.2369,,,,,,,,0,45,45,107,1,stimuli/objects/dolly01.jpg,right,new,251,,,,,,,,
,,,,,,,,32,2022-01-27_17h24.14.754,premceCat2_ses-02_part-02_label-phase2,2020.2.10,MacIntel,60,,,,,right,0.7032,4,0.1371,,,,,,,,0,46,46,103,1,stimuli/objects/swissarmyknife01a.jpg,right,new,247,,,,,,,,
,,,,,,,,32,2022-01-27_17h24.14.754,premceCat2_ses-02_part-02_label-phase2,2020.2.10,MacIntel,60,,,,,right,1.2178,2,0.1734,,,,,,,,0,47,47,106,1,stimuli/objects/usbcable01a.jpg,left,old,250,,,,,,,,
,,,,,,,,32,2022-01-27_17h24.14.754,premceCat2_ses-02_part-02_label-phase2,2020.2.10,MacIntel,60,,,,,left,0.9964,4,0.5696,right,0.3042,0,0,0,0,1,,,,,,,,,,,,,,,,,
,,,,,,,,32,2022-01-27_17h24.14.754,premceCat2_ses-02_part-02_label-phase2,2020.2.10,MacIntel,60,,,,,,,,,,,,,,,,0,48,48,71,1,stimuli/objects/anchor.jpg,left,old,215,,,,,,,,
,,,,,,,,32,2022-01-27_17h24.14.754,premceCat2_ses-02_part-02_label-phase2,2020.2.10,MacIntel,60,,,,,left,0.998,3,0.3319,right,0.3956,0,0,0,0,1,,,,,,,,,,,,,,,,,
,,,,,,,,32,2022-01-27_17h24.14.754,premceCat2_ses-02_part-02_label-phase2,2020.2.10,MacIntel,60,,,,,,,,,,,,,,,,0,49,49,129,1,stimuli/objects/jigsaw.jpg,left,old,273,,,,,,,,
,,,,,,,,32,2022-01-27_17h24.14.754,premceCat2_ses-02_part-02_label-phase2,2020.2.10,MacIntel,60,,,,,right,0.7945,3,0.1218,,,,,,,,0,50,50,135,1,stimuli/objects/mortarandpestle.jpg,right,new,279,,,,,,,,
,,,,,,,,32,2022-01-27_17h24.14.754,premceCat2_ses-02_part-02_label-phase2,2020.2.10,MacIntel,60,,,,,left,0.9016,4,0.1639,left,0.4193,0,0,0,0,1,,,,,,,,,,,,,,,,,
,,,,,,,,32,2022-01-27_17h24.14.754,premceCat2_ses-02_part-02_label-phase2,2020.2.10,MacIntel,60,,,,,,,,,,,,,,,,0,51,51,72,1,stimuli/objects/wheel01.jpg,left,old,216,,,,,,,,
,,,,,,,,32,2022-01-27_17h24.14.754,premceCat2_ses-02_part-02_label-phase2,2020.2.10,MacIntel,60,,,,,right,0.7049,2,0.2947,,,,,,,,0,52,52,111,1,stimuli/objects/diaperbag.jpg,right,new,255,,,,,,,,
,,,,,,,,32,2022-01-27_17h24.14.754,premceCat2_ses-02_part-02_label-phase2,2020.2.10,MacIntel,60,,,,,right,3.4205,3,1.0194,,,,,,,,0,53,53,125,1,stimuli/objects/saw02b.jpg,left,old,269,,,,,,,,
,,,,,,,,32,2022-01-27_17h24.14.754,premceCat2_ses-02_part-02_label-phase2,2020.2.10,MacIntel,60,,,,,right,0.8669,3,0.17,,,,,,,,0,54,54,142,1,stimuli/objects/needlenosepliers01.jpg,right,new,286,,,,,,,,
,,,,,,,,32,2022-01-27_17h24.14.754,premceCat2_ses-02_part-02_label-phase2,2020.2.10,MacIntel,60,,,,,right,1.417,3,0.6588,,,,,,,,0,55,55,16,1,stimuli/objects/bottleopener01.jpg,right,new,160,,,,,,,,
,,,,,,,,32,2022-01-27_17h24.14.754,premceCat2_ses-02_part-02_label-phase2,2020.2.10,MacIntel,60,,,,,left,1.004,4,0.0684,left,0.229,0,0,0,0,1,,,,,,,,,,,,,,,,,
,,,,,,,,32,2022-01-27_17h24.14.754,premceCat2_ses-02_part-02_label-phase2,2020.2.10,MacIntel,60,,,,,,,,,,,,,,,,0,56,56,128,1,stimuli/objects/espressomachine.jpg,left,old,272,,,,,,,,
,,,,,,,,32,2022-01-27_17h24.14.754,premceCat2_ses-02_part-02_label-phase2,2020.2.10,MacIntel,60,,,,,right,0.8145,2,0.0499,,,,,,,,0,57,57,23,1,stimuli/objects/baseballglove.jpg,left,old,167,,,,,,,,
,,,,,,,,32,2022-01-27_17h24.14.754,premceCat2_ses-02_part-02_label-phase2,2020.2.10,MacIntel,60,,,,,left,1.0294,4,0.058,left,0.0418,0,0,0,0,1,,,,,,,,,,,,,,,,,
,,,,,,,,32,2022-01-27_17h24.14.754,premceCat2_ses-02_part-02_label-phase2,2020.2.10,MacIntel,60,,,,,,,,,,,,,,,,0,58,58,10,1,stimuli/objects/downhillski.jpg,left,old,154,,,,,,,,
,,,,,,,,32,2022-01-27_17h24.14.754,premceCat2_ses-02_part-02_label-phase2,2020.2.10,MacIntel,60,,,,,left,0.9459,4,0.0286,right,0.33,0,0,0,0,1,,,,,,,,,,,,,,,,,
,,,,,,,,32,2022-01-27_17h24.14.754,premceCat2_ses-02_part-02_label-phase2,2020.2.10,MacIntel,60,,,,,,,,,,,,,,,,0,59,59,85,1,stimuli/objects/fan.jpg,left,old,229,,,,,,,,
,,,,,,,,32,2022-01-27_17h24.14.754,premceCat2_ses-02_part-02_label-phase2,2020.2.10,MacIntel,60,,,,,right,0.8327,2,0.2821,,,,,,,,0,60,60,113,1,stimuli/objects/boltcutter.jpg,left,old,257,,,,,,,,
,,,,,,,,32,2022-01-27_17h24.14.754,premceCat2_ses-02_part-02_label-phase2,2020.2.10,MacIntel,60,,,,,left,0.7336,4,0.9798,right,0.3458,0,0,0,0,1,,,,,,,,,,,,,,,,,
,,,,,,,,32,2022-01-27_17h24.14.754,premceCat2_ses-02_part-02_label-phase2,2020.2.10,MacIntel,60,,,,,,,,,,,,,,,,0,61,61,7,1,stimuli/objects/handmixer01d.jpg,left,old,151,,,,,,,,
,,,,,,,,32,2022-01-27_17h24.14.754,premceCat2_ses-02_part-02_label-phase2,2020.2.10,MacIntel,60,,,,,left,0.7822,4,0.1307,right,0.0411,0,0,0,0,1,,,,,,,,,,,,,,,,,
,,,,,,,,32,2022-01-27_17h24.14.754,premceCat2_ses-02_part-02_label-phase2,2020.2.10,MacIntel,60,,,,,,,,,,,,,,,,0,62,62,89,1,stimuli/objects/pastaspoon.jpg,left,old,233,,,,,,,,
,,,,,,,,32,2022-01-27_17h24.14.754,premceCat2_ses-02_part-02_label-phase2,2020.2.10,MacIntel,60,,,,,left,1.7173,3,0.1645,left,1.1091,0,0,0,0,1,,,,,,,,,,,,,,,,,
,,,,,,,,32,2022-01-27_17h24.14.754,premceCat2_ses-02_part-02_label-phase2,2020.2.10,MacIntel,60,,,,,,,,,,,,,,,,0,63,63,99,1,stimuli/objects/floodlight.jpg,right,new,243,,,,,,,,
,,,,,,,,32,2022-01-27_17h24.14.754,premceCat2_ses-02_part-02_label-phase2,2020.2.10,MacIntel,60,,,,,left,0.9085,4,0.3226,left,0.4431,0,0,0,0,1,,,,,,,,,,,,,,,,,
,,,,,,,,32,2022-01-27_17h24.14.754,premceCat2_ses-02_part-02_label-phase2,2020.2.10,MacIntel,60,,,,,,,,,,,,,,,,0,64,64,93,1,stimuli/objects/axe01.jpg,left,old,237,,,,,,,,
,,,,,,,,32,2022-01-27_17h24.14.754,premceCat2_ses-02_part-02_label-phase2,2020.2.10,MacIntel,60,,,,,left,0.8685,3,0.3498,right,0.1486,0,0,0,0,1,,,,,,,,,,,,,,,,,
,,,,,,,,32,2022-01-27_17h24.14.754,premceCat2_ses-02_part-02_label-phase2,2020.2.10,MacIntel,60,,,,,,,,,,,,,,,,0,65,65,31,1,stimuli/objects/outdoorheater.jpg,left,old,175,,,,,,,,
,,,,,,,,32,2022-01-27_17h24.14.754,premceCat2_ses-02_part-02_label-phase2,2020.2.10,MacIntel,60,,,,,right,1.3849,3,0.6836,,,,,,,,0,66,66,9,1,stimuli/objects/alarmsystem.jpg,right,new,153,,,,,,,,
,,,,,,,,32,2022-01-27_17h24.14.754,premceCat2_ses-02_part-02_label-phase2,2020.2.10,MacIntel,60,,,,,left,0.9814,2,0.3117,right,0.2167,0,0,0,0,1,,,,,,,,,,,,,,,,,
,,,,,,,,32,2022-01-27_17h24.14.754,premceCat2_ses-02_part-02_label-phase2,2020.2.10,MacIntel,60,,,,,,,,,,,,,,,,0,67,67,47,1,stimuli/objects/plate01b.jpg,right,new,191,,,,,,,,
,,,,,,,,32,2022-01-27_17h24.14.754,premceCat2_ses-02_part-02_label-phase2,2020.2.10,MacIntel,60,,,,,right,0.8642,4,0.3341,,,,,,,,0,68,68,41,1,stimuli/objects/flask.jpg,right,new,185,,,,,,,,
,,,,,,,,32,2022-01-27_17h24.14.754,premceCat2_ses-02_part-02_label-phase2,2020.2.10,MacIntel,60,,,,,left,0.9646,4,0.0772,left,0.1961,0,0,0,0,1,,,,,,,,,,,,,,,,,
,,,,,,,,32,2022-01-27_17h24.14.754,premceCat2_ses-02_part-02_label-phase2,2020.2.10,MacIntel,60,,,,,,,,,,,,,,,,0,69,69,20,1,stimuli/objects/fishinghook03.jpg,left,old,164,,,,,,,,
,,,,,,,,32,2022-01-27_17h24.14.754,premceCat2_ses-02_part-02_label-phase2,2020.2.10,MacIntel,60,,,,,right,0.8309,2,0.1134,,,,,,,,0,70,70,68,1,stimuli/objects/ladle02a.jpg,right,new,212,,,,,,,,
,,,,,,,,32,2022-01-27_17h24.14.754,premceCat2_ses-02_part-02_label-phase2,2020.2.10,MacIntel,60,,,,,right,1.0205,3,0.4338,,,,,,,,0,71,71,36,1,stimuli/objects/loppingshears.jpg,right,new,180,,,,,,,,
,,,,,,,,32,2022-01-27_17h24.14.754,premceCat2_ses-02_part-02_label-phase2,2020.2.10,MacIntel,60,,,,,left,1.2225,4,0.3221,right,0.1634,0,0,0,0,1,,,,,,,,,,,,,,,,,
,,,,,,,,32,2022-01-27_17h24.14.754,premceCat2_ses-02_part-02_label-phase2,2020.2.10,MacIntel,60,,,,,,,,,,,,,,,,0,72,72,91,1,stimuli/objects/cuttingpliers02.jpg,right,new,235,,,,,,,,
,,,,,,,,32,2022-01-27_17h24.14.754,premceCat2_ses-02_part-02_label-phase2,2020.2.10,MacIntel,60,,,,,right,1.0961,3,0.4167,,,,,,,,0,73,73,116,1,stimuli/objects/lockingplier.jpg,right,new,260,,,,,,,,
,,,,,,,,32,2022-01-27_17h24.14.754,premceCat2_ses-02_part-02_label-phase2,2020.2.10,MacIntel,60,,,,,left,0.8209,2,0.6317,left,0.2811,0,0,0,0,1,,,,,,,,,,,,,,,,,
,,,,,,,,32,2022-01-27_17h24.14.754,premceCat2_ses-02_part-02_label-phase2,2020.2.10,MacIntel,60,,,,,,,,,,,,,,,,0,74,74,33,1,stimuli/objects/ethernetcable02.jpg,left,old,177,,,,,,,,
,,,,,,,,32,2022-01-27_17h24.14.754,premceCat2_ses-02_part-02_label-phase2,2020.2.10,MacIntel,60,,,,,right,0.848,3,0.2165,,,,,,,,0,75,75,6,1,stimuli/objects/solderingwire.jpg,right,new,150,,,,,,,,
,,,,,,,,32,2022-01-27_17h24.14.754,premceCat2_ses-02_part-02_label-phase2,2020.2.10,MacIntel,60,,,,,right,1.031,4,0.0861,,,,,,,,0,76,76,44,1,stimuli/objects/toaster01.jpg,right,new,188,,,,,,,,
,,,,,,,,32,2022-01-27_17h24.14.754,premceCat2_ses-02_part-02_label-phase2,2020.2.10,MacIntel,60,,,,,left,1.0501,2,0.7171,left,0.121,0,0,0,0,1,,,,,,,,,,,,,,,,,
,,,,,,,,32,2022-01-27_17h24.14.754,premceCat2_ses-02_part-02_label-phase2,2020.2.10,MacIntel,60,,,,,,,,,,,,,,,,0,77,77,5,1,stimuli/objects/pickaxe02.jpg,right,new,149,,,,,,,,
,,,,,,,,32,2022-01-27_17h24.14.754,premceCat2_ses-02_part-02_label-phase2,2020.2.10,MacIntel,60,,,,,right,0.7295,3,0.0028,,,,,,,,0,78,78,19,1,stimuli/objects/mug01.jpg,right,new,163,,,,,,,,
,,,,,,,,32,2022-01-27_17h24.14.754,premceCat2_ses-02_part-02_label-phase2,2020.2.10,MacIntel,60,,,,,left,0.7527,4,0.6568,left,0.1031,0,0,0,0,1,,,,,,,,,,,,,,,,,
,,,,,,,,32,2022-01-27_17h24.14.754,premceCat2_ses-02_part-02_label-phase2,2020.2.10,MacIntel,60,,,,,,,,,,,,,,,,0,79,79,73,1,stimuli/objects/weight01.jpg,left,old,217,,,,,,,,
,,,,,,,,32,2022-01-27_17h24.14.754,premceCat2_ses-02_part-02_label-phase2,2020.2.10,MacIntel,60,,,,,right,0.6729,4,0.1801,,,,,,,,0,80,80,120,1,stimuli/objects/tent.jpg,right,new,264,,,,,,,,
,,,,,,,,32,2022-01-27_17h24.14.754,premceCat2_ses-02_part-02_label-phase2,2020.2.10,MacIntel,60,,,,,left,1.4997,3,1.1119,left,0.0286,0,0,0,0,1,,,,,,,,,,,,,,,,,
,,,,,,,,32,2022-01-27_17h24.14.754,premceCat2_ses-02_part-02_label-phase2,2020.2.10,MacIntel,60,,,,,,,,,,,,,,,,0,81,81,126,1,stimuli/objects/shinpad.jpg,left,old,270,,,,,,,,
,,,,,,,,32,2022-01-27_17h24.14.754,premceCat2_ses-02_part-02_label-phase2,2020.2.10,MacIntel,60,,,,,left,1.1814,4,0.2335,right,0.0753,0,0,0,0,1,,,,,,,,,,,,,,,,,
,,,,,,,,32,2022-01-27_17h24.14.754,premceCat2_ses-02_part-02_label-phase2,2020.2.10,MacIntel,60,,,,,,,,,,,,,,,,0,82,82,63,1,stimuli/objects/watercooler.jpg,left,old,207,,,,,,,,
,,,,,,,,32,2022-01-27_17h24.14.754,premceCat2_ses-02_part-02_label-phase2,2020.2.10,MacIntel,60,,,,,left,1.4343,2,0.164,right,0.046,0,0,0,0,1,,,,,,,,,,,,,,,,,
,,,,,,,,32,2022-01-27_17h24.14.754,premceCat2_ses-02_part-02_label-phase2,2020.2.10,MacIntel,60,,,,,,,,,,,,,,,,0,83,83,100,1,stimuli/objects/lawnmower.jpg,left,old,244,,,,,,,,
,,,,,,,,32,2022-01-27_17h24.14.754,premceCat2_ses-02_part-02_label-phase2,2020.2.10,MacIntel,60,,,,,right,3.2685,4,0.0003,,,,,,,,0,84,84,137,1,stimuli/objects/nutcracker01.jpg,right,new,281,,,,,,,,
,,,,,,,,32,2022-01-27_17h24.14.754,premceCat2_ses-02_part-02_label-phase2,2020.2.10,MacIntel,60,,,,,left,1.7666,4,0.8654,left,0.2626,0,0,0,0,1,,,,,,,,,,,,,,,,,
,,,,,,,,32,2022-01-27_17h24.14.754,premceCat2_ses-02_part-02_label-phase2,2020.2.10,MacIntel,60,,,,,,,,,,,,,,,,0,85,85,14,1,stimuli/objects/canoepaddle02.jpg,left,old,158,,,,,,,,
,,,,,,,,32,2022-01-27_17h24.14.754,premceCat2_ses-02_part-02_label-phase2,2020.2.10,MacIntel,60,,,,,right,1.7971,3,0.2645,,,,,,,,0,86,86,86,1,stimuli/objects/trampoline.jpg,right,new,230,,,,,,,,
,,,,,,,,32,2022-01-27_17h24.14.754,premceCat2_ses-02_part-02_label-phase2,2020.2.10,MacIntel,60,,,,,right,2.9312,2,0.8484,,,,,,,,0,87,87,95,1,stimuli/objects/tennisball01b.jpg,right,new,239,,,,,,,,
,,,,,,,,32,2022-01-27_17h24.14.754,premceCat2_ses-02_part-02_label-phase2,2020.2.10,MacIntel,60,,,,,left,2.0664,4,0.4418,right,0.2758,0,0,0,0,1,,,,,,,,,,,,,,,,,
,,,,,,,,32,2022-01-27_17h24.14.754,premceCat2_ses-02_part-02_label-phase2,2020.2.10,MacIntel,60,,,,,,,,,,,,,,,,0,88,88,53,1,stimuli/objects/chainsaw.jpg,left,old,197,,,,,,,,
,,,,,,,,32,2022-01-27_17h24.14.754,premceCat2_ses-02_part-02_label-phase2,2020.2.10,MacIntel,60,,,,,left,0.7813,4,0.2286,right,0.2955,0,0,0,0,1,,,,,,,,,,,,,,,,,
,,,,,,,,32,2022-01-27_17h24.14.754,premceCat2_ses-02_part-02_label-phase2,2020.2.10,MacIntel,60,,,,,,,,,,,,,,,,0,89,89,96,1,stimuli/objects/knifesharpener.jpg,left,old,240,,,,,,,,
,,,,,,,,32,2022-01-27_17h24.14.754,premceCat2_ses-02_part-02_label-phase2,2020.2.10,MacIntel,60,,,,,left,0.9968,4,0.161,left,0.0646,0,0,0,0,1,,,,,,,,,,,,,,,,,
,,,,,,,,32,2022-01-27_17h24.14.754,premceCat2_ses-02_part-02_label-phase2,2020.2.10,MacIntel,60,,,,,,,,,,,,,,,,0,90,90,97,1,stimuli/objects/shotglass.jpg,left,old,241,,,,,,,,
,,,,,,,,32,2022-01-27_17h24.14.754,premceCat2_ses-02_part-02_label-phase2,2020.2.10,MacIntel,60,,,,,right,1.123,3,1.0125,,,,,,,,0,91,91,127,1,stimuli/objects/skigoggles01.jpg,right,new,271,,,,,,,,
,,,,,,,,32,2022-01-27_17h24.14.754,premceCat2_ses-02_part-02_label-phase2,2020.2.10,MacIntel,60,,,,,right,1.2315,2,0.1808,,,,,,,,0,92,92,22,1,stimuli/objects/pipewrench.jpg,left,old,166,,,,,,,,
,,,,,,,,32,2022-01-27_17h24.14.754,premceCat2_ses-02_part-02_label-phase2,2020.2.10,MacIntel,60,,,,,left,1.0162,2,0.929,right,0.4281,0,0,0,0,1,,,,,,,,,,,,,,,,,
,,,,,,,,32,2022-01-27_17h24.14.754,premceCat2_ses-02_part-02_label-phase2,2020.2.10,MacIntel,60,,,,,,,,,,,,,,,,0,93,93,38,1,stimuli/objects/rollingpin01a.jpg,left,old,182,,,,,,,,
,,,,,,,,32,2022-01-27_17h24.14.754,premceCat2_ses-02_part-02_label-phase2,2020.2.10,MacIntel,60,,,,,right,0.707,4,0.0793,,,,,,,,0,94,94,121,1,stimuli/objects/parachute.jpg,right,new,265,,,,,,,,
,,,,,,,,32,2022-01-27_17h24.14.754,premceCat2_ses-02_part-02_label-phase2,2020.2.10,MacIntel,60,,,,,left,0.9942,3,0.3959,left,0.117,0,0,0,0,1,,,,,,,,,,,,,,,,,
,,,,,,,,32,2022-01-27_17h24.14.754,premceCat2_ses-02_part-02_label-phase2,2020.2.10,MacIntel,60,,,,,,,,,,,,,,,,0,95,95,90,1,stimuli/objects/patioumbrella.jpg,left,old,234,,,,,,,,
,,,,,,,,32,2022-01-27_17h24.14.754,premceCat2_ses-02_part-02_label-phase2,2020.2.10,MacIntel,60,,,,,left,0.9727,4,0.4965,right,0.0955,0,0,0,0,1,,,,,,,,,,,,,,,,,
,,,,,,,,32,2022-01-27_17h24.14.754,premceCat2_ses-02_part-02_label-phase2,2020.2.10,MacIntel,60,,,,,,,,,,,,,,,,0,96,96,76,1,stimuli/objects/satellitedish01.jpg,left,old,220,,,,,,,,
,,,,,,,,32,2022-01-27_17h24.14.754,premceCat2_ses-02_part-02_label-phase2,2020.2.10,MacIntel,60,,,,,left,0.6988,4,0.1354,left,0.1144,0,0,0,0,1,,,,,,,,,,,,,,,,,
,,,,,,,,32,2022-01-27_17h24.14.754,premceCat2_ses-02_part-02_label-phase2,2020.2.10,MacIntel,60,,,,,,,,,,,,,,,,0,97,97,27,1,stimuli/objects/wateringcan.jpg,left,old,171,,,,,,,,
,,,,,,,,32,2022-01-27_17h24.14.754,premceCat2_ses-02_part-02_label-phase2,2020.2.10,MacIntel,60,,,,,right,1.0136,3,0.0004,,,,,,,,0,98,98,39,1,stimuli/objects/wafflemaker.jpg,right,new,183,,,,,,,,
,,,,,,,,32,2022-01-27_17h24.14.754,premceCat2_ses-02_part-02_label-phase2,2020.2.10,MacIntel,60,,,,,right,0.7136,3,0.3475,,,,,,,,0,99,99,131,1,stimuli/objects/handblender.jpg,right,new,275,,,,,,,,
,,,,,,,,32,2022-01-27_17h24.14.754,premceCat2_ses-02_part-02_label-phase2,2020.2.10,MacIntel,60,,,,,right,0.7994,4,0.2143,,,,,,,,0,100,100,35,1,stimuli/objects/stroller.jpg,right,new,179,,,,,,,,
,,,,,,,,32,2022-01-27_17h24.14.754,premceCat2_ses-02_part-02_label-phase2,2020.2.10,MacIntel,60,,,,,right,0.9377,2,0.3081,,,,,,,,0,101,101,70,1,stimuli/objects/shovel01.jpg,right,new,214,,,,,,,,
,,,,,,,,32,2022-01-27_17h24.14.754,premceCat2_ses-02_part-02_label-phase2,2020.2.10,MacIntel,60,,,,,right,1.2047,3,0.0004,,,,,,,,0,102,102,40,1,stimuli/objects/tablesaw.jpg,right,new,184,,,,,,,,
,,,,,,,,32,2022-01-27_17h24.14.754,premceCat2_ses-02_part-02_label-phase2,2020.2.10,MacIntel,60,,,,,right,1.4129,2,0.3946,,,,,,,,0,103,103,2,1,stimuli/objects/wetfloorsign.jpg,right,new,146,,,,,,,,
,,,,,,,,32,2022-01-27_17h24.14.754,premceCat2_ses-02_part-02_label-phase2,2020.2.10,MacIntel,60,,,,,right,0.9313,3,0.298,,,,,,,,0,104,104,57,1,stimuli/objects/soccerball.jpg,left,old,201,,,,,,,,
,,,,,,,,32,2022-01-27_17h24.14.754,premceCat2_ses-02_part-02_label-phase2,2020.2.10,MacIntel,60,,,,,right,0.8955,3,0.145,,,,,,,,0,105,105,94,1,stimuli/objects/file.jpg,right,new,238,,,,,,,,
,,,,,,,,32,2022-01-27_17h24.14.754,premceCat2_ses-02_part-02_label-phase2,2020.2.10,MacIntel,60,,,,,right,0.9332,3,0.5471,,,,,,,,0,106,106,81,1,stimuli/objects/grill.jpg,right,new,225,,,,,,,,
,,,,,,,,32,2022-01-27_17h24.14.754,premceCat2_ses-02_part-02_label-phase2,2020.2.10,MacIntel,60,,,,,right,1.6476,2,0.797,,,,,,,,0,107,107,0,1,stimuli/objects/smokedetector02.jpg,right,new,144,,,,,,,,
,,,,,,,,32,2022-01-27_17h24.14.754,premceCat2_ses-02_part-02_label-phase2,2020.2.10,MacIntel,60,,,,,left,1.2699,3,0.3806,left,0.0253,0,0,0,0,1,,,,,,,,,,,,,,,,,
,,,,,,,,32,2022-01-27_17h24.14.754,premceCat2_ses-02_part-02_label-phase2,2020.2.10,MacIntel,60,,,,,,,,,,,,,,,,0,108,108,11,1,stimuli/objects/antenna.jpg,left,old,155,,,,,,,,
,,,,,,,,32,2022-01-27_17h24.14.754,premceCat2_ses-02_part-02_label-phase2,2020.2.10,MacIntel,60,,,,,left,0.8924,3,0.1944,right,0.01,0,0,0,0,1,,,,,,,,,,,,,,,,,
,,,,,,,,32,2022-01-27_17h24.14.754,premceCat2_ses-02_part-02_label-phase2,2020.2.10,MacIntel,60,,,,,,,,,,,,,,,,0,109,109,92,1,stimuli/objects/gluetube.jpg,left,old,236,,,,,,,,
,,,,,,,,32,2022-01-27_17h24.14.754,premceCat2_ses-02_part-02_label-phase2,2020.2.10,MacIntel,60,,,,,left,0.843,4,0.4322,left,0.0611,0,0,0,0,1,,,,,,,,,,,,,,,,,
,,,,,,,,32,2022-01-27_17h24.14.754,premceCat2_ses-02_part-02_label-phase2,2020.2.10,MacIntel,60,,,,,,,,,,,,,,,,0,110,110,45,1,stimuli/objects/bikelock.jpg,left,old,189,,,,,,,,
,,,,,,,,32,2022-01-27_17h24.14.754,premceCat2_ses-02_part-02_label-phase2,2020.2.10,MacIntel,60,,,,,left,1.1447,4,0.0075,left,0.0443,0,0,0,0,1,,,,,,,,,,,,,,,,,
,,,,,,,,32,2022-01-27_17h24.14.754,premceCat2_ses-02_part-02_label-phase2,2020.2.10,MacIntel,60,,,,,,,,,,,,,,,,0,111,111,65,1,stimuli/objects/hoe.jpg,left,old,209,,,,,,,,
,,,,,,,,32,2022-01-27_17h24.14.754,premceCat2_ses-02_part-02_label-phase2,2020.2.10,MacIntel,60,,,,,left,1.164,4,0.0135,left,0.1128,0,0,0,0,1,,,,,,,,,,,,,,,,,
,,,,,,,,32,2022-01-27_17h24.14.754,premceCat2_ses-02_part-02_label-phase2,2020.2.10,MacIntel,60,,,,,,,,,,,,,,,,0,112,112,79,1,stimuli/objects/snowboard.jpg,left,old,223,,,,,,,,
,,,,,,,,32,2022-01-27_17h24.14.754,premceCat2_ses-02_part-02_label-phase2,2020.2.10,MacIntel,60,,,,,right,0.8444,2,0.1935,,,,,,,,0,113,113,26,1,stimuli/objects/flashlight02b.jpg,right,new,170,,,,,,,,
,,,,,,,,32,2022-01-27_17h24.14.754,premceCat2_ses-02_part-02_label-phase2,2020.2.10,MacIntel,60,,,,,right,1.0306,3,0.1133,,,,,,,,0,114,114,51,1,stimuli/objects/cheeseknife01.jpg,right,new,195,,,,,,,,
,,,,,,,,32,2022-01-27_17h24.14.754,premceCat2_ses-02_part-02_label-phase2,2020.2.10,MacIntel,60,,,,,left,0.9597,4,0.009,left,0.0974,0,0,0,0,1,,,,,,,,,,,,,,,,,
,,,,,,,,32,2022-01-27_17h24.14.754,premceCat2_ses-02_part-02_label-phase2,2020.2.10,MacIntel,60,,,,,,,,,,,,,,,,0,115,115,117,1,stimuli/objects/iceskate.jpg,left,old,261,,,,,,,,
,,,,,,,,32,2022-01-27_17h24.14.754,premceCat2_ses-02_part-02_label-phase2,2020.2.10,MacIntel,60,,,,,right,0.9528,3,0.3933,,,,,,,,0,116,116,15,1,stimuli/objects/computermouse06.jpg,right,new,159,,,,,,,,
,,,,,,,,32,2022-01-27_17h24.14.754,premceCat2_ses-02_part-02_label-phase2,2020.2.10,MacIntel,60,,,,,left,0.85,4,0.1034,left,0.0599,0,0,0,0,1,,,,,,,,,,,,,,,,,
,,,,,,,,32,2022-01-27_17h24.14.754,premceCat2_ses-02_part-02_label-phase2,2020.2.10,MacIntel,60,,,,,,,,,,,,,,,,0,117,117,84,1,stimuli/objects/sportbag.jpg,left,old,228,,,,,,,,
,,,,,,,,32,2022-01-27_17h24.14.754,premceCat2_ses-02_part-02_label-phase2,2020.2.10,MacIntel,60,,,,,left,0.9998,4,0.647,left,0.3185,0,0,0,0,1,,,,,,,,,,,,,,,,,
,,,,,,,,32,2022-01-27_17h24.14.754,premceCat2_ses-02_part-02_label-phase2,2020.2.10,MacIntel,60,,,,,,,,,,,,,,,,0,118,118,43,1,stimuli/objects/bowrake.jpg,right,new,187,,,,,,,,
,,,,,,,,32,2022-01-27_17h24.14.754,premceCat2_ses-02_part-02_label-phase2,2020.2.10,MacIntel,60,,,,,right,0.9744,3,0.7621,,,,,,,,0,119,119,123,1,stimuli/objects/jackhammer.jpg,right,new,267,,,,,,,,
,,,,,,,,32,2022-01-27_17h24.14.754,premceCat2_ses-02_part-02_label-phase2,2020.2.10,MacIntel,60,,,,,right,0.856,4,0.7971,,,,,,,,0,120,120,69,1,stimuli/objects/straw.jpg,right,new,213,,,,,,,,
,,,,,,,,32,2022-01-27_17h24.14.754,premceCat2_ses-02_part-02_label-phase2,2020.2.10,MacIntel,60,,,,,left,1.0014,4,0.2633,right,0.2479,0,0,0,0,1,,,,,,,,,,,,,,,,,
,,,,,,,,32,2022-01-27_17h24.14.754,premceCat2_ses-02_part-02_label-phase2,2020.2.10,MacIntel,60,,,,,,,,,,,,,,,,0,121,121,115,1,stimuli/objects/dishrack.jpg,left,old,259,,,,,,,,
,,,,,,,,32,2022-01-27_17h24.14.754,premceCat2_ses-02_part-02_label-phase2,2020.2.10,MacIntel,60,,,,,left,0.8874,4,0.4273,right,0.7677,0,0,0,0,1,,,,,,,,,,,,,,,,,
,,,,,,,,32,2022-01-27_17h24.14.754,premceCat2_ses-02_part-02_label-phase2,2020.2.10,MacIntel,60,,,,,,,,,,,,,,,,0,122,122,56,1,stimuli/objects/hourglass.jpg,left,old,200,,,,,,,,
,,,,,,,,32,2022-01-27_17h24.14.754,premceCat2_ses-02_part-02_label-phase2,2020.2.10,MacIntel,60,,,,,right,2.1814,2,0.7275,,,,,,,,0,123,123,58,1,stimuli/objects/ellipticalmachine.jpg,left,old,202,,,,,,,,
,,,,,,,,32,2022-01-27_17h24.14.754,premceCat2_ses-02_part-02_label-phase2,2020.2.10,MacIntel,60,,,,,left,0.8447,4,0.0934,right,0.0405,0,0,0,0,1,,,,,,,,,,,,,,,,,
,,,,,,,,32,2022-01-27_17h24.14.754,premceCat2_ses-02_part-02_label-phase2,2020.2.10,MacIntel,60,,,,,,,,,,,,,,,,0,124,124,28,1,stimuli/objects/saladspinner.jpg,left,old,172,,,,,,,,
,,,,,,,,32,2022-01-27_17h24.14.754,premceCat2_ses-02_part-02_label-phase2,2020.2.10,MacIntel,60,,,,,left,1.1326,3,0.9746,left,0.9562,0,0,0,0,1,,,,,,,,,,,,,,,,,
,,,,,,,,32,2022-01-27_17h24.14.754,premceCat2_ses-02_part-02_label-phase2,2020.2.10,MacIntel,60,,,,,,,,,,,,,,,,0,125,125,34,1,stimuli/objects/kneepad01c.jpg,right,new,178,,,,,,,,
,,,,,,,,32,2022-01-27_17h24.14.754,premceCat2_ses-02_part-02_label-phase2,2020.2.10,MacIntel,60,,,,,right,1.3478,3,0.9698,,,,,,,,0,126,126,3,1,stimuli/objects/boxingglove01.jpg,right,new,147,,,,,,,,
,,,,,,,,32,2022-01-27_17h24.14.754,premceCat2_ses-02_part-02_label-phase2,2020.2.10,MacIntel,60,,,,,left,0.7789,4,0.1996,right,1.5285,0,0,0,0,1,,,,,,,,,,,,,,,,,
,,,,,,,,32,2022-01-27_17h24.14.754,premceCat2_ses-02_part-02_label-phase2,2020.2.10,MacIntel,60,,,,,,,,,,,,,,,,0,127,127,50,1,stimuli/objects/magneticcompass.jpg,left,old,194,,,,,,,,
,,,,,,,,32,2022-01-27_17h24.14.754,premceCat2_ses-02_part-02_label-phase2,2020.2.10,MacIntel,60,,,,,right,0.7169,2,1.2471,,,,,,,,0,128,128,55,1,stimuli/objects/fonduefork01.jpg,right,new,199,,,,,,,,
,,,,,,,,32,2022-01-27_17h24.14.754,premceCat2_ses-02_part-02_label-phase2,2020.2.10,MacIntel,60,,,,,right,0.8476,3,0.3128,,,,,,,,0,129,129,78,1,stimuli/objects/lightswitch01.jpg,right,new,222,,,,,,,,
,,,,,,,,32,2022-01-27_17h24.14.754,premceCat2_ses-02_part-02_label-phase2,2020.2.10,MacIntel,60,,,,,right,1.3672,3,0.2713,,,,,,,,0,130,130,13,1,stimuli/objects/leafrake.jpg,left,old,157,,,,,,,,
,,,,,,,,32,2022-01-27_17h24.14.754,premceCat2_ses-02_part-02_label-phase2,2020.2.10,MacIntel,60,,,,,right,1.2812,3,0.0674,,,,,,,,0,131,131,74,1,stimuli/objects/poolnet.jpg,left,old,218,,,,,,,,
,,,,,,,,32,2022-01-27_17h24.14.754,premceCat2_ses-02_part-02_label-phase2,2020.2.10,MacIntel,60,,,,,right,0.8396,3,0.1692,,,,,,,,0,132,132,4,1,stimuli/objects/cassettetape01a.jpg,right,new,148,,,,,,,,
,,,,,,,,32,2022-01-27_17h24.14.754,premceCat2_ses-02_part-02_label-phase2,2020.2.10,MacIntel,60,,,,,left,0.9668,4,0.2308,left,0.0942,0,0,0,0,1,,,,,,,,,,,,,,,,,
,,,,,,,,32,2022-01-27_17h24.14.754,premceCat2_ses-02_part-02_label-phase2,2020.2.10,MacIntel,60,,,,,,,,,,,,,,,,0,133,133,32,1,stimuli/objects/potatomasher03b.jpg,left,old,176,,,,,,,,
,,,,,,,,32,2022-01-27_17h24.14.754,premceCat2_ses-02_part-02_label-phase2,2020.2.10,MacIntel,60,,,,,left,0.8702,2,0.6988,left,0.3158,0,0,0,0,1,,,,,,,,,,,,,,,,,
,,,,,,,,32,2022-01-27_17h24.14.754,premceCat2_ses-02_part-02_label-phase2,2020.2.10,MacIntel,60,,,,,,,,,,,,,,,,0,134,134,80,1,stimuli/objects/barbecue03.jpg,right,new,224,,,,,,,,
,,,,,,,,32,2022-01-27_17h24.14.754,premceCat2_ses-02_part-02_label-phase2,2020.2.10,MacIntel,60,,,,,right,0.6998,3,0.1052,,,,,,,,0,135,135,133,1,stimuli/objects/birdie.jpg,right,new,277,,,,,,,,
,,,,,,,,32,2022-01-27_17h24.14.754,premceCat2_ses-02_part-02_label-phase2,2020.2.10,MacIntel,60,,,,,right,0.6809,4,0.1818,,,,,,,,0,136,136,60,1,stimuli/objects/kite.jpg,right,new,204,,,,,,,,
,,,,,,,,32,2022-01-27_17h24.14.754,premceCat2_ses-02_part-02_label-phase2,2020.2.10,MacIntel,60,,,,,right,0.7665,4,0.1727,,,,,,,,0,137,137,102,1,stimuli/objects/beachumbrella01.jpg,right,new,246,,,,,,,,
,,,,,,,,32,2022-01-27_17h24.14.754,premceCat2_ses-02_part-02_label-phase2,2020.2.10,MacIntel,60,,,,,right,1.2647,3,0.0782,,,,,,,,0,138,138,30,1,stimuli/objects/halogenlightbulb.jpg,right,new,174,,,,,,,,
,,,,,,,,32,2022-01-27_17h24.14.754,premceCat2_ses-02_part-02_label-phase2,2020.2.10,MacIntel,60,,,,,left,0.8479,4,0.0692,left,0.1978,0,0,0,0,1,,,,,,,,,,,,,,,,,
,,,,,,,,32,2022-01-27_17h24.14.754,premceCat2_ses-02_part-02_label-phase2,2020.2.10,MacIntel,60,,,,,,,,,,,,,,,,0,139,139,25,1,stimuli/objects/gravyboat.jpg,left,old,169,,,,,,,,
,,,,,,,,32,2022-01-27_17h24.14.754,premceCat2_ses-02_part-02_label-phase2,2020.2.10,MacIntel,60,,,,,right,1.9028,3,0.0142,,,,,,,,0,140,140,12,1,stimuli/objects/fanheater.jpg,right,new,156,,,,,,,,
,,,,,,,,32,2022-01-27_17h24.14.754,premceCat2_ses-02_part-02_label-phase2,2020.2.10,MacIntel,60,,,,,left,0.6553,4,0.1511,right,0.1551,0,0,0,0,1,,,,,,,,,,,,,,,,,
,,,,,,,,32,2022-01-27_17h24.14.754,premceCat2_ses-02_part-02_label-phase2,2020.2.10,MacIntel,60,,,,,,,,,,,,,,,,0,141,141,21,1,stimuli/objects/adjustablewrench01b.jpg,left,old,165,,,,,,,,
,,,,,,,,32,2022-01-27_17h24.14.754,premceCat2_ses-02_part-02_label-phase2,2020.2.10,MacIntel,60,,,,,left,0.7943,3,0.2404,right,0.5308,0,0,0,0,1,,,,,,,,,,,,,,,,,
,,,,,,,,32,2022-01-27_17h24.14.754,premceCat2_ses-02_part-02_label-phase2,2020.2.10,MacIntel,60,,,,,,,,,,,,,,,,0,142,142,17,1,stimuli/objects/propanetank01.jpg,left,old,161,,,,,,,,
,,,,,,,,32,2022-01-27_17h24.14.754,premceCat2_ses-02_part-02_label-phase2,2020.2.10,MacIntel,60,,,,,,,,,,,,,,,,,,,,,,,,,space,4.2696,0,1,1,1,1,condition_files/ImagesforRecog1_2.csv
