instructions_loop.thisRepN,instructions_loop.thisTrialN,instructions_loop.thisN,instructions_loop.thisIndex,instructions_loop.ran,text1,text2,text3,participant,date,expName,psychopyVersion,OS,frameRate,key_resp_2.keys,key_resp_2.rt,key_resp_3.keys,key_resp_3.rt,recog_resp.keys,recog_resp.rt,conf_resp.keys,conf_resp.rt,recog_loop.thisRepN,recog_loop.thisTrialN,recog_loop.thisN,recog_loop.thisIndex,recog_loop.ran,images,corr_ans,type,order,resp_assoc.keys,resp_assoc.rt,assoc_loop.thisRepN,assoc_loop.thisTrialN,assoc_loop.thisN,assoc_loop.thisIndex,assoc_loop.ran,key_resp_break.keys,key_resp_break.rt,list_loop.thisRepN,list_loop.thisTrialN,list_loop.thisN,list_loop.thisIndex,list_loop.ran,recog_list
0,0,0,0,1,Welcome to the last phase of this experiment!,.,Please press the space bar to continue,33,2021-12-22_10h05.18.758,premceCat2_ses-02_part-02_label-phase2,2020.2.10,Win32,60,,,,,,,,,,,,,,,,,,,,,,,,,,,,,,,,
0,1,1,1,1,.,"In this phase, you will see some objects. 

For each object, you should indicate whether you have seen it before during the experiment.

Press LEFT ARROW for YES
Press RIGHT ARROW for NO

",Please press the space bar to continue ,33,2021-12-22_10h05.18.758,premceCat2_ses-02_part-02_label-phase2,2020.2.10,Win32,60,,,,,,,,,,,,,,,,,,,,,,,,,,,,,,,,
0,2,2,2,1,.,"After that, you will be asked how confident you are of your choice.

Please rate the confidence in your choice with the numbers from 1 to 4 of your keyboard. 

The numbers correspond to:

1 = Very unsure
2 = Unsure
3 = Sure
4 = Very Sure",Please press the space bar to continue,33,2021-12-22_10h05.18.758,premceCat2_ses-02_part-02_label-phase2,2020.2.10,Win32,60,,,,,,,,,,,,,,,,,,,,,,,,,,,,,,,,
,,,,,,,,33,2021-12-22_10h05.18.758,premceCat2_ses-02_part-02_label-phase2,2020.2.10,Win32,60,space,11.2382,space,164.5958,right,3.0107,2,1.7334,0,0,0,94,1,stimuli/objects/electricmixer.jpg,right,new,95,,,,,,,,,,,,,,,
,,,,,,,,33,2021-12-22_10h05.18.758,premceCat2_ses-02_part-02_label-phase2,2020.2.10,Win32,60,,,,,right,1.4679,2,0.8427,0,1,1,51,1,stimuli/objects/webcam.jpg,right,new,52,,,,,,,,,,,,,,,
,,,,,,,,33,2021-12-22_10h05.18.758,premceCat2_ses-02_part-02_label-phase2,2020.2.10,Win32,60,,,,,right,1.6279,2,0.836,0,2,2,92,1,stimuli/objects/carjack.jpg,right,new,93,,,,,,,,,,,,,,,
,,,,,,,,33,2021-12-22_10h05.18.758,premceCat2_ses-02_part-02_label-phase2,2020.2.10,Win32,60,,,,,left,1.435,4,1.0825,,,,,,,,,,left,5.4704,0,0,0,0,1,,,,,,,,
,,,,,,,,33,2021-12-22_10h05.18.758,premceCat2_ses-02_part-02_label-phase2,2020.2.10,Win32,60,,,,,,,,,0,3,3,3,1,stimuli/objects/shotglass.jpg,left,old,4,,,,,,,,,,,,,,,
,,,,,,,,33,2021-12-22_10h05.18.758,premceCat2_ses-02_part-02_label-phase2,2020.2.10,Win32,60,,,,,right,2.2766,2,0.8968,0,4,4,117,1,stimuli/objects/videotape01b.jpg,right,new,118,,,,,,,,,,,,,,,
,,,,,,,,33,2021-12-22_10h05.18.758,premceCat2_ses-02_part-02_label-phase2,2020.2.10,Win32,60,,,,,left,1.3384,1,3.9646,,,,,,,,,,right,1.8258,0,0,0,0,1,,,,,,,,
,,,,,,,,33,2021-12-22_10h05.18.758,premceCat2_ses-02_part-02_label-phase2,2020.2.10,Win32,60,,,,,,,,,0,5,5,116,1,stimuli/objects/radio01.jpg,right,new,117,,,,,,,,,,,,,,,
,,,,,,,,33,2021-12-22_10h05.18.758,premceCat2_ses-02_part-02_label-phase2,2020.2.10,Win32,60,,,,,left,1.6215,2,0.5222,,,,,,,,,,right,4.9266,0,0,0,0,1,,,,,,,,
,,,,,,,,33,2021-12-22_10h05.18.758,premceCat2_ses-02_part-02_label-phase2,2020.2.10,Win32,60,,,,,,,,,0,6,6,89,1,stimuli/objects/ducttape.jpg,right,new,90,,,,,,,,,,,,,,,
,,,,,,,,33,2021-12-22_10h05.18.758,premceCat2_ses-02_part-02_label-phase2,2020.2.10,Win32,60,,,,,left,2.0766,2,0.4599,,,,,,,,,,left,1.8684,0,0,0,0,1,,,,,,,,
,,,,,,,,33,2021-12-22_10h05.18.758,premceCat2_ses-02_part-02_label-phase2,2020.2.10,Win32,60,,,,,,,,,0,7,7,12,1,stimuli/objects/garlicpress02a.jpg,right,new,13,,,,,,,,,,,,,,,
,,,,,,,,33,2021-12-22_10h05.18.758,premceCat2_ses-02_part-02_label-phase2,2020.2.10,Win32,60,,,,,left,4.6661,1,3.1688,,,,,,,,,,right,1.962,0,0,0,0,1,,,,,,,,
,,,,,,,,33,2021-12-22_10h05.18.758,premceCat2_ses-02_part-02_label-phase2,2020.2.10,Win32,60,,,,,,,,,0,8,8,59,1,stimuli/objects/studiolight.jpg,right,new,60,,,,,,,,,,,,,,,
,,,,,,,,33,2021-12-22_10h05.18.758,premceCat2_ses-02_part-02_label-phase2,2020.2.10,Win32,60,,,,,left,1.3257,2,3.5436,,,,,,,,,,right,3.5634,0,0,0,0,1,,,,,,,,
,,,,,,,,33,2021-12-22_10h05.18.758,premceCat2_ses-02_part-02_label-phase2,2020.2.10,Win32,60,,,,,,,,,0,9,9,72,1,stimuli/objects/cclamp.jpg,right,new,73,,,,,,,,,,,,,,,
,,,,,,,,33,2021-12-22_10h05.18.758,premceCat2_ses-02_part-02_label-phase2,2020.2.10,Win32,60,,,,,right,4.6258,3,1.9874,0,10,10,39,1,stimuli/objects/sippycup.jpg,right,new,40,,,,,,,,,,,,,,,
,,,,,,,,33,2021-12-22_10h05.18.758,premceCat2_ses-02_part-02_label-phase2,2020.2.10,Win32,60,,,,,left,1.9979,2,2.3307,,,,,,,,,,left,4.9619,0,0,0,0,1,,,,,,,,
,,,,,,,,33,2021-12-22_10h05.18.758,premceCat2_ses-02_part-02_label-phase2,2020.2.10,Win32,60,,,,,,,,,0,11,11,30,1,stimuli/objects/printer02.jpg,right,new,31,,,,,,,,,,,,,,,
,,,,,,,,33,2021-12-22_10h05.18.758,premceCat2_ses-02_part-02_label-phase2,2020.2.10,Win32,60,,,,,right,2.6711,2,1.695,0,12,12,22,1,stimuli/objects/umbrella04.jpg,right,new,23,,,,,,,,,,,,,,,
,,,,,,,,33,2021-12-22_10h05.18.758,premceCat2_ses-02_part-02_label-phase2,2020.2.10,Win32,60,,,,,left,1.5371,3,0.5327,,,,,,,,,,right,4.0563,0,0,0,0,1,,,,,,,,
,,,,,,,,33,2021-12-22_10h05.18.758,premceCat2_ses-02_part-02_label-phase2,2020.2.10,Win32,60,,,,,,,,,0,13,13,55,1,stimuli/objects/toolbox02.jpg,right,new,56,,,,,,,,,,,,,,,
,,,,,,,,33,2021-12-22_10h05.18.758,premceCat2_ses-02_part-02_label-phase2,2020.2.10,Win32,60,,,,,right,2.4267,2,0.7479,0,14,14,124,1,stimuli/objects/fishinghook03.jpg,left,old,125,,,,,,,,,,,,,,,
,,,,,,,,33,2021-12-22_10h05.18.758,premceCat2_ses-02_part-02_label-phase2,2020.2.10,Win32,60,,,,,left,2.8347,2,0.3531,,,,,,,,,,left,1.8226,0,0,0,0,1,,,,,,,,
,,,,,,,,33,2021-12-22_10h05.18.758,premceCat2_ses-02_part-02_label-phase2,2020.2.10,Win32,60,,,,,,,,,0,15,15,125,1,stimuli/objects/shoulderpad.jpg,right,new,126,,,,,,,,,,,,,,,
,,,,,,,,33,2021-12-22_10h05.18.758,premceCat2_ses-02_part-02_label-phase2,2020.2.10,Win32,60,,,,,right,3.6741,2,0.5493,0,16,16,126,1,stimuli/objects/tableknife02.jpg,right,new,127,,,,,,,,,,,,,,,
,,,,,,,,33,2021-12-22_10h05.18.758,premceCat2_ses-02_part-02_label-phase2,2020.2.10,Win32,60,,,,,left,1.7449,4,0.513,,,,,,,,,,right,2.519,0,0,0,0,1,,,,,,,,
,,,,,,,,33,2021-12-22_10h05.18.758,premceCat2_ses-02_part-02_label-phase2,2020.2.10,Win32,60,,,,,,,,,0,17,17,35,1,stimuli/objects/alarmclock01.jpg,left,old,36,,,,,,,,,,,,,,,
,,,,,,,,33,2021-12-22_10h05.18.758,premceCat2_ses-02_part-02_label-phase2,2020.2.10,Win32,60,,,,,left,1.8357,2,0.2991,,,,,,,,,,right,0.5492,0,0,0,0,1,,,,,,,,
,,,,,,,,33,2021-12-22_10h05.18.758,premceCat2_ses-02_part-02_label-phase2,2020.2.10,Win32,60,,,,,,,,,0,18,18,136,1,stimuli/objects/battery02b.jpg,right,new,137,,,,,,,,,,,,,,,
,,,,,,,,33,2021-12-22_10h05.18.758,premceCat2_ses-02_part-02_label-phase2,2020.2.10,Win32,60,,,,,left,1.8168,1,1.8914,,,,,,,,,,left,0.7403,0,0,0,0,1,,,,,,,,
,,,,,,,,33,2021-12-22_10h05.18.758,premceCat2_ses-02_part-02_label-phase2,2020.2.10,Win32,60,,,,,,,,,0,19,19,106,1,stimuli/objects/minifridge.jpg,right,new,107,,,,,,,,,,,,,,,
,,,,,,,,33,2021-12-22_10h05.18.758,premceCat2_ses-02_part-02_label-phase2,2020.2.10,Win32,60,,,,,right,2.0045,2,2.9662,0,20,20,107,1,stimuli/objects/aluminiumfoil.jpg,left,old,108,,,,,,,,,,,,,,,
,,,,,,,,33,2021-12-22_10h05.18.758,premceCat2_ses-02_part-02_label-phase2,2020.2.10,Win32,60,,,,,left,1.6804,3,0.9545,,,,,,,,,,left,0.9897,0,0,0,0,1,,,,,,,,
,,,,,,,,33,2021-12-22_10h05.18.758,premceCat2_ses-02_part-02_label-phase2,2020.2.10,Win32,60,,,,,,,,,0,21,21,137,1,stimuli/objects/surfboard.jpg,left,old,138,,,,,,,,,,,,,,,
,,,,,,,,33,2021-12-22_10h05.18.758,premceCat2_ses-02_part-02_label-phase2,2020.2.10,Win32,60,,,,,left,1.4627,2,1.0865,,,,,,,,,,right,2.1054,0,0,0,0,1,,,,,,,,
,,,,,,,,33,2021-12-22_10h05.18.758,premceCat2_ses-02_part-02_label-phase2,2020.2.10,Win32,60,,,,,,,,,0,22,22,73,1,stimuli/objects/clock01a.jpg,right,new,74,,,,,,,,,,,,,,,
,,,,,,,,33,2021-12-22_10h05.18.758,premceCat2_ses-02_part-02_label-phase2,2020.2.10,Win32,60,,,,,left,2.6216,2,0.8515,,,,,,,,,,right,0.9469,0,0,0,0,1,,,,,,,,
,,,,,,,,33,2021-12-22_10h05.18.758,premceCat2_ses-02_part-02_label-phase2,2020.2.10,Win32,60,,,,,,,,,0,23,23,81,1,stimuli/objects/avcable.jpg,right,new,82,,,,,,,,,,,,,,,
,,,,,,,,33,2021-12-22_10h05.18.758,premceCat2_ses-02_part-02_label-phase2,2020.2.10,Win32,60,,,,,left,4.2686,2,0.3912,,,,,,,,,,left,0.4895,0,0,0,0,1,,,,,,,,
,,,,,,,,33,2021-12-22_10h05.18.758,premceCat2_ses-02_part-02_label-phase2,2020.2.10,Win32,60,,,,,,,,,0,24,24,25,1,stimuli/objects/bowlingball.jpg,right,new,26,,,,,,,,,,,,,,,
,,,,,,,,33,2021-12-22_10h05.18.758,premceCat2_ses-02_part-02_label-phase2,2020.2.10,Win32,60,,,,,left,1.3366,3,0.4164,,,,,,,,,,left,1.0243,0,0,0,0,1,,,,,,,,
,,,,,,,,33,2021-12-22_10h05.18.758,premceCat2_ses-02_part-02_label-phase2,2020.2.10,Win32,60,,,,,,,,,0,25,25,52,1,stimuli/objects/handmixer01d.jpg,left,old,53,,,,,,,,,,,,,,,
,,,,,,,,33,2021-12-22_10h05.18.758,premceCat2_ses-02_part-02_label-phase2,2020.2.10,Win32,60,,,,,left,1.3695,2,0.3356,,,,,,,,,,right,1.5592,0,0,0,0,1,,,,,,,,
,,,,,,,,33,2021-12-22_10h05.18.758,premceCat2_ses-02_part-02_label-phase2,2020.2.10,Win32,60,,,,,,,,,0,26,26,122,1,stimuli/objects/desktopcomputer.jpg,left,old,123,,,,,,,,,,,,,,,
,,,,,,,,33,2021-12-22_10h05.18.758,premceCat2_ses-02_part-02_label-phase2,2020.2.10,Win32,60,,,,,left,2.2683,4,0.271,,,,,,,,,,right,3.4887,0,0,0,0,1,,,,,,,,
,,,,,,,,33,2021-12-22_10h05.18.758,premceCat2_ses-02_part-02_label-phase2,2020.2.10,Win32,60,,,,,,,,,0,27,27,44,1,stimuli/objects/lawnmower.jpg,left,old,45,,,,,,,,,,,,,,,
,,,,,,,,33,2021-12-22_10h05.18.758,premceCat2_ses-02_part-02_label-phase2,2020.2.10,Win32,60,,,,,left,1.5693,4,0.6421,,,,,,,,,,left,0.2752,0,0,0,0,1,,,,,,,,
,,,,,,,,33,2021-12-22_10h05.18.758,premceCat2_ses-02_part-02_label-phase2,2020.2.10,Win32,60,,,,,,,,,0,28,28,114,1,stimuli/objects/tray.jpg,left,old,115,,,,,,,,,,,,,,,
,,,,,,,,33,2021-12-22_10h05.18.758,premceCat2_ses-02_part-02_label-phase2,2020.2.10,Win32,60,,,,,left,3.3991,3,0.294,,,,,,,,,,right,0.5847,0,0,0,0,1,,,,,,,,
,,,,,,,,33,2021-12-22_10h05.18.758,premceCat2_ses-02_part-02_label-phase2,2020.2.10,Win32,60,,,,,,,,,0,29,29,123,1,stimuli/objects/thermos.jpg,left,old,124,,,,,,,,,,,,,,,
,,,,,,,,33,2021-12-22_10h05.18.758,premceCat2_ses-02_part-02_label-phase2,2020.2.10,Win32,60,,,,,left,1.9581,4,1.4496,,,,,,,,,,right,0.868,0,0,0,0,1,,,,,,,,
,,,,,,,,33,2021-12-22_10h05.18.758,premceCat2_ses-02_part-02_label-phase2,2020.2.10,Win32,60,,,,,,,,,0,30,30,31,1,stimuli/objects/gastank.jpg,left,old,32,,,,,,,,,,,,,,,
,,,,,,,,33,2021-12-22_10h05.18.758,premceCat2_ses-02_part-02_label-phase2,2020.2.10,Win32,60,,,,,left,1.2876,1,1.2122,,,,,,,,,,right,1.6343,0,0,0,0,1,,,,,,,,
,,,,,,,,33,2021-12-22_10h05.18.758,premceCat2_ses-02_part-02_label-phase2,2020.2.10,Win32,60,,,,,,,,,0,31,31,18,1,stimuli/objects/cashregister01.jpg,right,new,19,,,,,,,,,,,,,,,
,,,,,,,,33,2021-12-22_10h05.18.758,premceCat2_ses-02_part-02_label-phase2,2020.2.10,Win32,60,,,,,left,1.5397,4,1.008,,,,,,,,,,right,2.1941,0,0,0,0,1,,,,,,,,
,,,,,,,,33,2021-12-22_10h05.18.758,premceCat2_ses-02_part-02_label-phase2,2020.2.10,Win32,60,,,,,,,,,0,32,32,14,1,stimuli/objects/puttyknife.jpg,left,old,15,,,,,,,,,,,,,,,
,,,,,,,,33,2021-12-22_10h05.18.758,premceCat2_ses-02_part-02_label-phase2,2020.2.10,Win32,60,,,,,left,1.6865,4,0.327,,,,,,,,,,left,0.3936,0,0,0,0,1,,,,,,,,
,,,,,,,,33,2021-12-22_10h05.18.758,premceCat2_ses-02_part-02_label-phase2,2020.2.10,Win32,60,,,,,,,,,0,33,33,6,1,stimuli/objects/pitcher02b.jpg,left,old,7,,,,,,,,,,,,,,,
,,,,,,,,33,2021-12-22_10h05.18.758,premceCat2_ses-02_part-02_label-phase2,2020.2.10,Win32,60,,,,,right,1.6252,1,2.2432,0,34,34,71,1,stimuli/objects/faxmachine.jpg,right,new,72,,,,,,,,,,,,,,,
,,,,,,,,33,2021-12-22_10h05.18.758,premceCat2_ses-02_part-02_label-phase2,2020.2.10,Win32,60,,,,,right,1.622,1,0.7639,0,35,35,53,1,stimuli/objects/binoculars01b.jpg,right,new,54,,,,,,,,,,,,,,,
,,,,,,,,33,2021-12-22_10h05.18.758,premceCat2_ses-02_part-02_label-phase2,2020.2.10,Win32,60,,,,,right,1.8129,2,1.3347,0,36,36,85,1,stimuli/objects/golfball.jpg,right,new,86,,,,,,,,,,,,,,,
,,,,,,,,33,2021-12-22_10h05.18.758,premceCat2_ses-02_part-02_label-phase2,2020.2.10,Win32,60,,,,,left,3.6043,1,0.4328,,,,,,,,,,right,0.4435,0,0,0,0,1,,,,,,,,
,,,,,,,,33,2021-12-22_10h05.18.758,premceCat2_ses-02_part-02_label-phase2,2020.2.10,Win32,60,,,,,,,,,0,37,37,100,1,stimuli/objects/remotecontrol04.jpg,right,new,101,,,,,,,,,,,,,,,
,,,,,,,,33,2021-12-22_10h05.18.758,premceCat2_ses-02_part-02_label-phase2,2020.2.10,Win32,60,,,,,right,1.9314,2,1.8916,0,38,38,112,1,stimuli/objects/gymnasticring.jpg,right,new,113,,,,,,,,,,,,,,,
,,,,,,,,33,2021-12-22_10h05.18.758,premceCat2_ses-02_part-02_label-phase2,2020.2.10,Win32,60,,,,,right,1.5919,2,0.6316,0,39,39,60,1,stimuli/objects/glass02a.jpg,right,new,61,,,,,,,,,,,,,,,
,,,,,,,,33,2021-12-22_10h05.18.758,premceCat2_ses-02_part-02_label-phase2,2020.2.10,Win32,60,,,,,left,1.0064,4,0.3978,,,,,,,,,,right,0.2711,0,0,0,0,1,,,,,,,,
,,,,,,,,33,2021-12-22_10h05.18.758,premceCat2_ses-02_part-02_label-phase2,2020.2.10,Win32,60,,,,,,,,,0,40,40,28,1,stimuli/objects/poolnet.jpg,left,old,29,,,,,,,,,,,,,,,
,,,,,,,,33,2021-12-22_10h05.18.758,premceCat2_ses-02_part-02_label-phase2,2020.2.10,Win32,60,,,,,left,2.101,3,0.3029,,,,,,,,,,right,0.8769,0,0,0,0,1,,,,,,,,
,,,,,,,,33,2021-12-22_10h05.18.758,premceCat2_ses-02_part-02_label-phase2,2020.2.10,Win32,60,,,,,,,,,0,41,41,0,1,stimuli/objects/electricoutlet.jpg,left,old,1,,,,,,,,,,,,,,,
,,,,,,,,33,2021-12-22_10h05.18.758,premceCat2_ses-02_part-02_label-phase2,2020.2.10,Win32,60,,,,,right,2.3126,2,0.908,0,42,42,33,1,stimuli/objects/microwave.jpg,right,new,34,,,,,,,,,,,,,,,
,,,,,,,,33,2021-12-22_10h05.18.758,premceCat2_ses-02_part-02_label-phase2,2020.2.10,Win32,60,,,,,left,1.9764,3,0.2941,,,,,,,,,,left,0.5223,0,0,0,0,1,,,,,,,,
,,,,,,,,33,2021-12-22_10h05.18.758,premceCat2_ses-02_part-02_label-phase2,2020.2.10,Win32,60,,,,,,,,,0,43,43,8,1,stimuli/objects/basketballhoop01.jpg,right,new,9,,,,,,,,,,,,,,,
,,,,,,,,33,2021-12-22_10h05.18.758,premceCat2_ses-02_part-02_label-phase2,2020.2.10,Win32,60,,,,,right,4.4593,2,0.4471,0,44,44,32,1,stimuli/objects/mitresaw.jpg,right,new,33,,,,,,,,,,,,,,,
,,,,,,,,33,2021-12-22_10h05.18.758,premceCat2_ses-02_part-02_label-phase2,2020.2.10,Win32,60,,,,,left,1.4754,3,0.9758,,,,,,,,,,right,1.1844,0,0,0,0,1,,,,,,,,
,,,,,,,,33,2021-12-22_10h05.18.758,premceCat2_ses-02_part-02_label-phase2,2020.2.10,Win32,60,,,,,,,,,0,45,45,1,1,stimuli/objects/ipad02.jpg,left,old,2,,,,,,,,,,,,,,,
,,,,,,,,33,2021-12-22_10h05.18.758,premceCat2_ses-02_part-02_label-phase2,2020.2.10,Win32,60,,,,,right,5.0058,3,7.429,0,46,46,130,1,stimuli/objects/cooler01.jpg,left,old,131,,,,,,,,,,,,,,,
,,,,,,,,33,2021-12-22_10h05.18.758,premceCat2_ses-02_part-02_label-phase2,2020.2.10,Win32,60,,,,,right,2.6136,2,1.7848,0,47,47,76,1,stimuli/objects/megaphone.jpg,right,new,77,,,,,,,,,,,,,,,
,,,,,,,,33,2021-12-22_10h05.18.758,premceCat2_ses-02_part-02_label-phase2,2020.2.10,Win32,60,,,,,right,2.2808,2,0.9738,0,48,48,78,1,stimuli/objects/butterknife.jpg,left,old,79,,,,,,,,,,,,,,,
,,,,,,,,33,2021-12-22_10h05.18.758,premceCat2_ses-02_part-02_label-phase2,2020.2.10,Win32,60,,,,,right,1.0755,3,4.5178,0,49,49,38,1,stimuli/objects/soundmixer.jpg,right,new,39,,,,,,,,,,,,,,,
,,,,,,,,33,2021-12-22_10h05.18.758,premceCat2_ses-02_part-02_label-phase2,2020.2.10,Win32,60,,,,,left,4.8845,4,0.3904,,,,,,,,,,right,0.3844,0,0,0,0,1,,,,,,,,
,,,,,,,,33,2021-12-22_10h05.18.758,premceCat2_ses-02_part-02_label-phase2,2020.2.10,Win32,60,,,,,,,,,0,50,50,135,1,stimuli/objects/stubbywrench01a.jpg,left,old,136,,,,,,,,,,,,,,,
,,,,,,,,33,2021-12-22_10h05.18.758,premceCat2_ses-02_part-02_label-phase2,2020.2.10,Win32,60,,,,,right,1.4345,2,0.8189,0,51,51,43,1,stimuli/objects/punchingball.jpg,right,new,44,,,,,,,,,,,,,,,
,,,,,,,,33,2021-12-22_10h05.18.758,premceCat2_ses-02_part-02_label-phase2,2020.2.10,Win32,60,,,,,right,5.1069,2,1.4578,0,52,52,86,1,stimuli/objects/toasteroven.jpg,right,new,87,,,,,,,,,,,,,,,
,,,,,,,,33,2021-12-22_10h05.18.758,premceCat2_ses-02_part-02_label-phase2,2020.2.10,Win32,60,,,,,left,1.2543,4,0.3433,,,,,,,,,,right,0.5451,0,0,0,0,1,,,,,,,,
,,,,,,,,33,2021-12-22_10h05.18.758,premceCat2_ses-02_part-02_label-phase2,2020.2.10,Win32,60,,,,,,,,,0,53,53,47,1,stimuli/objects/caulking.jpg,left,old,48,,,,,,,,,,,,,,,
,,,,,,,,33,2021-12-22_10h05.18.758,premceCat2_ses-02_part-02_label-phase2,2020.2.10,Win32,60,,,,,right,3.2629,2,0.7025,0,54,54,129,1,stimuli/objects/peeler01.jpg,left,old,130,,,,,,,,,,,,,,,
,,,,,,,,33,2021-12-22_10h05.18.758,premceCat2_ses-02_part-02_label-phase2,2020.2.10,Win32,60,,,,,right,2.5431,2,0.5018,0,55,55,98,1,stimuli/objects/baseball01a.jpg,left,old,99,,,,,,,,,,,,,,,
,,,,,,,,33,2021-12-22_10h05.18.758,premceCat2_ses-02_part-02_label-phase2,2020.2.10,Win32,60,,,,,left,1.1729,4,0.2407,,,,,,,,,,left,0.2608,0,0,0,0,1,,,,,,,,
,,,,,,,,33,2021-12-22_10h05.18.758,premceCat2_ses-02_part-02_label-phase2,2020.2.10,Win32,60,,,,,,,,,0,56,56,84,1,stimuli/objects/sportbag.jpg,left,old,85,,,,,,,,,,,,,,,
,,,,,,,,33,2021-12-22_10h05.18.758,premceCat2_ses-02_part-02_label-phase2,2020.2.10,Win32,60,,,,,right,1.2021,2,0.3053,0,57,57,93,1,stimuli/objects/icepack.jpg,right,new,94,,,,,,,,,,,,,,,
,,,,,,,,33,2021-12-22_10h05.18.758,premceCat2_ses-02_part-02_label-phase2,2020.2.10,Win32,60,,,,,right,1.126,2,0.3109,0,58,58,7,1,stimuli/objects/painttray.jpg,left,old,8,,,,,,,,,,,,,,,
,,,,,,,,33,2021-12-22_10h05.18.758,premceCat2_ses-02_part-02_label-phase2,2020.2.10,Win32,60,,,,,right,1.0283,2,0.3166,0,59,59,109,1,stimuli/objects/winerack.jpg,right,new,110,,,,,,,,,,,,,,,
,,,,,,,,33,2021-12-22_10h05.18.758,premceCat2_ses-02_part-02_label-phase2,2020.2.10,Win32,60,,,,,left,0.9787,4,0.6642,,,,,,,,,,left,0.5023,0,0,0,0,1,,,,,,,,
,,,,,,,,33,2021-12-22_10h05.18.758,premceCat2_ses-02_part-02_label-phase2,2020.2.10,Win32,60,,,,,,,,,0,60,60,70,1,stimuli/objects/bowl02a.jpg,left,old,71,,,,,,,,,,,,,,,
,,,,,,,,33,2021-12-22_10h05.18.758,premceCat2_ses-02_part-02_label-phase2,2020.2.10,Win32,60,,,,,right,1.0509,2,0.3068,0,61,61,103,1,stimuli/objects/cork02.jpg,left,old,104,,,,,,,,,,,,,,,
,,,,,,,,33,2021-12-22_10h05.18.758,premceCat2_ses-02_part-02_label-phase2,2020.2.10,Win32,60,,,,,left,1.5426,3,1.4979,,,,,,,,,,right,1.0456,0,0,0,0,1,,,,,,,,
,,,,,,,,33,2021-12-22_10h05.18.758,premceCat2_ses-02_part-02_label-phase2,2020.2.10,Win32,60,,,,,,,,,0,62,62,104,1,stimuli/objects/lectern01.jpg,left,old,105,,,,,,,,,,,,,,,
,,,,,,,,33,2021-12-22_10h05.18.758,premceCat2_ses-02_part-02_label-phase2,2020.2.10,Win32,60,,,,,left,3.1445,4,0.5715,,,,,,,,,,left,0.4155,0,0,0,0,1,,,,,,,,
,,,,,,,,33,2021-12-22_10h05.18.758,premceCat2_ses-02_part-02_label-phase2,2020.2.10,Win32,60,,,,,,,,,0,63,63,140,1,stimuli/objects/canoepaddle02.jpg,left,old,141,,,,,,,,,,,,,,,
,,,,,,,,33,2021-12-22_10h05.18.758,premceCat2_ses-02_part-02_label-phase2,2020.2.10,Win32,60,,,,,right,3.6671,2,1.5788,0,64,64,95,1,stimuli/objects/floppydisk02a.jpg,left,old,96,,,,,,,,,,,,,,,
,,,,,,,,33,2021-12-22_10h05.18.758,premceCat2_ses-02_part-02_label-phase2,2020.2.10,Win32,60,,,,,right,1.8915,2,0.4738,0,65,65,26,1,stimuli/objects/boogieboard.jpg,right,new,27,,,,,,,,,,,,,,,
,,,,,,,,33,2021-12-22_10h05.18.758,premceCat2_ses-02_part-02_label-phase2,2020.2.10,Win32,60,,,,,left,1.5954,3,0.4063,,,,,,,,,,left,0.6139,0,0,0,0,1,,,,,,,,
,,,,,,,,33,2021-12-22_10h05.18.758,premceCat2_ses-02_part-02_label-phase2,2020.2.10,Win32,60,,,,,,,,,0,66,66,37,1,stimuli/objects/pressurewasher.jpg,left,old,38,,,,,,,,,,,,,,,
,,,,,,,,33,2021-12-22_10h05.18.758,premceCat2_ses-02_part-02_label-phase2,2020.2.10,Win32,60,,,,,right,2.5939,2,0.2778,0,67,67,121,1,stimuli/objects/ceilingspeaker.jpg,right,new,122,,,,,,,,,,,,,,,
,,,,,,,,33,2021-12-22_10h05.18.758,premceCat2_ses-02_part-02_label-phase2,2020.2.10,Win32,60,,,,,left,2.97,2,0.5644,,,,,,,,,,right,1.0593,0,0,0,0,1,,,,,,,,
,,,,,,,,33,2021-12-22_10h05.18.758,premceCat2_ses-02_part-02_label-phase2,2020.2.10,Win32,60,,,,,,,,,0,68,68,2,1,stimuli/objects/ipod.jpg,left,old,3,,,,,,,,,,,,,,,
,,,,,,,,33,2021-12-22_10h05.18.758,premceCat2_ses-02_part-02_label-phase2,2020.2.10,Win32,60,,,,,left,2.3773,3,0.2874,,,,,,,,,,right,0.6779,0,0,0,0,1,,,,,,,,
,,,,,,,,33,2021-12-22_10h05.18.758,premceCat2_ses-02_part-02_label-phase2,2020.2.10,Win32,60,,,,,,,,,0,69,69,118,1,stimuli/objects/adjustablewrench01b.jpg,left,old,119,,,,,,,,,,,,,,,
,,,,,,,,33,2021-12-22_10h05.18.758,premceCat2_ses-02_part-02_label-phase2,2020.2.10,Win32,60,,,,,right,2.349,2,0.3125,0,70,70,108,1,stimuli/objects/metalscissors.jpg,right,new,109,,,,,,,,,,,,,,,
,,,,,,,,33,2021-12-22_10h05.18.758,premceCat2_ses-02_part-02_label-phase2,2020.2.10,Win32,60,,,,,left,3.1423,2,0.3265,,,,,,,,,,right,0.4143,0,0,0,0,1,,,,,,,,
,,,,,,,,33,2021-12-22_10h05.18.758,premceCat2_ses-02_part-02_label-phase2,2020.2.10,Win32,60,,,,,,,,,0,71,71,113,1,stimuli/objects/powercable.jpg,right,new,114,,,,,,,,,,,,,,,
,,,,,,,,33,2021-12-22_10h05.18.758,premceCat2_ses-02_part-02_label-phase2,2020.2.10,Win32,60,,,,,right,2.3994,1,2.1283,0,72,72,91,1,stimuli/objects/metalbrush.jpg,left,old,92,,,,,,,,,,,,,,,
,,,,,,,,33,2021-12-22_10h05.18.758,premceCat2_ses-02_part-02_label-phase2,2020.2.10,Win32,60,,,,,right,1.2161,2,0.3081,0,73,73,68,1,stimuli/objects/leafblower01.jpg,right,new,69,,,,,,,,,,,,,,,
,,,,,,,,33,2021-12-22_10h05.18.758,premceCat2_ses-02_part-02_label-phase2,2020.2.10,Win32,60,,,,,left,1.0518,2,1.0026,,,,,,,,,,left,0.3567,0,0,0,0,1,,,,,,,,
,,,,,,,,33,2021-12-22_10h05.18.758,premceCat2_ses-02_part-02_label-phase2,2020.2.10,Win32,60,,,,,,,,,0,74,74,119,1,stimuli/objects/tongs01b.jpg,right,new,120,,,,,,,,,,,,,,,
,,,,,,,,33,2021-12-22_10h05.18.758,premceCat2_ses-02_part-02_label-phase2,2020.2.10,Win32,60,,,,,right,1.4826,2,0.3223,0,75,75,15,1,stimuli/objects/watercooler.jpg,left,old,16,,,,,,,,,,,,,,,
,,,,,,,,33,2021-12-22_10h05.18.758,premceCat2_ses-02_part-02_label-phase2,2020.2.10,Win32,60,,,,,right,1.1171,2,0.9724,0,76,76,88,1,stimuli/objects/gravyboat.jpg,left,old,89,,,,,,,,,,,,,,,
,,,,,,,,33,2021-12-22_10h05.18.758,premceCat2_ses-02_part-02_label-phase2,2020.2.10,Win32,60,,,,,right,0.8552,2,0.3264,0,77,77,120,1,stimuli/objects/oven.jpg,left,old,121,,,,,,,,,,,,,,,
,,,,,,,,33,2021-12-22_10h05.18.758,premceCat2_ses-02_part-02_label-phase2,2020.2.10,Win32,60,,,,,right,1.8939,2,0.309,0,78,78,46,1,stimuli/objects/walkman.jpg,right,new,47,,,,,,,,,,,,,,,
,,,,,,,,33,2021-12-22_10h05.18.758,premceCat2_ses-02_part-02_label-phase2,2020.2.10,Win32,60,,,,,left,1.448,4,0.2715,,,,,,,,,,right,4.552,0,0,0,0,1,,,,,,,,
,,,,,,,,33,2021-12-22_10h05.18.758,premceCat2_ses-02_part-02_label-phase2,2020.2.10,Win32,60,,,,,,,,,0,79,79,40,1,stimuli/objects/level03a.jpg,left,old,41,,,,,,,,,,,,,,,
,,,,,,,,33,2021-12-22_10h05.18.758,premceCat2_ses-02_part-02_label-phase2,2020.2.10,Win32,60,,,,,right,1.3831,2,0.6704,0,80,80,36,1,stimuli/objects/slidetray.jpg,left,old,37,,,,,,,,,,,,,,,
,,,,,,,,33,2021-12-22_10h05.18.758,premceCat2_ses-02_part-02_label-phase2,2020.2.10,Win32,60,,,,,right,1.0085,2,0.7573,0,81,81,13,1,stimuli/objects/bastingbrush.jpg,right,new,14,,,,,,,,,,,,,,,
,,,,,,,,33,2021-12-22_10h05.18.758,premceCat2_ses-02_part-02_label-phase2,2020.2.10,Win32,60,,,,,left,0.9,4,0.2707,,,,,,,,,,right,0.4162,0,0,0,0,1,,,,,,,,
,,,,,,,,33,2021-12-22_10h05.18.758,premceCat2_ses-02_part-02_label-phase2,2020.2.10,Win32,60,,,,,,,,,0,82,82,101,1,stimuli/objects/vhstape.jpg,left,old,102,,,,,,,,,,,,,,,
,,,,,,,,33,2021-12-22_10h05.18.758,premceCat2_ses-02_part-02_label-phase2,2020.2.10,Win32,60,,,,,right,1.0691,2,1.8195,0,83,83,75,1,stimuli/objects/stepladder.jpg,right,new,76,,,,,,,,,,,,,,,
,,,,,,,,33,2021-12-22_10h05.18.758,premceCat2_ses-02_part-02_label-phase2,2020.2.10,Win32,60,,,,,right,1.1929,2,0.1188,0,84,84,29,1,stimuli/objects/outletadapter.jpg,left,old,30,,,,,,,,,,,,,,,
,,,,,,,,33,2021-12-22_10h05.18.758,premceCat2_ses-02_part-02_label-phase2,2020.2.10,Win32,60,,,,,right,1.4762,2,0.3106,0,85,85,27,1,stimuli/objects/anchor.jpg,left,old,28,,,,,,,,,,,,,,,
,,,,,,,,33,2021-12-22_10h05.18.758,premceCat2_ses-02_part-02_label-phase2,2020.2.10,Win32,60,,,,,right,2.9507,2,0.2637,0,86,86,134,1,stimuli/objects/screwdriver04b.jpg,right,new,135,,,,,,,,,,,,,,,
,,,,,,,,33,2021-12-22_10h05.18.758,premceCat2_ses-02_part-02_label-phase2,2020.2.10,Win32,60,,,,,left,1.0939,3,0.4232,,,,,,,,,,right,1.009,0,0,0,0,1,,,,,,,,
,,,,,,,,33,2021-12-22_10h05.18.758,premceCat2_ses-02_part-02_label-phase2,2020.2.10,Win32,60,,,,,,,,,0,87,87,64,1,stimuli/objects/drillbit03a.jpg,left,old,65,,,,,,,,,,,,,,,
,,,,,,,,33,2021-12-22_10h05.18.758,premceCat2_ses-02_part-02_label-phase2,2020.2.10,Win32,60,,,,,left,1.4511,3,1.1745,,,,,,,,,,left,0.5129,0,0,0,0,1,,,,,,,,
,,,,,,,,33,2021-12-22_10h05.18.758,premceCat2_ses-02_part-02_label-phase2,2020.2.10,Win32,60,,,,,,,,,0,88,88,142,1,stimuli/objects/martiniglass01b.jpg,left,old,143,,,,,,,,,,,,,,,
,,,,,,,,33,2021-12-22_10h05.18.758,premceCat2_ses-02_part-02_label-phase2,2020.2.10,Win32,60,,,,,left,3.1425,1,1.0427,,,,,,,,,,right,0.3785,0,0,0,0,1,,,,,,,,
,,,,,,,,33,2021-12-22_10h05.18.758,premceCat2_ses-02_part-02_label-phase2,2020.2.10,Win32,60,,,,,,,,,0,89,89,128,1,stimuli/objects/tripod01.jpg,right,new,129,,,,,,,,,,,,,,,
,,,,,,,,33,2021-12-22_10h05.18.758,premceCat2_ses-02_part-02_label-phase2,2020.2.10,Win32,60,,,,,right,1.2423,2,0.5757,0,90,90,133,1,stimuli/objects/icebucket.jpg,right,new,134,,,,,,,,,,,,,,,
,,,,,,,,33,2021-12-22_10h05.18.758,premceCat2_ses-02_part-02_label-phase2,2020.2.10,Win32,60,,,,,right,1.4426,2,0.2874,0,91,91,74,1,stimuli/objects/snowboard.jpg,left,old,75,,,,,,,,,,,,,,,
,,,,,,,,33,2021-12-22_10h05.18.758,premceCat2_ses-02_part-02_label-phase2,2020.2.10,Win32,60,,,,,right,2.1699,2,0.6175,0,92,92,83,1,stimuli/objects/kitchenscale01a.jpg,right,new,84,,,,,,,,,,,,,,,
,,,,,,,,33,2021-12-22_10h05.18.758,premceCat2_ses-02_part-02_label-phase2,2020.2.10,Win32,60,,,,,right,1.2283,2,0.0039,0,93,93,90,1,stimuli/objects/carlighter02.jpg,right,new,91,,,,,,,,,,,,,,,
,,,,,,,,33,2021-12-22_10h05.18.758,premceCat2_ses-02_part-02_label-phase2,2020.2.10,Win32,60,,,,,right,0.985,2,0.251,0,94,94,110,1,stimuli/objects/lock03a.jpg,right,new,111,,,,,,,,,,,,,,,
,,,,,,,,33,2021-12-22_10h05.18.758,premceCat2_ses-02_part-02_label-phase2,2020.2.10,Win32,60,,,,,left,1.3792,3,0.6177,,,,,,,,,,right,0.3918,0,0,0,0,1,,,,,,,,
,,,,,,,,33,2021-12-22_10h05.18.758,premceCat2_ses-02_part-02_label-phase2,2020.2.10,Win32,60,,,,,,,,,0,95,95,11,1,stimuli/objects/videocamera01a.jpg,left,old,12,,,,,,,,,,,,,,,
,,,,,,,,33,2021-12-22_10h05.18.758,premceCat2_ses-02_part-02_label-phase2,2020.2.10,Win32,60,,,,,right,1.9939,2,3.5818,0,96,96,9,1,stimuli/objects/measuringtape01.jpg,right,new,10,,,,,,,,,,,,,,,
,,,,,,,,33,2021-12-22_10h05.18.758,premceCat2_ses-02_part-02_label-phase2,2020.2.10,Win32,60,,,,,left,0.9899,1,1.3497,,,,,,,,,,left,0.4016,0,0,0,0,1,,,,,,,,
,,,,,,,,33,2021-12-22_10h05.18.758,premceCat2_ses-02_part-02_label-phase2,2020.2.10,Win32,60,,,,,,,,,0,97,97,63,1,stimuli/objects/butterdish.jpg,right,new,64,,,,,,,,,,,,,,,
,,,,,,,,33,2021-12-22_10h05.18.758,premceCat2_ses-02_part-02_label-phase2,2020.2.10,Win32,60,,,,,right,1.6767,2,0.286,0,98,98,96,1,stimuli/objects/golfbag.jpg,right,new,97,,,,,,,,,,,,,,,
,,,,,,,,33,2021-12-22_10h05.18.758,premceCat2_ses-02_part-02_label-phase2,2020.2.10,Win32,60,,,,,left,1.4667,1,1.5574,,,,,,,,,,right,0.469,0,0,0,0,1,,,,,,,,
,,,,,,,,33,2021-12-22_10h05.18.758,premceCat2_ses-02_part-02_label-phase2,2020.2.10,Win32,60,,,,,,,,,0,99,99,65,1,stimuli/objects/drill01b.jpg,left,old,66,,,,,,,,,,,,,,,
,,,,,,,,33,2021-12-22_10h05.18.758,premceCat2_ses-02_part-02_label-phase2,2020.2.10,Win32,60,,,,,right,1.5114,2,0.2826,0,100,100,17,1,stimuli/objects/exercisebench.jpg,right,new,18,,,,,,,,,,,,,,,
,,,,,,,,33,2021-12-22_10h05.18.758,premceCat2_ses-02_part-02_label-phase2,2020.2.10,Win32,60,,,,,left,0.9312,4,0.3505,,,,,,,,,,right,1.4294,0,0,0,0,1,,,,,,,,
,,,,,,,,33,2021-12-22_10h05.18.758,premceCat2_ses-02_part-02_label-phase2,2020.2.10,Win32,60,,,,,,,,,0,101,101,105,1,stimuli/objects/lightbulb01.jpg,left,old,106,,,,,,,,,,,,,,,
,,,,,,,,33,2021-12-22_10h05.18.758,premceCat2_ses-02_part-02_label-phase2,2020.2.10,Win32,60,,,,,right,1.9653,2,1.0035,0,102,102,79,1,stimuli/objects/fluorescentlightbulb.jpg,left,old,80,,,,,,,,,,,,,,,
,,,,,,,,33,2021-12-22_10h05.18.758,premceCat2_ses-02_part-02_label-phase2,2020.2.10,Win32,60,,,,,right,1.1099,1,1.6824,0,103,103,56,1,stimuli/objects/funnel.jpg,left,old,57,,,,,,,,,,,,,,,
,,,,,,,,33,2021-12-22_10h05.18.758,premceCat2_ses-02_part-02_label-phase2,2020.2.10,Win32,60,,,,,right,1.3359,2,0.7727,0,104,104,97,1,stimuli/objects/securitycamera.jpg,left,old,98,,,,,,,,,,,,,,,
,,,,,,,,33,2021-12-22_10h05.18.758,premceCat2_ses-02_part-02_label-phase2,2020.2.10,Win32,60,,,,,right,1.4561,2,0.653,0,105,105,41,1,stimuli/objects/pylon01.jpg,right,new,42,,,,,,,,,,,,,,,
,,,,,,,,33,2021-12-22_10h05.18.758,premceCat2_ses-02_part-02_label-phase2,2020.2.10,Win32,60,,,,,right,0.6137,2,0.2838,0,106,106,10,1,stimuli/objects/dvdplayer.jpg,left,old,11,,,,,,,,,,,,,,,
,,,,,,,,33,2021-12-22_10h05.18.758,premceCat2_ses-02_part-02_label-phase2,2020.2.10,Win32,60,,,,,left,1.3818,1,0.5349,,,,,,,,,,right,0.453,0,0,0,0,1,,,,,,,,
,,,,,,,,33,2021-12-22_10h05.18.758,premceCat2_ses-02_part-02_label-phase2,2020.2.10,Win32,60,,,,,,,,,0,107,107,57,1,stimuli/objects/audiocablesplitter.jpg,right,new,58,,,,,,,,,,,,,,,
,,,,,,,,33,2021-12-22_10h05.18.758,premceCat2_ses-02_part-02_label-phase2,2020.2.10,Win32,60,,,,,left,1.5986,4,0.241,,,,,,,,,,left,0.3306,0,0,0,0,1,,,,,,,,
,,,,,,,,33,2021-12-22_10h05.18.758,premceCat2_ses-02_part-02_label-phase2,2020.2.10,Win32,60,,,,,,,,,0,108,108,34,1,stimuli/objects/lifesaver.jpg,left,old,35,,,,,,,,,,,,,,,
,,,,,,,,33,2021-12-22_10h05.18.758,premceCat2_ses-02_part-02_label-phase2,2020.2.10,Win32,60,,,,,right,1.8071,2,1.2386,0,109,109,20,1,stimuli/objects/laptop01a.jpg,right,new,21,,,,,,,,,,,,,,,
,,,,,,,,33,2021-12-22_10h05.18.758,premceCat2_ses-02_part-02_label-phase2,2020.2.10,Win32,60,,,,,right,1.093,2,0.5774,0,110,110,42,1,stimuli/objects/snowshoe.jpg,right,new,43,,,,,,,,,,,,,,,
,,,,,,,,33,2021-12-22_10h05.18.758,premceCat2_ses-02_part-02_label-phase2,2020.2.10,Win32,60,,,,,right,0.7122,2,0.0006,0,111,111,138,1,stimuli/objects/taperecorder.jpg,right,new,139,,,,,,,,,,,,,,,
,,,,,,,,33,2021-12-22_10h05.18.758,premceCat2_ses-02_part-02_label-phase2,2020.2.10,Win32,60,,,,,right,1.3608,2,0.6235,0,112,112,48,1,stimuli/objects/bottlecap.jpg,left,old,49,,,,,,,,,,,,,,,
,,,,,,,,33,2021-12-22_10h05.18.758,premceCat2_ses-02_part-02_label-phase2,2020.2.10,Win32,60,,,,,right,0.7199,2,0.3411,0,113,113,16,1,stimuli/objects/knifesharpener.jpg,left,old,17,,,,,,,,,,,,,,,
,,,,,,,,33,2021-12-22_10h05.18.758,premceCat2_ses-02_part-02_label-phase2,2020.2.10,Win32,60,,,,,right,1.5642,2,1.0707,0,114,114,23,1,stimuli/objects/football.jpg,right,new,24,,,,,,,,,,,,,,,
,,,,,,,,33,2021-12-22_10h05.18.758,premceCat2_ses-02_part-02_label-phase2,2020.2.10,Win32,60,,,,,left,1.7763,2,0.457,,,,,,,,,,right,0.9298,0,0,0,0,1,,,,,,,,
,,,,,,,,33,2021-12-22_10h05.18.758,premceCat2_ses-02_part-02_label-phase2,2020.2.10,Win32,60,,,,,,,,,0,115,115,58,1,stimuli/objects/weedwacker.jpg,left,old,59,,,,,,,,,,,,,,,
,,,,,,,,33,2021-12-22_10h05.18.758,premceCat2_ses-02_part-02_label-phase2,2020.2.10,Win32,60,,,,,right,1.6339,2,0.3302,0,116,116,111,1,stimuli/objects/speaker04.jpg,right,new,112,,,,,,,,,,,,,,,
,,,,,,,,33,2021-12-22_10h05.18.758,premceCat2_ses-02_part-02_label-phase2,2020.2.10,Win32,60,,,,,left,1.0138,4,0.2815,,,,,,,,,,left,1.3276,0,0,0,0,1,,,,,,,,
,,,,,,,,33,2021-12-22_10h05.18.758,premceCat2_ses-02_part-02_label-phase2,2020.2.10,Win32,60,,,,,,,,,0,117,117,69,1,stimuli/objects/filmnegative.jpg,left,old,70,,,,,,,,,,,,,,,
,,,,,,,,33,2021-12-22_10h05.18.758,premceCat2_ses-02_part-02_label-phase2,2020.2.10,Win32,60,,,,,left,1.8822,3,0.4784,,,,,,,,,,right,0.5747,0,0,0,0,1,,,,,,,,
,,,,,,,,33,2021-12-22_10h05.18.758,premceCat2_ses-02_part-02_label-phase2,2020.2.10,Win32,60,,,,,,,,,0,118,118,87,1,stimuli/objects/fanblades.jpg,left,old,88,,,,,,,,,,,,,,,
,,,,,,,,33,2021-12-22_10h05.18.758,premceCat2_ses-02_part-02_label-phase2,2020.2.10,Win32,60,,,,,left,2.2322,2,1.2804,,,,,,,,,,right,0.3894,0,0,0,0,1,,,,,,,,
,,,,,,,,33,2021-12-22_10h05.18.758,premceCat2_ses-02_part-02_label-phase2,2020.2.10,Win32,60,,,,,,,,,0,119,119,50,1,stimuli/objects/chisel02b.jpg,right,new,51,,,,,,,,,,,,,,,
,,,,,,,,33,2021-12-22_10h05.18.758,premceCat2_ses-02_part-02_label-phase2,2020.2.10,Win32,60,,,,,left,1.2246,2,1.3523,,,,,,,,,,right,0.8579,0,0,0,0,1,,,,,,,,
,,,,,,,,33,2021-12-22_10h05.18.758,premceCat2_ses-02_part-02_label-phase2,2020.2.10,Win32,60,,,,,,,,,0,120,120,82,1,stimuli/objects/snowbrush.jpg,right,new,83,,,,,,,,,,,,,,,
,,,,,,,,33,2021-12-22_10h05.18.758,premceCat2_ses-02_part-02_label-phase2,2020.2.10,Win32,60,,,,,right,2.4931,2,1.7883,0,121,121,61,1,stimuli/objects/squeegee01b.jpg,left,old,62,,,,,,,,,,,,,,,
,,,,,,,,33,2021-12-22_10h05.18.758,premceCat2_ses-02_part-02_label-phase2,2020.2.10,Win32,60,,,,,right,1.6422,2,1.1504,0,122,122,67,1,stimuli/objects/fishingrod.jpg,left,old,68,,,,,,,,,,,,,,,
,,,,,,,,33,2021-12-22_10h05.18.758,premceCat2_ses-02_part-02_label-phase2,2020.2.10,Win32,60,,,,,right,2.708,2,0.5794,0,123,123,102,1,stimuli/objects/backpack01a.jpg,left,old,103,,,,,,,,,,,,,,,
,,,,,,,,33,2021-12-22_10h05.18.758,premceCat2_ses-02_part-02_label-phase2,2020.2.10,Win32,60,,,,,right,1.0418,2,0.6615,0,124,124,49,1,stimuli/objects/exercisebike.jpg,left,old,50,,,,,,,,,,,,,,,
,,,,,,,,33,2021-12-22_10h05.18.758,premceCat2_ses-02_part-02_label-phase2,2020.2.10,Win32,60,,,,,right,0.662,2,0.5098,0,125,125,5,1,stimuli/objects/expansioncard.jpg,left,old,6,,,,,,,,,,,,,,,
,,,,,,,,33,2021-12-22_10h05.18.758,premceCat2_ses-02_part-02_label-phase2,2020.2.10,Win32,60,,,,,right,0.8626,2,0.4064,0,126,126,19,1,stimuli/objects/peppermill02b.jpg,right,new,20,,,,,,,,,,,,,,,
,,,,,,,,33,2021-12-22_10h05.18.758,premceCat2_ses-02_part-02_label-phase2,2020.2.10,Win32,60,,,,,left,1.4556,3,2.8628,,,,,,,,,,left,1.6611,0,0,0,0,1,,,,,,,,
,,,,,,,,33,2021-12-22_10h05.18.758,premceCat2_ses-02_part-02_label-phase2,2020.2.10,Win32,60,,,,,,,,,0,127,127,24,1,stimuli/objects/skateboard.jpg,right,new,25,,,,,,,,,,,,,,,
,,,,,,,,33,2021-12-22_10h05.18.758,premceCat2_ses-02_part-02_label-phase2,2020.2.10,Win32,60,,,,,right,2.7521,2,0.3995,0,128,128,131,1,stimuli/objects/spotlight.jpg,right,new,132,,,,,,,,,,,,,,,
,,,,,,,,33,2021-12-22_10h05.18.758,premceCat2_ses-02_part-02_label-phase2,2020.2.10,Win32,60,,,,,right,1.0661,2,0.3182,0,129,129,4,1,stimuli/objects/microphone01.jpg,right,new,5,,,,,,,,,,,,,,,
,,,,,,,,33,2021-12-22_10h05.18.758,premceCat2_ses-02_part-02_label-phase2,2020.2.10,Win32,60,,,,,right,1.3852,2,0.2445,0,130,130,141,1,stimuli/objects/generator.jpg,right,new,142,,,,,,,,,,,,,,,
,,,,,,,,33,2021-12-22_10h05.18.758,premceCat2_ses-02_part-02_label-phase2,2020.2.10,Win32,60,,,,,right,0.6252,2,0.0006,0,131,131,54,1,stimuli/objects/pda.jpg,right,new,55,,,,,,,,,,,,,,,
,,,,,,,,33,2021-12-22_10h05.18.758,premceCat2_ses-02_part-02_label-phase2,2020.2.10,Win32,60,,,,,right,0.5959,2,0.0004,0,132,132,66,1,stimuli/objects/nailgun.jpg,right,new,67,,,,,,,,,,,,,,,
,,,,,,,,33,2021-12-22_10h05.18.758,premceCat2_ses-02_part-02_label-phase2,2020.2.10,Win32,60,,,,,right,0.9972,2,0.4914,0,133,133,139,1,stimuli/objects/frisbee.jpg,right,new,140,,,,,,,,,,,,,,,
,,,,,,,,33,2021-12-22_10h05.18.758,premceCat2_ses-02_part-02_label-phase2,2020.2.10,Win32,60,,,,,left,1.0133,3,0.2781,,,,,,,,,,right,0.5304,0,0,0,0,1,,,,,,,,
,,,,,,,,33,2021-12-22_10h05.18.758,premceCat2_ses-02_part-02_label-phase2,2020.2.10,Win32,60,,,,,,,,,0,134,134,99,1,stimuli/objects/paintroller01.jpg,left,old,100,,,,,,,,,,,,,,,
,,,,,,,,33,2021-12-22_10h05.18.758,premceCat2_ses-02_part-02_label-phase2,2020.2.10,Win32,60,,,,,right,1.3334,2,0.5137,0,135,135,127,1,stimuli/objects/reflector.jpg,left,old,128,,,,,,,,,,,,,,,
,,,,,,,,33,2021-12-22_10h05.18.758,premceCat2_ses-02_part-02_label-phase2,2020.2.10,Win32,60,,,,,left,1.6813,3,0.7241,,,,,,,,,,right,0.4772,0,0,0,0,1,,,,,,,,
,,,,,,,,33,2021-12-22_10h05.18.758,premceCat2_ses-02_part-02_label-phase2,2020.2.10,Win32,60,,,,,,,,,0,136,136,132,1,stimuli/objects/payphone.jpg,left,old,133,,,,,,,,,,,,,,,
,,,,,,,,33,2021-12-22_10h05.18.758,premceCat2_ses-02_part-02_label-phase2,2020.2.10,Win32,60,,,,,left,1.0336,4,0.5072,,,,,,,,,,left,0.471,0,0,0,0,1,,,,,,,,
,,,,,,,,33,2021-12-22_10h05.18.758,premceCat2_ses-02_part-02_label-phase2,2020.2.10,Win32,60,,,,,,,,,0,137,137,62,1,stimuli/objects/potatomasher03b.jpg,left,old,63,,,,,,,,,,,,,,,
,,,,,,,,33,2021-12-22_10h05.18.758,premceCat2_ses-02_part-02_label-phase2,2020.2.10,Win32,60,,,,,left,1.3191,3,0.4719,,,,,,,,,,left,0.4117,0,0,0,0,1,,,,,,,,
,,,,,,,,33,2021-12-22_10h05.18.758,premceCat2_ses-02_part-02_label-phase2,2020.2.10,Win32,60,,,,,,,,,0,138,138,45,1,stimuli/objects/cookingpot.jpg,left,old,46,,,,,,,,,,,,,,,
,,,,,,,,33,2021-12-22_10h05.18.758,premceCat2_ses-02_part-02_label-phase2,2020.2.10,Win32,60,,,,,left,1.1974,3,0.2755,,,,,,,,,,right,0.258,0,0,0,0,1,,,,,,,,
,,,,,,,,33,2021-12-22_10h05.18.758,premceCat2_ses-02_part-02_label-phase2,2020.2.10,Win32,60,,,,,,,,,0,139,139,21,1,stimuli/objects/paintbrush01.jpg,right,new,22,,,,,,,,,,,,,,,
,,,,,,,,33,2021-12-22_10h05.18.758,premceCat2_ses-02_part-02_label-phase2,2020.2.10,Win32,60,,,,,right,1.3583,2,0.8495,0,140,140,77,1,stimuli/objects/satellitedish01.jpg,left,old,78,,,,,,,,,,,,,,,
,,,,,,,,33,2021-12-22_10h05.18.758,premceCat2_ses-02_part-02_label-phase2,2020.2.10,Win32,60,,,,,right,0.8676,2,0.3561,0,141,141,80,1,stimuli/objects/snowman.jpg,right,new,81,,,,,,,,,,,,,,,
,,,,,,,,33,2021-12-22_10h05.18.758,premceCat2_ses-02_part-02_label-phase2,2020.2.10,Win32,60,,,,,left,1.4217,4,1.6079,,,,,,,,,,right,0.3704,0,0,0,0,1,,,,,,,,
,,,,,,,,33,2021-12-22_10h05.18.758,premceCat2_ses-02_part-02_label-phase2,2020.2.10,Win32,60,,,,,,,,,0,142,142,115,1,stimuli/objects/saw02b.jpg,left,old,116,,,,,,,,,,,,,,,
,,,,,,,,33,2021-12-22_10h05.18.758,premceCat2_ses-02_part-02_label-phase2,2020.2.10,Win32,60,,,,,,,,,,,,,,,,,,,,,,,,,space,73.9525,0,0,0,0,1,condition_files/ImagesforRecog2_1.csv
,,,,,,,,33,2021-12-22_10h05.18.758,premceCat2_ses-02_part-02_label-phase2,2020.2.10,Win32,60,,,,,right,3.267,2,0.429,0,0,0,72,1,stimuli/objects/axe01.jpg,left,old,216,,,,,,,,,,,,,,,
,,,,,,,,33,2021-12-22_10h05.18.758,premceCat2_ses-02_part-02_label-phase2,2020.2.10,Win32,60,,,,,left,1.3322,4,0.2812,,,,,,,,,,right,0.9623,0,0,0,0,1,,,,,,,,
,,,,,,,,33,2021-12-22_10h05.18.758,premceCat2_ses-02_part-02_label-phase2,2020.2.10,Win32,60,,,,,,,,,0,1,1,93,1,stimuli/objects/rope03.jpg,left,old,237,,,,,,,,,,,,,,,
,,,,,,,,33,2021-12-22_10h05.18.758,premceCat2_ses-02_part-02_label-phase2,2020.2.10,Win32,60,,,,,left,1.0184,4,0.2561,,,,,,,,,,left,0.2298,0,0,0,0,1,,,,,,,,
,,,,,,,,33,2021-12-22_10h05.18.758,premceCat2_ses-02_part-02_label-phase2,2020.2.10,Win32,60,,,,,,,,,0,2,2,32,1,stimuli/objects/pastaspoon.jpg,left,old,176,,,,,,,,,,,,,,,
,,,,,,,,33,2021-12-22_10h05.18.758,premceCat2_ses-02_part-02_label-phase2,2020.2.10,Win32,60,,,,,right,1.2108,2,0.7776,0,3,3,101,1,stimuli/objects/lifejacket.jpg,right,new,245,,,,,,,,,,,,,,,
,,,,,,,,33,2021-12-22_10h05.18.758,premceCat2_ses-02_part-02_label-phase2,2020.2.10,Win32,60,,,,,right,2.1914,2,0.7082,0,4,4,28,1,stimuli/objects/spoon01.jpg,left,old,172,,,,,,,,,,,,,,,
,,,,,,,,33,2021-12-22_10h05.18.758,premceCat2_ses-02_part-02_label-phase2,2020.2.10,Win32,60,,,,,right,1.157,2,0.663,0,5,5,50,1,stimuli/objects/iceskate.jpg,left,old,194,,,,,,,,,,,,,,,
,,,,,,,,33,2021-12-22_10h05.18.758,premceCat2_ses-02_part-02_label-phase2,2020.2.10,Win32,60,,,,,left,4.3642,4,0.227,,,,,,,,,,right,0.3401,0,0,0,0,1,,,,,,,,
,,,,,,,,33,2021-12-22_10h05.18.758,premceCat2_ses-02_part-02_label-phase2,2020.2.10,Win32,60,,,,,,,,,0,6,6,17,1,stimuli/objects/bikelock.jpg,left,old,161,,,,,,,,,,,,,,,
,,,,,,,,33,2021-12-22_10h05.18.758,premceCat2_ses-02_part-02_label-phase2,2020.2.10,Win32,60,,,,,right,0.8146,2,0.3106,0,7,7,14,1,stimuli/objects/boatmotor.jpg,left,old,158,,,,,,,,,,,,,,,
,,,,,,,,33,2021-12-22_10h05.18.758,premceCat2_ses-02_part-02_label-phase2,2020.2.10,Win32,60,,,,,right,0.6352,2,0.2684,0,8,8,65,1,stimuli/objects/jigsaw.jpg,left,old,209,,,,,,,,,,,,,,,
,,,,,,,,33,2021-12-22_10h05.18.758,premceCat2_ses-02_part-02_label-phase2,2020.2.10,Win32,60,,,,,right,0.64,1,1.5273,0,9,9,122,1,stimuli/objects/hockeystick.jpg,right,new,266,,,,,,,,,,,,,,,
,,,,,,,,33,2021-12-22_10h05.18.758,premceCat2_ses-02_part-02_label-phase2,2020.2.10,Win32,60,,,,,right,0.6248,1,1.3879,0,10,10,49,1,stimuli/objects/cakeplatter.jpg,right,new,193,,,,,,,,,,,,,,,
,,,,,,,,33,2021-12-22_10h05.18.758,premceCat2_ses-02_part-02_label-phase2,2020.2.10,Win32,60,,,,,right,0.902,2,0.4646,0,11,11,11,1,stimuli/objects/fuse.jpg,left,old,155,,,,,,,,,,,,,,,
,,,,,,,,33,2021-12-22_10h05.18.758,premceCat2_ses-02_part-02_label-phase2,2020.2.10,Win32,60,,,,,left,4.568,1,1.401,,,,,,,,,,right,1.907,0,0,0,0,1,,,,,,,,
,,,,,,,,33,2021-12-22_10h05.18.758,premceCat2_ses-02_part-02_label-phase2,2020.2.10,Win32,60,,,,,,,,,0,12,12,118,1,stimuli/objects/gardenshears01a.jpg,left,old,262,,,,,,,,,,,,,,,
,,,,,,,,33,2021-12-22_10h05.18.758,premceCat2_ses-02_part-02_label-phase2,2020.2.10,Win32,60,,,,,left,2.4566,4,0.2168,,,,,,,,,,left,0.2506,0,0,0,0,1,,,,,,,,
,,,,,,,,33,2021-12-22_10h05.18.758,premceCat2_ses-02_part-02_label-phase2,2020.2.10,Win32,60,,,,,,,,,0,13,13,20,1,stimuli/objects/bikehelmet.jpg,left,old,164,,,,,,,,,,,,,,,
,,,,,,,,33,2021-12-22_10h05.18.758,premceCat2_ses-02_part-02_label-phase2,2020.2.10,Win32,60,,,,,right,1.0191,2,1.0814,0,14,14,1,1,stimuli/objects/photocopier.jpg,left,old,145,,,,,,,,,,,,,,,
,,,,,,,,33,2021-12-22_10h05.18.758,premceCat2_ses-02_part-02_label-phase2,2020.2.10,Win32,60,,,,,right,0.8602,2,0.2565,0,15,15,88,1,stimuli/objects/kiddiepool.jpg,left,old,232,,,,,,,,,,,,,,,
,,,,,,,,33,2021-12-22_10h05.18.758,premceCat2_ses-02_part-02_label-phase2,2020.2.10,Win32,60,,,,,right,0.7859,2,0.3358,0,16,16,77,1,stimuli/objects/corkscrew03a.jpg,left,old,221,,,,,,,,,,,,,,,
,,,,,,,,33,2021-12-22_10h05.18.758,premceCat2_ses-02_part-02_label-phase2,2020.2.10,Win32,60,,,,,right,0.7197,2,0.3215,0,17,17,37,1,stimuli/objects/carantenna.jpg,left,old,181,,,,,,,,,,,,,,,
,,,,,,,,33,2021-12-22_10h05.18.758,premceCat2_ses-02_part-02_label-phase2,2020.2.10,Win32,60,,,,,right,0.6422,2,0.2166,0,18,18,131,1,stimuli/objects/handblender.jpg,right,new,275,,,,,,,,,,,,,,,
,,,,,,,,33,2021-12-22_10h05.18.758,premceCat2_ses-02_part-02_label-phase2,2020.2.10,Win32,60,,,,,right,0.558,2,0.2766,0,19,19,90,1,stimuli/objects/toyhockeystick01.jpg,left,old,234,,,,,,,,,,,,,,,
,,,,,,,,33,2021-12-22_10h05.18.758,premceCat2_ses-02_part-02_label-phase2,2020.2.10,Win32,60,,,,,left,0.8356,4,0.2594,,,,,,,,,,left,0.339,0,0,0,0,1,,,,,,,,
,,,,,,,,33,2021-12-22_10h05.18.758,premceCat2_ses-02_part-02_label-phase2,2020.2.10,Win32,60,,,,,,,,,0,20,20,141,1,stimuli/objects/spatula04.jpg,left,old,285,,,,,,,,,,,,,,,
,,,,,,,,33,2021-12-22_10h05.18.758,premceCat2_ses-02_part-02_label-phase2,2020.2.10,Win32,60,,,,,right,0.7227,2,0.2624,0,21,21,138,1,stimuli/objects/beermug01a.jpg,right,new,282,,,,,,,,,,,,,,,
,,,,,,,,33,2021-12-22_10h05.18.758,premceCat2_ses-02_part-02_label-phase2,2020.2.10,Win32,60,,,,,left,0.9904,4,0.25,,,,,,,,,,left,0.7097,0,0,0,0,1,,,,,,,,
,,,,,,,,33,2021-12-22_10h05.18.758,premceCat2_ses-02_part-02_label-phase2,2020.2.10,Win32,60,,,,,,,,,0,22,22,70,1,stimuli/objects/shovel01.jpg,right,new,214,,,,,,,,,,,,,,,
,,,,,,,,33,2021-12-22_10h05.18.758,premceCat2_ses-02_part-02_label-phase2,2020.2.10,Win32,60,,,,,right,1.156,2,1.7532,0,23,23,95,1,stimuli/objects/tennisball01b.jpg,right,new,239,,,,,,,,,,,,,,,
,,,,,,,,33,2021-12-22_10h05.18.758,premceCat2_ses-02_part-02_label-phase2,2020.2.10,Win32,60,,,,,right,0.6284,2,0.3823,0,24,24,38,1,stimuli/objects/espressomachine.jpg,left,old,182,,,,,,,,,,,,,,,
,,,,,,,,33,2021-12-22_10h05.18.758,premceCat2_ses-02_part-02_label-phase2,2020.2.10,Win32,60,,,,,right,0.5898,2,0.3475,0,25,25,67,1,stimuli/objects/filmroll.jpg,left,old,211,,,,,,,,,,,,,,,
,,,,,,,,33,2021-12-22_10h05.18.758,premceCat2_ses-02_part-02_label-phase2,2020.2.10,Win32,60,,,,,right,0.5698,2,0.3311,0,26,26,105,1,stimuli/objects/gasburner.jpg,left,old,249,,,,,,,,,,,,,,,
,,,,,,,,33,2021-12-22_10h05.18.758,premceCat2_ses-02_part-02_label-phase2,2020.2.10,Win32,60,,,,,right,0.7119,2,0.3488,0,27,27,23,1,stimuli/objects/hockeypuck.jpg,left,old,167,,,,,,,,,,,,,,,
,,,,,,,,33,2021-12-22_10h05.18.758,premceCat2_ses-02_part-02_label-phase2,2020.2.10,Win32,60,,,,,right,1.1506,2,0.6337,0,28,28,133,1,stimuli/objects/birdie.jpg,right,new,277,,,,,,,,,,,,,,,
,,,,,,,,33,2021-12-22_10h05.18.758,premceCat2_ses-02_part-02_label-phase2,2020.2.10,Win32,60,,,,,right,0.7004,2,0.2663,0,29,29,114,1,stimuli/objects/drinkshaker.jpg,right,new,258,,,,,,,,,,,,,,,
,,,,,,,,33,2021-12-22_10h05.18.758,premceCat2_ses-02_part-02_label-phase2,2020.2.10,Win32,60,,,,,right,0.7656,2,0.4323,0,30,30,25,1,stimuli/objects/jar02.jpg,left,old,169,,,,,,,,,,,,,,,
,,,,,,,,33,2021-12-22_10h05.18.758,premceCat2_ses-02_part-02_label-phase2,2020.2.10,Win32,60,,,,,right,1.3237,2,0.7664,0,31,31,61,1,stimuli/objects/wateringcan.jpg,left,old,205,,,,,,,,,,,,,,,
,,,,,,,,33,2021-12-22_10h05.18.758,premceCat2_ses-02_part-02_label-phase2,2020.2.10,Win32,60,,,,,right,0.7662,2,0.0592,0,32,32,35,1,stimuli/objects/stroller.jpg,right,new,179,,,,,,,,,,,,,,,
,,,,,,,,33,2021-12-22_10h05.18.758,premceCat2_ses-02_part-02_label-phase2,2020.2.10,Win32,60,,,,,left,1.1335,2,0.4737,,,,,,,,,,right,2.3323,0,0,0,0,1,,,,,,,,
,,,,,,,,33,2021-12-22_10h05.18.758,premceCat2_ses-02_part-02_label-phase2,2020.2.10,Win32,60,,,,,,,,,0,33,33,92,1,stimuli/objects/leafrake.jpg,left,old,236,,,,,,,,,,,,,,,
,,,,,,,,33,2021-12-22_10h05.18.758,premceCat2_ses-02_part-02_label-phase2,2020.2.10,Win32,60,,,,,left,1.0424,3,0.2281,,,,,,,,,,left,0.3116,0,0,0,0,1,,,,,,,,
,,,,,,,,33,2021-12-22_10h05.18.758,premceCat2_ses-02_part-02_label-phase2,2020.2.10,Win32,60,,,,,,,,,0,34,34,8,1,stimuli/objects/wheel01.jpg,left,old,152,,,,,,,,,,,,,,,
,,,,,,,,33,2021-12-22_10h05.18.758,premceCat2_ses-02_part-02_label-phase2,2020.2.10,Win32,60,,,,,right,1.6064,2,0.3014,0,35,35,102,1,stimuli/objects/beachumbrella01.jpg,right,new,246,,,,,,,,,,,,,,,
,,,,,,,,33,2021-12-22_10h05.18.758,premceCat2_ses-02_part-02_label-phase2,2020.2.10,Win32,60,,,,,left,0.7881,1,1.6697,,,,,,,,,,right,0.2464,0,0,0,0,1,,,,,,,,
,,,,,,,,33,2021-12-22_10h05.18.758,premceCat2_ses-02_part-02_label-phase2,2020.2.10,Win32,60,,,,,,,,,0,36,36,2,1,stimuli/objects/wetfloorsign.jpg,right,new,146,,,,,,,,,,,,,,,
,,,,,,,,33,2021-12-22_10h05.18.758,premceCat2_ses-02_part-02_label-phase2,2020.2.10,Win32,60,,,,,left,1.9914,1,0.8689,,,,,,,,,,right,0.8496,0,0,0,0,1,,,,,,,,
,,,,,,,,33,2021-12-22_10h05.18.758,premceCat2_ses-02_part-02_label-phase2,2020.2.10,Win32,60,,,,,,,,,0,37,37,100,1,stimuli/objects/wheelbarrow01.jpg,left,old,244,,,,,,,,,,,,,,,
,,,,,,,,33,2021-12-22_10h05.18.758,premceCat2_ses-02_part-02_label-phase2,2020.2.10,Win32,60,,,,,right,1.4049,2,1.1145,0,38,38,45,1,stimuli/objects/ellipticalmachine.jpg,left,old,189,,,,,,,,,,,,,,,
,,,,,,,,33,2021-12-22_10h05.18.758,premceCat2_ses-02_part-02_label-phase2,2020.2.10,Win32,60,,,,,right,2.6357,2,1.6634,0,39,39,75,1,stimuli/objects/hammer01.jpg,left,old,219,,,,,,,,,,,,,,,
,,,,,,,,33,2021-12-22_10h05.18.758,premceCat2_ses-02_part-02_label-phase2,2020.2.10,Win32,60,,,,,right,1.9642,2,0.1141,0,40,40,16,1,stimuli/objects/bottleopener01.jpg,right,new,160,,,,,,,,,,,,,,,
,,,,,,,,33,2021-12-22_10h05.18.758,premceCat2_ses-02_part-02_label-phase2,2020.2.10,Win32,60,,,,,right,4.3518,2,0.3664,0,41,41,130,1,stimuli/objects/fan.jpg,left,old,274,,,,,,,,,,,,,,,
,,,,,,,,33,2021-12-22_10h05.18.758,premceCat2_ses-02_part-02_label-phase2,2020.2.10,Win32,60,,,,,right,0.7844,2,0.6631,0,42,42,134,1,stimuli/objects/chandelier.jpg,left,old,278,,,,,,,,,,,,,,,
,,,,,,,,33,2021-12-22_10h05.18.758,premceCat2_ses-02_part-02_label-phase2,2020.2.10,Win32,60,,,,,left,1.1743,2,0.2964,,,,,,,,,,left,0.9808,0,0,0,0,1,,,,,,,,
,,,,,,,,33,2021-12-22_10h05.18.758,premceCat2_ses-02_part-02_label-phase2,2020.2.10,Win32,60,,,,,,,,,0,43,43,56,1,stimuli/objects/tupperware03a.jpg,left,old,200,,,,,,,,,,,,,,,
,,,,,,,,33,2021-12-22_10h05.18.758,premceCat2_ses-02_part-02_label-phase2,2020.2.10,Win32,60,,,,,left,0.8515,4,0.213,,,,,,,,,,left,0.2978,0,0,0,0,1,,,,,,,,
,,,,,,,,33,2021-12-22_10h05.18.758,premceCat2_ses-02_part-02_label-phase2,2020.2.10,Win32,60,,,,,,,,,0,44,44,115,1,stimuli/objects/towel01.jpg,left,old,259,,,,,,,,,,,,,,,
,,,,,,,,33,2021-12-22_10h05.18.758,premceCat2_ses-02_part-02_label-phase2,2020.2.10,Win32,60,,,,,left,0.6892,4,0.2409,,,,,,,,,,left,0.294,0,0,0,0,1,,,,,,,,
,,,,,,,,33,2021-12-22_10h05.18.758,premceCat2_ses-02_part-02_label-phase2,2020.2.10,Win32,60,,,,,,,,,0,45,45,63,1,stimuli/objects/woodenspoon.jpg,left,old,207,,,,,,,,,,,,,,,
,,,,,,,,33,2021-12-22_10h05.18.758,premceCat2_ses-02_part-02_label-phase2,2020.2.10,Win32,60,,,,,right,1.7449,2,0.3775,0,46,46,41,1,stimuli/objects/flask.jpg,right,new,185,,,,,,,,,,,,,,,
,,,,,,,,33,2021-12-22_10h05.18.758,premceCat2_ses-02_part-02_label-phase2,2020.2.10,Win32,60,,,,,right,1.5849,2,1.0744,0,47,47,94,1,stimuli/objects/file.jpg,right,new,238,,,,,,,,,,,,,,,
,,,,,,,,33,2021-12-22_10h05.18.758,premceCat2_ses-02_part-02_label-phase2,2020.2.10,Win32,60,,,,,right,1.1326,2,0.7079,0,48,48,5,1,stimuli/objects/pickaxe02.jpg,right,new,149,,,,,,,,,,,,,,,
,,,,,,,,33,2021-12-22_10h05.18.758,premceCat2_ses-02_part-02_label-phase2,2020.2.10,Win32,60,,,,,right,0.827,2,0.7504,0,49,49,12,1,stimuli/objects/fanheater.jpg,right,new,156,,,,,,,,,,,,,,,
,,,,,,,,33,2021-12-22_10h05.18.758,premceCat2_ses-02_part-02_label-phase2,2020.2.10,Win32,60,,,,,right,0.8343,2,0.4139,0,50,50,137,1,stimuli/objects/nutcracker01.jpg,right,new,281,,,,,,,,,,,,,,,
,,,,,,,,33,2021-12-22_10h05.18.758,premceCat2_ses-02_part-02_label-phase2,2020.2.10,Win32,60,,,,,right,0.7157,1,1.8387,0,51,51,53,1,stimuli/objects/tape02a.jpg,left,old,197,,,,,,,,,,,,,,,
,,,,,,,,33,2021-12-22_10h05.18.758,premceCat2_ses-02_part-02_label-phase2,2020.2.10,Win32,60,,,,,left,2.8949,3,0.723,,,,,,,,,,left,0.2351,0,0,0,0,1,,,,,,,,
,,,,,,,,33,2021-12-22_10h05.18.758,premceCat2_ses-02_part-02_label-phase2,2020.2.10,Win32,60,,,,,,,,,0,52,52,10,1,stimuli/objects/skihelmet01.jpg,left,old,154,,,,,,,,,,,,,,,
,,,,,,,,33,2021-12-22_10h05.18.758,premceCat2_ses-02_part-02_label-phase2,2020.2.10,Win32,60,,,,,left,4.1303,2,0.6662,,,,,,,,,,left,0.2808,0,0,0,0,1,,,,,,,,
,,,,,,,,33,2021-12-22_10h05.18.758,premceCat2_ses-02_part-02_label-phase2,2020.2.10,Win32,60,,,,,,,,,0,53,53,140,1,stimuli/objects/wineglass01.jpg,right,new,284,,,,,,,,,,,,,,,
,,,,,,,,33,2021-12-22_10h05.18.758,premceCat2_ses-02_part-02_label-phase2,2020.2.10,Win32,60,,,,,right,1.0454,2,0.2994,0,54,54,112,1,stimuli/objects/telephone01b.jpg,left,old,256,,,,,,,,,,,,,,,
,,,,,,,,33,2021-12-22_10h05.18.758,premceCat2_ses-02_part-02_label-phase2,2020.2.10,Win32,60,,,,,right,0.6578,2,0.2844,0,55,55,82,1,stimuli/objects/shopvac.jpg,right,new,226,,,,,,,,,,,,,,,
,,,,,,,,33,2021-12-22_10h05.18.758,premceCat2_ses-02_part-02_label-phase2,2020.2.10,Win32,60,,,,,right,0.6255,2,0.3106,0,56,56,111,1,stimuli/objects/diaperbag.jpg,right,new,255,,,,,,,,,,,,,,,
,,,,,,,,33,2021-12-22_10h05.18.758,premceCat2_ses-02_part-02_label-phase2,2020.2.10,Win32,60,,,,,left,1.0078,4,0.2657,,,,,,,,,,right,0.2145,0,0,0,0,1,,,,,,,,
,,,,,,,,33,2021-12-22_10h05.18.758,premceCat2_ses-02_part-02_label-phase2,2020.2.10,Win32,60,,,,,,,,,0,57,57,106,1,stimuli/objects/nintendods.jpg,left,old,250,,,,,,,,,,,,,,,
,,,,,,,,33,2021-12-22_10h05.18.758,premceCat2_ses-02_part-02_label-phase2,2020.2.10,Win32,60,,,,,left,1.1444,1,0.3434,,,,,,,,,,right,0.1973,0,0,0,0,1,,,,,,,,
,,,,,,,,33,2021-12-22_10h05.18.758,premceCat2_ses-02_part-02_label-phase2,2020.2.10,Win32,60,,,,,,,,,0,58,58,40,1,stimuli/objects/tablesaw.jpg,right,new,184,,,,,,,,,,,,,,,
,,,,,,,,33,2021-12-22_10h05.18.758,premceCat2_ses-02_part-02_label-phase2,2020.2.10,Win32,60,,,,,right,1.1156,2,0.2644,0,59,59,116,1,stimuli/objects/lockingplier.jpg,right,new,260,,,,,,,,,,,,,,,
,,,,,,,,33,2021-12-22_10h05.18.758,premceCat2_ses-02_part-02_label-phase2,2020.2.10,Win32,60,,,,,left,2.2927,1,0.4975,,,,,,,,,,left,0.2421,0,0,0,0,1,,,,,,,,
,,,,,,,,33,2021-12-22_10h05.18.758,premceCat2_ses-02_part-02_label-phase2,2020.2.10,Win32,60,,,,,,,,,0,60,60,64,1,stimuli/objects/volleyball.jpg,left,old,208,,,,,,,,,,,,,,,
,,,,,,,,33,2021-12-22_10h05.18.758,premceCat2_ses-02_part-02_label-phase2,2020.2.10,Win32,60,,,,,right,0.6341,2,0.3157,0,61,61,66,1,stimuli/objects/heatpump.jpg,right,new,210,,,,,,,,,,,,,,,
,,,,,,,,33,2021-12-22_10h05.18.758,premceCat2_ses-02_part-02_label-phase2,2020.2.10,Win32,60,,,,,right,0.7562,2,0.104,0,62,62,132,1,stimuli/objects/wirestripper.jpg,right,new,276,,,,,,,,,,,,,,,
,,,,,,,,33,2021-12-22_10h05.18.758,premceCat2_ses-02_part-02_label-phase2,2020.2.10,Win32,60,,,,,right,0.588,2,0.2945,0,63,63,6,1,stimuli/objects/solderingwire.jpg,right,new,150,,,,,,,,,,,,,,,
,,,,,,,,33,2021-12-22_10h05.18.758,premceCat2_ses-02_part-02_label-phase2,2020.2.10,Win32,60,,,,,left,1.0674,4,0.2586,,,,,,,,,,left,0.2317,0,0,0,0,1,,,,,,,,
,,,,,,,,33,2021-12-22_10h05.18.758,premceCat2_ses-02_part-02_label-phase2,2020.2.10,Win32,60,,,,,,,,,0,64,64,97,1,stimuli/objects/coffeepot03a.jpg,left,old,241,,,,,,,,,,,,,,,
,,,,,,,,33,2021-12-22_10h05.18.758,premceCat2_ses-02_part-02_label-phase2,2020.2.10,Win32,60,,,,,right,1.165,2,0.2455,0,65,65,0,1,stimuli/objects/smokedetector02.jpg,right,new,144,,,,,,,,,,,,,,,
,,,,,,,,33,2021-12-22_10h05.18.758,premceCat2_ses-02_part-02_label-phase2,2020.2.10,Win32,60,,,,,right,0.6771,2,0.163,0,66,66,127,1,stimuli/objects/skigoggles01.jpg,right,new,271,,,,,,,,,,,,,,,
,,,,,,,,33,2021-12-22_10h05.18.758,premceCat2_ses-02_part-02_label-phase2,2020.2.10,Win32,60,,,,,right,0.4427,2,0.0008,0,67,67,22,1,stimuli/objects/hoe.jpg,left,old,166,,,,,,,,,,,,,,,
,,,,,,,,33,2021-12-22_10h05.18.758,premceCat2_ses-02_part-02_label-phase2,2020.2.10,Win32,60,,,,,right,0.5323,2,0.0007,0,68,68,119,1,stimuli/objects/cleaver01.jpg,left,old,263,,,,,,,,,,,,,,,
,,,,,,,,33,2021-12-22_10h05.18.758,premceCat2_ses-02_part-02_label-phase2,2020.2.10,Win32,60,,,,,right,0.4214,2,0.272,0,69,69,73,1,stimuli/objects/propanetank01.jpg,left,old,217,,,,,,,,,,,,,,,
,,,,,,,,33,2021-12-22_10h05.18.758,premceCat2_ses-02_part-02_label-phase2,2020.2.10,Win32,60,,,,,left,0.9324,4,0.2273,,,,,,,,,,right,1.6878,0,0,0,0,1,,,,,,,,
,,,,,,,,33,2021-12-22_10h05.18.758,premceCat2_ses-02_part-02_label-phase2,2020.2.10,Win32,60,,,,,,,,,0,70,70,96,1,stimuli/objects/mallet01b.jpg,left,old,240,,,,,,,,,,,,,,,
,,,,,,,,33,2021-12-22_10h05.18.758,premceCat2_ses-02_part-02_label-phase2,2020.2.10,Win32,60,,,,,right,1.9273,3,0.2744,0,71,71,34,1,stimuli/objects/kneepad01c.jpg,right,new,178,,,,,,,,,,,,,,,
,,,,,,,,33,2021-12-22_10h05.18.758,premceCat2_ses-02_part-02_label-phase2,2020.2.10,Win32,60,,,,,right,2.1664,1,0.5646,0,72,72,46,1,stimuli/objects/waterbottleholder.jpg,right,new,190,,,,,,,,,,,,,,,
,,,,,,,,33,2021-12-22_10h05.18.758,premceCat2_ses-02_part-02_label-phase2,2020.2.10,Win32,60,,,,,right,1.2803,4,0.6096,0,73,73,81,1,stimuli/objects/grill.jpg,right,new,225,,,,,,,,,,,,,,,
,,,,,,,,33,2021-12-22_10h05.18.758,premceCat2_ses-02_part-02_label-phase2,2020.2.10,Win32,60,,,,,left,2.0564,3,0.4487,,,,,,,,,,right,0.245,0,0,0,0,1,,,,,,,,
,,,,,,,,33,2021-12-22_10h05.18.758,premceCat2_ses-02_part-02_label-phase2,2020.2.10,Win32,60,,,,,,,,,0,74,74,85,1,stimuli/objects/usbcable01a.jpg,left,old,229,,,,,,,,,,,,,,,
,,,,,,,,33,2021-12-22_10h05.18.758,premceCat2_ses-02_part-02_label-phase2,2020.2.10,Win32,60,,,,,right,3.6081,2,2.5948,0,75,75,48,1,stimuli/objects/eggslicer.jpg,right,new,192,,,,,,,,,,,,,,,
,,,,,,,,33,2021-12-22_10h05.18.758,premceCat2_ses-02_part-02_label-phase2,2020.2.10,Win32,60,,,,,left,2.664,2,1.673,,,,,,,,,,left,0.2705,0,0,0,0,1,,,,,,,,
,,,,,,,,33,2021-12-22_10h05.18.758,premceCat2_ses-02_part-02_label-phase2,2020.2.10,Win32,60,,,,,,,,,0,76,76,74,1,stimuli/objects/shinpad.jpg,left,old,218,,,,,,,,,,,,,,,
,,,,,,,,33,2021-12-22_10h05.18.758,premceCat2_ses-02_part-02_label-phase2,2020.2.10,Win32,60,,,,,right,0.9491,2,0.378,0,77,77,89,1,stimuli/objects/saladspinner.jpg,left,old,233,,,,,,,,,,,,,,,
,,,,,,,,33,2021-12-22_10h05.18.758,premceCat2_ses-02_part-02_label-phase2,2020.2.10,Win32,60,,,,,left,0.9683,4,0.0012,,,,,,,,,,left,0.3942,0,0,0,0,1,,,,,,,,
,,,,,,,,33,2021-12-22_10h05.18.758,premceCat2_ses-02_part-02_label-phase2,2020.2.10,Win32,60,,,,,,,,,0,78,78,7,1,stimuli/objects/dishrack.jpg,left,old,151,,,,,,,,,,,,,,,
,,,,,,,,33,2021-12-22_10h05.18.758,premceCat2_ses-02_part-02_label-phase2,2020.2.10,Win32,60,,,,,right,0.9938,2,0.6132,0,79,79,31,1,stimuli/objects/hockeygoaliemask.jpg,left,old,175,,,,,,,,,,,,,,,
,,,,,,,,33,2021-12-22_10h05.18.758,premceCat2_ses-02_part-02_label-phase2,2020.2.10,Win32,60,,,,,right,0.5893,2,0.4026,0,80,80,51,1,stimuli/objects/cheeseknife01.jpg,right,new,195,,,,,,,,,,,,,,,
,,,,,,,,33,2021-12-22_10h05.18.758,premceCat2_ses-02_part-02_label-phase2,2020.2.10,Win32,60,,,,,right,0.7317,1,1.2076,0,81,81,113,1,stimuli/objects/gluetube.jpg,left,old,257,,,,,,,,,,,,,,,
,,,,,,,,33,2021-12-22_10h05.18.758,premceCat2_ses-02_part-02_label-phase2,2020.2.10,Win32,60,,,,,right,0.8558,1,0.3,0,82,82,57,1,stimuli/objects/soccerball.jpg,left,old,201,,,,,,,,,,,,,,,
,,,,,,,,33,2021-12-22_10h05.18.758,premceCat2_ses-02_part-02_label-phase2,2020.2.10,Win32,60,,,,,right,0.869,1,0.2969,0,83,83,68,1,stimuli/objects/ladle02a.jpg,right,new,212,,,,,,,,,,,,,,,
,,,,,,,,33,2021-12-22_10h05.18.758,premceCat2_ses-02_part-02_label-phase2,2020.2.10,Win32,60,,,,,right,0.9814,1,0.2958,0,84,84,39,1,stimuli/objects/wafflemaker.jpg,right,new,183,,,,,,,,,,,,,,,
,,,,,,,,33,2021-12-22_10h05.18.758,premceCat2_ses-02_part-02_label-phase2,2020.2.10,Win32,60,,,,,right,0.6097,1,0.3271,0,85,85,26,1,stimuli/objects/flashlight02b.jpg,right,new,170,,,,,,,,,,,,,,,
,,,,,,,,33,2021-12-22_10h05.18.758,premceCat2_ses-02_part-02_label-phase2,2020.2.10,Win32,60,,,,,right,0.53,1,0.278,0,86,86,110,1,stimuli/objects/hockeygoaliepad.jpg,left,old,254,,,,,,,,,,,,,,,
,,,,,,,,33,2021-12-22_10h05.18.758,premceCat2_ses-02_part-02_label-phase2,2020.2.10,Win32,60,,,,,right,0.4962,1,0.4216,0,87,87,125,1,stimuli/objects/pliers02b.jpg,left,old,269,,,,,,,,,,,,,,,
,,,,,,,,33,2021-12-22_10h05.18.758,premceCat2_ses-02_part-02_label-phase2,2020.2.10,Win32,60,,,,,right,1.6095,2,0.3691,0,88,88,15,1,stimuli/objects/computermouse06.jpg,right,new,159,,,,,,,,,,,,,,,
,,,,,,,,33,2021-12-22_10h05.18.758,premceCat2_ses-02_part-02_label-phase2,2020.2.10,Win32,60,,,,,right,0.7739,1,0.6819,0,89,89,79,1,stimuli/objects/bikewheel.jpg,left,old,223,,,,,,,,,,,,,,,
,,,,,,,,33,2021-12-22_10h05.18.758,premceCat2_ses-02_part-02_label-phase2,2020.2.10,Win32,60,,,,,left,2.7315,3,0.379,,,,,,,,,,right,0.9773,0,0,0,0,1,,,,,,,,
,,,,,,,,33,2021-12-22_10h05.18.758,premceCat2_ses-02_part-02_label-phase2,2020.2.10,Win32,60,,,,,,,,,0,90,90,129,1,stimuli/objects/snowblower.jpg,left,old,273,,,,,,,,,,,,,,,
,,,,,,,,33,2021-12-22_10h05.18.758,premceCat2_ses-02_part-02_label-phase2,2020.2.10,Win32,60,,,,,left,12.2567,3,0.3958,,,,,,,,,,left,0.3515,0,0,0,0,1,,,,,,,,
,,,,,,,,33,2021-12-22_10h05.18.758,premceCat2_ses-02_part-02_label-phase2,2020.2.10,Win32,60,,,,,,,,,0,91,91,33,1,stimuli/objects/gps.jpg,left,old,177,,,,,,,,,,,,,,,
,,,,,,,,33,2021-12-22_10h05.18.758,premceCat2_ses-02_part-02_label-phase2,2020.2.10,Win32,60,,,,,left,1.3409,3,1.3079,,,,,,,,,,right,0.4883,0,0,0,0,1,,,,,,,,
,,,,,,,,33,2021-12-22_10h05.18.758,premceCat2_ses-02_part-02_label-phase2,2020.2.10,Win32,60,,,,,,,,,0,92,92,9,1,stimuli/objects/alarmsystem.jpg,right,new,153,,,,,,,,,,,,,,,
,,,,,,,,33,2021-12-22_10h05.18.758,premceCat2_ses-02_part-02_label-phase2,2020.2.10,Win32,60,,,,,left,1.2557,2,0.5814,,,,,,,,,,left,0.2663,0,0,0,0,1,,,,,,,,
,,,,,,,,33,2021-12-22_10h05.18.758,premceCat2_ses-02_part-02_label-phase2,2020.2.10,Win32,60,,,,,,,,,0,93,93,124,1,stimuli/objects/basketball01.jpg,right,new,268,,,,,,,,,,,,,,,
,,,,,,,,33,2021-12-22_10h05.18.758,premceCat2_ses-02_part-02_label-phase2,2020.2.10,Win32,60,,,,,left,1.5062,2,0.9948,,,,,,,,,,left,0.2227,0,0,0,0,1,,,,,,,,
,,,,,,,,33,2021-12-22_10h05.18.758,premceCat2_ses-02_part-02_label-phase2,2020.2.10,Win32,60,,,,,,,,,0,94,94,19,1,stimuli/objects/mug01.jpg,right,new,163,,,,,,,,,,,,,,,
,,,,,,,,33,2021-12-22_10h05.18.758,premceCat2_ses-02_part-02_label-phase2,2020.2.10,Win32,60,,,,,right,2.4092,2,1.0253,0,95,95,91,1,stimuli/objects/cuttingpliers02.jpg,right,new,235,,,,,,,,,,,,,,,
,,,,,,,,33,2021-12-22_10h05.18.758,premceCat2_ses-02_part-02_label-phase2,2020.2.10,Win32,60,,,,,right,0.9748,2,0.2729,0,96,96,30,1,stimuli/objects/halogenlightbulb.jpg,right,new,174,,,,,,,,,,,,,,,
,,,,,,,,33,2021-12-22_10h05.18.758,premceCat2_ses-02_part-02_label-phase2,2020.2.10,Win32,60,,,,,right,1.0322,2,0.0973,0,97,97,98,1,stimuli/objects/cameracase01a.jpg,right,new,242,,,,,,,,,,,,,,,
,,,,,,,,33,2021-12-22_10h05.18.758,premceCat2_ses-02_part-02_label-phase2,2020.2.10,Win32,60,,,,,right,0.644,2,0.5539,0,98,98,52,1,stimuli/objects/antenna.jpg,left,old,196,,,,,,,,,,,,,,,
,,,,,,,,33,2021-12-22_10h05.18.758,premceCat2_ses-02_part-02_label-phase2,2020.2.10,Win32,60,,,,,right,1.4572,2,0.6683,0,99,99,54,1,stimuli/objects/toyhardhat.jpg,left,old,198,,,,,,,,,,,,,,,
,,,,,,,,33,2021-12-22_10h05.18.758,premceCat2_ses-02_part-02_label-phase2,2020.2.10,Win32,60,,,,,right,0.8676,2,0.2682,0,100,100,83,1,stimuli/objects/icecubetray01a.jpg,right,new,227,,,,,,,,,,,,,,,
,,,,,,,,33,2021-12-22_10h05.18.758,premceCat2_ses-02_part-02_label-phase2,2020.2.10,Win32,60,,,,,left,0.7924,4,0.2314,,,,,,,,,,left,0.2845,0,0,0,0,1,,,,,,,,
,,,,,,,,33,2021-12-22_10h05.18.758,premceCat2_ses-02_part-02_label-phase2,2020.2.10,Win32,60,,,,,,,,,0,101,101,126,1,stimuli/objects/badmintonracket.jpg,left,old,270,,,,,,,,,,,,,,,
,,,,,,,,33,2021-12-22_10h05.18.758,premceCat2_ses-02_part-02_label-phase2,2020.2.10,Win32,60,,,,,right,0.9649,2,0.2602,0,102,102,128,1,stimuli/objects/pot01.jpg,left,old,272,,,,,,,,,,,,,,,
,,,,,,,,33,2021-12-22_10h05.18.758,premceCat2_ses-02_part-02_label-phase2,2020.2.10,Win32,60,,,,,right,0.775,3,1.0494,0,103,103,139,1,stimuli/objects/toothpick02.jpg,left,old,283,,,,,,,,,,,,,,,
,,,,,,,,33,2021-12-22_10h05.18.758,premceCat2_ses-02_part-02_label-phase2,2020.2.10,Win32,60,,,,,right,0.856,3,0.4067,0,104,104,44,1,stimuli/objects/toaster01.jpg,right,new,188,,,,,,,,,,,,,,,
,,,,,,,,33,2021-12-22_10h05.18.758,premceCat2_ses-02_part-02_label-phase2,2020.2.10,Win32,60,,,,,left,1.661,1,0.3692,,,,,,,,,,left,0.2638,0,0,0,0,1,,,,,,,,
,,,,,,,,33,2021-12-22_10h05.18.758,premceCat2_ses-02_part-02_label-phase2,2020.2.10,Win32,60,,,,,,,,,0,105,105,42,1,stimuli/objects/tennisracket.jpg,right,new,186,,,,,,,,,,,,,,,
,,,,,,,,33,2021-12-22_10h05.18.758,premceCat2_ses-02_part-02_label-phase2,2020.2.10,Win32,60,,,,,left,1.4473,1,0.8306,,,,,,,,,,left,0.2578,0,0,0,0,1,,,,,,,,
,,,,,,,,33,2021-12-22_10h05.18.758,premceCat2_ses-02_part-02_label-phase2,2020.2.10,Win32,60,,,,,,,,,0,106,106,47,1,stimuli/objects/plate01b.jpg,right,new,191,,,,,,,,,,,,,,,
,,,,,,,,33,2021-12-22_10h05.18.758,premceCat2_ses-02_part-02_label-phase2,2020.2.10,Win32,60,,,,,right,1.1455,2,1.2676,0,107,107,55,1,stimuli/objects/fonduefork01.jpg,right,new,199,,,,,,,,,,,,,,,
,,,,,,,,33,2021-12-22_10h05.18.758,premceCat2_ses-02_part-02_label-phase2,2020.2.10,Win32,60,,,,,left,1.2085,2,1.0069,,,,,,,,,,right,0.2427,0,0,0,0,1,,,,,,,,
,,,,,,,,33,2021-12-22_10h05.18.758,premceCat2_ses-02_part-02_label-phase2,2020.2.10,Win32,60,,,,,,,,,0,108,108,108,1,stimuli/objects/crocodileclips.jpg,left,old,252,,,,,,,,,,,,,,,
,,,,,,,,33,2021-12-22_10h05.18.758,premceCat2_ses-02_part-02_label-phase2,2020.2.10,Win32,60,,,,,right,1.1422,2,0.4085,0,109,109,69,1,stimuli/objects/straw.jpg,right,new,213,,,,,,,,,,,,,,,
,,,,,,,,33,2021-12-22_10h05.18.758,premceCat2_ses-02_part-02_label-phase2,2020.2.10,Win32,60,,,,,right,0.6432,2,0.302,0,110,110,60,1,stimuli/objects/kite.jpg,right,new,204,,,,,,,,,,,,,,,
,,,,,,,,33,2021-12-22_10h05.18.758,premceCat2_ses-02_part-02_label-phase2,2020.2.10,Win32,60,,,,,right,0.5238,2,0.0143,0,111,111,87,1,stimuli/objects/wiicontroller.jpg,right,new,231,,,,,,,,,,,,,,,
,,,,,,,,33,2021-12-22_10h05.18.758,premceCat2_ses-02_part-02_label-phase2,2020.2.10,Win32,60,,,,,right,0.3873,2,0.563,0,112,112,142,1,stimuli/objects/needlenosepliers01.jpg,right,new,286,,,,,,,,,,,,,,,
,,,,,,,,33,2021-12-22_10h05.18.758,premceCat2_ses-02_part-02_label-phase2,2020.2.10,Win32,60,,,,,right,0.5289,1,1.0361,0,113,113,117,1,stimuli/objects/podium.jpg,left,old,261,,,,,,,,,,,,,,,
,,,,,,,,33,2021-12-22_10h05.18.758,premceCat2_ses-02_part-02_label-phase2,2020.2.10,Win32,60,,,,,right,0.9295,2,0.3503,0,114,114,3,1,stimuli/objects/boxingglove01.jpg,right,new,147,,,,,,,,,,,,,,,
,,,,,,,,33,2021-12-22_10h05.18.758,premceCat2_ses-02_part-02_label-phase2,2020.2.10,Win32,60,,,,,right,3.1065,2,0.5204,0,115,115,24,1,stimuli/objects/monitor.jpg,right,new,168,,,,,,,,,,,,,,,
,,,,,,,,33,2021-12-22_10h05.18.758,premceCat2_ses-02_part-02_label-phase2,2020.2.10,Win32,60,,,,,left,2.7986,1,0.7968,,,,,,,,,,right,0.2186,0,0,0,0,1,,,,,,,,
,,,,,,,,33,2021-12-22_10h05.18.758,premceCat2_ses-02_part-02_label-phase2,2020.2.10,Win32,60,,,,,,,,,0,116,116,4,1,stimuli/objects/cassettetape01a.jpg,right,new,148,,,,,,,,,,,,,,,
,,,,,,,,33,2021-12-22_10h05.18.758,premceCat2_ses-02_part-02_label-phase2,2020.2.10,Win32,60,,,,,right,2.3311,2,1.1494,0,117,117,99,1,stimuli/objects/floodlight.jpg,right,new,243,,,,,,,,,,,,,,,
,,,,,,,,33,2021-12-22_10h05.18.758,premceCat2_ses-02_part-02_label-phase2,2020.2.10,Win32,60,,,,,right,2.5443,3,1.7021,0,118,118,123,1,stimuli/objects/jackhammer.jpg,right,new,267,,,,,,,,,,,,,,,
,,,,,,,,33,2021-12-22_10h05.18.758,premceCat2_ses-02_part-02_label-phase2,2020.2.10,Win32,60,,,,,right,1.9744,2,0.2342,0,119,119,103,1,stimuli/objects/swissarmyknife01a.jpg,right,new,247,,,,,,,,,,,,,,,
,,,,,,,,33,2021-12-22_10h05.18.758,premceCat2_ses-02_part-02_label-phase2,2020.2.10,Win32,60,,,,,right,0.8886,2,0.5893,0,120,120,62,1,stimuli/objects/hourglass.jpg,left,old,206,,,,,,,,,,,,,,,
,,,,,,,,33,2021-12-22_10h05.18.758,premceCat2_ses-02_part-02_label-phase2,2020.2.10,Win32,60,,,,,right,0.8291,2,0.0759,0,121,121,80,1,stimuli/objects/barbecue03.jpg,right,new,224,,,,,,,,,,,,,,,
,,,,,,,,33,2021-12-22_10h05.18.758,premceCat2_ses-02_part-02_label-phase2,2020.2.10,Win32,60,,,,,right,0.7906,2,0.3611,0,122,122,84,1,stimuli/objects/patioumbrella.jpg,left,old,228,,,,,,,,,,,,,,,
,,,,,,,,33,2021-12-22_10h05.18.758,premceCat2_ses-02_part-02_label-phase2,2020.2.10,Win32,60,,,,,right,4.3777,2,0.6167,0,123,123,59,1,stimuli/objects/speedball.jpg,right,new,203,,,,,,,,,,,,,,,
,,,,,,,,33,2021-12-22_10h05.18.758,premceCat2_ses-02_part-02_label-phase2,2020.2.10,Win32,60,,,,,left,1.2638,4,0.5393,,,,,,,,,,right,0.2852,0,0,0,0,1,,,,,,,,
,,,,,,,,33,2021-12-22_10h05.18.758,premceCat2_ses-02_part-02_label-phase2,2020.2.10,Win32,60,,,,,,,,,0,124,124,29,1,stimuli/objects/coffeemachine.jpg,left,old,173,,,,,,,,,,,,,,,
,,,,,,,,33,2021-12-22_10h05.18.758,premceCat2_ses-02_part-02_label-phase2,2020.2.10,Win32,60,,,,,left,2.0499,4,0.2506,,,,,,,,,,left,1.0364,0,0,0,0,1,,,,,,,,
,,,,,,,,33,2021-12-22_10h05.18.758,premceCat2_ses-02_part-02_label-phase2,2020.2.10,Win32,60,,,,,,,,,0,125,125,71,1,stimuli/objects/handgripper.jpg,left,old,215,,,,,,,,,,,,,,,
,,,,,,,,33,2021-12-22_10h05.18.758,premceCat2_ses-02_part-02_label-phase2,2020.2.10,Win32,60,,,,,left,1.1597,3,0.2707,,,,,,,,,,right,0.252,0,0,0,0,1,,,,,,,,
,,,,,,,,33,2021-12-22_10h05.18.758,premceCat2_ses-02_part-02_label-phase2,2020.2.10,Win32,60,,,,,,,,,0,126,126,27,1,stimuli/objects/hedgeshears.jpg,left,old,171,,,,,,,,,,,,,,,
,,,,,,,,33,2021-12-22_10h05.18.758,premceCat2_ses-02_part-02_label-phase2,2020.2.10,Win32,60,,,,,left,1.0744,4,0.252,,,,,,,,,,right,0.2988,0,0,0,0,1,,,,,,,,
,,,,,,,,33,2021-12-22_10h05.18.758,premceCat2_ses-02_part-02_label-phase2,2020.2.10,Win32,60,,,,,,,,,0,127,127,43,1,stimuli/objects/bowrake.jpg,right,new,187,,,,,,,,,,,,,,,
,,,,,,,,33,2021-12-22_10h05.18.758,premceCat2_ses-02_part-02_label-phase2,2020.2.10,Win32,60,,,,,left,3.0273,2,0.4676,,,,,,,,,,right,0.3663,0,0,0,0,1,,,,,,,,
,,,,,,,,33,2021-12-22_10h05.18.758,premceCat2_ses-02_part-02_label-phase2,2020.2.10,Win32,60,,,,,,,,,0,128,128,78,1,stimuli/objects/lightswitch01.jpg,right,new,222,,,,,,,,,,,,,,,
,,,,,,,,33,2021-12-22_10h05.18.758,premceCat2_ses-02_part-02_label-phase2,2020.2.10,Win32,60,,,,,right,1.3461,3,0.2883,0,129,129,121,1,stimuli/objects/parachute.jpg,right,new,265,,,,,,,,,,,,,,,
,,,,,,,,33,2021-12-22_10h05.18.758,premceCat2_ses-02_part-02_label-phase2,2020.2.10,Win32,60,,,,,left,0.9912,4,0.3054,,,,,,,,,,left,0.3528,0,0,0,0,1,,,,,,,,
,,,,,,,,33,2021-12-22_10h05.18.758,premceCat2_ses-02_part-02_label-phase2,2020.2.10,Win32,60,,,,,,,,,0,130,130,58,1,stimuli/objects/swimgoggles.jpg,left,old,202,,,,,,,,,,,,,,,
,,,,,,,,33,2021-12-22_10h05.18.758,premceCat2_ses-02_part-02_label-phase2,2020.2.10,Win32,60,,,,,right,0.7586,2,0.3156,0,131,131,36,1,stimuli/objects/loppingshears.jpg,right,new,180,,,,,,,,,,,,,,,
,,,,,,,,33,2021-12-22_10h05.18.758,premceCat2_ses-02_part-02_label-phase2,2020.2.10,Win32,60,,,,,right,1.8712,2,0.9221,0,132,132,76,1,stimuli/objects/extensioncord.jpg,left,old,220,,,,,,,,,,,,,,,
,,,,,,,,33,2021-12-22_10h05.18.758,premceCat2_ses-02_part-02_label-phase2,2020.2.10,Win32,60,,,,,right,0.6635,2,0.5746,0,133,133,13,1,stimuli/objects/jumpercables.jpg,left,old,157,,,,,,,,,,,,,,,
,,,,,,,,33,2021-12-22_10h05.18.758,premceCat2_ses-02_part-02_label-phase2,2020.2.10,Win32,60,,,,,right,0.8069,2,0.4366,0,134,134,135,1,stimuli/objects/mortarandpestle.jpg,right,new,279,,,,,,,,,,,,,,,
,,,,,,,,33,2021-12-22_10h05.18.758,premceCat2_ses-02_part-02_label-phase2,2020.2.10,Win32,60,,,,,right,0.6396,2,0.4721,0,135,135,120,1,stimuli/objects/tent.jpg,right,new,264,,,,,,,,,,,,,,,
,,,,,,,,33,2021-12-22_10h05.18.758,premceCat2_ses-02_part-02_label-phase2,2020.2.10,Win32,60,,,,,right,0.4727,3,0.9544,0,136,136,86,1,stimuli/objects/trampoline.jpg,right,new,230,,,,,,,,,,,,,,,
,,,,,,,,33,2021-12-22_10h05.18.758,premceCat2_ses-02_part-02_label-phase2,2020.2.10,Win32,60,,,,,right,0.5829,3,0.2713,0,137,137,104,1,stimuli/objects/lamp04a.jpg,left,old,248,,,,,,,,,,,,,,,
,,,,,,,,33,2021-12-22_10h05.18.758,premceCat2_ses-02_part-02_label-phase2,2020.2.10,Win32,60,,,,,right,0.7194,2,0.3966,0,138,138,21,1,stimuli/objects/boltcutter.jpg,left,old,165,,,,,,,,,,,,,,,
,,,,,,,,33,2021-12-22_10h05.18.758,premceCat2_ses-02_part-02_label-phase2,2020.2.10,Win32,60,,,,,right,0.6014,2,0.6337,0,139,139,109,1,stimuli/objects/waterbottle03.jpg,left,old,253,,,,,,,,,,,,,,,
,,,,,,,,33,2021-12-22_10h05.18.758,premceCat2_ses-02_part-02_label-phase2,2020.2.10,Win32,60,,,,,right,1.2685,2,0.2888,0,140,140,107,1,stimuli/objects/dolly01.jpg,right,new,251,,,,,,,,,,,,,,,
,,,,,,,,33,2021-12-22_10h05.18.758,premceCat2_ses-02_part-02_label-phase2,2020.2.10,Win32,60,,,,,right,0.9074,1,0.8282,0,141,141,18,1,stimuli/objects/cellphone.jpg,left,old,162,,,,,,,,,,,,,,,
,,,,,,,,33,2021-12-22_10h05.18.758,premceCat2_ses-02_part-02_label-phase2,2020.2.10,Win32,60,,,,,right,1.2623,1,0.6575,0,142,142,136,1,stimuli/objects/bikepump01.jpg,left,old,280,,,,,,,,,,,,,,,
,,,,,,,,33,2021-12-22_10h05.18.758,premceCat2_ses-02_part-02_label-phase2,2020.2.10,Win32,60,,,,,,,,,,,,,,,,,,,,,,,,,space,3.8398,0,1,1,1,1,condition_files/ImagesforRecog2_2.csv
