instructions_loop.thisRepN,instructions_loop.thisTrialN,instructions_loop.thisN,instructions_loop.thisIndex,instructions_loop.ran,text1,text2,text3,participant,date,expName,psychopyVersion,OS,frameRate,key_resp_2.keys,key_resp_2.rt,key_resp_3.keys,key_resp_3.rt,recog_resp.keys,recog_resp.rt,conf_resp.keys,conf_resp.rt,resp_assoc.keys,resp_assoc.rt,assoc_loop.thisRepN,assoc_loop.thisTrialN,assoc_loop.thisN,assoc_loop.thisIndex,assoc_loop.ran,recog_loop.thisRepN,recog_loop.thisTrialN,recog_loop.thisN,recog_loop.thisIndex,recog_loop.ran,images,corr_ans,type,order,key_resp_break.keys,key_resp_break.rt,list_loop.thisRepN,list_loop.thisTrialN,list_loop.thisN,list_loop.thisIndex,list_loop.ran,recog_list
0,0,0,0,1,Welcome to the last phase of this experiment!,.,Please press the space bar to continue,39,2022-01-13_09h31.01.256,premceCat2_ses-02_part-02_label-phase2,2020.2.10,MacIntel,60,,,,,,,,,,,,,,,,,,,,,,,,,,,,,,,,
0,1,1,1,1,.,"In this phase, you will see some objects. 

For each object, you should indicate whether you have seen it before during the experiment.

Press LEFT ARROW for YES
Press RIGHT ARROW for NO

",Please press the space bar to continue ,39,2022-01-13_09h31.01.256,premceCat2_ses-02_part-02_label-phase2,2020.2.10,MacIntel,60,,,,,,,,,,,,,,,,,,,,,,,,,,,,,,,,
0,2,2,2,1,.,"After that, you will be asked how confident you are of your choice.

Please rate the confidence in your choice with the numbers from 1 to 4 of your keyboard. 

The numbers correspond to:

1 = Very unsure
2 = Unsure
3 = Sure
4 = Very Sure",Please press the space bar to continue,39,2022-01-13_09h31.01.256,premceCat2_ses-02_part-02_label-phase2,2020.2.10,MacIntel,60,,,,,,,,,,,,,,,,,,,,,,,,,,,,,,,,
,,,,,,,,39,2022-01-13_09h31.01.256,premceCat2_ses-02_part-02_label-phase2,2020.2.10,MacIntel,60,space,10.2248,space,3.1487,left,2.0586,3,2.5549,left,2.1205,0,0,0,0,1,,,,,,,,,,,,,,,,,
,,,,,,,,39,2022-01-13_09h31.01.256,premceCat2_ses-02_part-02_label-phase2,2020.2.10,MacIntel,60,,,,,,,,,,,,,,,,0,0,0,73,1,stimuli/objects/shinpad.jpg,left,old,217,,,,,,,,
,,,,,,,,39,2022-01-13_09h31.01.256,premceCat2_ses-02_part-02_label-phase2,2020.2.10,MacIntel,60,,,,,right,1.3812,3,2.9042,,,,,,,,0,1,1,39,1,stimuli/objects/wafflemaker.jpg,right,new,183,,,,,,,,
,,,,,,,,39,2022-01-13_09h31.01.256,premceCat2_ses-02_part-02_label-phase2,2020.2.10,MacIntel,60,,,,,right,2.2204,3,1.5176,,,,,,,,0,2,2,114,1,stimuli/objects/drinkshaker.jpg,right,new,258,,,,,,,,
,,,,,,,,39,2022-01-13_09h31.01.256,premceCat2_ses-02_part-02_label-phase2,2020.2.10,MacIntel,60,,,,,left,1.9449,4,1.2471,left,1.9093,0,0,0,0,1,,,,,,,,,,,,,,,,,
,,,,,,,,39,2022-01-13_09h31.01.256,premceCat2_ses-02_part-02_label-phase2,2020.2.10,MacIntel,60,,,,,,,,,,,,,,,,0,3,3,105,1,stimuli/objects/spicerack.jpg,left,old,249,,,,,,,,
,,,,,,,,39,2022-01-13_09h31.01.256,premceCat2_ses-02_part-02_label-phase2,2020.2.10,MacIntel,60,,,,,left,2.1059,2,1.1754,right,0.9971,0,0,0,0,1,,,,,,,,,,,,,,,,,
,,,,,,,,39,2022-01-13_09h31.01.256,premceCat2_ses-02_part-02_label-phase2,2020.2.10,MacIntel,60,,,,,,,,,,,,,,,,0,4,4,100,1,stimuli/objects/setsquare.jpg,left,old,244,,,,,,,,
,,,,,,,,39,2022-01-13_09h31.01.256,premceCat2_ses-02_part-02_label-phase2,2020.2.10,MacIntel,60,,,,,left,2.502,4,2.1203,left,0.6239,0,0,0,0,1,,,,,,,,,,,,,,,,,
,,,,,,,,39,2022-01-13_09h31.01.256,premceCat2_ses-02_part-02_label-phase2,2020.2.10,MacIntel,60,,,,,,,,,,,,,,,,0,5,5,90,1,stimuli/objects/fishinghook03.jpg,left,old,234,,,,,,,,
,,,,,,,,39,2022-01-13_09h31.01.256,premceCat2_ses-02_part-02_label-phase2,2020.2.10,MacIntel,60,,,,,left,3.421,4,2.6577,left,3.5945,0,0,0,0,1,,,,,,,,,,,,,,,,,
,,,,,,,,39,2022-01-13_09h31.01.256,premceCat2_ses-02_part-02_label-phase2,2020.2.10,MacIntel,60,,,,,,,,,,,,,,,,0,6,6,32,1,stimuli/objects/travelmug.jpg,left,old,176,,,,,,,,
,,,,,,,,39,2022-01-13_09h31.01.256,premceCat2_ses-02_part-02_label-phase2,2020.2.10,MacIntel,60,,,,,left,3.1591,2,1.285,right,2.0484,0,0,0,0,1,,,,,,,,,,,,,,,,,
,,,,,,,,39,2022-01-13_09h31.01.256,premceCat2_ses-02_part-02_label-phase2,2020.2.10,MacIntel,60,,,,,,,,,,,,,,,,0,7,7,5,1,stimuli/objects/pickaxe02.jpg,right,new,149,,,,,,,,
,,,,,,,,39,2022-01-13_09h31.01.256,premceCat2_ses-02_part-02_label-phase2,2020.2.10,MacIntel,60,,,,,left,1.3916,4,1.0357,right,1.7449,0,0,0,0,1,,,,,,,,,,,,,,,,,
,,,,,,,,39,2022-01-13_09h31.01.256,premceCat2_ses-02_part-02_label-phase2,2020.2.10,MacIntel,60,,,,,,,,,,,,,,,,0,8,8,106,1,stimuli/objects/phonejack.jpg,left,old,250,,,,,,,,
,,,,,,,,39,2022-01-13_09h31.01.256,premceCat2_ses-02_part-02_label-phase2,2020.2.10,MacIntel,60,,,,,right,3.7996,2,1.7233,,,,,,,,0,9,9,12,1,stimuli/objects/fanheater.jpg,right,new,156,,,,,,,,
,,,,,,,,39,2022-01-13_09h31.01.256,premceCat2_ses-02_part-02_label-phase2,2020.2.10,MacIntel,60,,,,,left,1.6048,2,0.9284,right,0.4894,0,0,0,0,1,,,,,,,,,,,,,,,,,
,,,,,,,,39,2022-01-13_09h31.01.256,premceCat2_ses-02_part-02_label-phase2,2020.2.10,MacIntel,60,,,,,,,,,,,,,,,,0,10,10,94,1,stimuli/objects/file.jpg,right,new,238,,,,,,,,
,,,,,,,,39,2022-01-13_09h31.01.256,premceCat2_ses-02_part-02_label-phase2,2020.2.10,MacIntel,60,,,,,left,2.934,3,2.3622,right,0.7785,0,0,0,0,1,,,,,,,,,,,,,,,,,
,,,,,,,,39,2022-01-13_09h31.01.256,premceCat2_ses-02_part-02_label-phase2,2020.2.10,MacIntel,60,,,,,,,,,,,,,,,,0,11,11,22,1,stimuli/objects/aircompressor.jpg,left,old,166,,,,,,,,
,,,,,,,,39,2022-01-13_09h31.01.256,premceCat2_ses-02_part-02_label-phase2,2020.2.10,MacIntel,60,,,,,left,2.3963,4,1.2046,left,0.7253,0,0,0,0,1,,,,,,,,,,,,,,,,,
,,,,,,,,39,2022-01-13_09h31.01.256,premceCat2_ses-02_part-02_label-phase2,2020.2.10,MacIntel,60,,,,,,,,,,,,,,,,0,12,12,71,1,stimuli/objects/swimgoggles.jpg,left,old,215,,,,,,,,
,,,,,,,,39,2022-01-13_09h31.01.256,premceCat2_ses-02_part-02_label-phase2,2020.2.10,MacIntel,60,,,,,left,1.9172,4,1.1213,left,0.3991,0,0,0,0,1,,,,,,,,,,,,,,,,,
,,,,,,,,39,2022-01-13_09h31.01.256,premceCat2_ses-02_part-02_label-phase2,2020.2.10,MacIntel,60,,,,,,,,,,,,,,,,0,13,13,58,1,stimuli/objects/skiboot01a.jpg,left,old,202,,,,,,,,
,,,,,,,,39,2022-01-13_09h31.01.256,premceCat2_ses-02_part-02_label-phase2,2020.2.10,MacIntel,60,,,,,right,6.8044,2,1.1004,,,,,,,,0,14,14,49,1,stimuli/objects/cakeplatter.jpg,right,new,193,,,,,,,,
,,,,,,,,39,2022-01-13_09h31.01.256,premceCat2_ses-02_part-02_label-phase2,2020.2.10,MacIntel,60,,,,,left,1.8821,2,0.5583,left,0.3401,0,0,0,0,1,,,,,,,,,,,,,,,,,
,,,,,,,,39,2022-01-13_09h31.01.256,premceCat2_ses-02_part-02_label-phase2,2020.2.10,MacIntel,60,,,,,,,,,,,,,,,,0,15,15,34,1,stimuli/objects/kneepad01c.jpg,right,new,178,,,,,,,,
,,,,,,,,39,2022-01-13_09h31.01.256,premceCat2_ses-02_part-02_label-phase2,2020.2.10,MacIntel,60,,,,,left,6.1435,4,1.4501,right,1.4085,0,0,0,0,1,,,,,,,,,,,,,,,,,
,,,,,,,,39,2022-01-13_09h31.01.256,premceCat2_ses-02_part-02_label-phase2,2020.2.10,MacIntel,60,,,,,,,,,,,,,,,,0,16,16,125,1,stimuli/objects/leafrake.jpg,left,old,269,,,,,,,,
,,,,,,,,39,2022-01-13_09h31.01.256,premceCat2_ses-02_part-02_label-phase2,2020.2.10,MacIntel,60,,,,,left,1.6466,3,1.8942,right,0.7723,0,0,0,0,1,,,,,,,,,,,,,,,,,
,,,,,,,,39,2022-01-13_09h31.01.256,premceCat2_ses-02_part-02_label-phase2,2020.2.10,MacIntel,60,,,,,,,,,,,,,,,,0,17,17,140,1,stimuli/objects/wineglass01.jpg,right,new,284,,,,,,,,
,,,,,,,,39,2022-01-13_09h31.01.256,premceCat2_ses-02_part-02_label-phase2,2020.2.10,MacIntel,60,,,,,left,1.3037,4,1.0531,right,0.3641,0,0,0,0,1,,,,,,,,,,,,,,,,,
,,,,,,,,39,2022-01-13_09h31.01.256,premceCat2_ses-02_part-02_label-phase2,2020.2.10,MacIntel,60,,,,,,,,,,,,,,,,0,18,18,67,1,stimuli/objects/desktopcomputer.jpg,left,old,211,,,,,,,,
,,,,,,,,39,2022-01-13_09h31.01.256,premceCat2_ses-02_part-02_label-phase2,2020.2.10,MacIntel,60,,,,,left,1.2383,3,1.4624,left,0.5482,0,0,0,0,1,,,,,,,,,,,,,,,,,
,,,,,,,,39,2022-01-13_09h31.01.256,premceCat2_ses-02_part-02_label-phase2,2020.2.10,MacIntel,60,,,,,,,,,,,,,,,,0,19,19,136,1,stimuli/objects/skihelmet01.jpg,left,old,280,,,,,,,,
,,,,,,,,39,2022-01-13_09h31.01.256,premceCat2_ses-02_part-02_label-phase2,2020.2.10,MacIntel,60,,,,,right,2.5881,2,0.3729,,,,,,,,0,20,20,117,1,stimuli/objects/snowboard.jpg,left,old,261,,,,,,,,
,,,,,,,,39,2022-01-13_09h31.01.256,premceCat2_ses-02_part-02_label-phase2,2020.2.10,MacIntel,60,,,,,left,1.6075,4,1.3771,left,0.8604,0,0,0,0,1,,,,,,,,,,,,,,,,,
,,,,,,,,39,2022-01-13_09h31.01.256,premceCat2_ses-02_part-02_label-phase2,2020.2.10,MacIntel,60,,,,,,,,,,,,,,,,0,21,21,62,1,stimuli/objects/shotglass.jpg,left,old,206,,,,,,,,
,,,,,,,,39,2022-01-13_09h31.01.256,premceCat2_ses-02_part-02_label-phase2,2020.2.10,MacIntel,60,,,,,left,2.9062,3,0.9401,left,0.7941,0,0,0,0,1,,,,,,,,,,,,,,,,,
,,,,,,,,39,2022-01-13_09h31.01.256,premceCat2_ses-02_part-02_label-phase2,2020.2.10,MacIntel,60,,,,,,,,,,,,,,,,0,22,22,19,1,stimuli/objects/mug01.jpg,right,new,163,,,,,,,,
,,,,,,,,39,2022-01-13_09h31.01.256,premceCat2_ses-02_part-02_label-phase2,2020.2.10,MacIntel,60,,,,,left,2.0322,3,0.6444,left,0.5695,0,0,0,0,1,,,,,,,,,,,,,,,,,
,,,,,,,,39,2022-01-13_09h31.01.256,premceCat2_ses-02_part-02_label-phase2,2020.2.10,MacIntel,60,,,,,,,,,,,,,,,,0,23,23,139,1,stimuli/objects/pitcher02b.jpg,left,old,283,,,,,,,,
,,,,,,,,39,2022-01-13_09h31.01.256,premceCat2_ses-02_part-02_label-phase2,2020.2.10,MacIntel,60,,,,,left,1.5019,4,1.2338,right,0.4697,0,0,0,0,1,,,,,,,,,,,,,,,,,
,,,,,,,,39,2022-01-13_09h31.01.256,premceCat2_ses-02_part-02_label-phase2,2020.2.10,MacIntel,60,,,,,,,,,,,,,,,,0,24,24,130,1,stimuli/objects/ipad02.jpg,left,old,274,,,,,,,,
,,,,,,,,39,2022-01-13_09h31.01.256,premceCat2_ses-02_part-02_label-phase2,2020.2.10,MacIntel,60,,,,,right,1.8645,2,0.8208,,,,,,,,0,25,25,86,1,stimuli/objects/trampoline.jpg,right,new,230,,,,,,,,
,,,,,,,,39,2022-01-13_09h31.01.256,premceCat2_ses-02_part-02_label-phase2,2020.2.10,MacIntel,60,,,,,right,1.4362,2,0.5995,,,,,,,,0,26,26,59,1,stimuli/objects/speedball.jpg,right,new,203,,,,,,,,
,,,,,,,,39,2022-01-13_09h31.01.256,premceCat2_ses-02_part-02_label-phase2,2020.2.10,MacIntel,60,,,,,left,1.4663,4,1.159,left,0.5278,0,0,0,0,1,,,,,,,,,,,,,,,,,
,,,,,,,,39,2022-01-13_09h31.01.256,premceCat2_ses-02_part-02_label-phase2,2020.2.10,MacIntel,60,,,,,,,,,,,,,,,,0,27,27,64,1,stimuli/objects/exercisemachine.jpg,left,old,208,,,,,,,,
,,,,,,,,39,2022-01-13_09h31.01.256,premceCat2_ses-02_part-02_label-phase2,2020.2.10,MacIntel,60,,,,,left,3.6484,1,0.7011,right,0.8823,0,0,0,0,1,,,,,,,,,,,,,,,,,
,,,,,,,,39,2022-01-13_09h31.01.256,premceCat2_ses-02_part-02_label-phase2,2020.2.10,MacIntel,60,,,,,,,,,,,,,,,,0,28,28,0,1,stimuli/objects/smokedetector02.jpg,right,new,144,,,,,,,,
,,,,,,,,39,2022-01-13_09h31.01.256,premceCat2_ses-02_part-02_label-phase2,2020.2.10,MacIntel,60,,,,,right,1.3607,3,2.1621,,,,,,,,0,29,29,85,1,stimuli/objects/lamp04a.jpg,left,old,229,,,,,,,,
,,,,,,,,39,2022-01-13_09h31.01.256,premceCat2_ses-02_part-02_label-phase2,2020.2.10,MacIntel,60,,,,,right,1.6982,2,0.7277,,,,,,,,0,30,30,69,1,stimuli/objects/straw.jpg,right,new,213,,,,,,,,
,,,,,,,,39,2022-01-13_09h31.01.256,premceCat2_ses-02_part-02_label-phase2,2020.2.10,MacIntel,60,,,,,right,1.6025,4,1.1764,,,,,,,,0,31,31,16,1,stimuli/objects/bottleopener01.jpg,right,new,160,,,,,,,,
,,,,,,,,39,2022-01-13_09h31.01.256,premceCat2_ses-02_part-02_label-phase2,2020.2.10,MacIntel,60,,,,,right,2.3311,2,0.6356,,,,,,,,0,32,32,46,1,stimuli/objects/waterbottleholder.jpg,right,new,190,,,,,,,,
,,,,,,,,39,2022-01-13_09h31.01.256,premceCat2_ses-02_part-02_label-phase2,2020.2.10,MacIntel,60,,,,,left,1.4696,3,1.6761,right,0.4308,0,0,0,0,1,,,,,,,,,,,,,,,,,
,,,,,,,,39,2022-01-13_09h31.01.256,premceCat2_ses-02_part-02_label-phase2,2020.2.10,MacIntel,60,,,,,,,,,,,,,,,,0,33,33,129,1,stimuli/objects/bucket02.jpg,left,old,273,,,,,,,,
,,,,,,,,39,2022-01-13_09h31.01.256,premceCat2_ses-02_part-02_label-phase2,2020.2.10,MacIntel,60,,,,,left,1.5195,4,0.9169,right,0.4871,0,0,0,0,1,,,,,,,,,,,,,,,,,
,,,,,,,,39,2022-01-13_09h31.01.256,premceCat2_ses-02_part-02_label-phase2,2020.2.10,MacIntel,60,,,,,,,,,,,,,,,,0,34,34,112,1,stimuli/objects/wire.jpg,left,old,256,,,,,,,,
,,,,,,,,39,2022-01-13_09h31.01.256,premceCat2_ses-02_part-02_label-phase2,2020.2.10,MacIntel,60,,,,,left,2.1312,3,1.1015,left,0.6891,0,0,0,0,1,,,,,,,,,,,,,,,,,
,,,,,,,,39,2022-01-13_09h31.01.256,premceCat2_ses-02_part-02_label-phase2,2020.2.10,MacIntel,60,,,,,,,,,,,,,,,,0,35,35,79,1,stimuli/objects/bikehelmet.jpg,left,old,223,,,,,,,,
,,,,,,,,39,2022-01-13_09h31.01.256,premceCat2_ses-02_part-02_label-phase2,2020.2.10,MacIntel,60,,,,,left,1.2035,4,1.0305,right,0.4062,0,0,0,0,1,,,,,,,,,,,,,,,,,
,,,,,,,,39,2022-01-13_09h31.01.256,premceCat2_ses-02_part-02_label-phase2,2020.2.10,MacIntel,60,,,,,,,,,,,,,,,,0,36,36,54,1,stimuli/objects/ladder.jpg,left,old,198,,,,,,,,
,,,,,,,,39,2022-01-13_09h31.01.256,premceCat2_ses-02_part-02_label-phase2,2020.2.10,MacIntel,60,,,,,right,2.0031,2,2.4515,,,,,,,,0,37,37,13,1,stimuli/objects/gardenshears01a.jpg,left,old,157,,,,,,,,
,,,,,,,,39,2022-01-13_09h31.01.256,premceCat2_ses-02_part-02_label-phase2,2020.2.10,MacIntel,60,,,,,left,1.3447,2,1.0868,right,0.4082,0,0,0,0,1,,,,,,,,,,,,,,,,,
,,,,,,,,39,2022-01-13_09h31.01.256,premceCat2_ses-02_part-02_label-phase2,2020.2.10,MacIntel,60,,,,,,,,,,,,,,,,0,38,38,89,1,stimuli/objects/rollingpin01a.jpg,left,old,233,,,,,,,,
,,,,,,,,39,2022-01-13_09h31.01.256,premceCat2_ses-02_part-02_label-phase2,2020.2.10,MacIntel,60,,,,,right,1.584,2,0.4621,,,,,,,,0,39,39,63,1,stimuli/objects/coffeepot03a.jpg,left,old,207,,,,,,,,
,,,,,,,,39,2022-01-13_09h31.01.256,premceCat2_ses-02_part-02_label-phase2,2020.2.10,MacIntel,60,,,,,right,2.7898,2,0.8609,,,,,,,,0,40,40,81,1,stimuli/objects/grill.jpg,right,new,225,,,,,,,,
,,,,,,,,39,2022-01-13_09h31.01.256,premceCat2_ses-02_part-02_label-phase2,2020.2.10,MacIntel,60,,,,,left,1.0689,4,1.2035,right,1.0653,0,0,0,0,1,,,,,,,,,,,,,,,,,
,,,,,,,,39,2022-01-13_09h31.01.256,premceCat2_ses-02_part-02_label-phase2,2020.2.10,MacIntel,60,,,,,,,,,,,,,,,,0,41,41,1,1,stimuli/objects/satellitedish01.jpg,left,old,145,,,,,,,,
,,,,,,,,39,2022-01-13_09h31.01.256,premceCat2_ses-02_part-02_label-phase2,2020.2.10,MacIntel,60,,,,,left,1.3915,4,1.059,right,0.4293,0,0,0,0,1,,,,,,,,,,,,,,,,,
,,,,,,,,39,2022-01-13_09h31.01.256,premceCat2_ses-02_part-02_label-phase2,2020.2.10,MacIntel,60,,,,,,,,,,,,,,,,0,42,42,37,1,stimuli/objects/expansioncard.jpg,left,old,181,,,,,,,,
,,,,,,,,39,2022-01-13_09h31.01.256,premceCat2_ses-02_part-02_label-phase2,2020.2.10,MacIntel,60,,,,,left,0.9805,4,0.9869,right,0.8231,0,0,0,0,1,,,,,,,,,,,,,,,,,
,,,,,,,,39,2022-01-13_09h31.01.256,premceCat2_ses-02_part-02_label-phase2,2020.2.10,MacIntel,60,,,,,,,,,,,,,,,,0,43,43,4,1,stimuli/objects/cassettetape01a.jpg,right,new,148,,,,,,,,
,,,,,,,,39,2022-01-13_09h31.01.256,premceCat2_ses-02_part-02_label-phase2,2020.2.10,MacIntel,60,,,,,left,1.5029,2,0.4757,right,0.6408,0,0,0,0,1,,,,,,,,,,,,,,,,,
,,,,,,,,39,2022-01-13_09h31.01.256,premceCat2_ses-02_part-02_label-phase2,2020.2.10,MacIntel,60,,,,,,,,,,,,,,,,0,44,44,91,1,stimuli/objects/cuttingpliers02.jpg,right,new,235,,,,,,,,
,,,,,,,,39,2022-01-13_09h31.01.256,premceCat2_ses-02_part-02_label-phase2,2020.2.10,MacIntel,60,,,,,left,2.4509,2,1.0601,right,0.8298,0,0,0,0,1,,,,,,,,,,,,,,,,,
,,,,,,,,39,2022-01-13_09h31.01.256,premceCat2_ses-02_part-02_label-phase2,2020.2.10,MacIntel,60,,,,,,,,,,,,,,,,0,45,45,29,1,stimuli/objects/slidetray.jpg,left,old,173,,,,,,,,
,,,,,,,,39,2022-01-13_09h31.01.256,premceCat2_ses-02_part-02_label-phase2,2020.2.10,MacIntel,60,,,,,left,2.0986,4,1.9112,right,0.5217,0,0,0,0,1,,,,,,,,,,,,,,,,,
,,,,,,,,39,2022-01-13_09h31.01.256,premceCat2_ses-02_part-02_label-phase2,2020.2.10,MacIntel,60,,,,,,,,,,,,,,,,0,46,46,27,1,stimuli/objects/level03a.jpg,left,old,171,,,,,,,,
,,,,,,,,39,2022-01-13_09h31.01.256,premceCat2_ses-02_part-02_label-phase2,2020.2.10,MacIntel,60,,,,,right,1.383,2,0.8991,,,,,,,,0,47,47,45,1,stimuli/objects/charcoalbarbecue.jpg,left,old,189,,,,,,,,
,,,,,,,,39,2022-01-13_09h31.01.256,premceCat2_ses-02_part-02_label-phase2,2020.2.10,MacIntel,60,,,,,left,1.3516,2,0.6386,right,1.6073,0,0,0,0,1,,,,,,,,,,,,,,,,,
,,,,,,,,39,2022-01-13_09h31.01.256,premceCat2_ses-02_part-02_label-phase2,2020.2.10,MacIntel,60,,,,,,,,,,,,,,,,0,48,48,47,1,stimuli/objects/plate01b.jpg,right,new,191,,,,,,,,
,,,,,,,,39,2022-01-13_09h31.01.256,premceCat2_ses-02_part-02_label-phase2,2020.2.10,MacIntel,60,,,,,left,1.9824,1,2.3281,right,0.3629,0,0,0,0,1,,,,,,,,,,,,,,,,,
,,,,,,,,39,2022-01-13_09h31.01.256,premceCat2_ses-02_part-02_label-phase2,2020.2.10,MacIntel,60,,,,,,,,,,,,,,,,0,49,49,36,1,stimuli/objects/loppingshears.jpg,right,new,180,,,,,,,,
,,,,,,,,39,2022-01-13_09h31.01.256,premceCat2_ses-02_part-02_label-phase2,2020.2.10,MacIntel,60,,,,,left,1.5578,4,1.5379,left,0.6833,0,0,0,0,1,,,,,,,,,,,,,,,,,
,,,,,,,,39,2022-01-13_09h31.01.256,premceCat2_ses-02_part-02_label-phase2,2020.2.10,MacIntel,60,,,,,,,,,,,,,,,,0,50,50,23,1,stimuli/objects/surfboard.jpg,left,old,167,,,,,,,,
,,,,,,,,39,2022-01-13_09h31.01.256,premceCat2_ses-02_part-02_label-phase2,2020.2.10,MacIntel,60,,,,,left,1.1965,4,1.126,right,0.5726,0,0,0,0,1,,,,,,,,,,,,,,,,,
,,,,,,,,39,2022-01-13_09h31.01.256,premceCat2_ses-02_part-02_label-phase2,2020.2.10,MacIntel,60,,,,,,,,,,,,,,,,0,51,51,118,1,stimuli/objects/caulking.jpg,left,old,262,,,,,,,,
,,,,,,,,39,2022-01-13_09h31.01.256,premceCat2_ses-02_part-02_label-phase2,2020.2.10,MacIntel,60,,,,,right,2.3216,2,1.0787,,,,,,,,0,52,52,21,1,stimuli/objects/gluetube.jpg,left,old,165,,,,,,,,
,,,,,,,,39,2022-01-13_09h31.01.256,premceCat2_ses-02_part-02_label-phase2,2020.2.10,MacIntel,60,,,,,right,2.1279,1,2.2896,,,,,,,,0,53,53,48,1,stimuli/objects/eggslicer.jpg,right,new,192,,,,,,,,
,,,,,,,,39,2022-01-13_09h31.01.256,premceCat2_ses-02_part-02_label-phase2,2020.2.10,MacIntel,60,,,,,left,1.2277,3,2.1679,left,0.4934,0,0,0,0,1,,,,,,,,,,,,,,,,,
,,,,,,,,39,2022-01-13_09h31.01.256,premceCat2_ses-02_part-02_label-phase2,2020.2.10,MacIntel,60,,,,,,,,,,,,,,,,0,54,54,18,1,stimuli/objects/fanblades.jpg,left,old,162,,,,,,,,
,,,,,,,,39,2022-01-13_09h31.01.256,premceCat2_ses-02_part-02_label-phase2,2020.2.10,MacIntel,60,,,,,left,1.0827,4,0.7792,left,0.5475,0,0,0,0,1,,,,,,,,,,,,,,,,,
,,,,,,,,39,2022-01-13_09h31.01.256,premceCat2_ses-02_part-02_label-phase2,2020.2.10,MacIntel,60,,,,,,,,,,,,,,,,0,55,55,20,1,stimuli/objects/treadmill.jpg,left,old,164,,,,,,,,
,,,,,,,,39,2022-01-13_09h31.01.256,premceCat2_ses-02_part-02_label-phase2,2020.2.10,MacIntel,60,,,,,left,1.521,4,1.3217,right,0.3841,0,0,0,0,1,,,,,,,,,,,,,,,,,
,,,,,,,,39,2022-01-13_09h31.01.256,premceCat2_ses-02_part-02_label-phase2,2020.2.10,MacIntel,60,,,,,,,,,,,,,,,,0,56,56,31,1,stimuli/objects/cooler01.jpg,left,old,175,,,,,,,,
,,,,,,,,39,2022-01-13_09h31.01.256,premceCat2_ses-02_part-02_label-phase2,2020.2.10,MacIntel,60,,,,,left,1.2986,4,0.6732,right,0.4427,0,0,0,0,1,,,,,,,,,,,,,,,,,
,,,,,,,,39,2022-01-13_09h31.01.256,premceCat2_ses-02_part-02_label-phase2,2020.2.10,MacIntel,60,,,,,,,,,,,,,,,,0,57,57,119,1,stimuli/objects/servingspoon01.jpg,left,old,263,,,,,,,,
,,,,,,,,39,2022-01-13_09h31.01.256,premceCat2_ses-02_part-02_label-phase2,2020.2.10,MacIntel,60,,,,,right,1.6274,2,0.6874,,,,,,,,0,58,58,99,1,stimuli/objects/floodlight.jpg,right,new,243,,,,,,,,
,,,,,,,,39,2022-01-13_09h31.01.256,premceCat2_ses-02_part-02_label-phase2,2020.2.10,MacIntel,60,,,,,left,1.0659,4,0.7314,right,0.3623,0,0,0,0,1,,,,,,,,,,,,,,,,,
,,,,,,,,39,2022-01-13_09h31.01.256,premceCat2_ses-02_part-02_label-phase2,2020.2.10,MacIntel,60,,,,,,,,,,,,,,,,0,59,59,8,1,stimuli/objects/tape02a.jpg,left,old,152,,,,,,,,
,,,,,,,,39,2022-01-13_09h31.01.256,premceCat2_ses-02_part-02_label-phase2,2020.2.10,MacIntel,60,,,,,right,1.6108,4,1.4745,,,,,,,,0,60,60,108,1,stimuli/objects/outletadapter.jpg,left,old,252,,,,,,,,
,,,,,,,,39,2022-01-13_09h31.01.256,premceCat2_ses-02_part-02_label-phase2,2020.2.10,MacIntel,60,,,,,right,1.5196,2,0.6154,,,,,,,,0,61,61,133,1,stimuli/objects/birdie.jpg,right,new,277,,,,,,,,
,,,,,,,,39,2022-01-13_09h31.01.256,premceCat2_ses-02_part-02_label-phase2,2020.2.10,MacIntel,60,,,,,right,1.4049,1,0.7484,,,,,,,,0,62,62,107,1,stimuli/objects/dolly01.jpg,right,new,251,,,,,,,,
,,,,,,,,39,2022-01-13_09h31.01.256,premceCat2_ses-02_part-02_label-phase2,2020.2.10,MacIntel,60,,,,,right,2.3406,3,1.5975,,,,,,,,0,63,63,40,1,stimuli/objects/tablesaw.jpg,right,new,184,,,,,,,,
,,,,,,,,39,2022-01-13_09h31.01.256,premceCat2_ses-02_part-02_label-phase2,2020.2.10,MacIntel,60,,,,,right,1.0173,4,1.4001,,,,,,,,0,64,64,60,1,stimuli/objects/kite.jpg,right,new,204,,,,,,,,
,,,,,,,,39,2022-01-13_09h31.01.256,premceCat2_ses-02_part-02_label-phase2,2020.2.10,MacIntel,60,,,,,right,1.6357,3,1.2506,,,,,,,,0,65,65,135,1,stimuli/objects/mortarandpestle.jpg,right,new,279,,,,,,,,
,,,,,,,,39,2022-01-13_09h31.01.256,premceCat2_ses-02_part-02_label-phase2,2020.2.10,MacIntel,60,,,,,left,1.0234,4,1.2471,left,1.6558,0,0,0,0,1,,,,,,,,,,,,,,,,,
,,,,,,,,39,2022-01-13_09h31.01.256,premceCat2_ses-02_part-02_label-phase2,2020.2.10,MacIntel,60,,,,,,,,,,,,,,,,0,66,66,77,1,stimuli/objects/bowl02a.jpg,left,old,221,,,,,,,,
,,,,,,,,39,2022-01-13_09h31.01.256,premceCat2_ses-02_part-02_label-phase2,2020.2.10,MacIntel,60,,,,,left,1.6184,4,1.1692,left,0.5364,0,0,0,0,1,,,,,,,,,,,,,,,,,
,,,,,,,,39,2022-01-13_09h31.01.256,premceCat2_ses-02_part-02_label-phase2,2020.2.10,MacIntel,60,,,,,,,,,,,,,,,,0,67,67,56,1,stimuli/objects/cork02.jpg,left,old,200,,,,,,,,
,,,,,,,,39,2022-01-13_09h31.01.256,premceCat2_ses-02_part-02_label-phase2,2020.2.10,MacIntel,60,,,,,left,1.4339,4,0.9097,left,0.3896,0,0,0,0,1,,,,,,,,,,,,,,,,,
,,,,,,,,39,2022-01-13_09h31.01.256,premceCat2_ses-02_part-02_label-phase2,2020.2.10,MacIntel,60,,,,,,,,,,,,,,,,0,68,68,10,1,stimuli/objects/sportbag.jpg,left,old,154,,,,,,,,
,,,,,,,,39,2022-01-13_09h31.01.256,premceCat2_ses-02_part-02_label-phase2,2020.2.10,MacIntel,60,,,,,left,1.6003,4,1.0412,right,0.394,0,0,0,0,1,,,,,,,,,,,,,,,,,
,,,,,,,,39,2022-01-13_09h31.01.256,premceCat2_ses-02_part-02_label-phase2,2020.2.10,MacIntel,60,,,,,,,,,,,,,,,,0,69,69,52,1,stimuli/objects/usbkey.jpg,left,old,196,,,,,,,,
,,,,,,,,39,2022-01-13_09h31.01.256,premceCat2_ses-02_part-02_label-phase2,2020.2.10,MacIntel,60,,,,,right,3.1369,3,1.5053,,,,,,,,0,70,70,61,1,stimuli/objects/flooringstapler.jpg,left,old,205,,,,,,,,
,,,,,,,,39,2022-01-13_09h31.01.256,premceCat2_ses-02_part-02_label-phase2,2020.2.10,MacIntel,60,,,,,right,1.3204,2,0.4947,,,,,,,,0,71,71,127,1,stimuli/objects/skigoggles01.jpg,right,new,271,,,,,,,,
,,,,,,,,39,2022-01-13_09h31.01.256,premceCat2_ses-02_part-02_label-phase2,2020.2.10,MacIntel,60,,,,,left,1.1557,4,0.5416,right,0.6017,0,0,0,0,1,,,,,,,,,,,,,,,,,
,,,,,,,,39,2022-01-13_09h31.01.256,premceCat2_ses-02_part-02_label-phase2,2020.2.10,MacIntel,60,,,,,,,,,,,,,,,,0,72,72,92,1,stimuli/objects/axe01.jpg,left,old,236,,,,,,,,
,,,,,,,,39,2022-01-13_09h31.01.256,premceCat2_ses-02_part-02_label-phase2,2020.2.10,MacIntel,60,,,,,right,2.5097,2,1.1704,,,,,,,,0,73,73,38,1,stimuli/objects/contactlens.jpg,left,old,182,,,,,,,,
,,,,,,,,39,2022-01-13_09h31.01.256,premceCat2_ses-02_part-02_label-phase2,2020.2.10,MacIntel,60,,,,,right,1.0742,3,1.3656,,,,,,,,0,74,74,123,1,stimuli/objects/jackhammer.jpg,right,new,267,,,,,,,,
,,,,,,,,39,2022-01-13_09h31.01.256,premceCat2_ses-02_part-02_label-phase2,2020.2.10,MacIntel,60,,,,,left,2.2831,2,0.7811,right,1.2585,0,0,0,0,1,,,,,,,,,,,,,,,,,
,,,,,,,,39,2022-01-13_09h31.01.256,premceCat2_ses-02_part-02_label-phase2,2020.2.10,MacIntel,60,,,,,,,,,,,,,,,,0,75,75,33,1,stimuli/objects/scanner.jpg,left,old,177,,,,,,,,
,,,,,,,,39,2022-01-13_09h31.01.256,premceCat2_ses-02_part-02_label-phase2,2020.2.10,MacIntel,60,,,,,left,1.1176,2,0.9467,left,0.3484,0,0,0,0,1,,,,,,,,,,,,,,,,,
,,,,,,,,39,2022-01-13_09h31.01.256,premceCat2_ses-02_part-02_label-phase2,2020.2.10,MacIntel,60,,,,,,,,,,,,,,,,0,76,76,14,1,stimuli/objects/weight01.jpg,left,old,158,,,,,,,,
,,,,,,,,39,2022-01-13_09h31.01.256,premceCat2_ses-02_part-02_label-phase2,2020.2.10,MacIntel,60,,,,,left,1.3648,4,0.3518,right,0.6423,0,0,0,0,1,,,,,,,,,,,,,,,,,
,,,,,,,,39,2022-01-13_09h31.01.256,premceCat2_ses-02_part-02_label-phase2,2020.2.10,MacIntel,60,,,,,,,,,,,,,,,,0,77,77,134,1,stimuli/objects/electricoutlet.jpg,left,old,278,,,,,,,,
,,,,,,,,39,2022-01-13_09h31.01.256,premceCat2_ses-02_part-02_label-phase2,2020.2.10,MacIntel,60,,,,,right,1.3219,4,1.3977,,,,,,,,0,78,78,121,1,stimuli/objects/parachute.jpg,right,new,265,,,,,,,,
,,,,,,,,39,2022-01-13_09h31.01.256,premceCat2_ses-02_part-02_label-phase2,2020.2.10,MacIntel,60,,,,,left,0.9593,4,0.465,right,0.8987,0,0,0,0,1,,,,,,,,,,,,,,,,,
,,,,,,,,39,2022-01-13_09h31.01.256,premceCat2_ses-02_part-02_label-phase2,2020.2.10,MacIntel,60,,,,,,,,,,,,,,,,0,79,79,72,1,stimuli/objects/paintroller01.jpg,left,old,216,,,,,,,,
,,,,,,,,39,2022-01-13_09h31.01.256,premceCat2_ses-02_part-02_label-phase2,2020.2.10,MacIntel,60,,,,,right,3.5369,3,1.5263,,,,,,,,0,80,80,137,1,stimuli/objects/nutcracker01.jpg,right,new,281,,,,,,,,
,,,,,,,,39,2022-01-13_09h31.01.256,premceCat2_ses-02_part-02_label-phase2,2020.2.10,MacIntel,60,,,,,right,2.8323,1,0.5366,,,,,,,,0,81,81,74,1,stimuli/objects/patioumbrella.jpg,left,old,218,,,,,,,,
,,,,,,,,39,2022-01-13_09h31.01.256,premceCat2_ses-02_part-02_label-phase2,2020.2.10,MacIntel,60,,,,,left,1.4916,4,0.5941,left,0.6405,0,0,0,0,1,,,,,,,,,,,,,,,,,
,,,,,,,,39,2022-01-13_09h31.01.256,premceCat2_ses-02_part-02_label-phase2,2020.2.10,MacIntel,60,,,,,,,,,,,,,,,,0,82,82,115,1,stimuli/objects/toothpick02.jpg,left,old,259,,,,,,,,
,,,,,,,,39,2022-01-13_09h31.01.256,premceCat2_ses-02_part-02_label-phase2,2020.2.10,MacIntel,60,,,,,left,3.456,2,1.2682,left,1.1148,0,0,0,0,1,,,,,,,,,,,,,,,,,
,,,,,,,,39,2022-01-13_09h31.01.256,premceCat2_ses-02_part-02_label-phase2,2020.2.10,MacIntel,60,,,,,,,,,,,,,,,,0,83,83,76,1,stimuli/objects/papershredder.jpg,left,old,220,,,,,,,,
,,,,,,,,39,2022-01-13_09h31.01.256,premceCat2_ses-02_part-02_label-phase2,2020.2.10,MacIntel,60,,,,,right,1.703,2,1.0698,,,,,,,,0,84,84,55,1,stimuli/objects/fonduefork01.jpg,right,new,199,,,,,,,,
,,,,,,,,39,2022-01-13_09h31.01.256,premceCat2_ses-02_part-02_label-phase2,2020.2.10,MacIntel,60,,,,,right,1.0418,4,0.9194,,,,,,,,0,85,85,35,1,stimuli/objects/stroller.jpg,right,new,179,,,,,,,,
,,,,,,,,39,2022-01-13_09h31.01.256,premceCat2_ses-02_part-02_label-phase2,2020.2.10,MacIntel,60,,,,,right,0.8749,4,0.4158,,,,,,,,0,86,86,120,1,stimuli/objects/tent.jpg,right,new,264,,,,,,,,
,,,,,,,,39,2022-01-13_09h31.01.256,premceCat2_ses-02_part-02_label-phase2,2020.2.10,MacIntel,60,,,,,left,2.2452,3,1.0407,left,0.3276,0,0,0,0,1,,,,,,,,,,,,,,,,,
,,,,,,,,39,2022-01-13_09h31.01.256,premceCat2_ses-02_part-02_label-phase2,2020.2.10,MacIntel,60,,,,,,,,,,,,,,,,0,87,87,42,1,stimuli/objects/tennisracket.jpg,right,new,186,,,,,,,,
,,,,,,,,39,2022-01-13_09h31.01.256,premceCat2_ses-02_part-02_label-phase2,2020.2.10,MacIntel,60,,,,,right,1.0384,4,0.7264,,,,,,,,0,88,88,83,1,stimuli/objects/icecubetray01a.jpg,right,new,227,,,,,,,,
,,,,,,,,39,2022-01-13_09h31.01.256,premceCat2_ses-02_part-02_label-phase2,2020.2.10,MacIntel,60,,,,,left,1.68,2,1.0818,right,0.2966,0,0,0,0,1,,,,,,,,,,,,,,,,,
,,,,,,,,39,2022-01-13_09h31.01.256,premceCat2_ses-02_part-02_label-phase2,2020.2.10,MacIntel,60,,,,,,,,,,,,,,,,0,89,89,142,1,stimuli/objects/needlenosepliers01.jpg,right,new,286,,,,,,,,
,,,,,,,,39,2022-01-13_09h31.01.256,premceCat2_ses-02_part-02_label-phase2,2020.2.10,MacIntel,60,,,,,left,2.2528,3,1.261,left,0.4343,0,0,0,0,1,,,,,,,,,,,,,,,,,
,,,,,,,,39,2022-01-13_09h31.01.256,premceCat2_ses-02_part-02_label-phase2,2020.2.10,MacIntel,60,,,,,,,,,,,,,,,,0,90,90,122,1,stimuli/objects/hockeystick.jpg,right,new,266,,,,,,,,
,,,,,,,,39,2022-01-13_09h31.01.256,premceCat2_ses-02_part-02_label-phase2,2020.2.10,MacIntel,60,,,,,left,1.1205,4,0.7531,left,0.4946,0,0,0,0,1,,,,,,,,,,,,,,,,,
,,,,,,,,39,2022-01-13_09h31.01.256,premceCat2_ses-02_part-02_label-phase2,2020.2.10,MacIntel,60,,,,,,,,,,,,,,,,0,91,91,110,1,stimuli/objects/fishingrod.jpg,left,old,254,,,,,,,,
,,,,,,,,39,2022-01-13_09h31.01.256,premceCat2_ses-02_part-02_label-phase2,2020.2.10,MacIntel,60,,,,,left,2.1487,3,1.6018,right,1.2501,0,0,0,0,1,,,,,,,,,,,,,,,,,
,,,,,,,,39,2022-01-13_09h31.01.256,premceCat2_ses-02_part-02_label-phase2,2020.2.10,MacIntel,60,,,,,,,,,,,,,,,,0,92,92,70,1,stimuli/objects/shovel01.jpg,right,new,214,,,,,,,,
,,,,,,,,39,2022-01-13_09h31.01.256,premceCat2_ses-02_part-02_label-phase2,2020.2.10,MacIntel,60,,,,,right,2.3169,1,0.8054,,,,,,,,0,93,93,68,1,stimuli/objects/ladle02a.jpg,right,new,212,,,,,,,,
,,,,,,,,39,2022-01-13_09h31.01.256,premceCat2_ses-02_part-02_label-phase2,2020.2.10,MacIntel,60,,,,,right,1.3636,4,0.4869,,,,,,,,0,94,94,41,1,stimuli/objects/flask.jpg,right,new,185,,,,,,,,
,,,,,,,,39,2022-01-13_09h31.01.256,premceCat2_ses-02_part-02_label-phase2,2020.2.10,MacIntel,60,,,,,right,2.0976,1,0.9269,,,,,,,,0,95,95,65,1,stimuli/objects/gastank.jpg,left,old,209,,,,,,,,
,,,,,,,,39,2022-01-13_09h31.01.256,premceCat2_ses-02_part-02_label-phase2,2020.2.10,MacIntel,60,,,,,left,2.0822,2,0.6856,right,1.0987,0,0,0,0,1,,,,,,,,,,,,,,,,,
,,,,,,,,39,2022-01-13_09h31.01.256,premceCat2_ses-02_part-02_label-phase2,2020.2.10,MacIntel,60,,,,,,,,,,,,,,,,0,96,96,96,1,stimuli/objects/boltcutter.jpg,left,old,240,,,,,,,,
,,,,,,,,39,2022-01-13_09h31.01.256,premceCat2_ses-02_part-02_label-phase2,2020.2.10,MacIntel,60,,,,,right,2.2768,4,1.6446,,,,,,,,0,97,97,87,1,stimuli/objects/wiicontroller.jpg,right,new,231,,,,,,,,
,,,,,,,,39,2022-01-13_09h31.01.256,premceCat2_ses-02_part-02_label-phase2,2020.2.10,MacIntel,60,,,,,left,1.4824,4,0.9121,right,0.852,0,0,0,0,1,,,,,,,,,,,,,,,,,
,,,,,,,,39,2022-01-13_09h31.01.256,premceCat2_ses-02_part-02_label-phase2,2020.2.10,MacIntel,60,,,,,,,,,,,,,,,,0,98,98,93,1,stimuli/objects/lawnmower.jpg,left,old,237,,,,,,,,
,,,,,,,,39,2022-01-13_09h31.01.256,premceCat2_ses-02_part-02_label-phase2,2020.2.10,MacIntel,60,,,,,left,1.3634,4,0.9626,left,0.4308,0,0,0,0,1,,,,,,,,,,,,,,,,,
,,,,,,,,39,2022-01-13_09h31.01.256,premceCat2_ses-02_part-02_label-phase2,2020.2.10,MacIntel,60,,,,,,,,,,,,,,,,0,99,99,84,1,stimuli/objects/hockeygoalieglove.jpg,left,old,228,,,,,,,,
,,,,,,,,39,2022-01-13_09h31.01.256,premceCat2_ses-02_part-02_label-phase2,2020.2.10,MacIntel,60,,,,,left,2.2669,2,0.3837,right,1.3068,0,0,0,0,1,,,,,,,,,,,,,,,,,
,,,,,,,,39,2022-01-13_09h31.01.256,premceCat2_ses-02_part-02_label-phase2,2020.2.10,MacIntel,60,,,,,,,,,,,,,,,,0,100,100,116,1,stimuli/objects/lockingplier.jpg,right,new,260,,,,,,,,
,,,,,,,,39,2022-01-13_09h31.01.256,premceCat2_ses-02_part-02_label-phase2,2020.2.10,MacIntel,60,,,,,right,1.3168,3,1.2462,,,,,,,,0,101,101,131,1,stimuli/objects/handblender.jpg,right,new,275,,,,,,,,
,,,,,,,,39,2022-01-13_09h31.01.256,premceCat2_ses-02_part-02_label-phase2,2020.2.10,MacIntel,60,,,,,left,1.0151,4,1.0627,left,1.0094,0,0,0,0,1,,,,,,,,,,,,,,,,,
,,,,,,,,39,2022-01-13_09h31.01.256,premceCat2_ses-02_part-02_label-phase2,2020.2.10,MacIntel,60,,,,,,,,,,,,,,,,0,102,102,7,1,stimuli/objects/bottlecap.jpg,left,old,151,,,,,,,,
,,,,,,,,39,2022-01-13_09h31.01.256,premceCat2_ses-02_part-02_label-phase2,2020.2.10,MacIntel,60,,,,,right,1.4568,2,0.3171,,,,,,,,0,103,103,98,1,stimuli/objects/cameracase01a.jpg,right,new,242,,,,,,,,
,,,,,,,,39,2022-01-13_09h31.01.256,premceCat2_ses-02_part-02_label-phase2,2020.2.10,MacIntel,60,,,,,left,1.2294,4,0.5805,left,0.8919,0,0,0,0,1,,,,,,,,,,,,,,,,,
,,,,,,,,39,2022-01-13_09h31.01.256,premceCat2_ses-02_part-02_label-phase2,2020.2.10,MacIntel,60,,,,,,,,,,,,,,,,0,104,104,126,1,stimuli/objects/bikewheel.jpg,left,old,270,,,,,,,,
,,,,,,,,39,2022-01-13_09h31.01.256,premceCat2_ses-02_part-02_label-phase2,2020.2.10,MacIntel,60,,,,,left,1.993,4,0.8301,left,0.4536,0,0,0,0,1,,,,,,,,,,,,,,,,,
,,,,,,,,39,2022-01-13_09h31.01.256,premceCat2_ses-02_part-02_label-phase2,2020.2.10,MacIntel,60,,,,,,,,,,,,,,,,0,105,105,124,1,stimuli/objects/basketball01.jpg,right,new,268,,,,,,,,
,,,,,,,,39,2022-01-13_09h31.01.256,premceCat2_ses-02_part-02_label-phase2,2020.2.10,MacIntel,60,,,,,right,1.2499,3,1.6739,,,,,,,,0,106,106,51,1,stimuli/objects/cheeseknife01.jpg,right,new,195,,,,,,,,
,,,,,,,,39,2022-01-13_09h31.01.256,premceCat2_ses-02_part-02_label-phase2,2020.2.10,MacIntel,60,,,,,left,3.083,1,0.7223,right,0.3605,0,0,0,0,1,,,,,,,,,,,,,,,,,
,,,,,,,,39,2022-01-13_09h31.01.256,premceCat2_ses-02_part-02_label-phase2,2020.2.10,MacIntel,60,,,,,,,,,,,,,,,,0,107,107,6,1,stimuli/objects/solderingwire.jpg,right,new,150,,,,,,,,
,,,,,,,,39,2022-01-13_09h31.01.256,premceCat2_ses-02_part-02_label-phase2,2020.2.10,MacIntel,60,,,,,right,1.11,2,1.2659,,,,,,,,0,108,108,138,1,stimuli/objects/beermug01a.jpg,right,new,282,,,,,,,,
,,,,,,,,39,2022-01-13_09h31.01.256,premceCat2_ses-02_part-02_label-phase2,2020.2.10,MacIntel,60,,,,,left,1.412,4,0.3792,left,0.9101,0,0,0,0,1,,,,,,,,,,,,,,,,,
,,,,,,,,39,2022-01-13_09h31.01.256,premceCat2_ses-02_part-02_label-phase2,2020.2.10,MacIntel,60,,,,,,,,,,,,,,,,0,109,109,88,1,stimuli/objects/iceskate.jpg,left,old,232,,,,,,,,
,,,,,,,,39,2022-01-13_09h31.01.256,premceCat2_ses-02_part-02_label-phase2,2020.2.10,MacIntel,60,,,,,left,1.2454,3,0.9401,right,0.3615,0,0,0,0,1,,,,,,,,,,,,,,,,,
,,,,,,,,39,2022-01-13_09h31.01.256,premceCat2_ses-02_part-02_label-phase2,2020.2.10,MacIntel,60,,,,,,,,,,,,,,,,0,110,110,109,1,stimuli/objects/saladspinner.jpg,left,old,253,,,,,,,,
,,,,,,,,39,2022-01-13_09h31.01.256,premceCat2_ses-02_part-02_label-phase2,2020.2.10,MacIntel,60,,,,,left,1.1996,2,0.8556,right,0.4691,0,0,0,0,1,,,,,,,,,,,,,,,,,
,,,,,,,,39,2022-01-13_09h31.01.256,premceCat2_ses-02_part-02_label-phase2,2020.2.10,MacIntel,60,,,,,,,,,,,,,,,,0,111,111,26,1,stimuli/objects/flashlight02b.jpg,right,new,170,,,,,,,,
,,,,,,,,39,2022-01-13_09h31.01.256,premceCat2_ses-02_part-02_label-phase2,2020.2.10,MacIntel,60,,,,,right,1.9458,3,1.5592,,,,,,,,0,112,112,78,1,stimuli/objects/lightswitch01.jpg,right,new,222,,,,,,,,
,,,,,,,,39,2022-01-13_09h31.01.256,premceCat2_ses-02_part-02_label-phase2,2020.2.10,MacIntel,60,,,,,left,1.027,4,0.7499,right,1.4278,0,0,0,0,1,,,,,,,,,,,,,,,,,
,,,,,,,,39,2022-01-13_09h31.01.256,premceCat2_ses-02_part-02_label-phase2,2020.2.10,MacIntel,60,,,,,,,,,,,,,,,,0,113,113,104,1,stimuli/objects/securitycamera.jpg,left,old,248,,,,,,,,
,,,,,,,,39,2022-01-13_09h31.01.256,premceCat2_ses-02_part-02_label-phase2,2020.2.10,MacIntel,60,,,,,right,2.2063,2,2.0604,,,,,,,,0,114,114,25,1,stimuli/objects/cowbell.jpg,left,old,169,,,,,,,,
,,,,,,,,39,2022-01-13_09h31.01.256,premceCat2_ses-02_part-02_label-phase2,2020.2.10,MacIntel,60,,,,,right,2.5459,3,1.2221,,,,,,,,0,115,115,57,1,stimuli/objects/kiddiepool.jpg,left,old,201,,,,,,,,
,,,,,,,,39,2022-01-13_09h31.01.256,premceCat2_ses-02_part-02_label-phase2,2020.2.10,MacIntel,60,,,,,left,1.3134,3,1.1617,right,0.6197,0,0,0,0,1,,,,,,,,,,,,,,,,,
,,,,,,,,39,2022-01-13_09h31.01.256,premceCat2_ses-02_part-02_label-phase2,2020.2.10,MacIntel,60,,,,,,,,,,,,,,,,0,116,116,43,1,stimuli/objects/bowrake.jpg,right,new,187,,,,,,,,
,,,,,,,,39,2022-01-13_09h31.01.256,premceCat2_ses-02_part-02_label-phase2,2020.2.10,MacIntel,60,,,,,right,4.3997,3,0.9239,,,,,,,,0,117,117,82,1,stimuli/objects/shopvac.jpg,right,new,226,,,,,,,,
,,,,,,,,39,2022-01-13_09h31.01.256,premceCat2_ses-02_part-02_label-phase2,2020.2.10,MacIntel,60,,,,,left,1.0982,4,0.9175,right,0.3164,0,0,0,0,1,,,,,,,,,,,,,,,,,
,,,,,,,,39,2022-01-13_09h31.01.256,premceCat2_ses-02_part-02_label-phase2,2020.2.10,MacIntel,60,,,,,,,,,,,,,,,,0,118,118,113,1,stimuli/objects/sewingmachine01a.jpg,left,old,257,,,,,,,,
,,,,,,,,39,2022-01-13_09h31.01.256,premceCat2_ses-02_part-02_label-phase2,2020.2.10,MacIntel,60,,,,,left,1.2237,4,0.8814,left,0.3016,0,0,0,0,1,,,,,,,,,,,,,,,,,
,,,,,,,,39,2022-01-13_09h31.01.256,premceCat2_ses-02_part-02_label-phase2,2020.2.10,MacIntel,60,,,,,,,,,,,,,,,,0,119,119,141,1,stimuli/objects/waterbottle03.jpg,left,old,285,,,,,,,,
,,,,,,,,39,2022-01-13_09h31.01.256,premceCat2_ses-02_part-02_label-phase2,2020.2.10,MacIntel,60,,,,,right,1.2718,2,0.4287,,,,,,,,0,120,120,2,1,stimuli/objects/wetfloorsign.jpg,right,new,146,,,,,,,,
,,,,,,,,39,2022-01-13_09h31.01.256,premceCat2_ses-02_part-02_label-phase2,2020.2.10,MacIntel,60,,,,,right,1.3877,1,0.5057,,,,,,,,0,121,121,44,1,stimuli/objects/toaster01.jpg,right,new,188,,,,,,,,
,,,,,,,,39,2022-01-13_09h31.01.256,premceCat2_ses-02_part-02_label-phase2,2020.2.10,MacIntel,60,,,,,left,1.1521,4,0.5616,right,0.4872,0,0,0,0,1,,,,,,,,,,,,,,,,,
,,,,,,,,39,2022-01-13_09h31.01.256,premceCat2_ses-02_part-02_label-phase2,2020.2.10,MacIntel,60,,,,,,,,,,,,,,,,0,122,122,75,1,stimuli/objects/painttray.jpg,left,old,219,,,,,,,,
,,,,,,,,39,2022-01-13_09h31.01.256,premceCat2_ses-02_part-02_label-phase2,2020.2.10,MacIntel,60,,,,,left,1.2091,3,0.8976,left,0.2431,0,0,0,0,1,,,,,,,,,,,,,,,,,
,,,,,,,,39,2022-01-13_09h31.01.256,premceCat2_ses-02_part-02_label-phase2,2020.2.10,MacIntel,60,,,,,,,,,,,,,,,,0,123,123,3,1,stimuli/objects/boxingglove01.jpg,right,new,147,,,,,,,,
,,,,,,,,39,2022-01-13_09h31.01.256,premceCat2_ses-02_part-02_label-phase2,2020.2.10,MacIntel,60,,,,,right,1.6604,3,0.8604,,,,,,,,0,124,124,101,1,stimuli/objects/lifejacket.jpg,right,new,245,,,,,,,,
,,,,,,,,39,2022-01-13_09h31.01.256,premceCat2_ses-02_part-02_label-phase2,2020.2.10,MacIntel,60,,,,,right,1.1633,2,1.5744,,,,,,,,0,125,125,103,1,stimuli/objects/swissarmyknife01a.jpg,right,new,247,,,,,,,,
,,,,,,,,39,2022-01-13_09h31.01.256,premceCat2_ses-02_part-02_label-phase2,2020.2.10,MacIntel,60,,,,,left,2.6089,2,0.6964,right,1.4022,0,0,0,0,1,,,,,,,,,,,,,,,,,
,,,,,,,,39,2022-01-13_09h31.01.256,premceCat2_ses-02_part-02_label-phase2,2020.2.10,MacIntel,60,,,,,,,,,,,,,,,,0,126,126,80,1,stimuli/objects/barbecue03.jpg,right,new,224,,,,,,,,
,,,,,,,,39,2022-01-13_09h31.01.256,premceCat2_ses-02_part-02_label-phase2,2020.2.10,MacIntel,60,,,,,right,0.9645,3,0.9613,,,,,,,,0,127,127,111,1,stimuli/objects/diaperbag.jpg,right,new,255,,,,,,,,
,,,,,,,,39,2022-01-13_09h31.01.256,premceCat2_ses-02_part-02_label-phase2,2020.2.10,MacIntel,60,,,,,right,1.337,4,0.8817,,,,,,,,0,128,128,24,1,stimuli/objects/monitor.jpg,right,new,168,,,,,,,,
,,,,,,,,39,2022-01-13_09h31.01.256,premceCat2_ses-02_part-02_label-phase2,2020.2.10,MacIntel,60,,,,,right,0.9744,2,0.5281,,,,,,,,0,129,129,15,1,stimuli/objects/computermouse06.jpg,right,new,159,,,,,,,,
,,,,,,,,39,2022-01-13_09h31.01.256,premceCat2_ses-02_part-02_label-phase2,2020.2.10,MacIntel,60,,,,,right,3.1174,4,0.9575,,,,,,,,0,130,130,50,1,stimuli/objects/boatmotor.jpg,left,old,194,,,,,,,,
,,,,,,,,39,2022-01-13_09h31.01.256,premceCat2_ses-02_part-02_label-phase2,2020.2.10,MacIntel,60,,,,,right,1.9802,1,0.5409,,,,,,,,0,131,131,95,1,stimuli/objects/tennisball01b.jpg,right,new,239,,,,,,,,
,,,,,,,,39,2022-01-13_09h31.01.256,premceCat2_ses-02_part-02_label-phase2,2020.2.10,MacIntel,60,,,,,right,1.4804,1,0.7105,,,,,,,,0,132,132,66,1,stimuli/objects/heatpump.jpg,right,new,210,,,,,,,,
,,,,,,,,39,2022-01-13_09h31.01.256,premceCat2_ses-02_part-02_label-phase2,2020.2.10,MacIntel,60,,,,,left,1.5277,4,0.3254,left,1.1901,0,0,0,0,1,,,,,,,,,,,,,,,,,
,,,,,,,,39,2022-01-13_09h31.01.256,premceCat2_ses-02_part-02_label-phase2,2020.2.10,MacIntel,60,,,,,,,,,,,,,,,,0,133,133,28,1,stimuli/objects/oven.jpg,left,old,172,,,,,,,,
,,,,,,,,39,2022-01-13_09h31.01.256,premceCat2_ses-02_part-02_label-phase2,2020.2.10,MacIntel,60,,,,,left,1.1131,4,0.4908,left,0.1765,0,0,0,0,1,,,,,,,,,,,,,,,,,
,,,,,,,,39,2022-01-13_09h31.01.256,premceCat2_ses-02_part-02_label-phase2,2020.2.10,MacIntel,60,,,,,,,,,,,,,,,,0,134,134,17,1,stimuli/objects/baseball01a.jpg,left,old,161,,,,,,,,
,,,,,,,,39,2022-01-13_09h31.01.256,premceCat2_ses-02_part-02_label-phase2,2020.2.10,MacIntel,60,,,,,left,1.8338,3,1.1894,right,0.3332,0,0,0,0,1,,,,,,,,,,,,,,,,,
,,,,,,,,39,2022-01-13_09h31.01.256,premceCat2_ses-02_part-02_label-phase2,2020.2.10,MacIntel,60,,,,,,,,,,,,,,,,0,135,135,132,1,stimuli/objects/wirestripper.jpg,right,new,276,,,,,,,,
,,,,,,,,39,2022-01-13_09h31.01.256,premceCat2_ses-02_part-02_label-phase2,2020.2.10,MacIntel,60,,,,,right,1.6282,2,1.1591,,,,,,,,0,136,136,9,1,stimuli/objects/alarmsystem.jpg,right,new,153,,,,,,,,
,,,,,,,,39,2022-01-13_09h31.01.256,premceCat2_ses-02_part-02_label-phase2,2020.2.10,MacIntel,60,,,,,right,1.9212,4,0.9586,,,,,,,,0,137,137,97,1,stimuli/objects/peeler01.jpg,left,old,241,,,,,,,,
,,,,,,,,39,2022-01-13_09h31.01.256,premceCat2_ses-02_part-02_label-phase2,2020.2.10,MacIntel,60,,,,,right,1.4103,4,0.7206,,,,,,,,0,138,138,11,1,stimuli/objects/airconditioner.jpg,left,old,155,,,,,,,,
,,,,,,,,39,2022-01-13_09h31.01.256,premceCat2_ses-02_part-02_label-phase2,2020.2.10,MacIntel,60,,,,,left,1.6363,2,0.7193,right,0.8185,0,0,0,0,1,,,,,,,,,,,,,,,,,
,,,,,,,,39,2022-01-13_09h31.01.256,premceCat2_ses-02_part-02_label-phase2,2020.2.10,MacIntel,60,,,,,,,,,,,,,,,,0,139,139,30,1,stimuli/objects/halogenlightbulb.jpg,right,new,174,,,,,,,,
,,,,,,,,39,2022-01-13_09h31.01.256,premceCat2_ses-02_part-02_label-phase2,2020.2.10,MacIntel,60,,,,,left,1.0161,4,0.6803,left,0.7277,0,0,0,0,1,,,,,,,,,,,,,,,,,
,,,,,,,,39,2022-01-13_09h31.01.256,premceCat2_ses-02_part-02_label-phase2,2020.2.10,MacIntel,60,,,,,,,,,,,,,,,,0,140,140,128,1,stimuli/objects/hourglass.jpg,left,old,272,,,,,,,,
,,,,,,,,39,2022-01-13_09h31.01.256,premceCat2_ses-02_part-02_label-phase2,2020.2.10,MacIntel,60,,,,,left,1.6022,3,1.307,right,1.5199,0,0,0,0,1,,,,,,,,,,,,,,,,,
,,,,,,,,39,2022-01-13_09h31.01.256,premceCat2_ses-02_part-02_label-phase2,2020.2.10,MacIntel,60,,,,,,,,,,,,,,,,0,141,141,102,1,stimuli/objects/beachumbrella01.jpg,right,new,246,,,,,,,,
,,,,,,,,39,2022-01-13_09h31.01.256,premceCat2_ses-02_part-02_label-phase2,2020.2.10,MacIntel,60,,,,,left,1.1822,2,0.4906,right,0.5845,0,0,0,0,1,,,,,,,,,,,,,,,,,
,,,,,,,,39,2022-01-13_09h31.01.256,premceCat2_ses-02_part-02_label-phase2,2020.2.10,MacIntel,60,,,,,,,,,,,,,,,,0,142,142,53,1,stimuli/objects/staplegun.jpg,left,old,197,,,,,,,,
,,,,,,,,39,2022-01-13_09h31.01.256,premceCat2_ses-02_part-02_label-phase2,2020.2.10,MacIntel,60,,,,,,,,,,,,,,,,,,,,,,,,,space,19.8689,0,0,0,1,1,condition_files/ImagesforRecog4_2.csv
,,,,,,,,39,2022-01-13_09h31.01.256,premceCat2_ses-02_part-02_label-phase2,2020.2.10,MacIntel,60,,,,,right,3.103,1,1.3766,,,,,,,,0,0,0,65,1,stimuli/objects/squeegee01b.jpg,left,old,66,,,,,,,,
,,,,,,,,39,2022-01-13_09h31.01.256,premceCat2_ses-02_part-02_label-phase2,2020.2.10,MacIntel,60,,,,,right,1.4821,4,1.0467,,,,,,,,0,1,1,110,1,stimuli/objects/lock03a.jpg,right,new,111,,,,,,,,
,,,,,,,,39,2022-01-13_09h31.01.256,premceCat2_ses-02_part-02_label-phase2,2020.2.10,MacIntel,60,,,,,left,1.4343,2,0.5841,right,2.7947,0,0,0,0,1,,,,,,,,,,,,,,,,,
,,,,,,,,39,2022-01-13_09h31.01.256,premceCat2_ses-02_part-02_label-phase2,2020.2.10,MacIntel,60,,,,,,,,,,,,,,,,0,2,2,115,1,stimuli/objects/pipewrench.jpg,left,old,116,,,,,,,,
,,,,,,,,39,2022-01-13_09h31.01.256,premceCat2_ses-02_part-02_label-phase2,2020.2.10,MacIntel,60,,,,,left,1.0868,4,0.2818,left,0.3078,0,0,0,0,1,,,,,,,,,,,,,,,,,
,,,,,,,,39,2022-01-13_09h31.01.256,premceCat2_ses-02_part-02_label-phase2,2020.2.10,MacIntel,60,,,,,,,,,,,,,,,,0,3,3,78,1,stimuli/objects/tupperware03a.jpg,left,old,79,,,,,,,,
,,,,,,,,39,2022-01-13_09h31.01.256,premceCat2_ses-02_part-02_label-phase2,2020.2.10,MacIntel,60,,,,,left,1.1867,4,0.1561,left,1.5669,0,0,0,0,1,,,,,,,,,,,,,,,,,
,,,,,,,,39,2022-01-13_09h31.01.256,premceCat2_ses-02_part-02_label-phase2,2020.2.10,MacIntel,60,,,,,,,,,,,,,,,,0,4,4,97,1,stimuli/objects/coffeemachine.jpg,left,old,98,,,,,,,,
,,,,,,,,39,2022-01-13_09h31.01.256,premceCat2_ses-02_part-02_label-phase2,2020.2.10,MacIntel,60,,,,,left,2.1141,2,0.242,right,1.0753,0,0,0,0,1,,,,,,,,,,,,,,,,,
,,,,,,,,39,2022-01-13_09h31.01.256,premceCat2_ses-02_part-02_label-phase2,2020.2.10,MacIntel,60,,,,,,,,,,,,,,,,0,5,5,40,1,stimuli/objects/wateringcan.jpg,left,old,41,,,,,,,,
,,,,,,,,39,2022-01-13_09h31.01.256,premceCat2_ses-02_part-02_label-phase2,2020.2.10,MacIntel,60,,,,,right,1.2315,4,0.9068,,,,,,,,0,6,6,51,1,stimuli/objects/webcam.jpg,right,new,52,,,,,,,,
,,,,,,,,39,2022-01-13_09h31.01.256,premceCat2_ses-02_part-02_label-phase2,2020.2.10,MacIntel,60,,,,,right,1.3315,2,0.4166,,,,,,,,0,7,7,86,1,stimuli/objects/toasteroven.jpg,right,new,87,,,,,,,,
,,,,,,,,39,2022-01-13_09h31.01.256,premceCat2_ses-02_part-02_label-phase2,2020.2.10,MacIntel,60,,,,,right,2.3486,2,0.8898,,,,,,,,0,8,8,75,1,stimuli/objects/stepladder.jpg,right,new,76,,,,,,,,
,,,,,,,,39,2022-01-13_09h31.01.256,premceCat2_ses-02_part-02_label-phase2,2020.2.10,MacIntel,60,,,,,left,0.9659,1,0.9697,left,0.1999,0,0,0,0,1,,,,,,,,,,,,,,,,,
,,,,,,,,39,2022-01-13_09h31.01.256,premceCat2_ses-02_part-02_label-phase2,2020.2.10,MacIntel,60,,,,,,,,,,,,,,,,0,9,9,85,1,stimuli/objects/golfball.jpg,right,new,86,,,,,,,,
,,,,,,,,39,2022-01-13_09h31.01.256,premceCat2_ses-02_part-02_label-phase2,2020.2.10,MacIntel,60,,,,,right,1.2221,3,1.3191,,,,,,,,0,10,10,87,1,stimuli/objects/fluorescentlightbulb.jpg,left,old,88,,,,,,,,
,,,,,,,,39,2022-01-13_09h31.01.256,premceCat2_ses-02_part-02_label-phase2,2020.2.10,MacIntel,60,,,,,left,1.1965,3,1.5458,right,0.3952,0,0,0,0,1,,,,,,,,,,,,,,,,,
,,,,,,,,39,2022-01-13_09h31.01.256,premceCat2_ses-02_part-02_label-phase2,2020.2.10,MacIntel,60,,,,,,,,,,,,,,,,0,11,11,47,1,stimuli/objects/hoe.jpg,left,old,48,,,,,,,,
,,,,,,,,39,2022-01-13_09h31.01.256,premceCat2_ses-02_part-02_label-phase2,2020.2.10,MacIntel,60,,,,,left,1.4654,2,0.538,right,0.3305,0,0,0,0,1,,,,,,,,,,,,,,,,,
,,,,,,,,39,2022-01-13_09h31.01.256,premceCat2_ses-02_part-02_label-phase2,2020.2.10,MacIntel,60,,,,,,,,,,,,,,,,0,12,12,33,1,stimuli/objects/microwave.jpg,right,new,34,,,,,,,,
,,,,,,,,39,2022-01-13_09h31.01.256,premceCat2_ses-02_part-02_label-phase2,2020.2.10,MacIntel,60,,,,,left,1.0882,4,0.3449,right,0.6963,0,0,0,0,1,,,,,,,,,,,,,,,,,
,,,,,,,,39,2022-01-13_09h31.01.256,premceCat2_ses-02_part-02_label-phase2,2020.2.10,MacIntel,60,,,,,,,,,,,,,,,,0,13,13,129,1,stimuli/objects/cleaver01.jpg,left,old,130,,,,,,,,
,,,,,,,,39,2022-01-13_09h31.01.256,premceCat2_ses-02_part-02_label-phase2,2020.2.10,MacIntel,60,,,,,left,1.3904,4,1.3537,right,0.1783,0,0,0,0,1,,,,,,,,,,,,,,,,,
,,,,,,,,39,2022-01-13_09h31.01.256,premceCat2_ses-02_part-02_label-phase2,2020.2.10,MacIntel,60,,,,,,,,,,,,,,,,0,14,14,57,1,stimuli/objects/audiocablesplitter.jpg,right,new,58,,,,,,,,
,,,,,,,,39,2022-01-13_09h31.01.256,premceCat2_ses-02_part-02_label-phase2,2020.2.10,MacIntel,60,,,,,right,0.876,4,0.5043,,,,,,,,0,15,15,93,1,stimuli/objects/icepack.jpg,right,new,94,,,,,,,,
,,,,,,,,39,2022-01-13_09h31.01.256,premceCat2_ses-02_part-02_label-phase2,2020.2.10,MacIntel,60,,,,,left,2.0822,3,1.5437,left,0.5531,0,0,0,0,1,,,,,,,,,,,,,,,,,
,,,,,,,,39,2022-01-13_09h31.01.256,premceCat2_ses-02_part-02_label-phase2,2020.2.10,MacIntel,60,,,,,,,,,,,,,,,,0,16,16,106,1,stimuli/objects/minifridge.jpg,right,new,107,,,,,,,,
,,,,,,,,39,2022-01-13_09h31.01.256,premceCat2_ses-02_part-02_label-phase2,2020.2.10,MacIntel,60,,,,,left,1.1463,4,0.3912,right,0.1732,0,0,0,0,1,,,,,,,,,,,,,,,,,
,,,,,,,,39,2022-01-13_09h31.01.256,premceCat2_ses-02_part-02_label-phase2,2020.2.10,MacIntel,60,,,,,,,,,,,,,,,,0,17,17,89,1,stimuli/objects/ducttape.jpg,right,new,90,,,,,,,,
,,,,,,,,39,2022-01-13_09h31.01.256,premceCat2_ses-02_part-02_label-phase2,2020.2.10,MacIntel,60,,,,,left,1.4115,2,0.8383,left,0.357,0,0,0,0,1,,,,,,,,,,,,,,,,,
,,,,,,,,39,2022-01-13_09h31.01.256,premceCat2_ses-02_part-02_label-phase2,2020.2.10,MacIntel,60,,,,,,,,,,,,,,,,0,18,18,70,1,stimuli/objects/martiniglass01b.jpg,left,old,71,,,,,,,,
,,,,,,,,39,2022-01-13_09h31.01.256,premceCat2_ses-02_part-02_label-phase2,2020.2.10,MacIntel,60,,,,,left,1.3675,4,0.5827,left,0.3496,0,0,0,0,1,,,,,,,,,,,,,,,,,
,,,,,,,,39,2022-01-13_09h31.01.256,premceCat2_ses-02_part-02_label-phase2,2020.2.10,MacIntel,60,,,,,,,,,,,,,,,,0,19,19,62,1,stimuli/objects/potatomasher03b.jpg,left,old,63,,,,,,,,
,,,,,,,,39,2022-01-13_09h31.01.256,premceCat2_ses-02_part-02_label-phase2,2020.2.10,MacIntel,60,,,,,left,0.9411,3,1.6729,left,0.6948,0,0,0,0,1,,,,,,,,,,,,,,,,,
,,,,,,,,39,2022-01-13_09h31.01.256,premceCat2_ses-02_part-02_label-phase2,2020.2.10,MacIntel,60,,,,,,,,,,,,,,,,0,20,20,127,1,stimuli/objects/badmintonracket.jpg,left,old,128,,,,,,,,
,,,,,,,,39,2022-01-13_09h31.01.256,premceCat2_ses-02_part-02_label-phase2,2020.2.10,MacIntel,60,,,,,right,1.0489,1,1.2388,,,,,,,,0,21,21,130,1,stimuli/objects/soccerball.jpg,left,old,131,,,,,,,,
,,,,,,,,39,2022-01-13_09h31.01.256,premceCat2_ses-02_part-02_label-phase2,2020.2.10,MacIntel,60,,,,,right,1.9507,2,1.045,,,,,,,,0,22,22,102,1,stimuli/objects/propanetank01.jpg,left,old,103,,,,,,,,
,,,,,,,,39,2022-01-13_09h31.01.256,premceCat2_ses-02_part-02_label-phase2,2020.2.10,MacIntel,60,,,,,right,1.6203,3,0.6363,,,,,,,,0,23,23,35,1,stimuli/objects/crocodileclips.jpg,left,old,36,,,,,,,,
,,,,,,,,39,2022-01-13_09h31.01.256,premceCat2_ses-02_part-02_label-phase2,2020.2.10,MacIntel,60,,,,,left,1.539,1,0.6065,left,1.4759,0,0,0,0,1,,,,,,,,,,,,,,,,,
,,,,,,,,39,2022-01-13_09h31.01.256,premceCat2_ses-02_part-02_label-phase2,2020.2.10,MacIntel,60,,,,,,,,,,,,,,,,0,24,24,49,1,stimuli/objects/volleyball.jpg,left,old,50,,,,,,,,
,,,,,,,,39,2022-01-13_09h31.01.256,premceCat2_ses-02_part-02_label-phase2,2020.2.10,MacIntel,60,,,,,left,3.8886,1,0.297,left,0.3911,0,0,0,0,1,,,,,,,,,,,,,,,,,
,,,,,,,,39,2022-01-13_09h31.01.256,premceCat2_ses-02_part-02_label-phase2,2020.2.10,MacIntel,60,,,,,,,,,,,,,,,,0,25,25,67,1,stimuli/objects/bikelock.jpg,left,old,68,,,,,,,,
,,,,,,,,39,2022-01-13_09h31.01.256,premceCat2_ses-02_part-02_label-phase2,2020.2.10,MacIntel,60,,,,,left,1.6158,4,1.2206,left,0.3381,0,0,0,0,1,,,,,,,,,,,,,,,,,
,,,,,,,,39,2022-01-13_09h31.01.256,premceCat2_ses-02_part-02_label-phase2,2020.2.10,MacIntel,60,,,,,,,,,,,,,,,,0,26,26,137,1,stimuli/objects/exercisebike.jpg,left,old,138,,,,,,,,
,,,,,,,,39,2022-01-13_09h31.01.256,premceCat2_ses-02_part-02_label-phase2,2020.2.10,MacIntel,60,,,,,left,1.1842,2,0.3426,right,0.2559,0,0,0,0,1,,,,,,,,,,,,,,,,,
,,,,,,,,39,2022-01-13_09h31.01.256,premceCat2_ses-02_part-02_label-phase2,2020.2.10,MacIntel,60,,,,,,,,,,,,,,,,0,27,27,29,1,stimuli/objects/computerkeyboard02.jpg,left,old,30,,,,,,,,
,,,,,,,,39,2022-01-13_09h31.01.256,premceCat2_ses-02_part-02_label-phase2,2020.2.10,MacIntel,60,,,,,left,1.1914,4,0.5387,right,0.3523,0,0,0,0,1,,,,,,,,,,,,,,,,,
,,,,,,,,39,2022-01-13_09h31.01.256,premceCat2_ses-02_part-02_label-phase2,2020.2.10,MacIntel,60,,,,,,,,,,,,,,,,0,28,28,88,1,stimuli/objects/measuringcup01.jpg,left,old,89,,,,,,,,
,,,,,,,,39,2022-01-13_09h31.01.256,premceCat2_ses-02_part-02_label-phase2,2020.2.10,MacIntel,60,,,,,left,1.2727,2,0.2738,right,0.2965,0,0,0,0,1,,,,,,,,,,,,,,,,,
,,,,,,,,39,2022-01-13_09h31.01.256,premceCat2_ses-02_part-02_label-phase2,2020.2.10,MacIntel,60,,,,,,,,,,,,,,,,0,29,29,100,1,stimuli/objects/remotecontrol04.jpg,right,new,101,,,,,,,,
,,,,,,,,39,2022-01-13_09h31.01.256,premceCat2_ses-02_part-02_label-phase2,2020.2.10,MacIntel,60,,,,,right,1.077,4,0.6762,,,,,,,,0,30,30,42,1,stimuli/objects/snowshoe.jpg,right,new,43,,,,,,,,
,,,,,,,,39,2022-01-13_09h31.01.256,premceCat2_ses-02_part-02_label-phase2,2020.2.10,MacIntel,60,,,,,right,0.992,4,0.8006,,,,,,,,0,31,31,4,1,stimuli/objects/microphone01.jpg,right,new,5,,,,,,,,
,,,,,,,,39,2022-01-13_09h31.01.256,premceCat2_ses-02_part-02_label-phase2,2020.2.10,MacIntel,60,,,,,left,1.2982,2,0.7024,right,0.3596,0,0,0,0,1,,,,,,,,,,,,,,,,,
,,,,,,,,39,2022-01-13_09h31.01.256,premceCat2_ses-02_part-02_label-phase2,2020.2.10,MacIntel,60,,,,,,,,,,,,,,,,0,32,32,50,1,stimuli/objects/chisel02b.jpg,right,new,51,,,,,,,,
,,,,,,,,39,2022-01-13_09h31.01.256,premceCat2_ses-02_part-02_label-phase2,2020.2.10,MacIntel,60,,,,,right,0.9997,2,0.5179,,,,,,,,0,33,33,22,1,stimuli/objects/umbrella04.jpg,right,new,23,,,,,,,,
,,,,,,,,39,2022-01-13_09h31.01.256,premceCat2_ses-02_part-02_label-phase2,2020.2.10,MacIntel,60,,,,,right,1.8318,4,1.033,,,,,,,,0,34,34,53,1,stimuli/objects/binoculars01b.jpg,right,new,54,,,,,,,,
,,,,,,,,39,2022-01-13_09h31.01.256,premceCat2_ses-02_part-02_label-phase2,2020.2.10,MacIntel,60,,,,,left,1.2128,4,0.2231,left,0.142,0,0,0,0,1,,,,,,,,,,,,,,,,,
,,,,,,,,39,2022-01-13_09h31.01.256,premceCat2_ses-02_part-02_label-phase2,2020.2.10,MacIntel,60,,,,,,,,,,,,,,,,0,35,35,140,1,stimuli/objects/catchermask.jpg,left,old,141,,,,,,,,
,,,,,,,,39,2022-01-13_09h31.01.256,premceCat2_ses-02_part-02_label-phase2,2020.2.10,MacIntel,60,,,,,left,1.0152,4,0.6505,left,0.2244,0,0,0,0,1,,,,,,,,,,,,,,,,,
,,,,,,,,39,2022-01-13_09h31.01.256,premceCat2_ses-02_part-02_label-phase2,2020.2.10,MacIntel,60,,,,,,,,,,,,,,,,0,36,36,107,1,stimuli/objects/canister.jpg,left,old,108,,,,,,,,
,,,,,,,,39,2022-01-13_09h31.01.256,premceCat2_ses-02_part-02_label-phase2,2020.2.10,MacIntel,60,,,,,right,0.9972,2,0.4776,,,,,,,,0,37,37,108,1,stimuli/objects/metalscissors.jpg,right,new,109,,,,,,,,
,,,,,,,,39,2022-01-13_09h31.01.256,premceCat2_ses-02_part-02_label-phase2,2020.2.10,MacIntel,60,,,,,left,1.1144,4,0.3446,left,0.4588,0,0,0,0,1,,,,,,,,,,,,,,,,,
,,,,,,,,39,2022-01-13_09h31.01.256,premceCat2_ses-02_part-02_label-phase2,2020.2.10,MacIntel,60,,,,,,,,,,,,,,,,0,38,38,98,1,stimuli/objects/handgripper.jpg,left,old,99,,,,,,,,
,,,,,,,,39,2022-01-13_09h31.01.256,premceCat2_ses-02_part-02_label-phase2,2020.2.10,MacIntel,60,,,,,left,1.7915,1,0.2938,right,0.5281,0,0,0,0,1,,,,,,,,,,,,,,,,,
,,,,,,,,39,2022-01-13_09h31.01.256,premceCat2_ses-02_part-02_label-phase2,2020.2.10,MacIntel,60,,,,,,,,,,,,,,,,0,39,39,142,1,stimuli/objects/spoon01.jpg,left,old,143,,,,,,,,
,,,,,,,,39,2022-01-13_09h31.01.256,premceCat2_ses-02_part-02_label-phase2,2020.2.10,MacIntel,60,,,,,right,1.1637,1,0.9305,,,,,,,,0,40,40,39,1,stimuli/objects/sippycup.jpg,right,new,40,,,,,,,,
,,,,,,,,39,2022-01-13_09h31.01.256,premceCat2_ses-02_part-02_label-phase2,2020.2.10,MacIntel,60,,,,,right,0.9301,1,0.463,,,,,,,,0,41,41,119,1,stimuli/objects/tongs01b.jpg,right,new,120,,,,,,,,
,,,,,,,,39,2022-01-13_09h31.01.256,premceCat2_ses-02_part-02_label-phase2,2020.2.10,MacIntel,60,,,,,right,2.0091,4,1.2786,,,,,,,,0,42,42,109,1,stimuli/objects/winerack.jpg,right,new,110,,,,,,,,
,,,,,,,,39,2022-01-13_09h31.01.256,premceCat2_ses-02_part-02_label-phase2,2020.2.10,MacIntel,60,,,,,left,1.3517,4,0.8649,right,2.3119,0,0,0,0,1,,,,,,,,,,,,,,,,,
,,,,,,,,39,2022-01-13_09h31.01.256,premceCat2_ses-02_part-02_label-phase2,2020.2.10,MacIntel,60,,,,,,,,,,,,,,,,0,43,43,6,1,stimuli/objects/corkscrew03a.jpg,left,old,7,,,,,,,,
,,,,,,,,39,2022-01-13_09h31.01.256,premceCat2_ses-02_part-02_label-phase2,2020.2.10,MacIntel,60,,,,,left,1.2677,4,1.4143,left,0.5245,0,0,0,0,1,,,,,,,,,,,,,,,,,
,,,,,,,,39,2022-01-13_09h31.01.256,premceCat2_ses-02_part-02_label-phase2,2020.2.10,MacIntel,60,,,,,,,,,,,,,,,,0,44,44,103,1,stimuli/objects/towel01.jpg,left,old,104,,,,,,,,
,,,,,,,,39,2022-01-13_09h31.01.256,premceCat2_ses-02_part-02_label-phase2,2020.2.10,MacIntel,60,,,,,left,3.6755,2,1.0906,right,0.4265,0,0,0,0,1,,,,,,,,,,,,,,,,,
,,,,,,,,39,2022-01-13_09h31.01.256,premceCat2_ses-02_part-02_label-phase2,2020.2.10,MacIntel,60,,,,,,,,,,,,,,,,0,45,45,134,1,stimuli/objects/screwdriver04b.jpg,right,new,135,,,,,,,,
,,,,,,,,39,2022-01-13_09h31.01.256,premceCat2_ses-02_part-02_label-phase2,2020.2.10,MacIntel,60,,,,,left,1.375,4,0.1569,left,0.3449,0,0,0,0,1,,,,,,,,,,,,,,,,,
,,,,,,,,39,2022-01-13_09h31.01.256,premceCat2_ses-02_part-02_label-phase2,2020.2.10,MacIntel,60,,,,,,,,,,,,,,,,0,46,46,45,1,stimuli/objects/aluminiumfoil.jpg,left,old,46,,,,,,,,
,,,,,,,,39,2022-01-13_09h31.01.256,premceCat2_ses-02_part-02_label-phase2,2020.2.10,MacIntel,60,,,,,left,2.5321,4,1.1609,right,0.2156,0,0,0,0,1,,,,,,,,,,,,,,,,,
,,,,,,,,39,2022-01-13_09h31.01.256,premceCat2_ses-02_part-02_label-phase2,2020.2.10,MacIntel,60,,,,,,,,,,,,,,,,0,47,47,116,1,stimuli/objects/radio01.jpg,right,new,117,,,,,,,,
,,,,,,,,39,2022-01-13_09h31.01.256,premceCat2_ses-02_part-02_label-phase2,2020.2.10,MacIntel,60,,,,,left,1.4637,4,0.6501,right,0.325,0,0,0,0,1,,,,,,,,,,,,,,,,,
,,,,,,,,39,2022-01-13_09h31.01.256,premceCat2_ses-02_part-02_label-phase2,2020.2.10,MacIntel,60,,,,,,,,,,,,,,,,0,48,48,95,1,stimuli/objects/lectern01.jpg,left,old,96,,,,,,,,
,,,,,,,,39,2022-01-13_09h31.01.256,premceCat2_ses-02_part-02_label-phase2,2020.2.10,MacIntel,60,,,,,left,1.6445,2,0.2757,right,0.7037,0,0,0,0,1,,,,,,,,,,,,,,,,,
,,,,,,,,39,2022-01-13_09h31.01.256,premceCat2_ses-02_part-02_label-phase2,2020.2.10,MacIntel,60,,,,,,,,,,,,,,,,0,49,49,104,1,stimuli/objects/carantenna.jpg,left,old,105,,,,,,,,
,,,,,,,,39,2022-01-13_09h31.01.256,premceCat2_ses-02_part-02_label-phase2,2020.2.10,MacIntel,60,,,,,left,1.5171,4,1.564,left,0.8325,0,0,0,0,1,,,,,,,,,,,,,,,,,
,,,,,,,,39,2022-01-13_09h31.01.256,premceCat2_ses-02_part-02_label-phase2,2020.2.10,MacIntel,60,,,,,,,,,,,,,,,,0,50,50,48,1,stimuli/objects/breadknife.jpg,left,old,49,,,,,,,,
,,,,,,,,39,2022-01-13_09h31.01.256,premceCat2_ses-02_part-02_label-phase2,2020.2.10,MacIntel,60,,,,,left,1.0164,2,0.3949,right,0.3087,0,0,0,0,1,,,,,,,,,,,,,,,,,
,,,,,,,,39,2022-01-13_09h31.01.256,premceCat2_ses-02_part-02_label-phase2,2020.2.10,MacIntel,60,,,,,,,,,,,,,,,,0,51,51,44,1,stimuli/objects/pliers02b.jpg,left,old,45,,,,,,,,
,,,,,,,,39,2022-01-13_09h31.01.256,premceCat2_ses-02_part-02_label-phase2,2020.2.10,MacIntel,60,,,,,right,2.449,1,0.3264,,,,,,,,0,52,52,72,1,stimuli/objects/cclamp.jpg,right,new,73,,,,,,,,
,,,,,,,,39,2022-01-13_09h31.01.256,premceCat2_ses-02_part-02_label-phase2,2020.2.10,MacIntel,60,,,,,right,2.707,1,0.5315,,,,,,,,0,53,53,122,1,stimuli/objects/extensioncord.jpg,left,old,123,,,,,,,,
,,,,,,,,39,2022-01-13_09h31.01.256,premceCat2_ses-02_part-02_label-phase2,2020.2.10,MacIntel,60,,,,,right,4.7073,1,0.2882,,,,,,,,0,54,54,59,1,stimuli/objects/studiolight.jpg,right,new,60,,,,,,,,
,,,,,,,,39,2022-01-13_09h31.01.256,premceCat2_ses-02_part-02_label-phase2,2020.2.10,MacIntel,60,,,,,right,1.4859,2,0.4762,,,,,,,,0,55,55,13,1,stimuli/objects/bastingbrush.jpg,right,new,14,,,,,,,,
,,,,,,,,39,2022-01-13_09h31.01.256,premceCat2_ses-02_part-02_label-phase2,2020.2.10,MacIntel,60,,,,,right,2.0821,1,0.4145,,,,,,,,0,56,56,121,1,stimuli/objects/ceilingspeaker.jpg,right,new,122,,,,,,,,
,,,,,,,,39,2022-01-13_09h31.01.256,premceCat2_ses-02_part-02_label-phase2,2020.2.10,MacIntel,60,,,,,right,1.1814,2,0.3632,,,,,,,,0,57,57,81,1,stimuli/objects/avcable.jpg,right,new,82,,,,,,,,
,,,,,,,,39,2022-01-13_09h31.01.256,premceCat2_ses-02_part-02_label-phase2,2020.2.10,MacIntel,60,,,,,right,1.5093,2,0.4971,,,,,,,,0,58,58,114,1,stimuli/objects/butterknife.jpg,left,old,115,,,,,,,,
,,,,,,,,39,2022-01-13_09h31.01.256,premceCat2_ses-02_part-02_label-phase2,2020.2.10,MacIntel,60,,,,,left,0.9319,4,0.3453,left,0.6606,0,0,0,0,1,,,,,,,,,,,,,,,,,
,,,,,,,,39,2022-01-13_09h31.01.256,premceCat2_ses-02_part-02_label-phase2,2020.2.10,MacIntel,60,,,,,,,,,,,,,,,,0,59,59,27,1,stimuli/objects/baseballglove.jpg,left,old,28,,,,,,,,
,,,,,,,,39,2022-01-13_09h31.01.256,premceCat2_ses-02_part-02_label-phase2,2020.2.10,MacIntel,60,,,,,right,1.0146,3,1.451,,,,,,,,0,60,60,73,1,stimuli/objects/clock01a.jpg,right,new,74,,,,,,,,
,,,,,,,,39,2022-01-13_09h31.01.256,premceCat2_ses-02_part-02_label-phase2,2020.2.10,MacIntel,60,,,,,left,1.0429,4,1.1097,right,0.5649,0,0,0,0,1,,,,,,,,,,,,,,,,,
,,,,,,,,39,2022-01-13_09h31.01.256,premceCat2_ses-02_part-02_label-phase2,2020.2.10,MacIntel,60,,,,,,,,,,,,,,,,0,61,61,14,1,stimuli/objects/wheelbarrow01.jpg,left,old,15,,,,,,,,
,,,,,,,,39,2022-01-13_09h31.01.256,premceCat2_ses-02_part-02_label-phase2,2020.2.10,MacIntel,60,,,,,left,1.6876,4,0.7951,right,0.3402,0,0,0,0,1,,,,,,,,,,,,,,,,,
,,,,,,,,39,2022-01-13_09h31.01.256,premceCat2_ses-02_part-02_label-phase2,2020.2.10,MacIntel,60,,,,,,,,,,,,,,,,0,62,62,36,1,stimuli/objects/gps.jpg,left,old,37,,,,,,,,
,,,,,,,,39,2022-01-13_09h31.01.256,premceCat2_ses-02_part-02_label-phase2,2020.2.10,MacIntel,60,,,,,left,0.986,3,0.6297,right,0.4589,0,0,0,0,1,,,,,,,,,,,,,,,,,
,,,,,,,,39,2022-01-13_09h31.01.256,premceCat2_ses-02_part-02_label-phase2,2020.2.10,MacIntel,60,,,,,,,,,,,,,,,,0,63,63,30,1,stimuli/objects/printer02.jpg,right,new,31,,,,,,,,
,,,,,,,,39,2022-01-13_09h31.01.256,premceCat2_ses-02_part-02_label-phase2,2020.2.10,MacIntel,60,,,,,left,2.1531,2,0.5569,right,0.1743,0,0,0,0,1,,,,,,,,,,,,,,,,,
,,,,,,,,39,2022-01-13_09h31.01.256,premceCat2_ses-02_part-02_label-phase2,2020.2.10,MacIntel,60,,,,,,,,,,,,,,,,0,64,64,99,1,stimuli/objects/snowblower.jpg,left,old,100,,,,,,,,
,,,,,,,,39,2022-01-13_09h31.01.256,premceCat2_ses-02_part-02_label-phase2,2020.2.10,MacIntel,60,,,,,right,0.9537,4,1.0018,,,,,,,,0,65,65,112,1,stimuli/objects/gymnasticring.jpg,right,new,113,,,,,,,,
,,,,,,,,39,2022-01-13_09h31.01.256,premceCat2_ses-02_part-02_label-phase2,2020.2.10,MacIntel,60,,,,,right,2.1489,1,0.51,,,,,,,,0,66,66,118,1,stimuli/objects/sledgehammer.jpg,left,old,119,,,,,,,,
,,,,,,,,39,2022-01-13_09h31.01.256,premceCat2_ses-02_part-02_label-phase2,2020.2.10,MacIntel,60,,,,,right,1.9034,1,0.581,,,,,,,,0,67,67,25,1,stimuli/objects/bowlingball.jpg,right,new,26,,,,,,,,
,,,,,,,,39,2022-01-13_09h31.01.256,premceCat2_ses-02_part-02_label-phase2,2020.2.10,MacIntel,60,,,,,left,1.4381,2,0.9949,right,2.0892,0,0,0,0,1,,,,,,,,,,,,,,,,,
,,,,,,,,39,2022-01-13_09h31.01.256,premceCat2_ses-02_part-02_label-phase2,2020.2.10,MacIntel,60,,,,,,,,,,,,,,,,0,68,68,83,1,stimuli/objects/kitchenscale01a.jpg,right,new,84,,,,,,,,
,,,,,,,,39,2022-01-13_09h31.01.256,premceCat2_ses-02_part-02_label-phase2,2020.2.10,MacIntel,60,,,,,left,1.644,2,0.2763,right,0.2537,0,0,0,0,1,,,,,,,,,,,,,,,,,
,,,,,,,,39,2022-01-13_09h31.01.256,premceCat2_ses-02_part-02_label-phase2,2020.2.10,MacIntel,60,,,,,,,,,,,,,,,,0,69,69,101,1,stimuli/objects/chandelier.jpg,left,old,102,,,,,,,,
,,,,,,,,39,2022-01-13_09h31.01.256,premceCat2_ses-02_part-02_label-phase2,2020.2.10,MacIntel,60,,,,,right,0.8519,3,1.1881,,,,,,,,0,70,70,41,1,stimuli/objects/pylon01.jpg,right,new,42,,,,,,,,
,,,,,,,,39,2022-01-13_09h31.01.256,premceCat2_ses-02_part-02_label-phase2,2020.2.10,MacIntel,60,,,,,left,1.237,4,0.5742,left,0.3531,0,0,0,0,1,,,,,,,,,,,,,,,,,
,,,,,,,,39,2022-01-13_09h31.01.256,premceCat2_ses-02_part-02_label-phase2,2020.2.10,MacIntel,60,,,,,,,,,,,,,,,,0,71,71,123,1,stimuli/objects/gasburner.jpg,left,old,124,,,,,,,,
,,,,,,,,39,2022-01-13_09h31.01.256,premceCat2_ses-02_part-02_label-phase2,2020.2.10,MacIntel,60,,,,,right,1.1458,2,0.2103,,,,,,,,0,72,72,9,1,stimuli/objects/measuringtape01.jpg,right,new,10,,,,,,,,
,,,,,,,,39,2022-01-13_09h31.01.256,premceCat2_ses-02_part-02_label-phase2,2020.2.10,MacIntel,60,,,,,right,1.1924,4,1.6822,,,,,,,,0,73,73,80,1,stimuli/objects/snowman.jpg,right,new,81,,,,,,,,
,,,,,,,,39,2022-01-13_09h31.01.256,premceCat2_ses-02_part-02_label-phase2,2020.2.10,MacIntel,60,,,,,left,1.697,2,0.5148,right,0.7086,0,0,0,0,1,,,,,,,,,,,,,,,,,
,,,,,,,,39,2022-01-13_09h31.01.256,premceCat2_ses-02_part-02_label-phase2,2020.2.10,MacIntel,60,,,,,,,,,,,,,,,,0,74,74,113,1,stimuli/objects/powercable.jpg,right,new,114,,,,,,,,
,,,,,,,,39,2022-01-13_09h31.01.256,premceCat2_ses-02_part-02_label-phase2,2020.2.10,MacIntel,60,,,,,right,0.9792,2,0.275,,,,,,,,0,75,75,76,1,stimuli/objects/megaphone.jpg,right,new,77,,,,,,,,
,,,,,,,,39,2022-01-13_09h31.01.256,premceCat2_ses-02_part-02_label-phase2,2020.2.10,MacIntel,60,,,,,right,1.583,2,0.7663,,,,,,,,0,76,76,0,1,stimuli/objects/ethernetcable02.jpg,left,old,1,,,,,,,,
,,,,,,,,39,2022-01-13_09h31.01.256,premceCat2_ses-02_part-02_label-phase2,2020.2.10,MacIntel,60,,,,,left,1.1492,4,0.1486,right,0.3382,0,0,0,0,1,,,,,,,,,,,,,,,,,
,,,,,,,,39,2022-01-13_09h31.01.256,premceCat2_ses-02_part-02_label-phase2,2020.2.10,MacIntel,60,,,,,,,,,,,,,,,,0,77,77,105,1,stimuli/objects/videocamera01a.jpg,left,old,106,,,,,,,,
,,,,,,,,39,2022-01-13_09h31.01.256,premceCat2_ses-02_part-02_label-phase2,2020.2.10,MacIntel,60,,,,,left,2.7693,2,0.355,left,0.2188,0,0,0,0,1,,,,,,,,,,,,,,,,,
,,,,,,,,39,2022-01-13_09h31.01.256,premceCat2_ses-02_part-02_label-phase2,2020.2.10,MacIntel,60,,,,,,,,,,,,,,,,0,78,78,77,1,stimuli/objects/headphones02b.jpg,left,old,78,,,,,,,,
,,,,,,,,39,2022-01-13_09h31.01.256,premceCat2_ses-02_part-02_label-phase2,2020.2.10,MacIntel,60,,,,,right,1.9494,2,0.6497,,,,,,,,0,79,79,141,1,stimuli/objects/generator.jpg,right,new,142,,,,,,,,
,,,,,,,,39,2022-01-13_09h31.01.256,premceCat2_ses-02_part-02_label-phase2,2020.2.10,MacIntel,60,,,,,left,1.454,4,0.5928,right,0.3434,0,0,0,0,1,,,,,,,,,,,,,,,,,
,,,,,,,,39,2022-01-13_09h31.01.256,premceCat2_ses-02_part-02_label-phase2,2020.2.10,MacIntel,60,,,,,,,,,,,,,,,,0,80,80,132,1,stimuli/objects/djmixer02.jpg,left,old,133,,,,,,,,
,,,,,,,,39,2022-01-13_09h31.01.256,premceCat2_ses-02_part-02_label-phase2,2020.2.10,MacIntel,60,,,,,right,1.8633,2,0.5686,,,,,,,,0,81,81,55,1,stimuli/objects/toolbox02.jpg,right,new,56,,,,,,,,
,,,,,,,,39,2022-01-13_09h31.01.256,premceCat2_ses-02_part-02_label-phase2,2020.2.10,MacIntel,60,,,,,left,1.1664,4,0.3444,left,0.4307,0,0,0,0,1,,,,,,,,,,,,,,,,,
,,,,,,,,39,2022-01-13_09h31.01.256,premceCat2_ses-02_part-02_label-phase2,2020.2.10,MacIntel,60,,,,,,,,,,,,,,,,0,82,82,3,1,stimuli/objects/dishrack.jpg,left,old,4,,,,,,,,
,,,,,,,,39,2022-01-13_09h31.01.256,premceCat2_ses-02_part-02_label-phase2,2020.2.10,MacIntel,60,,,,,right,1.1005,2,0.1442,,,,,,,,0,83,83,63,1,stimuli/objects/butterdish.jpg,right,new,64,,,,,,,,
,,,,,,,,39,2022-01-13_09h31.01.256,premceCat2_ses-02_part-02_label-phase2,2020.2.10,MacIntel,60,,,,,left,1.4344,4,0.8307,right,0.2387,0,0,0,0,1,,,,,,,,,,,,,,,,,
,,,,,,,,39,2022-01-13_09h31.01.256,premceCat2_ses-02_part-02_label-phase2,2020.2.10,MacIntel,60,,,,,,,,,,,,,,,,0,84,84,91,1,stimuli/objects/chainsaw.jpg,left,old,92,,,,,,,,
,,,,,,,,39,2022-01-13_09h31.01.256,premceCat2_ses-02_part-02_label-phase2,2020.2.10,MacIntel,60,,,,,right,1.4991,2,1.0969,,,,,,,,0,85,85,90,1,stimuli/objects/carlighter02.jpg,right,new,91,,,,,,,,
,,,,,,,,39,2022-01-13_09h31.01.256,premceCat2_ses-02_part-02_label-phase2,2020.2.10,MacIntel,60,,,,,left,1.2163,4,0.6893,right,0.4391,0,0,0,0,1,,,,,,,,,,,,,,,,,
,,,,,,,,39,2022-01-13_09h31.01.256,premceCat2_ses-02_part-02_label-phase2,2020.2.10,MacIntel,60,,,,,,,,,,,,,,,,0,86,86,52,1,stimuli/objects/spatula04.jpg,left,old,53,,,,,,,,
,,,,,,,,39,2022-01-13_09h31.01.256,premceCat2_ses-02_part-02_label-phase2,2020.2.10,MacIntel,60,,,,,left,1.1719,2,0.1285,left,0.0926,0,0,0,0,1,,,,,,,,,,,,,,,,,
,,,,,,,,39,2022-01-13_09h31.01.256,premceCat2_ses-02_part-02_label-phase2,2020.2.10,MacIntel,60,,,,,,,,,,,,,,,,0,87,87,43,1,stimuli/objects/punchingball.jpg,right,new,44,,,,,,,,
,,,,,,,,39,2022-01-13_09h31.01.256,premceCat2_ses-02_part-02_label-phase2,2020.2.10,MacIntel,60,,,,,right,0.9791,2,0.6582,,,,,,,,0,88,88,12,1,stimuli/objects/garlicpress02a.jpg,right,new,13,,,,,,,,
,,,,,,,,39,2022-01-13_09h31.01.256,premceCat2_ses-02_part-02_label-phase2,2020.2.10,MacIntel,60,,,,,right,1.2682,4,0.6454,,,,,,,,0,89,89,68,1,stimuli/objects/leafblower01.jpg,right,new,69,,,,,,,,
,,,,,,,,39,2022-01-13_09h31.01.256,premceCat2_ses-02_part-02_label-phase2,2020.2.10,MacIntel,60,,,,,left,0.9948,2,0.7128,right,0.2456,0,0,0,0,1,,,,,,,,,,,,,,,,,
,,,,,,,,39,2022-01-13_09h31.01.256,premceCat2_ses-02_part-02_label-phase2,2020.2.10,MacIntel,60,,,,,,,,,,,,,,,,0,90,90,58,1,stimuli/objects/toyhardhat.jpg,left,old,59,,,,,,,,
,,,,,,,,39,2022-01-13_09h31.01.256,premceCat2_ses-02_part-02_label-phase2,2020.2.10,MacIntel,60,,,,,left,1.0809,2,0.5942,right,0.4948,0,0,0,0,1,,,,,,,,,,,,,,,,,
,,,,,,,,39,2022-01-13_09h31.01.256,premceCat2_ses-02_part-02_label-phase2,2020.2.10,MacIntel,60,,,,,,,,,,,,,,,,0,91,91,7,1,stimuli/objects/puttyknife.jpg,left,old,8,,,,,,,,
,,,,,,,,39,2022-01-13_09h31.01.256,premceCat2_ses-02_part-02_label-phase2,2020.2.10,MacIntel,60,,,,,right,1.2162,3,0.9663,,,,,,,,0,92,92,139,1,stimuli/objects/frisbee.jpg,right,new,140,,,,,,,,
,,,,,,,,39,2022-01-13_09h31.01.256,premceCat2_ses-02_part-02_label-phase2,2020.2.10,MacIntel,60,,,,,right,2.4828,3,0.6918,,,,,,,,0,93,93,125,1,stimuli/objects/shoulderpad.jpg,right,new,126,,,,,,,,
,,,,,,,,39,2022-01-13_09h31.01.256,premceCat2_ses-02_part-02_label-phase2,2020.2.10,MacIntel,60,,,,,right,2.2116,2,0.6142,,,,,,,,0,94,94,64,1,stimuli/objects/knifesharpener.jpg,left,old,65,,,,,,,,
,,,,,,,,39,2022-01-13_09h31.01.256,premceCat2_ses-02_part-02_label-phase2,2020.2.10,MacIntel,60,,,,,left,1.6381,1,0.4997,left,0.4861,0,0,0,0,1,,,,,,,,,,,,,,,,,
,,,,,,,,39,2022-01-13_09h31.01.256,premceCat2_ses-02_part-02_label-phase2,2020.2.10,MacIntel,60,,,,,,,,,,,,,,,,0,95,95,126,1,stimuli/objects/tableknife02.jpg,right,new,127,,,,,,,,
,,,,,,,,39,2022-01-13_09h31.01.256,premceCat2_ses-02_part-02_label-phase2,2020.2.10,MacIntel,60,,,,,right,0.9207,2,0.9628,,,,,,,,0,96,96,60,1,stimuli/objects/glass02a.jpg,right,new,61,,,,,,,,
,,,,,,,,39,2022-01-13_09h31.01.256,premceCat2_ses-02_part-02_label-phase2,2020.2.10,MacIntel,60,,,,,left,1.2794,3,1.3542,left,0.2913,0,0,0,0,1,,,,,,,,,,,,,,,,,
,,,,,,,,39,2022-01-13_09h31.01.256,premceCat2_ses-02_part-02_label-phase2,2020.2.10,MacIntel,60,,,,,,,,,,,,,,,,0,97,97,24,1,stimuli/objects/skateboard.jpg,right,new,25,,,,,,,,
,,,,,,,,39,2022-01-13_09h31.01.256,premceCat2_ses-02_part-02_label-phase2,2020.2.10,MacIntel,60,,,,,right,1.0059,2,0.3757,,,,,,,,0,98,98,17,1,stimuli/objects/exercisebench.jpg,right,new,18,,,,,,,,
,,,,,,,,39,2022-01-13_09h31.01.256,premceCat2_ses-02_part-02_label-phase2,2020.2.10,MacIntel,60,,,,,left,0.8822,4,0.5871,left,0.5128,0,0,0,0,1,,,,,,,,,,,,,,,,,
,,,,,,,,39,2022-01-13_09h31.01.256,premceCat2_ses-02_part-02_label-phase2,2020.2.10,MacIntel,60,,,,,,,,,,,,,,,,0,99,99,74,1,stimuli/objects/toyhockeystick01.jpg,left,old,75,,,,,,,,
,,,,,,,,39,2022-01-13_09h31.01.256,premceCat2_ses-02_part-02_label-phase2,2020.2.10,MacIntel,60,,,,,left,1.1692,4,0.9153,right,0.2586,0,0,0,0,1,,,,,,,,,,,,,,,,,
,,,,,,,,39,2022-01-13_09h31.01.256,premceCat2_ses-02_part-02_label-phase2,2020.2.10,MacIntel,60,,,,,,,,,,,,,,,,0,100,100,10,1,stimuli/objects/dvdcase01.jpg,left,old,11,,,,,,,,
,,,,,,,,39,2022-01-13_09h31.01.256,premceCat2_ses-02_part-02_label-phase2,2020.2.10,MacIntel,60,,,,,left,1.082,4,0.6842,right,0.4469,0,0,0,0,1,,,,,,,,,,,,,,,,,
,,,,,,,,39,2022-01-13_09h31.01.256,premceCat2_ses-02_part-02_label-phase2,2020.2.10,MacIntel,60,,,,,,,,,,,,,,,,0,101,101,69,1,stimuli/objects/atm.jpg,left,old,70,,,,,,,,
,,,,,,,,39,2022-01-13_09h31.01.256,premceCat2_ses-02_part-02_label-phase2,2020.2.10,MacIntel,60,,,,,left,0.6864,4,0.7671,left,0.2829,0,0,0,0,1,,,,,,,,,,,,,,,,,
,,,,,,,,39,2022-01-13_09h31.01.256,premceCat2_ses-02_part-02_label-phase2,2020.2.10,MacIntel,60,,,,,,,,,,,,,,,,0,102,102,23,1,stimuli/objects/football.jpg,right,new,24,,,,,,,,
,,,,,,,,39,2022-01-13_09h31.01.256,premceCat2_ses-02_part-02_label-phase2,2020.2.10,MacIntel,60,,,,,left,1.9172,4,0.2898,left,0.2596,0,0,0,0,1,,,,,,,,,,,,,,,,,
,,,,,,,,39,2022-01-13_09h31.01.256,premceCat2_ses-02_part-02_label-phase2,2020.2.10,MacIntel,60,,,,,,,,,,,,,,,,0,103,103,15,1,stimuli/objects/watercooler.jpg,left,old,16,,,,,,,,
,,,,,,,,39,2022-01-13_09h31.01.256,premceCat2_ses-02_part-02_label-phase2,2020.2.10,MacIntel,60,,,,,right,1.3603,1,0.2628,,,,,,,,0,104,104,20,1,stimuli/objects/laptop01a.jpg,right,new,21,,,,,,,,
,,,,,,,,39,2022-01-13_09h31.01.256,premceCat2_ses-02_part-02_label-phase2,2020.2.10,MacIntel,60,,,,,left,1.2004,4,0.5836,right,0.2532,0,0,0,0,1,,,,,,,,,,,,,,,,,
,,,,,,,,39,2022-01-13_09h31.01.256,premceCat2_ses-02_part-02_label-phase2,2020.2.10,MacIntel,60,,,,,,,,,,,,,,,,0,105,105,31,1,stimuli/objects/mallet01b.jpg,left,old,32,,,,,,,,
,,,,,,,,39,2022-01-13_09h31.01.256,premceCat2_ses-02_part-02_label-phase2,2020.2.10,MacIntel,60,,,,,left,1.0652,4,0.2067,right,0.2843,0,0,0,0,1,,,,,,,,,,,,,,,,,
,,,,,,,,39,2022-01-13_09h31.01.256,premceCat2_ses-02_part-02_label-phase2,2020.2.10,MacIntel,60,,,,,,,,,,,,,,,,0,106,106,2,1,stimuli/objects/filmnegative.jpg,left,old,3,,,,,,,,
,,,,,,,,39,2022-01-13_09h31.01.256,premceCat2_ses-02_part-02_label-phase2,2020.2.10,MacIntel,60,,,,,right,1.4154,2,1.3302,,,,,,,,0,107,107,46,1,stimuli/objects/walkman.jpg,right,new,47,,,,,,,,
,,,,,,,,39,2022-01-13_09h31.01.256,premceCat2_ses-02_part-02_label-phase2,2020.2.10,MacIntel,60,,,,,right,1.0339,4,0.5288,,,,,,,,0,108,108,19,1,stimuli/objects/peppermill02b.jpg,right,new,20,,,,,,,,
,,,,,,,,39,2022-01-13_09h31.01.256,premceCat2_ses-02_part-02_label-phase2,2020.2.10,MacIntel,60,,,,,right,1.2495,2,0.2588,,,,,,,,0,109,109,111,1,stimuli/objects/speaker04.jpg,right,new,112,,,,,,,,
,,,,,,,,39,2022-01-13_09h31.01.256,premceCat2_ses-02_part-02_label-phase2,2020.2.10,MacIntel,60,,,,,right,1.4601,2,1.0577,,,,,,,,0,110,110,18,1,stimuli/objects/cashregister01.jpg,right,new,19,,,,,,,,
,,,,,,,,39,2022-01-13_09h31.01.256,premceCat2_ses-02_part-02_label-phase2,2020.2.10,MacIntel,60,,,,,right,1.0542,2,0.4388,,,,,,,,0,111,111,82,1,stimuli/objects/snowbrush.jpg,right,new,83,,,,,,,,
,,,,,,,,39,2022-01-13_09h31.01.256,premceCat2_ses-02_part-02_label-phase2,2020.2.10,MacIntel,60,,,,,left,1.513,2,0.1714,right,0.4903,0,0,0,0,1,,,,,,,,,,,,,,,,,
,,,,,,,,39,2022-01-13_09h31.01.256,premceCat2_ses-02_part-02_label-phase2,2020.2.10,MacIntel,60,,,,,,,,,,,,,,,,0,112,112,71,1,stimuli/objects/faxmachine.jpg,right,new,72,,,,,,,,
,,,,,,,,39,2022-01-13_09h31.01.256,premceCat2_ses-02_part-02_label-phase2,2020.2.10,MacIntel,60,,,,,right,1.2291,2,0.4554,,,,,,,,0,113,113,136,1,stimuli/objects/battery02b.jpg,right,new,137,,,,,,,,
,,,,,,,,39,2022-01-13_09h31.01.256,premceCat2_ses-02_part-02_label-phase2,2020.2.10,MacIntel,60,,,,,left,1.4176,2,0.882,right,0.2874,0,0,0,0,1,,,,,,,,,,,,,,,,,
,,,,,,,,39,2022-01-13_09h31.01.256,premceCat2_ses-02_part-02_label-phase2,2020.2.10,MacIntel,60,,,,,,,,,,,,,,,,0,114,114,32,1,stimuli/objects/mitresaw.jpg,right,new,33,,,,,,,,
,,,,,,,,39,2022-01-13_09h31.01.256,premceCat2_ses-02_part-02_label-phase2,2020.2.10,MacIntel,60,,,,,left,1.2655,1,0.5085,right,0.519,0,0,0,0,1,,,,,,,,,,,,,,,,,
,,,,,,,,39,2022-01-13_09h31.01.256,premceCat2_ses-02_part-02_label-phase2,2020.2.10,MacIntel,60,,,,,,,,,,,,,,,,0,115,115,21,1,stimuli/objects/paintbrush01.jpg,right,new,22,,,,,,,,
,,,,,,,,39,2022-01-13_09h31.01.256,premceCat2_ses-02_part-02_label-phase2,2020.2.10,MacIntel,60,,,,,left,0.7918,2,0.2122,left,0.2843,0,0,0,0,1,,,,,,,,,,,,,,,,,
,,,,,,,,39,2022-01-13_09h31.01.256,premceCat2_ses-02_part-02_label-phase2,2020.2.10,MacIntel,60,,,,,,,,,,,,,,,,0,116,116,34,1,stimuli/objects/hockeygoaliemask.jpg,left,old,35,,,,,,,,
,,,,,,,,39,2022-01-13_09h31.01.256,premceCat2_ses-02_part-02_label-phase2,2020.2.10,MacIntel,60,,,,,left,1.1294,2,1.9428,right,0.3572,0,0,0,0,1,,,,,,,,,,,,,,,,,
,,,,,,,,39,2022-01-13_09h31.01.256,premceCat2_ses-02_part-02_label-phase2,2020.2.10,MacIntel,60,,,,,,,,,,,,,,,,0,117,117,135,1,stimuli/objects/pressurewasher.jpg,left,old,136,,,,,,,,
,,,,,,,,39,2022-01-13_09h31.01.256,premceCat2_ses-02_part-02_label-phase2,2020.2.10,MacIntel,60,,,,,left,1.048,4,0.2087,left,0.427,0,0,0,0,1,,,,,,,,,,,,,,,,,
,,,,,,,,39,2022-01-13_09h31.01.256,premceCat2_ses-02_part-02_label-phase2,2020.2.10,MacIntel,60,,,,,,,,,,,,,,,,0,118,118,11,1,stimuli/objects/telephone01b.jpg,left,old,12,,,,,,,,
,,,,,,,,39,2022-01-13_09h31.01.256,premceCat2_ses-02_part-02_label-phase2,2020.2.10,MacIntel,60,,,,,right,1.8618,2,0.3236,,,,,,,,0,119,119,94,1,stimuli/objects/electricmixer.jpg,right,new,95,,,,,,,,
,,,,,,,,39,2022-01-13_09h31.01.256,premceCat2_ses-02_part-02_label-phase2,2020.2.10,MacIntel,60,,,,,right,1.2292,1,0.9417,,,,,,,,0,120,120,128,1,stimuli/objects/tripod01.jpg,right,new,129,,,,,,,,
,,,,,,,,39,2022-01-13_09h31.01.256,premceCat2_ses-02_part-02_label-phase2,2020.2.10,MacIntel,60,,,,,left,1.9511,1,0.3551,right,0.1423,0,0,0,0,1,,,,,,,,,,,,,,,,,
,,,,,,,,39,2022-01-13_09h31.01.256,premceCat2_ses-02_part-02_label-phase2,2020.2.10,MacIntel,60,,,,,,,,,,,,,,,,0,121,121,66,1,stimuli/objects/nailgun.jpg,right,new,67,,,,,,,,
,,,,,,,,39,2022-01-13_09h31.01.256,premceCat2_ses-02_part-02_label-phase2,2020.2.10,MacIntel,60,,,,,right,1.1619,2,1.18,,,,,,,,0,122,122,61,1,stimuli/objects/metalbrush.jpg,left,old,62,,,,,,,,
,,,,,,,,39,2022-01-13_09h31.01.256,premceCat2_ses-02_part-02_label-phase2,2020.2.10,MacIntel,60,,,,,left,1.2016,4,0.2956,left,1.1273,0,0,0,0,1,,,,,,,,,,,,,,,,,
,,,,,,,,39,2022-01-13_09h31.01.256,premceCat2_ses-02_part-02_label-phase2,2020.2.10,MacIntel,60,,,,,,,,,,,,,,,,0,123,123,124,1,stimuli/objects/reflector.jpg,left,old,125,,,,,,,,
,,,,,,,,39,2022-01-13_09h31.01.256,premceCat2_ses-02_part-02_label-phase2,2020.2.10,MacIntel,60,,,,,left,1.2541,4,0.4732,left,0.252,0,0,0,0,1,,,,,,,,,,,,,,,,,
,,,,,,,,39,2022-01-13_09h31.01.256,premceCat2_ses-02_part-02_label-phase2,2020.2.10,MacIntel,60,,,,,,,,,,,,,,,,0,124,124,28,1,stimuli/objects/anchor.jpg,left,old,29,,,,,,,,
,,,,,,,,39,2022-01-13_09h31.01.256,premceCat2_ses-02_part-02_label-phase2,2020.2.10,MacIntel,60,,,,,right,1.9112,1,0.1618,,,,,,,,0,125,125,1,1,stimuli/objects/photocopier.jpg,left,old,2,,,,,,,,
,,,,,,,,39,2022-01-13_09h31.01.256,premceCat2_ses-02_part-02_label-phase2,2020.2.10,MacIntel,60,,,,,left,1.137,4,1.3123,left,0.2493,0,0,0,0,1,,,,,,,,,,,,,,,,,
,,,,,,,,39,2022-01-13_09h31.01.256,premceCat2_ses-02_part-02_label-phase2,2020.2.10,MacIntel,60,,,,,,,,,,,,,,,,0,126,126,37,1,stimuli/objects/bungeecord02.jpg,left,old,38,,,,,,,,
,,,,,,,,39,2022-01-13_09h31.01.256,premceCat2_ses-02_part-02_label-phase2,2020.2.10,MacIntel,60,,,,,left,1.0352,2,0.1272,right,0.1718,0,0,0,0,1,,,,,,,,,,,,,,,,,
,,,,,,,,39,2022-01-13_09h31.01.256,premceCat2_ses-02_part-02_label-phase2,2020.2.10,MacIntel,60,,,,,,,,,,,,,,,,0,127,127,16,1,stimuli/objects/stubbywrench01a.jpg,left,old,17,,,,,,,,
,,,,,,,,39,2022-01-13_09h31.01.256,premceCat2_ses-02_part-02_label-phase2,2020.2.10,MacIntel,60,,,,,right,2.127,3,1.3695,,,,,,,,0,128,128,54,1,stimuli/objects/pda.jpg,right,new,55,,,,,,,,
,,,,,,,,39,2022-01-13_09h31.01.256,premceCat2_ses-02_part-02_label-phase2,2020.2.10,MacIntel,60,,,,,left,0.934,4,0.5826,left,0.3078,0,0,0,0,1,,,,,,,,,,,,,,,,,
,,,,,,,,39,2022-01-13_09h31.01.256,premceCat2_ses-02_part-02_label-phase2,2020.2.10,MacIntel,60,,,,,,,,,,,,,,,,0,129,129,5,1,stimuli/objects/fan.jpg,left,old,6,,,,,,,,
,,,,,,,,39,2022-01-13_09h31.01.256,premceCat2_ses-02_part-02_label-phase2,2020.2.10,MacIntel,60,,,,,left,0.9962,2,0.3739,left,0.2492,0,0,0,0,1,,,,,,,,,,,,,,,,,
,,,,,,,,39,2022-01-13_09h31.01.256,premceCat2_ses-02_part-02_label-phase2,2020.2.10,MacIntel,60,,,,,,,,,,,,,,,,0,130,130,120,1,stimuli/objects/pot01.jpg,left,old,121,,,,,,,,
,,,,,,,,39,2022-01-13_09h31.01.256,premceCat2_ses-02_part-02_label-phase2,2020.2.10,MacIntel,60,,,,,right,1.0473,4,0.3566,,,,,,,,0,131,131,131,1,stimuli/objects/spotlight.jpg,right,new,132,,,,,,,,
,,,,,,,,39,2022-01-13_09h31.01.256,premceCat2_ses-02_part-02_label-phase2,2020.2.10,MacIntel,60,,,,,right,1.6037,2,0.8305,,,,,,,,0,132,132,138,1,stimuli/objects/taperecorder.jpg,right,new,139,,,,,,,,
,,,,,,,,39,2022-01-13_09h31.01.256,premceCat2_ses-02_part-02_label-phase2,2020.2.10,MacIntel,60,,,,,right,1.3351,1,1.1422,,,,,,,,0,133,133,8,1,stimuli/objects/basketballhoop01.jpg,right,new,9,,,,,,,,
,,,,,,,,39,2022-01-13_09h31.01.256,premceCat2_ses-02_part-02_label-phase2,2020.2.10,MacIntel,60,,,,,right,1.5595,1,0.0898,,,,,,,,0,134,134,56,1,stimuli/objects/thermos.jpg,left,old,57,,,,,,,,
,,,,,,,,39,2022-01-13_09h31.01.256,premceCat2_ses-02_part-02_label-phase2,2020.2.10,MacIntel,60,,,,,left,1.07,2,0.4688,right,1.5775,0,0,0,0,1,,,,,,,,,,,,,,,,,
,,,,,,,,39,2022-01-13_09h31.01.256,premceCat2_ses-02_part-02_label-phase2,2020.2.10,MacIntel,60,,,,,,,,,,,,,,,,0,135,135,84,1,stimuli/objects/hockeypuck.jpg,left,old,85,,,,,,,,
,,,,,,,,39,2022-01-13_09h31.01.256,premceCat2_ses-02_part-02_label-phase2,2020.2.10,MacIntel,60,,,,,left,1.1139,1,0.1442,left,0.1467,0,0,0,0,1,,,,,,,,,,,,,,,,,
,,,,,,,,39,2022-01-13_09h31.01.256,premceCat2_ses-02_part-02_label-phase2,2020.2.10,MacIntel,60,,,,,,,,,,,,,,,,0,136,136,96,1,stimuli/objects/golfbag.jpg,right,new,97,,,,,,,,
,,,,,,,,39,2022-01-13_09h31.01.256,premceCat2_ses-02_part-02_label-phase2,2020.2.10,MacIntel,60,,,,,right,1.6312,1,1.2498,,,,,,,,0,137,137,26,1,stimuli/objects/boogieboard.jpg,right,new,27,,,,,,,,
,,,,,,,,39,2022-01-13_09h31.01.256,premceCat2_ses-02_part-02_label-phase2,2020.2.10,MacIntel,60,,,,,left,1.6699,3,0.9582,right,0.3018,0,0,0,0,1,,,,,,,,,,,,,,,,,
,,,,,,,,39,2022-01-13_09h31.01.256,premceCat2_ses-02_part-02_label-phase2,2020.2.10,MacIntel,60,,,,,,,,,,,,,,,,0,138,138,79,1,stimuli/objects/dvdplayer.jpg,left,old,80,,,,,,,,
,,,,,,,,39,2022-01-13_09h31.01.256,premceCat2_ses-02_part-02_label-phase2,2020.2.10,MacIntel,60,,,,,right,1.0317,1,0.0314,,,,,,,,0,139,139,133,1,stimuli/objects/icebucket.jpg,right,new,134,,,,,,,,
,,,,,,,,39,2022-01-13_09h31.01.256,premceCat2_ses-02_part-02_label-phase2,2020.2.10,MacIntel,60,,,,,left,1.1674,3,1.9096,right,0.2696,0,0,0,0,1,,,,,,,,,,,,,,,,,
,,,,,,,,39,2022-01-13_09h31.01.256,premceCat2_ses-02_part-02_label-phase2,2020.2.10,MacIntel,60,,,,,,,,,,,,,,,,0,140,140,117,1,stimuli/objects/videotape01b.jpg,right,new,118,,,,,,,,
,,,,,,,,39,2022-01-13_09h31.01.256,premceCat2_ses-02_part-02_label-phase2,2020.2.10,MacIntel,60,,,,,right,1.1962,3,0.8811,,,,,,,,0,141,141,92,1,stimuli/objects/carjack.jpg,right,new,93,,,,,,,,
,,,,,,,,39,2022-01-13_09h31.01.256,premceCat2_ses-02_part-02_label-phase2,2020.2.10,MacIntel,60,,,,,right,2.3046,4,0.6264,,,,,,,,0,142,142,38,1,stimuli/objects/soundmixer.jpg,right,new,39,,,,,,,,
,,,,,,,,39,2022-01-13_09h31.01.256,premceCat2_ses-02_part-02_label-phase2,2020.2.10,MacIntel,60,,,,,,,,,,,,,,,,,,,,,,,,,space,4.945,0,1,1,0,1,condition_files/ImagesforRecog4_1.csv
