myownaccuracy,respcorrs,minNrPractice,considerNrTrials,Instr_resp.keys,Instr_resp.rt,key_resp_2.keys,key_resp_2.rt,Instruction_loop.thisRepN,Instruction_loop.thisTrialN,Instruction_loop.thisN,Instruction_loop.thisIndex,Instruction_loop.ran,slides,participant,date,expName,psychopyVersion,OS,frameRate,key_resp_3.keys,key_resp_3.rt,taskGoresp.keys,taskGoresp.rt,pract_resp.keys,pract_resp.corr,myownaccuracyCORR,pract_loop.thisRepN,pract_loop.thisTrialN,pract_loop.thisN,pract_loop.thisIndex,pract_loop.ran,first_character,second_character,Cue,left_categ,centleft_categ,centright_categ,right_categ,corr_ans,trial_cond,switch_cond,cuedCharacter,corrCat,image,pract_resp.rt,rep_resp.keys,rep_resp.rt,repeat_pract.thisRepN,repeat_pract.thisTrialN,repeat_pract.thisN,repeat_pract.thisIndex,repeat_pract.ran,task_resp.keys,task_resp.corr,task_loop.thisRepN,task_loop.thisTrialN,task_loop.thisN,task_loop.thisIndex,task_loop.ran,obj_category,task_resp.rt,rep_resp_2.keys,rep_resp_2.rt,repeat_task2.thisRepN,repeat_task2.thisTrialN,repeat_task2.thisN,repeat_task2.thisIndex,repeat_task2.ran
[],[],10,10,space,11.9297,space,9.3499,0,0,0,0,1,stimuli/slide1.png,41,2022-01-18_09h09.27.475,premceCat2_ses-01_part-01_label-phase1,2020.2.9,Win32,60,,,,,,,,,,,,,,,,,,,,,,,,,,,,,,,,,,,,,,,,,,,,,,,,,
,,,,,,space,26.0636,0,1,1,1,1,stimuli/slide2.png,41,2022-01-18_09h09.27.475,premceCat2_ses-01_part-01_label-phase1,2020.2.9,Win32,60,,,,,,,,,,,,,,,,,,,,,,,,,,,,,,,,,,,,,,,,,,,,,,,,,
,,,,,,space,12.7754,0,2,2,2,1,stimuli/slide3.png,41,2022-01-18_09h09.27.475,premceCat2_ses-01_part-01_label-phase1,2020.2.9,Win32,60,,,,,,,,,,,,,,,,,,,,,,,,,,,,,,,,,,,,,,,,,,,,,,,,,
,,,,,,space,10.6115,0,3,3,3,1,stimuli/slide4.png,41,2022-01-18_09h09.27.475,premceCat2_ses-01_part-01_label-phase1,2020.2.9,Win32,60,,,,,,,,,,,,,,,,,,,,,,,,,,,,,,,,,,,,,,,,,,,,,,,,,
,,,,,,space,3.6871,0,4,4,4,1,stimuli/slide5.png,41,2022-01-18_09h09.27.475,premceCat2_ses-01_part-01_label-phase1,2020.2.9,Win32,60,,,,,,,,,,,,,,,,,,,,,,,,,,,,,,,,,,,,,,,,,,,,,,,,,
,,,,,,space,6.5711,0,5,5,5,1,stimuli/slide6.png,41,2022-01-18_09h09.27.475,premceCat2_ses-01_part-01_label-phase1,2020.2.9,Win32,60,,,,,,,,,,,,,,,,,,,,,,,,,,,,,,,,,,,,,,,,,,,,,,,,,
0,[],,,,,,,,,,,,,41,2022-01-18_09h09.27.475,premceCat2_ses-01_part-01_label-phase1,2020.2.9,Win32,60,space,76.2915,space,21.7337,,0,0,0,0,0,0,1,stimuli/m1.jpg,stimuli/m4.jpg,2,stimuli/Stationary & school supply.png,stimuli/Vehicle.png,stimuli/Gamestoy & entertainment.png,stimuli/Clothing.png,4,1,0,stimuli/m4.jpg,Clothing,stimuli/objects/sneaker03b.jpg,,,,,,,,,,,,,,,,,,,,,,,,
0,[0],,,,,,,,,,,,,41,2022-01-18_09h09.27.475,premceCat2_ses-01_part-01_label-phase1,2020.2.9,Win32,60,,,,,,0,0,0,1,1,1,1,stimuli/m1.jpg,stimuli/m4.jpg,2,stimuli/Stationary & school supply.png,stimuli/Clothing.png,stimuli/Vehicle.png,stimuli/Gamestoy & entertainment.png,1,0,0,stimuli/m4.jpg,Stationary & school supply,stimuli/objects/paperclip01b.jpg,,,,,,,,,,,,,,,,,,,,,,,,
0,[0],,,,,,,,,,,,,41,2022-01-18_09h09.27.475,premceCat2_ses-01_part-01_label-phase1,2020.2.9,Win32,60,,,,,4,0,0,0,2,2,2,1,stimuli/m1.jpg,stimuli/m4.jpg,1,stimuli/Vehicle.png,stimuli/Stationary & school supply.png,stimuli/Clothing.png,stimuli/Gamestoy & entertainment.png,2,1,0,stimuli/m1.jpg,Stationary & school supply,stimuli/objects/protractor.jpg,2.7836,,,,,,,,,,,,,,,,,,,,,,,
0,"[0,0]",,,,,,,,,,,,,41,2022-01-18_09h09.27.475,premceCat2_ses-01_part-01_label-phase1,2020.2.9,Win32,60,,,,,1,0,0,0,3,3,3,1,stimuli/m4.jpg,stimuli/m1.jpg,1,stimuli/Stationary & school supply.png,stimuli/Vehicle.png,stimuli/Gamestoy & entertainment.png,stimuli/Clothing.png,4,1,0,stimuli/m4.jpg,Clothing,stimuli/objects/hikingshoe01.jpg,1.4089,,,,,,,,,,,,,,,,,,,,,,,
0,"[0,0,0]",,,,,,,,,,,,,41,2022-01-18_09h09.27.475,premceCat2_ses-01_part-01_label-phase1,2020.2.9,Win32,60,,,,,,0,0,0,4,4,4,1,stimuli/m1.jpg,stimuli/m4.jpg,1,stimuli/Clothing.png,stimuli/Stationary & school supply.png,stimuli/Vehicle.png,stimuli/Gamestoy & entertainment.png,2,1,0,stimuli/m1.jpg,Stationary & school supply,stimuli/objects/book01b.jpg,,,,,,,,,,,,,,,,,,,,,,,,
0,"[0,0,0,0]",,,,,,,,,,,,,41,2022-01-18_09h09.27.475,premceCat2_ses-01_part-01_label-phase1,2020.2.9,Win32,60,,,,,1,0,0,0,5,5,5,1,stimuli/m4.jpg,stimuli/m1.jpg,1,stimuli/Stationary & school supply.png,stimuli/Gamestoy & entertainment.png,stimuli/Vehicle.png,stimuli/Clothing.png,4,1,0,stimuli/m4.jpg,Clothing,stimuli/objects/shoelace.jpg,0.9855,,,,,,,,,,,,,,,,,,,,,,,
0,"[0,0,0,0,0]",,,,,,,,,,,,,41,2022-01-18_09h09.27.475,premceCat2_ses-01_part-01_label-phase1,2020.2.9,Win32,60,,,,,2,0,0,0,6,6,6,1,stimuli/m1.jpg,stimuli/m4.jpg,2,stimuli/Clothing.png,stimuli/Stationary & school supply.png,stimuli/Vehicle.png,stimuli/Gamestoy & entertainment.png,1,1,0,stimuli/m4.jpg,Clothing,stimuli/objects/moccasin.jpg,1.7956,,,,,,,,,,,,,,,,,,,,,,,
1,"[0,0,0,0,0,0]",,,,,,,,,,,,,41,2022-01-18_09h09.27.475,premceCat2_ses-01_part-01_label-phase1,2020.2.9,Win32,60,,,,,2,1,1,0,7,7,7,1,stimuli/m1.jpg,stimuli/m4.jpg,2,stimuli/Gamestoy & entertainment.png,stimuli/Clothing.png,stimuli/Stationary & school supply.png,stimuli/Vehicle.png,2,1,0,stimuli/m4.jpg,Clothing,stimuli/objects/waders.jpg,2.9567,,,,,,,,,,,,,,,,,,,,,,,
0,"[0,0,0,0,0,0,1]",,,,,,,,,,,,,41,2022-01-18_09h09.27.475,premceCat2_ses-01_part-01_label-phase1,2020.2.9,Win32,60,,,,,4,0,0,0,8,8,8,1,stimuli/m4.jpg,stimuli/m1.jpg,2,stimuli/Vehicle.png,stimuli/Gamestoy & entertainment.png,stimuli/Stationary & school supply.png,stimuli/Clothing.png,3,1,0,stimuli/m1.jpg,Stationary & school supply,stimuli/objects/eraser.jpg,1.6506,,,,,,,,,,,,,,,,,,,,,,,
1,"[0,0,0,0,0,0,1,0]",,,,,,,,,,,,,41,2022-01-18_09h09.27.475,premceCat2_ses-01_part-01_label-phase1,2020.2.9,Win32,60,,,,,1,1,1,0,9,9,9,1,stimuli/m4.jpg,stimuli/m1.jpg,2,stimuli/Stationary & school supply.png,stimuli/Vehicle.png,stimuli/Clothing.png,stimuli/Gamestoy & entertainment.png,1,1,0,stimuli/m1.jpg,Stationary & school supply,stimuli/objects/fountainpen.jpg,1.4639,,,,,,,,,,,,,,,,,,,,,,,
1,"[0,0,0,0,0,0,1,0,1]",,,,,,,,,,,,,41,2022-01-18_09h09.27.475,premceCat2_ses-01_part-01_label-phase1,2020.2.9,Win32,60,,,,,2,1,1,0,10,10,10,1,stimuli/m4.jpg,stimuli/m1.jpg,1,stimuli/Vehicle.png,stimuli/Clothing.png,stimuli/Stationary & school supply.png,stimuli/Gamestoy & entertainment.png,2,1,0,stimuli/m4.jpg,Clothing,stimuli/objects/visor.jpg,1.1074,,,,,,,,,,,,,,,,,,,,,,,
0,"[0,0,0,0,0,0,1,0,1,1]",,,,,,,,,,,,,41,2022-01-18_09h09.27.475,premceCat2_ses-01_part-01_label-phase1,2020.2.9,Win32,60,,,,,1,0,0,0,11,11,11,1,stimuli/m4.jpg,stimuli/m1.jpg,1,stimuli/Stationary & school supply.png,stimuli/Clothing.png,stimuli/Vehicle.png,stimuli/Gamestoy & entertainment.png,2,1,0,stimuli/m4.jpg,Clothing,stimuli/objects/mitten04.jpg,1.6878,,,,,,,,,,,,,,,,,,,,,,,
1,"[0,0,0,0,0,0,1,0,1,1,0]",,,,,,,,,,,,,41,2022-01-18_09h09.27.475,premceCat2_ses-01_part-01_label-phase1,2020.2.9,Win32,60,,,,,2,1,1,0,12,12,12,1,stimuli/m4.jpg,stimuli/m1.jpg,2,stimuli/Clothing.png,stimuli/Stationary & school supply.png,stimuli/Vehicle.png,stimuli/Gamestoy & entertainment.png,2,1,0,stimuli/m1.jpg,Stationary & school supply,stimuli/objects/notebook03a.jpg,3.0453,,,,,,,,,,,,,,,,,,,,,,,
0,"[0,0,0,0,0,0,1,0,1,1,0,1]",,,,,,,,,,,,,41,2022-01-18_09h09.27.475,premceCat2_ses-01_part-01_label-phase1,2020.2.9,Win32,60,,,,,2,0,1,0,13,13,13,1,stimuli/m4.jpg,stimuli/m1.jpg,1,stimuli/Vehicle.png,stimuli/Clothing.png,stimuli/Gamestoy & entertainment.png,stimuli/Stationary & school supply.png,1,0,0,stimuli/m4.jpg,Vehicle,stimuli/objects/locomotive.jpg,2.6445,,,,,,,,,,,,,,,,,,,,,,,
0,"[0,0,0,0,0,0,1,0,1,1,0,1]",,,,,,,,,,,,,41,2022-01-18_09h09.27.475,premceCat2_ses-01_part-01_label-phase1,2020.2.9,Win32,60,,,,,4,0,0,0,14,14,14,1,stimuli/m4.jpg,stimuli/m1.jpg,2,stimuli/Gamestoy & entertainment.png,stimuli/Stationary & school supply.png,stimuli/Vehicle.png,stimuli/Clothing.png,2,1,0,stimuli/m1.jpg,Stationary & school supply,stimuli/objects/mechanicalpencil02.jpg,3.5785,,,,,,,,,,,,,,,,,,,,,,,
0,"[0,0,0,0,0,0,1,0,1,1,0,1,0]",,,,,,,,,,,,,41,2022-01-18_09h09.27.475,premceCat2_ses-01_part-01_label-phase1,2020.2.9,Win32,60,,,,,4,0,0,0,15,15,15,1,stimuli/m4.jpg,stimuli/m1.jpg,1,stimuli/Gamestoy & entertainment.png,stimuli/Clothing.png,stimuli/Stationary & school supply.png,stimuli/Vehicle.png,1,0,0,stimuli/m4.jpg,Gamestoy & entertainment,stimuli/objects/rattle.jpg,2.77,,,,,,,,,,,,,,,,,,,,,,,
1,"[0,0,0,0,0,0,1,0,1,1,0,1,0]",,,,,,,,,,,,,41,2022-01-18_09h09.27.475,premceCat2_ses-01_part-01_label-phase1,2020.2.9,Win32,60,,,,,4,1,1,0,16,16,16,1,stimuli/m4.jpg,stimuli/m1.jpg,1,stimuli/Gamestoy & entertainment.png,stimuli/Vehicle.png,stimuli/Stationary & school supply.png,stimuli/Clothing.png,4,1,0,stimuli/m4.jpg,Clothing,stimuli/objects/sheriffhat.jpg,3.88,,,,,,,,,,,,,,,,,,,,,,,
1,"[0,0,0,0,0,0,1,0,1,1,0,1,0,1]",,,,,,,,,,,,,41,2022-01-18_09h09.27.475,premceCat2_ses-01_part-01_label-phase1,2020.2.9,Win32,60,,,,,2,1,1,0,17,17,17,1,stimuli/m4.jpg,stimuli/m1.jpg,1,stimuli/Gamestoy & entertainment.png,stimuli/Clothing.png,stimuli/Vehicle.png,stimuli/Stationary & school supply.png,2,1,0,stimuli/m4.jpg,Clothing,stimuli/objects/jeans01.jpg,1.6321,,,,,,,,,,,,,,,,,,,,,,,
1,"[0,0,0,0,0,0,1,0,1,1,0,1,0,1,1]",,,,,,,,,,,,,41,2022-01-18_09h09.27.475,premceCat2_ses-01_part-01_label-phase1,2020.2.9,Win32,60,,,,,4,1,1,0,18,18,18,1,stimuli/m1.jpg,stimuli/m4.jpg,2,stimuli/Stationary & school supply.png,stimuli/Gamestoy & entertainment.png,stimuli/Vehicle.png,stimuli/Clothing.png,4,1,0,stimuli/m4.jpg,Clothing,stimuli/objects/bowtie.jpg,1.6237,,,,,,,,,,,,,,,,,,,,,,,
1,"[0,0,0,0,0,0,1,0,1,1,0,1,0,1,1,1]",,,,,,,,,,,,,41,2022-01-18_09h09.27.475,premceCat2_ses-01_part-01_label-phase1,2020.2.9,Win32,60,,,,,3,1,1,0,19,19,19,1,stimuli/m1.jpg,stimuli/m4.jpg,1,stimuli/Stationary & school supply.png,stimuli/Clothing.png,stimuli/Vehicle.png,stimuli/Gamestoy & entertainment.png,3,0,0,stimuli/m1.jpg,Vehicle,stimuli/objects/porsche.jpg,1.0881,,,,,,,,,,,,,,,,,,,,,,,
0,"[0,0,0,0,0,0,1,0,1,1,0,1,0,1,1,1]",,,,,,,,,,,,,41,2022-01-18_09h09.27.475,premceCat2_ses-01_part-01_label-phase1,2020.2.9,Win32,60,,,,,1,0,1,0,20,20,20,1,stimuli/m1.jpg,stimuli/m4.jpg,1,stimuli/Vehicle.png,stimuli/Gamestoy & entertainment.png,stimuli/Clothing.png,stimuli/Stationary & school supply.png,3,0,0,stimuli/m1.jpg,Clothing,stimuli/objects/sandal.jpg,1.0809,,,,,,,,,,,,,,,,,,,,,,,
0,"[0,0,0,0,0,0,1,0,1,1,0,1,0,1,1,1]",,,,,,,,,,,,,41,2022-01-18_09h09.27.475,premceCat2_ses-01_part-01_label-phase1,2020.2.9,Win32,60,,,,,1,0,0,0,21,21,21,1,stimuli/m4.jpg,stimuli/m1.jpg,2,stimuli/Vehicle.png,stimuli/Clothing.png,stimuli/Gamestoy & entertainment.png,stimuli/Stationary & school supply.png,4,1,0,stimuli/m1.jpg,Stationary & school supply,stimuli/objects/chalkboard01.jpg,1.0899,,,,,,,,,,,,,,,,,,,,,,,
1,"[0,0,0,0,0,0,1,0,1,1,0,1,0,1,1,1,0]",,,,,,,,,,,,,41,2022-01-18_09h09.27.475,premceCat2_ses-01_part-01_label-phase1,2020.2.9,Win32,60,,,,,3,1,1,0,22,22,22,1,stimuli/m4.jpg,stimuli/m1.jpg,1,stimuli/Gamestoy & entertainment.png,stimuli/Stationary & school supply.png,stimuli/Clothing.png,stimuli/Vehicle.png,3,1,0,stimuli/m4.jpg,Clothing,stimuli/objects/tie02.jpg,2.0947,,,,,,,,,,,,,,,,,,,,,,,
1,"[0,0,0,0,0,0,1,0,1,1,0,1,0,1,1,1,0,1]",,,,,,,,,,,,,41,2022-01-18_09h09.27.475,premceCat2_ses-01_part-01_label-phase1,2020.2.9,Win32,60,,,,,4,1,1,0,23,23,23,1,stimuli/m4.jpg,stimuli/m1.jpg,2,stimuli/Vehicle.png,stimuli/Gamestoy & entertainment.png,stimuli/Clothing.png,stimuli/Stationary & school supply.png,4,1,0,stimuli/m1.jpg,Stationary & school supply,stimuli/objects/papertray.jpg,1.071,,,,,,,,,,,,,,,,,,,,,,,
1,"[0,0,0,0,0,0,1,0,1,1,0,1,0,1,1,1,0,1,1]",,,,,,,,,,,,,41,2022-01-18_09h09.27.475,premceCat2_ses-01_part-01_label-phase1,2020.2.9,Win32,60,,,,,1,1,1,0,24,24,24,1,stimuli/m4.jpg,stimuli/m1.jpg,1,stimuli/Clothing.png,stimuli/Gamestoy & entertainment.png,stimuli/Vehicle.png,stimuli/Stationary & school supply.png,1,1,0,stimuli/m4.jpg,Clothing,stimuli/objects/shirt02.jpg,1.2328,,,,,,,,,,,,,,,,,,,,,,,
1,"[0,0,0,0,0,0,1,0,1,1,0,1,0,1,1,1,0,1,1,1]",,,,,,,,,,,,,41,2022-01-18_09h09.27.475,premceCat2_ses-01_part-01_label-phase1,2020.2.9,Win32,60,,,,,2,1,1,0,25,25,25,1,stimuli/m4.jpg,stimuli/m1.jpg,2,stimuli/Vehicle.png,stimuli/Stationary & school supply.png,stimuli/Gamestoy & entertainment.png,stimuli/Clothing.png,2,1,0,stimuli/m1.jpg,Stationary & school supply,stimuli/objects/pen04b.jpg,0.9939,,,,,,,,,,,,,,,,,,,,,,,
,,,,,,,,,,,,,,41,2022-01-18_09h09.27.475,premceCat2_ses-01_part-01_label-phase1,2020.2.9,Win32,60,,,,,,,,,,,,,,,,,,,,,,,,,,,n,25.298,0,0,0,0,1,,,,,,,,,,,,,,,,
0,"[0,0,0,0,0,0,1,0,1,1,0,1,0,1,1,1,0,1,1,1,1]",,,,,,,,,,,,,41,2022-01-18_09h09.27.475,premceCat2_ses-01_part-01_label-phase1,2020.2.9,Win32,60,,,,,,,0,,,,,,stimuli/m2.jpg,stimuli/m5.jpg,2,stimuli/Outdoor activity & sport item.png,stimuli/Hand labour tool & accessory.png,stimuli/Electronic device & accessory.png,stimuli/Kitchen & utensil.png,2,1,1,stimuli/m5.jpg,,stimuli/objects/jumpingjack.jpg,,,,,,,,,,0,0,0,0,0,1,Hand labour tool & accessory,,,,,,,,
1,"[0,0,0,0,0,0,1,0,1,1,0,1,0,1,1,1,0,1,1,1,1,0]",,,,,,,,,,,,,41,2022-01-18_09h09.27.475,premceCat2_ses-01_part-01_label-phase1,2020.2.9,Win32,60,,,,,,,1,,,,,,stimuli/m2.jpg,stimuli/m5.jpg,2,stimuli/Hand labour tool & accessory.png,stimuli/Outdoor activity & sport item.png,stimuli/Electronic device & accessory.png,stimuli/Kitchen & utensil.png,1,1,1,stimuli/m5.jpg,,stimuli/objects/boxcutter03a.jpg,,,,,,,,,1,1,0,1,1,1,1,Hand labour tool & accessory,2.5063,,,,,,,
0,"[0,0,0,0,0,0,1,0,1,1,0,1,0,1,1,1,0,1,1,1,1,0,1]",,,,,,,,,,,,,41,2022-01-18_09h09.27.475,premceCat2_ses-01_part-01_label-phase1,2020.2.9,Win32,60,,,,,,,1,,,,,,stimuli/m2.jpg,stimuli/m5.jpg,1,stimuli/Hand labour tool & accessory.png,stimuli/Kitchen & utensil.png,stimuli/Electronic device & accessory.png,stimuli/Outdoor activity & sport item.png,2,0,1,stimuli/m2.jpg,,stimuli/objects/huntingknife.jpg,,,,,,,,,3,0,0,2,2,2,1,Kitchen & utensil,2.4894,,,,,,,
0,"[0,0,0,0,0,0,1,0,1,1,0,1,0,1,1,1,0,1,1,1,1,0,1]",,,,,,,,,,,,,41,2022-01-18_09h09.27.475,premceCat2_ses-01_part-01_label-phase1,2020.2.9,Win32,60,,,,,,,0,,,,,,stimuli/m5.jpg,stimuli/m2.jpg,2,stimuli/Kitchen & utensil.png,stimuli/Electronic device & accessory.png,stimuli/Hand labour tool & accessory.png,stimuli/Outdoor activity & sport item.png,4,1,1,stimuli/m2.jpg,,stimuli/objects/footballhelmet.jpg,,,,,,,,,1,0,0,3,3,3,1,Outdoor activity & sport item,1.9174,,,,,,,
1,"[0,0,0,0,0,0,1,0,1,1,0,1,0,1,1,1,0,1,1,1,1,0,1,0]",,,,,,,,,,,,,41,2022-01-18_09h09.27.475,premceCat2_ses-01_part-01_label-phase1,2020.2.9,Win32,60,,,,,,,1,,,,,,stimuli/m5.jpg,stimuli/m2.jpg,1,stimuli/Outdoor activity & sport item.png,stimuli/Hand labour tool & accessory.png,stimuli/Kitchen & utensil.png,stimuli/Electronic device & accessory.png,2,1,1,stimuli/m5.jpg,,stimuli/objects/handrake01a.jpg,,,,,,,,,2,1,0,4,4,4,1,Hand labour tool & accessory,3.7351,,,,,,,
1,"[0,0,0,0,0,0,1,0,1,1,0,1,0,1,1,1,0,1,1,1,1,0,1,0,1]",,,,,,,,,,,,,41,2022-01-18_09h09.27.475,premceCat2_ses-01_part-01_label-phase1,2020.2.9,Win32,60,,,,,,,1,,,,,,stimuli/m2.jpg,stimuli/m5.jpg,1,stimuli/Outdoor activity & sport item.png,stimuli/Electronic device & accessory.png,stimuli/Hand labour tool & accessory.png,stimuli/Kitchen & utensil.png,1,1,1,stimuli/m2.jpg,,stimuli/objects/crosscountryski.jpg,,,,,,,,,1,1,0,5,5,5,1,Outdoor activity & sport item,0.8413,,,,,,,
0,"[0,0,0,0,0,0,1,0,1,1,0,1,0,1,1,1,0,1,1,1,1,0,1,0,1,1]",,,,,,,,,,,,,41,2022-01-18_09h09.27.475,premceCat2_ses-01_part-01_label-phase1,2020.2.9,Win32,60,,,,,,,0,,,,,,stimuli/m5.jpg,stimuli/m2.jpg,2,stimuli/Hand labour tool & accessory.png,stimuli/Electronic device & accessory.png,stimuli/Outdoor activity & sport item.png,stimuli/Kitchen & utensil.png,2,0,1,stimuli/m2.jpg,,stimuli/objects/television.jpg,,,,,,,,,,0,0,6,6,6,1,Electronic device & accessory,,,,,,,,
1,"[0,0,0,0,0,0,1,0,1,1,0,1,0,1,1,1,0,1,1,1,1,0,1,0,1,1]",,,,,,,,,,,,,41,2022-01-18_09h09.27.475,premceCat2_ses-01_part-01_label-phase1,2020.2.9,Win32,60,,,,,,,1,,,,,,stimuli/m5.jpg,stimuli/m2.jpg,2,stimuli/Kitchen & utensil.png,stimuli/Outdoor activity & sport item.png,stimuli/Hand labour tool & accessory.png,stimuli/Electronic device & accessory.png,2,1,1,stimuli/m2.jpg,,stimuli/objects/hose.jpg,,,,,,,,,2,1,0,7,7,7,1,Outdoor activity & sport item,1.0119,,,,,,,
0,"[0,0,0,0,0,0,1,0,1,1,0,1,0,1,1,1,0,1,1,1,1,0,1,0,1,1,1]",,,,,,,,,,,,,41,2022-01-18_09h09.27.475,premceCat2_ses-01_part-01_label-phase1,2020.2.9,Win32,60,,,,,,,0,,,,,,stimuli/m2.jpg,stimuli/m5.jpg,2,stimuli/Hand labour tool & accessory.png,stimuli/Electronic device & accessory.png,stimuli/Kitchen & utensil.png,stimuli/Outdoor activity & sport item.png,1,1,1,stimuli/m5.jpg,,stimuli/objects/solderingiron.jpg,,,,,,,,,,0,0,8,8,8,1,Hand labour tool & accessory,,,,,,,,
1,"[0,0,0,0,0,0,1,0,1,1,0,1,0,1,1,1,0,1,1,1,1,0,1,0,1,1,1,0]",,,,,,,,,,,,,41,2022-01-18_09h09.27.475,premceCat2_ses-01_part-01_label-phase1,2020.2.9,Win32,60,,,,,,,1,,,,,,stimuli/m2.jpg,stimuli/m5.jpg,2,stimuli/Electronic device & accessory.png,stimuli/Kitchen & utensil.png,stimuli/Hand labour tool & accessory.png,stimuli/Outdoor activity & sport item.png,3,1,1,stimuli/m5.jpg,,stimuli/objects/gavel.jpg,,,,,,,,,3,1,0,9,9,9,1,Hand labour tool & accessory,2.665,,,,,,,
0,"[0,0,0,0,0,0,1,0,1,1,0,1,0,1,1,1,0,1,1,1,1,0,1,0,1,1,1,0,1]",,,,,,,,,,,,,41,2022-01-18_09h09.27.475,premceCat2_ses-01_part-01_label-phase1,2020.2.9,Win32,60,,,,,,,0,,,,,,stimuli/m5.jpg,stimuli/m2.jpg,1,stimuli/Kitchen & utensil.png,stimuli/Electronic device & accessory.png,stimuli/Outdoor activity & sport item.png,stimuli/Hand labour tool & accessory.png,4,1,1,stimuli/m5.jpg,,stimuli/objects/boxcutter03a.jpg,,,,,,,,,,0,0,10,10,10,1,Hand labour tool & accessory,,,,,,,,
0,"[0,0,0,0,0,0,1,0,1,1,0,1,0,1,1,1,0,1,1,1,1,0,1,0,1,1,1,0,1,0]",,,,,,,,,,,,,41,2022-01-18_09h09.27.475,premceCat2_ses-01_part-01_label-phase1,2020.2.9,Win32,60,,,,,,,0,,,,,,stimuli/m2.jpg,stimuli/m5.jpg,2,stimuli/Electronic device & accessory.png,stimuli/Hand labour tool & accessory.png,stimuli/Outdoor activity & sport item.png,stimuli/Kitchen & utensil.png,1,0,1,stimuli/m5.jpg,,stimuli/objects/walkietalkie.jpg,,,,,,,,,4,0,0,11,11,11,1,Electronic device & accessory,1.8826,,,,,,,
0,"[0,0,0,0,0,0,1,0,1,1,0,1,0,1,1,1,0,1,1,1,1,0,1,0,1,1,1,0,1,0]",,,,,,,,,,,,,41,2022-01-18_09h09.27.475,premceCat2_ses-01_part-01_label-phase1,2020.2.9,Win32,60,,,,,,,0,,,,,,stimuli/m2.jpg,stimuli/m5.jpg,1,stimuli/Kitchen & utensil.png,stimuli/Electronic device & accessory.png,stimuli/Hand labour tool & accessory.png,stimuli/Outdoor activity & sport item.png,1,0,1,stimuli/m2.jpg,,stimuli/objects/coffeemaker.jpg,,,,,,,,,3,0,0,12,12,12,1,Kitchen & utensil,1.1467,,,,,,,
1,"[0,0,0,0,0,0,1,0,1,1,0,1,0,1,1,1,0,1,1,1,1,0,1,0,1,1,1,0,1,0]",,,,,,,,,,,,,41,2022-01-18_09h09.27.475,premceCat2_ses-01_part-01_label-phase1,2020.2.9,Win32,60,,,,,,,1,,,,,,stimuli/m5.jpg,stimuli/m2.jpg,2,stimuli/Outdoor activity & sport item.png,stimuli/Electronic device & accessory.png,stimuli/Kitchen & utensil.png,stimuli/Hand labour tool & accessory.png,1,1,1,stimuli/m2.jpg,,stimuli/objects/bicycle.jpg,,,,,,,,,1,1,0,13,13,13,1,Outdoor activity & sport item,2.7674,,,,,,,
1,"[0,0,0,0,0,0,1,0,1,1,0,1,0,1,1,1,0,1,1,1,1,0,1,0,1,1,1,0,1,0,1]",,,,,,,,,,,,,41,2022-01-18_09h09.27.475,premceCat2_ses-01_part-01_label-phase1,2020.2.9,Win32,60,,,,,,,1,,,,,,stimuli/m2.jpg,stimuli/m5.jpg,1,stimuli/Kitchen & utensil.png,stimuli/Outdoor activity & sport item.png,stimuli/Electronic device & accessory.png,stimuli/Hand labour tool & accessory.png,2,1,1,stimuli/m2.jpg,,stimuli/objects/punchingbag.jpg,,,,,,,,,2,1,0,14,14,14,1,Outdoor activity & sport item,1.1227,,,,,,,
0,"[0,0,0,0,0,0,1,0,1,1,0,1,0,1,1,1,0,1,1,1,1,0,1,0,1,1,1,0,1,0,1,1]",,,,,,,,,,,,,41,2022-01-18_09h09.27.475,premceCat2_ses-01_part-01_label-phase1,2020.2.9,Win32,60,,,,,,,1,,,,,,stimuli/m5.jpg,stimuli/m2.jpg,1,stimuli/Electronic device & accessory.png,stimuli/Outdoor activity & sport item.png,stimuli/Hand labour tool & accessory.png,stimuli/Kitchen & utensil.png,2,0,1,stimuli/m5.jpg,,stimuli/objects/footballhelmet.jpg,,,,,,,,,3,0,0,15,15,15,1,Outdoor activity & sport item,2.661,,,,,,,
1,"[0,0,0,0,0,0,1,0,1,1,0,1,0,1,1,1,0,1,1,1,1,0,1,0,1,1,1,0,1,0,1,1]",,,,,,,,,,,,,41,2022-01-18_09h09.27.475,premceCat2_ses-01_part-01_label-phase1,2020.2.9,Win32,60,,,,,,,1,,,,,,stimuli/m5.jpg,stimuli/m2.jpg,1,stimuli/Kitchen & utensil.png,stimuli/Hand labour tool & accessory.png,stimuli/Electronic device & accessory.png,stimuli/Outdoor activity & sport item.png,4,0,1,stimuli/m5.jpg,,stimuli/objects/swing.jpg,,,,,,,,,4,1,0,16,16,16,1,Outdoor activity & sport item,1.8347,,,,,,,
0,"[0,0,0,0,0,0,1,0,1,1,0,1,0,1,1,1,0,1,1,1,1,0,1,0,1,1,1,0,1,0,1,1]",,,,,,,,,,,,,41,2022-01-18_09h09.27.475,premceCat2_ses-01_part-01_label-phase1,2020.2.9,Win32,60,,,,,,,0,,,,,,stimuli/m2.jpg,stimuli/m5.jpg,2,stimuli/Hand labour tool & accessory.png,stimuli/Electronic device & accessory.png,stimuli/Outdoor activity & sport item.png,stimuli/Kitchen & utensil.png,1,1,1,stimuli/m5.jpg,,stimuli/objects/pitchfork.jpg,,,,,,,,,4,0,0,17,17,17,1,Hand labour tool & accessory,0.6276,,,,,,,
1,"[0,0,0,0,0,0,1,0,1,1,0,1,0,1,1,1,0,1,1,1,1,0,1,0,1,1,1,0,1,0,1,1,0]",,,,,,,,,,,,,41,2022-01-18_09h09.27.475,premceCat2_ses-01_part-01_label-phase1,2020.2.9,Win32,60,,,,,,,1,,,,,,stimuli/m5.jpg,stimuli/m2.jpg,2,stimuli/Hand labour tool & accessory.png,stimuli/Outdoor activity & sport item.png,stimuli/Electronic device & accessory.png,stimuli/Kitchen & utensil.png,2,1,1,stimuli/m2.jpg,,stimuli/objects/bicycle.jpg,,,,,,,,,2,1,0,18,18,18,1,Outdoor activity & sport item,1.1917,,,,,,,
0,"[0,0,0,0,0,0,1,0,1,1,0,1,0,1,1,1,0,1,1,1,1,0,1,0,1,1,1,0,1,0,1,1,0,1]",,,,,,,,,,,,,41,2022-01-18_09h09.27.475,premceCat2_ses-01_part-01_label-phase1,2020.2.9,Win32,60,,,,,,,1,,,,,,stimuli/m5.jpg,stimuli/m2.jpg,1,stimuli/Hand labour tool & accessory.png,stimuli/Outdoor activity & sport item.png,stimuli/Kitchen & utensil.png,stimuli/Electronic device & accessory.png,3,0,1,stimuli/m5.jpg,,stimuli/objects/freezer02.jpg,,,,,,,,,2,0,0,19,19,19,1,Kitchen & utensil,1.5151,,,,,,,
0,"[0,0,0,0,0,0,1,0,1,1,0,1,0,1,1,1,0,1,1,1,1,0,1,0,1,1,1,0,1,0,1,1,0,1]",,,,,,,,,,,,,41,2022-01-18_09h09.27.475,premceCat2_ses-01_part-01_label-phase1,2020.2.9,Win32,60,,,,,,,1,,,,,,stimuli/m2.jpg,stimuli/m5.jpg,1,stimuli/Kitchen & utensil.png,stimuli/Hand labour tool & accessory.png,stimuli/Electronic device & accessory.png,stimuli/Outdoor activity & sport item.png,2,0,1,stimuli/m2.jpg,,stimuli/objects/handrake01a.jpg,,,,,,,,,4,0,0,20,20,20,1,Hand labour tool & accessory,1.2252,,,,,,,
0,"[0,0,0,0,0,0,1,0,1,1,0,1,0,1,1,1,0,1,1,1,1,0,1,0,1,1,1,0,1,0,1,1,0,1]",,,,,,,,,,,,,41,2022-01-18_09h09.27.475,premceCat2_ses-01_part-01_label-phase1,2020.2.9,Win32,60,,,,,,,0,,,,,,stimuli/m5.jpg,stimuli/m2.jpg,1,stimuli/Outdoor activity & sport item.png,stimuli/Electronic device & accessory.png,stimuli/Hand labour tool & accessory.png,stimuli/Kitchen & utensil.png,3,1,1,stimuli/m5.jpg,,stimuli/objects/jumpingjack.jpg,,,,,,,,,4,0,0,21,21,21,1,Hand labour tool & accessory,1.8484,,,,,,,
1,"[0,0,0,0,0,0,1,0,1,1,0,1,0,1,1,1,0,1,1,1,1,0,1,0,1,1,1,0,1,0,1,1,0,1,0]",,,,,,,,,,,,,41,2022-01-18_09h09.27.475,premceCat2_ses-01_part-01_label-phase1,2020.2.9,Win32,60,,,,,,,1,,,,,,stimuli/m5.jpg,stimuli/m2.jpg,2,stimuli/Electronic device & accessory.png,stimuli/Kitchen & utensil.png,stimuli/Hand labour tool & accessory.png,stimuli/Outdoor activity & sport item.png,4,1,1,stimuli/m2.jpg,,stimuli/objects/bicycle.jpg,,,,,,,,,4,1,0,22,22,22,1,Outdoor activity & sport item,2.3725,,,,,,,
1,"[0,0,0,0,0,0,1,0,1,1,0,1,0,1,1,1,0,1,1,1,1,0,1,0,1,1,1,0,1,0,1,1,0,1,0,1]",,,,,,,,,,,,,41,2022-01-18_09h09.27.475,premceCat2_ses-01_part-01_label-phase1,2020.2.9,Win32,60,,,,,,,1,,,,,,stimuli/m5.jpg,stimuli/m2.jpg,1,stimuli/Hand labour tool & accessory.png,stimuli/Outdoor activity & sport item.png,stimuli/Electronic device & accessory.png,stimuli/Kitchen & utensil.png,1,1,1,stimuli/m5.jpg,,stimuli/objects/jumpingjack.jpg,,,,,,,,,1,1,0,23,23,23,1,Hand labour tool & accessory,2.7328,,,,,,,
0,"[0,0,0,0,0,0,1,0,1,1,0,1,0,1,1,1,0,1,1,1,1,0,1,0,1,1,1,0,1,0,1,1,0,1,0,1,1]",,,,,,,,,,,,,41,2022-01-18_09h09.27.475,premceCat2_ses-01_part-01_label-phase1,2020.2.9,Win32,60,,,,,,,1,,,,,,stimuli/m2.jpg,stimuli/m5.jpg,2,stimuli/Outdoor activity & sport item.png,stimuli/Electronic device & accessory.png,stimuli/Hand labour tool & accessory.png,stimuli/Kitchen & utensil.png,4,0,1,stimuli/m5.jpg,,stimuli/objects/jug.jpg,,,,,,,,,3,0,0,24,24,24,1,Kitchen & utensil,1.3448,,,,,,,
1,"[0,0,0,0,0,0,1,0,1,1,0,1,0,1,1,1,0,1,1,1,1,0,1,0,1,1,1,0,1,0,1,1,0,1,0,1,1]",,,,,,,,,,,,,41,2022-01-18_09h09.27.475,premceCat2_ses-01_part-01_label-phase1,2020.2.9,Win32,60,,,,,,,1,,,,,,stimuli/m2.jpg,stimuli/m5.jpg,1,stimuli/Electronic device & accessory.png,stimuli/Hand labour tool & accessory.png,stimuli/Kitchen & utensil.png,stimuli/Outdoor activity & sport item.png,4,1,1,stimuli/m2.jpg,,stimuli/objects/racquetballracket.jpg,,,,,,,,,4,1,0,25,25,25,1,Outdoor activity & sport item,0.9838,,,,,,,
1,"[0,0,0,0,0,0,1,0,1,1,0,1,0,1,1,1,0,1,1,1,1,0,1,0,1,1,1,0,1,0,1,1,0,1,0,1,1,1]",,,,,,,,,,,,,41,2022-01-18_09h09.27.475,premceCat2_ses-01_part-01_label-phase1,2020.2.9,Win32,60,,,,,,,1,,,,,,stimuli/m2.jpg,stimuli/m5.jpg,2,stimuli/Kitchen & utensil.png,stimuli/Outdoor activity & sport item.png,stimuli/Electronic device & accessory.png,stimuli/Hand labour tool & accessory.png,4,1,1,stimuli/m5.jpg,,stimuli/objects/jumpingjack.jpg,,,,,,,,,4,1,0,26,26,26,1,Hand labour tool & accessory,2.1746,,,,,,,
1,"[0,0,0,0,0,0,1,0,1,1,0,1,0,1,1,1,0,1,1,1,1,0,1,0,1,1,1,0,1,0,1,1,0,1,0,1,1,1,1]",,,,,,,,,,,,,41,2022-01-18_09h09.27.475,premceCat2_ses-01_part-01_label-phase1,2020.2.9,Win32,60,,,,,,,1,,,,,,stimuli/m2.jpg,stimuli/m5.jpg,2,stimuli/Hand labour tool & accessory.png,stimuli/Kitchen & utensil.png,stimuli/Electronic device & accessory.png,stimuli/Outdoor activity & sport item.png,1,1,1,stimuli/m5.jpg,,stimuli/objects/hedgetrimmer.jpg,,,,,,,,,1,1,0,27,27,27,1,Hand labour tool & accessory,1.3113,,,,,,,
1,"[0,0,0,0,0,0,1,0,1,1,0,1,0,1,1,1,0,1,1,1,1,0,1,0,1,1,1,0,1,0,1,1,0,1,0,1,1,1,1,1]",,,,,,,,,,,,,41,2022-01-18_09h09.27.475,premceCat2_ses-01_part-01_label-phase1,2020.2.9,Win32,60,,,,,,,1,,,,,,stimuli/m5.jpg,stimuli/m2.jpg,1,stimuli/Kitchen & utensil.png,stimuli/Outdoor activity & sport item.png,stimuli/Electronic device & accessory.png,stimuli/Hand labour tool & accessory.png,4,1,1,stimuli/m5.jpg,,stimuli/objects/gavel.jpg,,,,,,,,,4,1,0,28,28,28,1,Hand labour tool & accessory,2.5727,,,,,,,
1,"[0,0,0,0,0,0,1,0,1,1,0,1,0,1,1,1,0,1,1,1,1,0,1,0,1,1,1,0,1,0,1,1,0,1,0,1,1,1,1,1,1]",,,,,,,,,,,,,41,2022-01-18_09h09.27.475,premceCat2_ses-01_part-01_label-phase1,2020.2.9,Win32,60,,,,,,,1,,,,,,stimuli/m2.jpg,stimuli/m5.jpg,2,stimuli/Electronic device & accessory.png,stimuli/Hand labour tool & accessory.png,stimuli/Kitchen & utensil.png,stimuli/Outdoor activity & sport item.png,2,1,1,stimuli/m5.jpg,,stimuli/objects/gavel.jpg,,,,,,,,,2,1,0,29,29,29,1,Hand labour tool & accessory,1.2439,,,,,,,
1,"[0,0,0,0,0,0,1,0,1,1,0,1,0,1,1,1,0,1,1,1,1,0,1,0,1,1,1,0,1,0,1,1,0,1,0,1,1,1,1,1,1,1]",,,,,,,,,,,,,41,2022-01-18_09h09.27.475,premceCat2_ses-01_part-01_label-phase1,2020.2.9,Win32,60,,,,,,,1,,,,,,stimuli/m2.jpg,stimuli/m5.jpg,1,stimuli/Kitchen & utensil.png,stimuli/Hand labour tool & accessory.png,stimuli/Outdoor activity & sport item.png,stimuli/Electronic device & accessory.png,3,1,1,stimuli/m2.jpg,,stimuli/objects/racquetballracket.jpg,,,,,,,,,3,1,0,30,30,30,1,Outdoor activity & sport item,1.4888,,,,,,,
1,"[0,0,0,0,0,0,1,0,1,1,0,1,0,1,1,1,0,1,1,1,1,0,1,0,1,1,1,0,1,0,1,1,0,1,0,1,1,1,1,1,1,1,1]",,,,,,,,,,,,,41,2022-01-18_09h09.27.475,premceCat2_ses-01_part-01_label-phase1,2020.2.9,Win32,60,,,,,,,1,,,,,,stimuli/m5.jpg,stimuli/m2.jpg,2,stimuli/Kitchen & utensil.png,stimuli/Electronic device & accessory.png,stimuli/Outdoor activity & sport item.png,stimuli/Hand labour tool & accessory.png,3,1,1,stimuli/m2.jpg,,stimuli/objects/punchingbag.jpg,,,,,,,,,3,1,0,31,31,31,1,Outdoor activity & sport item,1.0218,,,,,,,
0,"[0,0,0,0,0,0,1,0,1,1,0,1,0,1,1,1,0,1,1,1,1,0,1,0,1,1,1,0,1,0,1,1,0,1,0,1,1,1,1,1,1,1,1,1]",,,,,,,,,,,,,41,2022-01-18_09h09.27.475,premceCat2_ses-01_part-01_label-phase1,2020.2.9,Win32,60,,,,,,,1,,,,,,stimuli/m2.jpg,stimuli/m5.jpg,2,stimuli/Outdoor activity & sport item.png,stimuli/Hand labour tool & accessory.png,stimuli/Kitchen & utensil.png,stimuli/Electronic device & accessory.png,4,0,1,stimuli/m5.jpg,,stimuli/objects/camera01a.jpg,,,,,,,,,2,0,0,32,32,32,1,Electronic device & accessory,1.3796,,,,,,,
1,"[0,0,0,0,0,0,1,0,1,1,0,1,0,1,1,1,0,1,1,1,1,0,1,0,1,1,1,0,1,0,1,1,0,1,0,1,1,1,1,1,1,1,1,1]",,,,,,,,,,,,,41,2022-01-18_09h09.27.475,premceCat2_ses-01_part-01_label-phase1,2020.2.9,Win32,60,,,,,,,1,,,,,,stimuli/m2.jpg,stimuli/m5.jpg,2,stimuli/Outdoor activity & sport item.png,stimuli/Electronic device & accessory.png,stimuli/Kitchen & utensil.png,stimuli/Hand labour tool & accessory.png,4,1,1,stimuli/m5.jpg,,stimuli/objects/jumpingjack.jpg,,,,,,,,,4,1,0,33,33,33,1,Hand labour tool & accessory,1.4155,,,,,,,
1,"[0,0,0,0,0,0,1,0,1,1,0,1,0,1,1,1,0,1,1,1,1,0,1,0,1,1,1,0,1,0,1,1,0,1,0,1,1,1,1,1,1,1,1,1,1]",,,,,,,,,,,,,41,2022-01-18_09h09.27.475,premceCat2_ses-01_part-01_label-phase1,2020.2.9,Win32,60,,,,,,,1,,,,,,stimuli/m2.jpg,stimuli/m5.jpg,1,stimuli/Electronic device & accessory.png,stimuli/Kitchen & utensil.png,stimuli/Outdoor activity & sport item.png,stimuli/Hand labour tool & accessory.png,3,1,1,stimuli/m2.jpg,,stimuli/objects/swing.jpg,,,,,,,,,3,1,0,34,34,34,1,Outdoor activity & sport item,1.3593,,,,,,,
1,"[0,0,0,0,0,0,1,0,1,1,0,1,0,1,1,1,0,1,1,1,1,0,1,0,1,1,1,0,1,0,1,1,0,1,0,1,1,1,1,1,1,1,1,1,1,1]",,,,,,,,,,,,,41,2022-01-18_09h09.27.475,premceCat2_ses-01_part-01_label-phase1,2020.2.9,Win32,60,,,,,,,1,,,,,,stimuli/m5.jpg,stimuli/m2.jpg,1,stimuli/Hand labour tool & accessory.png,stimuli/Kitchen & utensil.png,stimuli/Outdoor activity & sport item.png,stimuli/Electronic device & accessory.png,1,1,1,stimuli/m5.jpg,,stimuli/objects/pitchfork.jpg,,,,,,,,,1,1,0,35,35,35,1,Hand labour tool & accessory,1.3293,,,,,,,
1,"[0,0,0,0,0,0,1,0,1,1,0,1,0,1,1,1,0,1,1,1,1,0,1,0,1,1,1,0,1,0,1,1,0,1,0,1,1,1,1,1,1,1,1,1,1,1,1]",,,,,,,,,,,,,41,2022-01-18_09h09.27.475,premceCat2_ses-01_part-01_label-phase1,2020.2.9,Win32,60,,,,,,,1,,,,,,stimuli/m2.jpg,stimuli/m5.jpg,1,stimuli/Electronic device & accessory.png,stimuli/Outdoor activity & sport item.png,stimuli/Hand labour tool & accessory.png,stimuli/Kitchen & utensil.png,2,1,1,stimuli/m2.jpg,,stimuli/objects/racquetballracket.jpg,,,,,,,,,2,1,0,36,36,36,1,Outdoor activity & sport item,1.2837,,,,,,,
1,"[0,0,0,0,0,0,1,0,1,1,0,1,0,1,1,1,0,1,1,1,1,0,1,0,1,1,1,0,1,0,1,1,0,1,0,1,1,1,1,1,1,1,1,1,1,1,1,1]",,,,,,,,,,,,,41,2022-01-18_09h09.27.475,premceCat2_ses-01_part-01_label-phase1,2020.2.9,Win32,60,,,,,,,1,,,,,,stimuli/m2.jpg,stimuli/m5.jpg,1,stimuli/Outdoor activity & sport item.png,stimuli/Hand labour tool & accessory.png,stimuli/Electronic device & accessory.png,stimuli/Kitchen & utensil.png,1,1,1,stimuli/m2.jpg,,stimuli/objects/telescope.jpg,,,,,,,,,1,1,0,37,37,37,1,Outdoor activity & sport item,0.967,,,,,,,
1,"[0,0,0,0,0,0,1,0,1,1,0,1,0,1,1,1,0,1,1,1,1,0,1,0,1,1,1,0,1,0,1,1,0,1,0,1,1,1,1,1,1,1,1,1,1,1,1,1,1]",,,,,,,,,,,,,41,2022-01-18_09h09.27.475,premceCat2_ses-01_part-01_label-phase1,2020.2.9,Win32,60,,,,,,,1,,,,,,stimuli/m5.jpg,stimuli/m2.jpg,2,stimuli/Hand labour tool & accessory.png,stimuli/Kitchen & utensil.png,stimuli/Electronic device & accessory.png,stimuli/Outdoor activity & sport item.png,4,1,1,stimuli/m2.jpg,,stimuli/objects/footballhelmet.jpg,,,,,,,,,4,1,0,38,38,38,1,Outdoor activity & sport item,1.0785,,,,,,,
1,"[0,0,0,0,0,0,1,0,1,1,0,1,0,1,1,1,0,1,1,1,1,0,1,0,1,1,1,0,1,0,1,1,0,1,0,1,1,1,1,1,1,1,1,1,1,1,1,1,1,1]",,,,,,,,,,,,,41,2022-01-18_09h09.27.475,premceCat2_ses-01_part-01_label-phase1,2020.2.9,Win32,60,,,,,,,1,,,,,,stimuli/m5.jpg,stimuli/m2.jpg,2,stimuli/Kitchen & utensil.png,stimuli/Hand labour tool & accessory.png,stimuli/Outdoor activity & sport item.png,stimuli/Electronic device & accessory.png,3,1,1,stimuli/m2.jpg,,stimuli/objects/swing.jpg,,,,,,,,,3,1,0,39,39,39,1,Outdoor activity & sport item,1.2804,,,,,,,
1,"[0,0,0,0,0,0,1,0,1,1,0,1,0,1,1,1,0,1,1,1,1,0,1,0,1,1,1,0,1,0,1,1,0,1,0,1,1,1,1,1,1,1,1,1,1,1,1,1,1,1,1]",,,,,,,,,,,,,41,2022-01-18_09h09.27.475,premceCat2_ses-01_part-01_label-phase1,2020.2.9,Win32,60,,,,,,,1,,,,,,stimuli/m5.jpg,stimuli/m2.jpg,1,stimuli/Outdoor activity & sport item.png,stimuli/Hand labour tool & accessory.png,stimuli/Electronic device & accessory.png,stimuli/Kitchen & utensil.png,2,1,1,stimuli/m5.jpg,,stimuli/objects/pitchfork.jpg,,,,,,,,,2,1,0,40,40,40,1,Hand labour tool & accessory,1.4007,,,,,,,
1,"[0,0,0,0,0,0,1,0,1,1,0,1,0,1,1,1,0,1,1,1,1,0,1,0,1,1,1,0,1,0,1,1,0,1,0,1,1,1,1,1,1,1,1,1,1,1,1,1,1,1,1,1]",,,,,,,,,,,,,41,2022-01-18_09h09.27.475,premceCat2_ses-01_part-01_label-phase1,2020.2.9,Win32,60,,,,,,,1,,,,,,stimuli/m2.jpg,stimuli/m5.jpg,1,stimuli/Hand labour tool & accessory.png,stimuli/Outdoor activity & sport item.png,stimuli/Electronic device & accessory.png,stimuli/Kitchen & utensil.png,2,1,1,stimuli/m2.jpg,,stimuli/objects/footballhelmet.jpg,,,,,,,,,2,1,0,41,41,41,1,Outdoor activity & sport item,0.985,,,,,,,
1,"[0,0,0,0,0,0,1,0,1,1,0,1,0,1,1,1,0,1,1,1,1,0,1,0,1,1,1,0,1,0,1,1,0,1,0,1,1,1,1,1,1,1,1,1,1,1,1,1,1,1,1,1,1]",,,,,,,,,,,,,41,2022-01-18_09h09.27.475,premceCat2_ses-01_part-01_label-phase1,2020.2.9,Win32,60,,,,,,,1,,,,,,stimuli/m5.jpg,stimuli/m2.jpg,2,stimuli/Hand labour tool & accessory.png,stimuli/Outdoor activity & sport item.png,stimuli/Kitchen & utensil.png,stimuli/Electronic device & accessory.png,2,1,1,stimuli/m2.jpg,,stimuli/objects/rollerblade.jpg,,,,,,,,,2,1,0,42,42,42,1,Outdoor activity & sport item,1.8533,,,,,,,
1,"[0,0,0,0,0,0,1,0,1,1,0,1,0,1,1,1,0,1,1,1,1,0,1,0,1,1,1,0,1,0,1,1,0,1,0,1,1,1,1,1,1,1,1,1,1,1,1,1,1,1,1,1,1,1]",,,,,,,,,,,,,41,2022-01-18_09h09.27.475,premceCat2_ses-01_part-01_label-phase1,2020.2.9,Win32,60,,,,,,,1,,,,,,stimuli/m2.jpg,stimuli/m5.jpg,1,stimuli/Outdoor activity & sport item.png,stimuli/Kitchen & utensil.png,stimuli/Hand labour tool & accessory.png,stimuli/Electronic device & accessory.png,1,1,1,stimuli/m2.jpg,,stimuli/objects/crosscountryski.jpg,,,,,,,,,1,1,0,43,43,43,1,Outdoor activity & sport item,1.452,,,,,,,
1,"[0,0,0,0,0,0,1,0,1,1,0,1,0,1,1,1,0,1,1,1,1,0,1,0,1,1,1,0,1,0,1,1,0,1,0,1,1,1,1,1,1,1,1,1,1,1,1,1,1,1,1,1,1,1,1]",,,,,,,,,,,,,41,2022-01-18_09h09.27.475,premceCat2_ses-01_part-01_label-phase1,2020.2.9,Win32,60,,,,,,,1,,,,,,stimuli/m5.jpg,stimuli/m2.jpg,1,stimuli/Kitchen & utensil.png,stimuli/Outdoor activity & sport item.png,stimuli/Hand labour tool & accessory.png,stimuli/Electronic device & accessory.png,3,1,1,stimuli/m5.jpg,,stimuli/objects/solderingiron.jpg,,,,,,,,,3,1,0,44,44,44,1,Hand labour tool & accessory,1.2606,,,,,,,
0,"[0,0,0,0,0,0,1,0,1,1,0,1,0,1,1,1,0,1,1,1,1,0,1,0,1,1,1,0,1,0,1,1,0,1,0,1,1,1,1,1,1,1,1,1,1,1,1,1,1,1,1,1,1,1,1,1]",,,,,,,,,,,,,41,2022-01-18_09h09.27.475,premceCat2_ses-01_part-01_label-phase1,2020.2.9,Win32,60,,,,,,,1,,,,,,stimuli/m5.jpg,stimuli/m2.jpg,2,stimuli/Kitchen & utensil.png,stimuli/Hand labour tool & accessory.png,stimuli/Electronic device & accessory.png,stimuli/Outdoor activity & sport item.png,2,0,1,stimuli/m2.jpg,,stimuli/objects/boxcutter03a.jpg,,,,,,,,,4,0,0,45,45,45,1,Hand labour tool & accessory,1.3204,,,,,,,
1,"[0,0,0,0,0,0,1,0,1,1,0,1,0,1,1,1,0,1,1,1,1,0,1,0,1,1,1,0,1,0,1,1,0,1,0,1,1,1,1,1,1,1,1,1,1,1,1,1,1,1,1,1,1,1,1,1]",,,,,,,,,,,,,41,2022-01-18_09h09.27.475,premceCat2_ses-01_part-01_label-phase1,2020.2.9,Win32,60,,,,,,,1,,,,,,stimuli/m2.jpg,stimuli/m5.jpg,2,stimuli/Kitchen & utensil.png,stimuli/Electronic device & accessory.png,stimuli/Hand labour tool & accessory.png,stimuli/Outdoor activity & sport item.png,3,1,1,stimuli/m5.jpg,,stimuli/objects/gavel.jpg,,,,,,,,,3,1,0,46,46,46,1,Hand labour tool & accessory,1.3555,,,,,,,
0,"[0,0,0,0,0,0,1,0,1,1,0,1,0,1,1,1,0,1,1,1,1,0,1,0,1,1,1,0,1,0,1,1,0,1,0,1,1,1,1,1,1,1,1,1,1,1,1,1,1,1,1,1,1,1,1,1,1]",,,,,,,,,,,,,41,2022-01-18_09h09.27.475,premceCat2_ses-01_part-01_label-phase1,2020.2.9,Win32,60,,,,,,,1,,,,,,stimuli/m5.jpg,stimuli/m2.jpg,2,stimuli/Outdoor activity & sport item.png,stimuli/Hand labour tool & accessory.png,stimuli/Kitchen & utensil.png,stimuli/Electronic device & accessory.png,4,0,1,stimuli/m2.jpg,,stimuli/objects/jack.jpg,,,,,,,,,1,0,0,47,47,47,1,Electronic device & accessory,1.2663,,,,,,,
,,,,,,,,,,,,,,41,2022-01-18_09h09.27.475,premceCat2_ses-01_part-01_label-phase1,2020.2.9,Win32,60,,,,,,,,,,,,,,,,,,,,,,,,,,,,,,,,,,,,,,,,,,,n,34.6451,0,0,0,0,1
