instructions_loop.thisRepN,instructions_loop.thisTrialN,instructions_loop.thisN,instructions_loop.thisIndex,instructions_loop.ran,text1,text2,text3,participant,date,expName,psychopyVersion,OS,frameRate,recog_resp.keys,recog_resp.rt,conf_resp.keys,conf_resp.rt,recog_loop.thisRepN,recog_loop.thisTrialN,recog_loop.thisN,recog_loop.thisIndex,recog_loop.ran,images,corr_ans,type,order,key_resp_break.keys,key_resp_break.rt,list_loop.thisRepN,list_loop.thisTrialN,list_loop.thisN,list_loop.thisIndex,list_loop.ran,recog_list
0,0,0,0,1,Welcome to the last phase of this experiment!,.,Please press the space bar to continue,11,2021-02-16_19h31.32.942,premceCat_ses-02_part-02_label-phase2,2020.2.10,Win32,60,,,,,,,,,,,,,,,,,,,,,
0,1,1,1,1,.,"In this phase, you will see some objects. 

For each object, you should indicate whether you have seen it before during the experiment.

Press LEFT ARROW for YES
Press RIGHT ARROW for NO

",Please press the space bar to continue ,11,2021-02-16_19h31.32.942,premceCat_ses-02_part-02_label-phase2,2020.2.10,Win32,60,,,,,,,,,,,,,,,,,,,,,
0,2,2,2,1,.,"After that, you will be asked how confident you are of your choice.

Please rate the confidence in your choce with the numbers from 1 to 4 of your keyboard. 

The numbers correspond to:

1 = Very unsure
2 = Unsure
3 = Sure
4 = Very Sure",Please press the space bar to continue,11,2021-02-16_19h31.32.942,premceCat_ses-02_part-02_label-phase2,2020.2.10,Win32,60,,,,,,,,,,,,,,,,,,,,,
0,3,3,3,1,.,"After completing half of the task, you will be given the possibility to take a break. ",Please press the space bar to start with the task!,11,2021-02-16_19h31.32.942,premceCat_ses-02_part-02_label-phase2,2020.2.10,Win32,60,,,,,,,,,,,,,,,,,,,,,
,,,,,,,,11,2021-02-16_19h31.32.942,premceCat_ses-02_part-02_label-phase2,2020.2.10,Win32,60,left,1.272,3,2.112,0,0,0,34,1,stimuli/objects/wetfloorsign.jpg,left,old,35,,,,,,,,
,,,,,,,,11,2021-02-16_19h31.32.942,premceCat_ses-02_part-02_label-phase2,2020.2.10,Win32,60,right,1.696,3,0.872,0,1,1,89,1,stimuli/objects/jumpingjack.jpg,right,new,90,,,,,,,,
,,,,,,,,11,2021-02-16_19h31.32.942,premceCat_ses-02_part-02_label-phase2,2020.2.10,Win32,60,left,0.927,4,0.788,0,2,2,130,1,stimuli/objects/servingspoon01.jpg,left,old,131,,,,,,,,
,,,,,,,,11,2021-02-16_19h31.32.942,premceCat_ses-02_part-02_label-phase2,2020.2.10,Win32,60,right,1.179,3,0.429,0,3,3,21,1,stimuli/objects/measuringspoon.jpg,right,new,22,,,,,,,,
,,,,,,,,11,2021-02-16_19h31.32.942,premceCat_ses-02_part-02_label-phase2,2020.2.10,Win32,60,right,1.367,1,0.468,0,4,4,77,1,stimuli/objects/catchermask.jpg,left,old,78,,,,,,,,
,,,,,,,,11,2021-02-16_19h31.32.942,premceCat_ses-02_part-02_label-phase2,2020.2.10,Win32,60,left,0.863,4,0.718,0,5,5,123,1,stimuli/objects/staplegun.jpg,left,old,124,,,,,,,,
,,,,,,,,11,2021-02-16_19h31.32.942,premceCat_ses-02_part-02_label-phase2,2020.2.10,Win32,60,right,1.527,2,0.362,0,6,6,30,1,stimuli/objects/satellitedish01.jpg,right,new,31,,,,,,,,
,,,,,,,,11,2021-02-16_19h31.32.942,premceCat_ses-02_part-02_label-phase2,2020.2.10,Win32,60,left,0.802,3,0.662,0,7,7,36,1,stimuli/objects/soccerball.jpg,left,old,37,,,,,,,,
,,,,,,,,11,2021-02-16_19h31.32.942,premceCat_ses-02_part-02_label-phase2,2020.2.10,Win32,60,right,1.423,2,0.519,0,8,8,61,1,stimuli/objects/soundmixer.jpg,left,old,62,,,,,,,,
,,,,,,,,11,2021-02-16_19h31.32.942,premceCat_ses-02_part-02_label-phase2,2020.2.10,Win32,60,left,0.873,4,0.647,0,9,9,74,1,stimuli/objects/surfboard.jpg,left,old,75,,,,,,,,
,,,,,,,,11,2021-02-16_19h31.32.942,premceCat_ses-02_part-02_label-phase2,2020.2.10,Win32,60,right,1.051,3,0.301,0,10,10,134,1,stimuli/objects/television.jpg,right,new,135,,,,,,,,
,,,,,,,,11,2021-02-16_19h31.32.942,premceCat_ses-02_part-02_label-phase2,2020.2.10,Win32,60,right,1.313,2,0.316,0,11,11,110,1,stimuli/objects/hammer01.jpg,right,new,111,,,,,,,,
,,,,,,,,11,2021-02-16_19h31.32.942,premceCat_ses-02_part-02_label-phase2,2020.2.10,Win32,60,right,2.634,1,0.296,0,12,12,49,1,stimuli/objects/flask.jpg,left,old,50,,,,,,,,
,,,,,,,,11,2021-02-16_19h31.32.942,premceCat_ses-02_part-02_label-phase2,2020.2.10,Win32,60,left,0.781,4,0.348,0,13,13,40,1,stimuli/objects/battery02b.jpg,left,old,41,,,,,,,,
,,,,,,,,11,2021-02-16_19h31.32.942,premceCat_ses-02_part-02_label-phase2,2020.2.10,Win32,60,left,0.771,4,0.344,0,14,14,87,1,stimuli/objects/golfbag.jpg,left,old,88,,,,,,,,
,,,,,,,,11,2021-02-16_19h31.32.942,premceCat_ses-02_part-02_label-phase2,2020.2.10,Win32,60,right,0.881,2,0.286,0,15,15,80,1,stimuli/objects/fanblades.jpg,right,new,81,,,,,,,,
,,,,,,,,11,2021-02-16_19h31.32.942,premceCat_ses-02_part-02_label-phase2,2020.2.10,Win32,60,right,1.071,2,0.435,0,16,16,71,1,stimuli/objects/webcam.jpg,right,new,72,,,,,,,,
,,,,,,,,11,2021-02-16_19h31.32.942,premceCat_ses-02_part-02_label-phase2,2020.2.10,Win32,60,left,1.12,2,0.364,0,17,17,65,1,stimuli/objects/ethernetcable02.jpg,left,old,66,,,,,,,,
,,,,,,,,11,2021-02-16_19h31.32.942,premceCat_ses-02_part-02_label-phase2,2020.2.10,Win32,60,left,1.567,3,0.76,0,18,18,94,1,stimuli/objects/corkscrew03a.jpg,right,new,95,,,,,,,,
,,,,,,,,11,2021-02-16_19h31.32.942,premceCat_ses-02_part-02_label-phase2,2020.2.10,Win32,60,right,1.579,3,0.935,0,19,19,68,1,stimuli/objects/flooringstapler.jpg,right,new,69,,,,,,,,
,,,,,,,,11,2021-02-16_19h31.32.942,premceCat_ses-02_part-02_label-phase2,2020.2.10,Win32,60,right,1.245,2,0.273,0,20,20,105,1,stimuli/objects/audiocablesplitter.jpg,left,old,106,,,,,,,,
,,,,,,,,11,2021-02-16_19h31.32.942,premceCat_ses-02_part-02_label-phase2,2020.2.10,Win32,60,left,0.946,4,0.333,0,21,21,29,1,stimuli/objects/filmroll.jpg,left,old,30,,,,,,,,
,,,,,,,,11,2021-02-16_19h31.32.942,premceCat_ses-02_part-02_label-phase2,2020.2.10,Win32,60,right,0.909,3,0.547,0,22,22,119,1,stimuli/objects/crocodileclips.jpg,right,new,120,,,,,,,,
,,,,,,,,11,2021-02-16_19h31.32.942,premceCat_ses-02_part-02_label-phase2,2020.2.10,Win32,60,left,1.172,3,0.927,0,23,23,37,1,stimuli/objects/paintroller01.jpg,left,old,38,,,,,,,,
,,,,,,,,11,2021-02-16_19h31.32.942,premceCat_ses-02_part-02_label-phase2,2020.2.10,Win32,60,left,0.917,2,0.433,0,24,24,31,1,stimuli/objects/printer02.jpg,left,old,32,,,,,,,,
,,,,,,,,11,2021-02-16_19h31.32.942,premceCat_ses-02_part-02_label-phase2,2020.2.10,Win32,60,left,1.262,2,0.582,0,25,25,107,1,stimuli/objects/axe01.jpg,left,old,108,,,,,,,,
,,,,,,,,11,2021-02-16_19h31.32.942,premceCat_ses-02_part-02_label-phase2,2020.2.10,Win32,60,right,1.162,2,0.368,0,26,26,138,1,stimuli/objects/minifridge.jpg,right,new,139,,,,,,,,
,,,,,,,,11,2021-02-16_19h31.32.942,premceCat_ses-02_part-02_label-phase2,2020.2.10,Win32,60,right,1.057,3,0.408,0,27,27,4,1,stimuli/objects/atm.jpg,right,new,5,,,,,,,,
,,,,,,,,11,2021-02-16_19h31.32.942,premceCat_ses-02_part-02_label-phase2,2020.2.10,Win32,60,right,1.145,3,0.279,0,28,28,75,1,stimuli/objects/puttyknife.jpg,right,new,76,,,,,,,,
,,,,,,,,11,2021-02-16_19h31.32.942,premceCat_ses-02_part-02_label-phase2,2020.2.10,Win32,60,left,0.941,4,0.492,0,29,29,62,1,stimuli/objects/gps.jpg,left,old,63,,,,,,,,
,,,,,,,,11,2021-02-16_19h31.32.942,premceCat_ses-02_part-02_label-phase2,2020.2.10,Win32,60,right,0.807,3,0.485,0,30,30,50,1,stimuli/objects/wateringcan.jpg,right,new,51,,,,,,,,
,,,,,,,,11,2021-02-16_19h31.32.942,premceCat_ses-02_part-02_label-phase2,2020.2.10,Win32,60,left,1.093,3,1.681,0,31,31,44,1,stimuli/objects/leafblower01.jpg,left,old,45,,,,,,,,
,,,,,,,,11,2021-02-16_19h31.32.942,premceCat_ses-02_part-02_label-phase2,2020.2.10,Win32,60,left,1.385,4,0.395,0,32,32,127,1,stimuli/objects/metalscissors.jpg,left,old,128,,,,,,,,
,,,,,,,,11,2021-02-16_19h31.32.942,premceCat_ses-02_part-02_label-phase2,2020.2.10,Win32,60,left,1.05,4,0.288,0,33,33,67,1,stimuli/objects/cowbell.jpg,left,old,68,,,,,,,,
,,,,,,,,11,2021-02-16_19h31.32.942,premceCat_ses-02_part-02_label-phase2,2020.2.10,Win32,60,right,0.921,3,0.607,0,34,34,81,1,stimuli/objects/tripod01.jpg,right,new,82,,,,,,,,
,,,,,,,,11,2021-02-16_19h31.32.942,premceCat_ses-02_part-02_label-phase2,2020.2.10,Win32,60,left,1.011,4,0.272,0,35,35,101,1,stimuli/objects/football.jpg,left,old,102,,,,,,,,
,,,,,,,,11,2021-02-16_19h31.32.942,premceCat_ses-02_part-02_label-phase2,2020.2.10,Win32,60,left,1.722,2,0.652,0,36,36,63,1,stimuli/objects/knife03.jpg,right,new,64,,,,,,,,
,,,,,,,,11,2021-02-16_19h31.32.942,premceCat_ses-02_part-02_label-phase2,2020.2.10,Win32,60,right,3.043,1,0.913,0,37,37,116,1,stimuli/objects/spoon01.jpg,right,new,117,,,,,,,,
,,,,,,,,11,2021-02-16_19h31.32.942,premceCat_ses-02_part-02_label-phase2,2020.2.10,Win32,60,left,1.829,2,0.257,0,38,38,56,1,stimuli/objects/scanner.jpg,left,old,57,,,,,,,,
,,,,,,,,11,2021-02-16_19h31.32.942,premceCat_ses-02_part-02_label-phase2,2020.2.10,Win32,60,right,1.306,3,0.349,0,39,39,38,1,stimuli/objects/fuse.jpg,right,new,39,,,,,,,,
,,,,,,,,11,2021-02-16_19h31.32.942,premceCat_ses-02_part-02_label-phase2,2020.2.10,Win32,60,right,1.357,3,0.29,0,40,40,141,1,stimuli/objects/skiboot01a.jpg,right,new,142,,,,,,,,
,,,,,,,,11,2021-02-16_19h31.32.942,premceCat_ses-02_part-02_label-phase2,2020.2.10,Win32,60,left,1.168,3,0.227,0,41,41,18,1,stimuli/objects/electricoutlet.jpg,right,new,19,,,,,,,,
,,,,,,,,11,2021-02-16_19h31.32.942,premceCat_ses-02_part-02_label-phase2,2020.2.10,Win32,60,left,1.128,4,0.259,0,42,42,96,1,stimuli/objects/chandelier.jpg,right,new,97,,,,,,,,
,,,,,,,,11,2021-02-16_19h31.32.942,premceCat_ses-02_part-02_label-phase2,2020.2.10,Win32,60,right,1.719,2,0.453,0,43,43,122,1,stimuli/objects/ellipticalmachine.jpg,left,old,123,,,,,,,,
,,,,,,,,11,2021-02-16_19h31.32.942,premceCat_ses-02_part-02_label-phase2,2020.2.10,Win32,60,left,1.844,2,0.241,0,44,44,51,1,stimuli/objects/walkietalkie.jpg,right,new,52,,,,,,,,
,,,,,,,,11,2021-02-16_19h31.32.942,premceCat_ses-02_part-02_label-phase2,2020.2.10,Win32,60,left,1.074,3,0.27,0,45,45,88,1,stimuli/objects/desktopcomputer.jpg,left,old,89,,,,,,,,
,,,,,,,,11,2021-02-16_19h31.32.942,premceCat_ses-02_part-02_label-phase2,2020.2.10,Win32,60,right,1.046,3,0.298,0,46,46,42,1,stimuli/objects/anchor.jpg,right,new,43,,,,,,,,
,,,,,,,,11,2021-02-16_19h31.32.942,premceCat_ses-02_part-02_label-phase2,2020.2.10,Win32,60,left,1.027,4,0.256,0,47,47,16,1,stimuli/objects/filmnegative.jpg,left,old,17,,,,,,,,
,,,,,,,,11,2021-02-16_19h31.32.942,premceCat_ses-02_part-02_label-phase2,2020.2.10,Win32,60,left,1.184,4,0.246,0,48,48,142,1,stimuli/objects/alarmclock01.jpg,left,old,143,,,,,,,,
,,,,,,,,11,2021-02-16_19h31.32.942,premceCat_ses-02_part-02_label-phase2,2020.2.10,Win32,60,left,1.619,2,0.545,0,49,49,12,1,stimuli/objects/drinkshaker.jpg,right,new,13,,,,,,,,
,,,,,,,,11,2021-02-16_19h31.32.942,premceCat_ses-02_part-02_label-phase2,2020.2.10,Win32,60,left,0.747,4,0.262,0,50,50,27,1,stimuli/objects/bikewheel.jpg,left,old,28,,,,,,,,
,,,,,,,,11,2021-02-16_19h31.32.942,premceCat_ses-02_part-02_label-phase2,2020.2.10,Win32,60,right,0.851,3,0.255,0,51,51,106,1,stimuli/objects/towel01.jpg,right,new,107,,,,,,,,
,,,,,,,,11,2021-02-16_19h31.32.942,premceCat_ses-02_part-02_label-phase2,2020.2.10,Win32,60,left,1.005,3,0.634,0,52,52,28,1,stimuli/objects/tongs01b.jpg,left,old,29,,,,,,,,
,,,,,,,,11,2021-02-16_19h31.32.942,premceCat_ses-02_part-02_label-phase2,2020.2.10,Win32,60,left,0.756,4,0.621,0,53,53,58,1,stimuli/objects/tape02a.jpg,left,old,59,,,,,,,,
,,,,,,,,11,2021-02-16_19h31.32.942,premceCat_ses-02_part-02_label-phase2,2020.2.10,Win32,60,left,0.925,4,0.857,0,54,54,10,1,stimuli/objects/cameracase01a.jpg,left,old,11,,,,,,,,
,,,,,,,,11,2021-02-16_19h31.32.942,premceCat_ses-02_part-02_label-phase2,2020.2.10,Win32,60,left,0.706,4,0.279,0,55,55,104,1,stimuli/objects/rollingpin01a.jpg,left,old,105,,,,,,,,
,,,,,,,,11,2021-02-16_19h31.32.942,premceCat_ses-02_part-02_label-phase2,2020.2.10,Win32,60,left,0.874,4,0.265,0,56,56,35,1,stimuli/objects/crosscountryski.jpg,left,old,36,,,,,,,,
,,,,,,,,11,2021-02-16_19h31.32.942,premceCat_ses-02_part-02_label-phase2,2020.2.10,Win32,60,right,1.481,2,0.337,0,57,57,99,1,stimuli/objects/weedwacker.jpg,left,old,100,,,,,,,,
,,,,,,,,11,2021-02-16_19h31.32.942,premceCat_ses-02_part-02_label-phase2,2020.2.10,Win32,60,left,1.062,4,0.223,0,58,58,79,1,stimuli/objects/straw.jpg,left,old,80,,,,,,,,
,,,,,,,,11,2021-02-16_19h31.32.942,premceCat_ses-02_part-02_label-phase2,2020.2.10,Win32,60,right,0.875,3,0.285,0,59,59,90,1,stimuli/objects/canister.jpg,right,new,91,,,,,,,,
,,,,,,,,11,2021-02-16_19h31.32.942,premceCat_ses-02_part-02_label-phase2,2020.2.10,Win32,60,left,1.257,1,0.473,0,60,60,121,1,stimuli/objects/chocolatefonduedish.jpg,right,new,122,,,,,,,,
,,,,,,,,11,2021-02-16_19h31.32.942,premceCat_ses-02_part-02_label-phase2,2020.2.10,Win32,60,left,0.946,4,0.042,0,61,61,115,1,stimuli/objects/beermug01a.jpg,left,old,116,,,,,,,,
,,,,,,,,11,2021-02-16_19h31.32.942,premceCat_ses-02_part-02_label-phase2,2020.2.10,Win32,60,right,3.467,2,0.416,0,62,62,39,1,stimuli/objects/tableknife02.jpg,right,new,40,,,,,,,,
,,,,,,,,11,2021-02-16_19h31.32.942,premceCat_ses-02_part-02_label-phase2,2020.2.10,Win32,60,right,2.194,2,0.657,0,63,63,100,1,stimuli/objects/pot01.jpg,right,new,101,,,,,,,,
,,,,,,,,11,2021-02-16_19h31.32.942,premceCat_ses-02_part-02_label-phase2,2020.2.10,Win32,60,right,0.855,3,0.304,0,64,64,125,1,stimuli/objects/diaperbag.jpg,right,new,126,,,,,,,,
,,,,,,,,11,2021-02-16_19h31.32.942,premceCat_ses-02_part-02_label-phase2,2020.2.10,Win32,60,right,0.811,3,0.228,0,65,65,93,1,stimuli/objects/payphone.jpg,right,new,94,,,,,,,,
,,,,,,,,11,2021-02-16_19h31.32.942,premceCat_ses-02_part-02_label-phase2,2020.2.10,Win32,60,right,1.306,1,0.237,0,66,66,109,1,stimuli/objects/computerkeyboard02.jpg,right,new,110,,,,,,,,
,,,,,,,,11,2021-02-16_19h31.32.942,premceCat_ses-02_part-02_label-phase2,2020.2.10,Win32,60,left,1.14,3,1.102,0,67,67,64,1,stimuli/objects/measuringcup01.jpg,left,old,65,,,,,,,,
,,,,,,,,11,2021-02-16_19h31.32.942,premceCat_ses-02_part-02_label-phase2,2020.2.10,Win32,60,right,0.919,2,0.255,0,68,68,9,1,stimuli/objects/shopvac.jpg,right,new,10,,,,,,,,
,,,,,,,,11,2021-02-16_19h31.32.942,premceCat_ses-02_part-02_label-phase2,2020.2.10,Win32,60,right,1.069,3,0.484,0,69,69,82,1,stimuli/objects/caulking.jpg,right,new,83,,,,,,,,
,,,,,,,,11,2021-02-16_19h31.32.942,premceCat_ses-02_part-02_label-phase2,2020.2.10,Win32,60,left,1.225,3,0.633,0,70,70,15,1,stimuli/objects/hosenozzle.jpg,left,old,16,,,,,,,,
,,,,,,,,11,2021-02-16_19h31.32.942,premceCat_ses-02_part-02_label-phase2,2020.2.10,Win32,60,right,1.896,1,0.317,0,71,71,78,1,stimuli/objects/downhillski.jpg,left,old,79,,,,,,,,
,,,,,,,,11,2021-02-16_19h31.32.942,premceCat_ses-02_part-02_label-phase2,2020.2.10,Win32,60,left,0.866,4,0.417,0,72,72,14,1,stimuli/objects/kitchenscale01a.jpg,left,old,15,,,,,,,,
,,,,,,,,11,2021-02-16_19h31.32.942,premceCat_ses-02_part-02_label-phase2,2020.2.10,Win32,60,left,1.692,1,0.259,0,73,73,83,1,stimuli/objects/contactlens.jpg,right,new,84,,,,,,,,
,,,,,,,,11,2021-02-16_19h31.32.942,premceCat_ses-02_part-02_label-phase2,2020.2.10,Win32,60,left,1.202,2,0.254,0,74,74,124,1,stimuli/objects/hockeystick.jpg,left,old,125,,,,,,,,
,,,,,,,,11,2021-02-16_19h31.32.942,premceCat_ses-02_part-02_label-phase2,2020.2.10,Win32,60,right,2.676,1,1.237,0,75,75,54,1,stimuli/objects/cashregister01.jpg,right,new,55,,,,,,,,
,,,,,,,,11,2021-02-16_19h31.32.942,premceCat_ses-02_part-02_label-phase2,2020.2.10,Win32,60,left,1.493,3,0.343,0,76,76,25,1,stimuli/objects/bikepump01.jpg,right,new,26,,,,,,,,
,,,,,,,,11,2021-02-16_19h31.32.942,premceCat_ses-02_part-02_label-phase2,2020.2.10,Win32,60,right,1.571,2,1.423,0,77,77,131,1,stimuli/objects/electricmixer.jpg,right,new,132,,,,,,,,
,,,,,,,,11,2021-02-16_19h31.32.942,premceCat_ses-02_part-02_label-phase2,2020.2.10,Win32,60,left,1.08,3,0.31,0,78,78,20,1,stimuli/objects/walkman.jpg,right,new,21,,,,,,,,
,,,,,,,,11,2021-02-16_19h31.32.942,premceCat_ses-02_part-02_label-phase2,2020.2.10,Win32,60,left,0.727,4,1.036,0,79,79,97,1,stimuli/objects/birdie.jpg,left,old,98,,,,,,,,
,,,,,,,,11,2021-02-16_19h31.32.942,premceCat_ses-02_part-02_label-phase2,2020.2.10,Win32,60,left,0.995,3,1.183,0,80,80,52,1,stimuli/objects/exercisemachine.jpg,left,old,53,,,,,,,,
,,,,,,,,11,2021-02-16_19h31.32.942,premceCat_ses-02_part-02_label-phase2,2020.2.10,Win32,60,left,0.883,3,0.26,0,81,81,72,1,stimuli/objects/hedgeshears.jpg,right,new,73,,,,,,,,
,,,,,,,,11,2021-02-16_19h31.32.942,premceCat_ses-02_part-02_label-phase2,2020.2.10,Win32,60,left,0.713,4,0.264,0,82,82,137,1,stimuli/objects/poolnet.jpg,left,old,138,,,,,,,,
,,,,,,,,11,2021-02-16_19h31.32.942,premceCat_ses-02_part-02_label-phase2,2020.2.10,Win32,60,right,1.378,3,1.154,0,83,83,57,1,stimuli/objects/dvdcase01.jpg,right,new,58,,,,,,,,
,,,,,,,,11,2021-02-16_19h31.32.942,premceCat_ses-02_part-02_label-phase2,2020.2.10,Win32,60,right,0.907,3,0.482,0,84,84,136,1,stimuli/objects/laptop01a.jpg,right,new,137,,,,,,,,
,,,,,,,,11,2021-02-16_19h31.32.942,premceCat_ses-02_part-02_label-phase2,2020.2.10,Win32,60,right,1.186,2,0.365,0,85,85,41,1,stimuli/objects/foodprocessor.jpg,right,new,42,,,,,,,,
,,,,,,,,11,2021-02-16_19h31.32.942,premceCat_ses-02_part-02_label-phase2,2020.2.10,Win32,60,left,1.009,4,0.236,0,86,86,102,1,stimuli/objects/wafflemaker.jpg,left,old,103,,,,,,,,
,,,,,,,,11,2021-02-16_19h31.32.942,premceCat_ses-02_part-02_label-phase2,2020.2.10,Win32,60,left,0.791,4,0.237,0,87,87,129,1,stimuli/objects/skihelmet01.jpg,left,old,130,,,,,,,,
,,,,,,,,11,2021-02-16_19h31.32.942,premceCat_ses-02_part-02_label-phase2,2020.2.10,Win32,60,left,0.692,4,0.28,0,88,88,2,1,stimuli/objects/muffintray01.jpg,left,old,3,,,,,,,,
,,,,,,,,11,2021-02-16_19h31.32.942,premceCat_ses-02_part-02_label-phase2,2020.2.10,Win32,60,left,1.306,2,0.776,0,89,89,92,1,stimuli/objects/pliers02b.jpg,right,new,93,,,,,,,,
,,,,,,,,11,2021-02-16_19h31.32.942,premceCat_ses-02_part-02_label-phase2,2020.2.10,Win32,60,right,1.492,2,0.375,0,90,90,23,1,stimuli/objects/volleyball.jpg,right,new,24,,,,,,,,
,,,,,,,,11,2021-02-16_19h31.32.942,premceCat_ses-02_part-02_label-phase2,2020.2.10,Win32,60,left,0.948,2,0.269,0,91,91,120,1,stimuli/objects/camera01a.jpg,left,old,121,,,,,,,,
,,,,,,,,11,2021-02-16_19h31.32.942,premceCat_ses-02_part-02_label-phase2,2020.2.10,Win32,60,right,2.186,2,0.721,0,92,92,17,1,stimuli/objects/basketballhoop01.jpg,right,new,18,,,,,,,,
,,,,,,,,11,2021-02-16_19h31.32.942,premceCat_ses-02_part-02_label-phase2,2020.2.10,Win32,60,left,1.453,1,1.037,0,93,93,98,1,stimuli/objects/cleaver01.jpg,left,old,99,,,,,,,,
,,,,,,,,11,2021-02-16_19h31.32.942,premceCat_ses-02_part-02_label-phase2,2020.2.10,Win32,60,right,1.355,3,0.367,0,94,94,76,1,stimuli/objects/parachute.jpg,right,new,77,,,,,,,,
,,,,,,,,11,2021-02-16_19h31.32.942,premceCat_ses-02_part-02_label-phase2,2020.2.10,Win32,60,right,1.317,3,0.366,0,95,95,133,1,stimuli/objects/avcable.jpg,right,new,134,,,,,,,,
,,,,,,,,11,2021-02-16_19h31.32.942,premceCat_ses-02_part-02_label-phase2,2020.2.10,Win32,60,right,0.907,2,0.953,0,96,96,22,1,stimuli/objects/rollerblade.jpg,right,new,23,,,,,,,,
,,,,,,,,11,2021-02-16_19h31.32.942,premceCat_ses-02_part-02_label-phase2,2020.2.10,Win32,60,left,0.782,4,0.357,0,97,97,118,1,stimuli/objects/toolbox02.jpg,left,old,119,,,,,,,,
,,,,,,,,11,2021-02-16_19h31.32.942,premceCat_ses-02_part-02_label-phase2,2020.2.10,Win32,60,left,0.998,3,0.685,0,98,98,0,1,stimuli/objects/ceilingspeaker.jpg,left,old,1,,,,,,,,
,,,,,,,,11,2021-02-16_19h31.32.942,premceCat_ses-02_part-02_label-phase2,2020.2.10,Win32,60,left,0.933,3,0.478,0,99,99,5,1,stimuli/objects/drillbit03a.jpg,left,old,6,,,,,,,,
,,,,,,,,11,2021-02-16_19h31.32.942,premceCat_ses-02_part-02_label-phase2,2020.2.10,Win32,60,right,0.795,3,0.587,0,100,100,108,1,stimuli/objects/pylon01.jpg,right,new,109,,,,,,,,
,,,,,,,,11,2021-02-16_19h31.32.942,premceCat_ses-02_part-02_label-phase2,2020.2.10,Win32,60,right,1.033,2,0.269,0,101,101,33,1,stimuli/objects/spatula03.jpg,right,new,34,,,,,,,,
,,,,,,,,11,2021-02-16_19h31.32.942,premceCat_ses-02_part-02_label-phase2,2020.2.10,Win32,60,left,0.846,4,0.245,0,102,102,91,1,stimuli/objects/espressomachine.jpg,left,old,92,,,,,,,,
,,,,,,,,11,2021-02-16_19h31.32.942,premceCat_ses-02_part-02_label-phase2,2020.2.10,Win32,60,right,1.057,3,1.411,0,103,103,47,1,stimuli/objects/icescraper.jpg,left,old,48,,,,,,,,
,,,,,,,,11,2021-02-16_19h31.32.942,premceCat_ses-02_part-02_label-phase2,2020.2.10,Win32,60,left,1.375,3,0.225,0,104,104,1,1,stimuli/objects/canoepaddle02.jpg,left,old,2,,,,,,,,
,,,,,,,,11,2021-02-16_19h31.32.942,premceCat_ses-02_part-02_label-phase2,2020.2.10,Win32,60,left,0.76,4,0.219,0,105,105,95,1,stimuli/objects/boxingglove01.jpg,left,old,96,,,,,,,,
,,,,,,,,11,2021-02-16_19h31.32.942,premceCat_ses-02_part-02_label-phase2,2020.2.10,Win32,60,right,0.753,3,0.337,0,106,106,103,1,stimuli/objects/cellphone.jpg,left,old,104,,,,,,,,
,,,,,,,,11,2021-02-16_19h31.32.942,premceCat_ses-02_part-02_label-phase2,2020.2.10,Win32,60,right,0.759,4,0.676,0,107,107,24,1,stimuli/objects/punchingbag.jpg,right,new,25,,,,,,,,
,,,,,,,,11,2021-02-16_19h31.32.942,premceCat_ses-02_part-02_label-phase2,2020.2.10,Win32,60,left,1.024,2,0.419,0,108,108,48,1,stimuli/objects/rope03.jpg,left,old,49,,,,,,,,
,,,,,,,,11,2021-02-16_19h31.32.942,premceCat_ses-02_part-02_label-phase2,2020.2.10,Win32,60,left,0.872,3,0.252,0,109,109,6,1,stimuli/objects/clock01a.jpg,left,old,7,,,,,,,,
,,,,,,,,11,2021-02-16_19h31.32.942,premceCat_ses-02_part-02_label-phase2,2020.2.10,Win32,60,left,0.76,4,0.369,0,110,110,84,1,stimuli/objects/lawnmower.jpg,left,old,85,,,,,,,,
,,,,,,,,11,2021-02-16_19h31.32.942,premceCat_ses-02_part-02_label-phase2,2020.2.10,Win32,60,left,0.957,3,0.135,0,111,111,114,1,stimuli/objects/halogenlightbulb.jpg,left,old,115,,,,,,,,
,,,,,,,,11,2021-02-16_19h31.32.942,premceCat_ses-02_part-02_label-phase2,2020.2.10,Win32,60,right,0.843,3,0.243,0,112,112,46,1,stimuli/objects/sportbag.jpg,right,new,47,,,,,,,,
,,,,,,,,11,2021-02-16_19h31.32.942,premceCat_ses-02_part-02_label-phase2,2020.2.10,Win32,60,left,1.32,1,0.154,0,113,113,60,1,stimuli/objects/plate01b.jpg,right,new,61,,,,,,,,
,,,,,,,,11,2021-02-16_19h31.32.942,premceCat_ses-02_part-02_label-phase2,2020.2.10,Win32,60,right,1.242,2,0.244,0,114,114,19,1,stimuli/objects/coffeepot03a.jpg,right,new,20,,,,,,,,
,,,,,,,,11,2021-02-16_19h31.32.942,premceCat_ses-02_part-02_label-phase2,2020.2.10,Win32,60,left,0.778,4,0.349,0,115,115,8,1,stimuli/objects/glass02a.jpg,left,old,9,,,,,,,,
,,,,,,,,11,2021-02-16_19h31.32.942,premceCat_ses-02_part-02_label-phase2,2020.2.10,Win32,60,left,1,4,0.192,0,116,116,135,1,stimuli/objects/carbattery.jpg,left,old,136,,,,,,,,
,,,,,,,,11,2021-02-16_19h31.32.942,premceCat_ses-02_part-02_label-phase2,2020.2.10,Win32,60,right,0.95,3,0.875,0,117,117,59,1,stimuli/objects/dvdplayer.jpg,right,new,60,,,,,,,,
,,,,,,,,11,2021-02-16_19h31.32.942,premceCat_ses-02_part-02_label-phase2,2020.2.10,Win32,60,right,0.911,4,0.259,0,118,118,73,1,stimuli/objects/kiddiepool.jpg,right,new,74,,,,,,,,
,,,,,,,,11,2021-02-16_19h31.32.942,premceCat_ses-02_part-02_label-phase2,2020.2.10,Win32,60,left,1.089,2,0.311,0,119,119,3,1,stimuli/objects/spotlight.jpg,left,old,4,,,,,,,,
,,,,,,,,11,2021-02-16_19h31.32.942,premceCat_ses-02_part-02_label-phase2,2020.2.10,Win32,60,left,1.185,3,0.016,0,120,120,70,1,stimuli/objects/pda.jpg,left,old,71,,,,,,,,
,,,,,,,,11,2021-02-16_19h31.32.942,premceCat_ses-02_part-02_label-phase2,2020.2.10,Win32,60,right,0.792,4,0.329,0,121,121,26,1,stimuli/objects/hockeygoaliepad.jpg,right,new,27,,,,,,,,
,,,,,,,,11,2021-02-16_19h31.32.942,premceCat_ses-02_part-02_label-phase2,2020.2.10,Win32,60,left,1.14,3,0.343,0,122,122,140,1,stimuli/objects/toasteroven.jpg,left,old,141,,,,,,,,
,,,,,,,,11,2021-02-16_19h31.32.942,premceCat_ses-02_part-02_label-phase2,2020.2.10,Win32,60,right,0.748,4,0.29,0,123,123,126,1,stimuli/objects/swing.jpg,right,new,127,,,,,,,,
,,,,,,,,11,2021-02-16_19h31.32.942,premceCat_ses-02_part-02_label-phase2,2020.2.10,Win32,60,right,0.806,4,0.289,0,124,124,43,1,stimuli/objects/lifejacket.jpg,right,new,44,,,,,,,,
,,,,,,,,11,2021-02-16_19h31.32.942,premceCat_ses-02_part-02_label-phase2,2020.2.10,Win32,60,left,1.073,2,0.223,0,125,125,132,1,stimuli/objects/cooler01.jpg,left,old,133,,,,,,,,
,,,,,,,,11,2021-02-16_19h31.32.942,premceCat_ses-02_part-02_label-phase2,2020.2.10,Win32,60,right,1.466,2,0.321,0,126,126,117,1,stimuli/objects/ipad02.jpg,right,new,118,,,,,,,,
,,,,,,,,11,2021-02-16_19h31.32.942,premceCat_ses-02_part-02_label-phase2,2020.2.10,Win32,60,right,0.933,3,0.242,0,127,127,85,1,stimuli/objects/skigoggles01.jpg,right,new,86,,,,,,,,
,,,,,,,,11,2021-02-16_19h31.32.942,premceCat_ses-02_part-02_label-phase2,2020.2.10,Win32,60,right,1.189,3,0.436,0,128,128,112,1,stimuli/objects/bikelock.jpg,right,new,113,,,,,,,,
,,,,,,,,11,2021-02-16_19h31.32.942,premceCat_ses-02_part-02_label-phase2,2020.2.10,Win32,60,left,0.982,2,0.231,0,129,129,69,1,stimuli/objects/skateboard.jpg,left,old,70,,,,,,,,
,,,,,,,,11,2021-02-16_19h31.32.942,premceCat_ses-02_part-02_label-phase2,2020.2.10,Win32,60,left,1.089,1,0.511,0,130,130,53,1,stimuli/objects/smokedetector02.jpg,right,new,54,,,,,,,,
,,,,,,,,11,2021-02-16_19h31.32.942,premceCat_ses-02_part-02_label-phase2,2020.2.10,Win32,60,left,1.625,4,0.422,0,131,131,13,1,stimuli/objects/cookingpot.jpg,right,new,14,,,,,,,,
,,,,,,,,11,2021-02-16_19h31.32.942,premceCat_ses-02_part-02_label-phase2,2020.2.10,Win32,60,right,2.623,2,0.356,0,132,132,139,1,stimuli/objects/solderingiron.jpg,right,new,140,,,,,,,,
,,,,,,,,11,2021-02-16_19h31.32.942,premceCat_ses-02_part-02_label-phase2,2020.2.10,Win32,60,right,1.444,3,0.301,0,133,133,55,1,stimuli/objects/snowblower.jpg,right,new,56,,,,,,,,
,,,,,,,,11,2021-02-16_19h31.32.942,premceCat_ses-02_part-02_label-phase2,2020.2.10,Win32,60,right,1.487,1,0.126,0,134,134,11,1,stimuli/objects/lightswitch01.jpg,left,old,12,,,,,,,,
,,,,,,,,11,2021-02-16_19h31.32.942,premceCat_ses-02_part-02_label-phase2,2020.2.10,Win32,60,right,1.029,1,0.234,0,135,135,128,1,stimuli/objects/bastingbrush.jpg,right,new,129,,,,,,,,
,,,,,,,,11,2021-02-16_19h31.32.942,premceCat_ses-02_part-02_label-phase2,2020.2.10,Win32,60,right,1.065,1,0.476,0,136,136,113,1,stimuli/objects/taperecorder.jpg,right,new,114,,,,,,,,
,,,,,,,,11,2021-02-16_19h31.32.942,premceCat_ses-02_part-02_label-phase2,2020.2.10,Win32,60,left,0.971,3,0.596,0,137,137,7,1,stimuli/objects/handrake01a.jpg,left,old,8,,,,,,,,
,,,,,,,,11,2021-02-16_19h31.32.942,premceCat_ses-02_part-02_label-phase2,2020.2.10,Win32,60,left,1.142,2,0.325,0,138,138,86,1,stimuli/objects/styrofoamcup.jpg,right,new,87,,,,,,,,
,,,,,,,,11,2021-02-16_19h31.32.942,premceCat_ses-02_part-02_label-phase2,2020.2.10,Win32,60,right,1.208,3,0.592,0,139,139,32,1,stimuli/objects/mitresaw.jpg,right,new,33,,,,,,,,
,,,,,,,,11,2021-02-16_19h31.32.942,premceCat_ses-02_part-02_label-phase2,2020.2.10,Win32,60,left,1,3,0.124,0,140,140,45,1,stimuli/objects/mallet01b.jpg,left,old,46,,,,,,,,
,,,,,,,,11,2021-02-16_19h31.32.942,premceCat_ses-02_part-02_label-phase2,2020.2.10,Win32,60,right,1.147,2,0.347,0,141,141,66,1,stimuli/objects/tablesaw.jpg,right,new,67,,,,,,,,
,,,,,,,,11,2021-02-16_19h31.32.942,premceCat_ses-02_part-02_label-phase2,2020.2.10,Win32,60,left,0.765,4,0.466,0,142,142,111,1,stimuli/objects/tray.jpg,right,new,112,,,,,,,,
,,,,,,,,11,2021-02-16_19h31.32.942,premceCat_ses-02_part-02_label-phase2,2020.2.10,Win32,60,,,,,,,,,,,,,,space,15.867,0,0,0,0,1,condition_files/ImagesforRecog4_1.csv
,,,,,,,,11,2021-02-16_19h31.32.942,premceCat_ses-02_part-02_label-phase2,2020.2.10,Win32,60,left,1.51,4,0.883,0,0,0,114,1,stimuli/objects/ladder.jpg,left,old,258,,,,,,,,
,,,,,,,,11,2021-02-16_19h31.32.942,premceCat_ses-02_part-02_label-phase2,2020.2.10,Win32,60,right,1.302,2,0.606,0,1,1,66,1,stimuli/objects/securitycamera.jpg,right,new,210,,,,,,,,
,,,,,,,,11,2021-02-16_19h31.32.942,premceCat_ses-02_part-02_label-phase2,2020.2.10,Win32,60,left,0.829,3,0.251,0,2,2,70,1,stimuli/objects/fridge.jpg,left,old,214,,,,,,,,
,,,,,,,,11,2021-02-16_19h31.32.942,premceCat_ses-02_part-02_label-phase2,2020.2.10,Win32,60,right,0.778,3,0.19,0,3,3,120,1,stimuli/objects/wire.jpg,right,new,264,,,,,,,,
,,,,,,,,11,2021-02-16_19h31.32.942,premceCat_ses-02_part-02_label-phase2,2020.2.10,Win32,60,left,0.964,3,0.513,0,4,4,140,1,stimuli/objects/golfball.jpg,left,old,284,,,,,,,,
,,,,,,,,11,2021-02-16_19h31.32.942,premceCat_ses-02_part-02_label-phase2,2020.2.10,Win32,60,left,0.83,4,0.243,0,5,5,101,1,stimuli/objects/jumpercables.jpg,left,old,245,,,,,,,,
,,,,,,,,11,2021-02-16_19h31.32.942,premceCat_ses-02_part-02_label-phase2,2020.2.10,Win32,60,left,1.335,2,0.312,0,6,6,131,1,stimuli/objects/hockeygoalieglove.jpg,right,new,275,,,,,,,,
,,,,,,,,11,2021-02-16_19h31.32.942,premceCat_ses-02_part-02_label-phase2,2020.2.10,Win32,60,right,2.047,1,0.246,0,7,7,49,1,stimuli/objects/jigsaw.jpg,right,new,193,,,,,,,,
,,,,,,,,11,2021-02-16_19h31.32.942,premceCat_ses-02_part-02_label-phase2,2020.2.10,Win32,60,left,0.871,3,0.002,0,8,8,63,1,stimuli/objects/photocopier.jpg,left,old,207,,,,,,,,
,,,,,,,,11,2021-02-16_19h31.32.942,premceCat_ses-02_part-02_label-phase2,2020.2.10,Win32,60,left,0.715,4,0.144,0,9,9,75,1,stimuli/objects/peeler01.jpg,left,old,219,,,,,,,,
,,,,,,,,11,2021-02-16_19h31.32.942,premceCat_ses-02_part-02_label-phase2,2020.2.10,Win32,60,left,0.959,3,0.249,0,10,10,60,1,stimuli/objects/propanetank01.jpg,left,old,204,,,,,,,,
,,,,,,,,11,2021-02-16_19h31.32.942,premceCat_ses-02_part-02_label-phase2,2020.2.10,Win32,60,right,0.895,3,0.278,0,11,11,15,1,stimuli/objects/jug.jpg,right,new,159,,,,,,,,
,,,,,,,,11,2021-02-16_19h31.32.942,premceCat_ses-02_part-02_label-phase2,2020.2.10,Win32,60,left,1.13,1,0.205,0,12,12,45,1,stimuli/objects/boxcutter03a.jpg,left,old,189,,,,,,,,
,,,,,,,,11,2021-02-16_19h31.32.942,premceCat_ses-02_part-02_label-phase2,2020.2.10,Win32,60,left,0.911,3,0.278,0,13,13,126,1,stimuli/objects/bowrake.jpg,left,old,270,,,,,,,,
,,,,,,,,11,2021-02-16_19h31.32.942,premceCat_ses-02_part-02_label-phase2,2020.2.10,Win32,60,left,0.791,4,0.291,0,14,14,9,1,stimuli/objects/weight01.jpg,left,old,153,,,,,,,,
,,,,,,,,11,2021-02-16_19h31.32.942,premceCat_ses-02_part-02_label-phase2,2020.2.10,Win32,60,left,0.694,3,0.425,0,15,15,47,1,stimuli/objects/fork03c.jpg,left,old,191,,,,,,,,
,,,,,,,,11,2021-02-16_19h31.32.942,premceCat_ses-02_part-02_label-phase2,2020.2.10,Win32,60,right,1.021,2,0.167,0,16,16,89,1,stimuli/objects/usbcable01a.jpg,left,old,233,,,,,,,,
,,,,,,,,11,2021-02-16_19h31.32.942,premceCat_ses-02_part-02_label-phase2,2020.2.10,Win32,60,right,1.292,1,0.194,0,17,17,128,1,stimuli/objects/funnel.jpg,right,new,272,,,,,,,,
,,,,,,,,11,2021-02-16_19h31.32.942,premceCat_ses-02_part-02_label-phase2,2020.2.10,Win32,60,left,0.756,4,0.109,0,18,18,136,1,stimuli/objects/nintendods.jpg,left,old,280,,,,,,,,
,,,,,,,,11,2021-02-16_19h31.32.942,premceCat_ses-02_part-02_label-phase2,2020.2.10,Win32,60,right,1.218,3,0.061,0,19,19,12,1,stimuli/objects/bottleopener01.jpg,right,new,156,,,,,,,,
,,,,,,,,11,2021-02-16_19h31.32.942,premceCat_ses-02_part-02_label-phase2,2020.2.10,Win32,60,right,0.95,4,0.201,0,20,20,69,1,stimuli/objects/wheelbarrow01.jpg,right,new,213,,,,,,,,
,,,,,,,,11,2021-02-16_19h31.32.942,premceCat_ses-02_part-02_label-phase2,2020.2.10,Win32,60,right,1.237,2,0.024,0,21,21,50,1,stimuli/objects/coffeemaker.jpg,right,new,194,,,,,,,,
,,,,,,,,11,2021-02-16_19h31.32.942,premceCat_ses-02_part-02_label-phase2,2020.2.10,Win32,60,left,0.872,3,0.342,0,22,22,42,1,stimuli/objects/treadmill.jpg,left,old,186,,,,,,,,
,,,,,,,,11,2021-02-16_19h31.32.942,premceCat_ses-02_part-02_label-phase2,2020.2.10,Win32,60,right,0.834,3,0.431,0,23,23,91,1,stimuli/objects/screwdriver04b.jpg,right,new,235,,,,,,,,
,,,,,,,,11,2021-02-16_19h31.32.942,premceCat_ses-02_part-02_label-phase2,2020.2.10,Win32,60,left,0.896,4,0.119,0,24,24,104,1,stimuli/objects/cork02.jpg,left,old,248,,,,,,,,
,,,,,,,,11,2021-02-16_19h31.32.942,premceCat_ses-02_part-02_label-phase2,2020.2.10,Win32,60,left,1.37,3,0.102,0,25,25,22,1,stimuli/objects/wiicontroller.jpg,left,old,166,,,,,,,,
,,,,,,,,11,2021-02-16_19h31.32.942,premceCat_ses-02_part-02_label-phase2,2020.2.10,Win32,60,right,0.804,3,0.108,0,26,26,111,1,stimuli/objects/bicycle.jpg,right,new,255,,,,,,,,
,,,,,,,,11,2021-02-16_19h31.32.942,premceCat_ses-02_part-02_label-phase2,2020.2.10,Win32,60,left,0.755,4,0.093,0,27,27,102,1,stimuli/objects/trampoline.jpg,left,old,246,,,,,,,,
,,,,,,,,11,2021-02-16_19h31.32.942,premceCat_ses-02_part-02_label-phase2,2020.2.10,Win32,60,left,1.177,2,0.419,0,28,28,79,1,stimuli/objects/snowshoe.jpg,right,new,223,,,,,,,,
,,,,,,,,11,2021-02-16_19h31.32.942,premceCat_ses-02_part-02_label-phase2,2020.2.10,Win32,60,right,1.952,3,0.616,0,29,29,109,1,stimuli/objects/knifesharpener.jpg,right,new,253,,,,,,,,
,,,,,,,,11,2021-02-16_19h31.32.942,premceCat_ses-02_part-02_label-phase2,2020.2.10,Win32,60,right,0.89,4,0.237,0,30,30,88,1,stimuli/objects/cuttingboard.jpg,right,new,232,,,,,,,,
,,,,,,,,11,2021-02-16_19h31.32.942,premceCat_ses-02_part-02_label-phase2,2020.2.10,Win32,60,left,0.931,4,0.211,0,31,31,80,1,stimuli/objects/baseballbat.jpg,left,old,224,,,,,,,,
,,,,,,,,11,2021-02-16_19h31.32.942,premceCat_ses-02_part-02_label-phase2,2020.2.10,Win32,60,left,1.202,3,0.374,0,32,32,105,1,stimuli/objects/headphones02b.jpg,left,old,249,,,,,,,,
,,,,,,,,11,2021-02-16_19h31.32.942,premceCat_ses-02_part-02_label-phase2,2020.2.10,Win32,60,left,0.776,3,0.217,0,33,33,132,1,stimuli/objects/shoulderpad.jpg,left,old,276,,,,,,,,
,,,,,,,,11,2021-02-16_19h31.32.942,premceCat_ses-02_part-02_label-phase2,2020.2.10,Win32,60,right,0.923,2,0.572,0,34,34,5,1,stimuli/objects/handgripper.jpg,right,new,149,,,,,,,,
,,,,,,,,11,2021-02-16_19h31.32.942,premceCat_ses-02_part-02_label-phase2,2020.2.10,Win32,60,right,1.093,1,0.297,0,35,35,4,1,stimuli/objects/leafrake.jpg,right,new,148,,,,,,,,
,,,,,,,,11,2021-02-16_19h31.32.942,premceCat_ses-02_part-02_label-phase2,2020.2.10,Win32,60,left,1.384,2,0.31,0,36,36,125,1,stimuli/objects/butterknife.jpg,left,old,269,,,,,,,,
,,,,,,,,11,2021-02-16_19h31.32.942,premceCat_ses-02_part-02_label-phase2,2020.2.10,Win32,60,right,1.102,3,0.429,0,37,37,87,1,stimuli/objects/boltcutter.jpg,right,new,231,,,,,,,,
,,,,,,,,11,2021-02-16_19h31.32.942,premceCat_ses-02_part-02_label-phase2,2020.2.10,Win32,60,left,1.002,3,0.023,0,38,38,28,1,stimuli/objects/toyhardhat.jpg,left,old,172,,,,,,,,
,,,,,,,,11,2021-02-16_19h31.32.942,premceCat_ses-02_part-02_label-phase2,2020.2.10,Win32,60,left,0.913,2,0.609,0,39,39,10,1,stimuli/objects/toyhockeystick01.jpg,right,new,154,,,,,,,,
,,,,,,,,11,2021-02-16_19h31.32.942,premceCat_ses-02_part-02_label-phase2,2020.2.10,Win32,60,right,0.98,2,0.833,0,40,40,3,1,stimuli/objects/wirestripper.jpg,right,new,147,,,,,,,,
,,,,,,,,11,2021-02-16_19h31.32.942,premceCat_ses-02_part-02_label-phase2,2020.2.10,Win32,60,right,2.255,1,0.196,0,41,41,121,1,stimuli/objects/chainsaw.jpg,right,new,265,,,,,,,,
,,,,,,,,11,2021-02-16_19h31.32.942,premceCat_ses-02_part-02_label-phase2,2020.2.10,Win32,60,right,1.066,4,0.239,0,42,42,112,1,stimuli/objects/tennisball01b.jpg,right,new,256,,,,,,,,
,,,,,,,,11,2021-02-16_19h31.32.942,premceCat_ses-02_part-02_label-phase2,2020.2.10,Win32,60,right,1.09,2,0.256,0,43,43,122,1,stimuli/objects/faxmachine.jpg,right,new,266,,,,,,,,
,,,,,,,,11,2021-02-16_19h31.32.942,premceCat_ses-02_part-02_label-phase2,2020.2.10,Win32,60,left,1.105,3,0.249,0,44,44,134,1,stimuli/objects/eggslicer.jpg,left,old,278,,,,,,,,
,,,,,,,,11,2021-02-16_19h31.32.942,premceCat_ses-02_part-02_label-phase2,2020.2.10,Win32,60,left,0.909,2,0.322,0,45,45,71,1,stimuli/objects/gardenshears01a.jpg,left,old,215,,,,,,,,
,,,,,,,,11,2021-02-16_19h31.32.942,premceCat_ses-02_part-02_label-phase2,2020.2.10,Win32,60,right,0.903,3,0.294,0,46,46,19,1,stimuli/objects/bikehelmet.jpg,right,new,163,,,,,,,,
,,,,,,,,11,2021-02-16_19h31.32.942,premceCat_ses-02_part-02_label-phase2,2020.2.10,Win32,60,left,0.782,3,0.362,0,47,47,30,1,stimuli/objects/pastaspoon.jpg,right,new,174,,,,,,,,
,,,,,,,,11,2021-02-16_19h31.32.942,premceCat_ses-02_part-02_label-phase2,2020.2.10,Win32,60,left,1.335,4,1.338,0,48,48,33,1,stimuli/objects/backfloat.jpg,left,old,177,,,,,,,,
,,,,,,,,11,2021-02-16_19h31.32.942,premceCat_ses-02_part-02_label-phase2,2020.2.10,Win32,60,left,0.821,2,0.303,0,49,49,103,1,stimuli/objects/baseballglove.jpg,left,old,247,,,,,,,,
,,,,,,,,11,2021-02-16_19h31.32.942,premceCat_ses-02_part-02_label-phase2,2020.2.10,Win32,60,right,1.013,2,0.482,0,50,50,67,1,stimuli/objects/mug01.jpg,left,old,211,,,,,,,,
,,,,,,,,11,2021-02-16_19h31.32.942,premceCat_ses-02_part-02_label-phase2,2020.2.10,Win32,60,right,0.902,3,0.698,0,51,51,51,1,stimuli/objects/fonduefork01.jpg,right,new,195,,,,,,,,
,,,,,,,,11,2021-02-16_19h31.32.942,premceCat_ses-02_part-02_label-phase2,2020.2.10,Win32,60,right,1.02,1,0.194,0,52,52,32,1,stimuli/objects/shinpad.jpg,left,old,176,,,,,,,,
,,,,,,,,11,2021-02-16_19h31.32.942,premceCat_ses-02_part-02_label-phase2,2020.2.10,Win32,60,left,1.105,3,0.694,0,53,53,81,1,stimuli/objects/level03a.jpg,left,old,225,,,,,,,,
,,,,,,,,11,2021-02-16_19h31.32.942,premceCat_ses-02_part-02_label-phase2,2020.2.10,Win32,60,left,0.816,2,0.387,0,54,54,13,1,stimuli/objects/expansioncard.jpg,left,old,157,,,,,,,,
,,,,,,,,11,2021-02-16_19h31.32.942,premceCat_ses-02_part-02_label-phase2,2020.2.10,Win32,60,left,0.814,4,0.368,0,55,55,84,1,stimuli/objects/gastank.jpg,left,old,228,,,,,,,,
,,,,,,,,11,2021-02-16_19h31.32.942,premceCat_ses-02_part-02_label-phase2,2020.2.10,Win32,60,left,0.812,4,0.431,0,56,56,85,1,stimuli/objects/outdoorheater.jpg,left,old,229,,,,,,,,
,,,,,,,,11,2021-02-16_19h31.32.942,premceCat_ses-02_part-02_label-phase2,2020.2.10,Win32,60,right,0.946,4,0.245,0,57,57,44,1,stimuli/objects/dishrack.jpg,right,new,188,,,,,,,,
,,,,,,,,11,2021-02-16_19h31.32.942,premceCat_ses-02_part-02_label-phase2,2020.2.10,Win32,60,left,1.351,3,0.059,0,58,58,62,1,stimuli/objects/setsquare.jpg,left,old,206,,,,,,,,
,,,,,,,,11,2021-02-16_19h31.32.942,premceCat_ses-02_part-02_label-phase2,2020.2.10,Win32,60,right,1.656,3,0.36,0,59,59,68,1,stimuli/objects/jackhammer.jpg,right,new,212,,,,,,,,
,,,,,,,,11,2021-02-16_19h31.32.942,premceCat_ses-02_part-02_label-phase2,2020.2.10,Win32,60,left,0.895,4,0.259,0,60,60,8,1,stimuli/objects/aluminiumfoil.jpg,left,old,152,,,,,,,,
,,,,,,,,11,2021-02-16_19h31.32.942,premceCat_ses-02_part-02_label-phase2,2020.2.10,Win32,60,right,1.213,2,0.303,0,61,61,17,1,stimuli/objects/travelmug.jpg,left,old,161,,,,,,,,
,,,,,,,,11,2021-02-16_19h31.32.942,premceCat_ses-02_part-02_label-phase2,2020.2.10,Win32,60,right,0.911,4,0.225,0,62,62,16,1,stimuli/objects/charcoalbarbecue.jpg,right,new,160,,,,,,,,
,,,,,,,,11,2021-02-16_19h31.32.942,premceCat_ses-02_part-02_label-phase2,2020.2.10,Win32,60,right,0.783,4,0.322,0,63,63,23,1,stimuli/objects/bucket02.jpg,right,new,167,,,,,,,,
,,,,,,,,11,2021-02-16_19h31.32.942,premceCat_ses-02_part-02_label-phase2,2020.2.10,Win32,60,right,1.012,3,0.415,0,64,64,92,1,stimuli/objects/wineglass01.jpg,left,old,236,,,,,,,,
,,,,,,,,11,2021-02-16_19h31.32.942,premceCat_ses-02_part-02_label-phase2,2020.2.10,Win32,60,right,1.005,2,0.294,0,65,65,65,1,stimuli/objects/jar02.jpg,right,new,209,,,,,,,,
,,,,,,,,11,2021-02-16_19h31.32.942,premceCat_ses-02_part-02_label-phase2,2020.2.10,Win32,60,right,1.129,3,0.258,0,66,66,40,1,stimuli/objects/nailgun.jpg,right,new,184,,,,,,,,
,,,,,,,,11,2021-02-16_19h31.32.942,premceCat_ses-02_part-02_label-phase2,2020.2.10,Win32,60,left,0.86,3,0.315,0,67,67,20,1,stimuli/objects/icepack.jpg,left,old,164,,,,,,,,
,,,,,,,,11,2021-02-16_19h31.32.942,premceCat_ses-02_part-02_label-phase2,2020.2.10,Win32,60,right,0.892,3,0.247,0,68,68,35,1,stimuli/objects/remotecontrol04.jpg,right,new,179,,,,,,,,
,,,,,,,,11,2021-02-16_19h31.32.942,premceCat_ses-02_part-02_label-phase2,2020.2.10,Win32,60,right,0.729,3,0.425,0,69,69,99,1,stimuli/objects/flashlight02b.jpg,right,new,243,,,,,,,,
,,,,,,,,11,2021-02-16_19h31.32.942,premceCat_ses-02_part-02_label-phase2,2020.2.10,Win32,60,right,1.16,2,0.257,0,70,70,141,1,stimuli/objects/boatmotor.jpg,right,new,285,,,,,,,,
,,,,,,,,11,2021-02-16_19h31.32.942,premceCat_ses-02_part-02_label-phase2,2020.2.10,Win32,60,left,0.873,2,0.347,0,71,71,119,1,stimuli/objects/kneepad01c.jpg,left,old,263,,,,,,,,
,,,,,,,,11,2021-02-16_19h31.32.942,premceCat_ses-02_part-02_label-phase2,2020.2.10,Win32,60,left,0.722,3,0.138,0,72,72,93,1,stimuli/objects/tupperware03a.jpg,left,old,237,,,,,,,,
,,,,,,,,11,2021-02-16_19h31.32.942,premceCat_ses-02_part-02_label-phase2,2020.2.10,Win32,60,right,0.908,4,0.248,0,73,73,107,1,stimuli/objects/telescope.jpg,right,new,251,,,,,,,,
,,,,,,,,11,2021-02-16_19h31.32.942,premceCat_ses-02_part-02_label-phase2,2020.2.10,Win32,60,left,1.042,4,0.194,0,74,74,97,1,stimuli/objects/lectern01.jpg,left,old,241,,,,,,,,
,,,,,,,,11,2021-02-16_19h31.32.942,premceCat_ses-02_part-02_label-phase2,2020.2.10,Win32,60,left,0.919,3,0.242,0,75,75,18,1,stimuli/objects/hose.jpg,left,old,162,,,,,,,,
,,,,,,,,11,2021-02-16_19h31.32.942,premceCat_ses-02_part-02_label-phase2,2020.2.10,Win32,60,left,0.892,3,0.224,0,76,76,61,1,stimuli/objects/usbkey.jpg,left,old,205,,,,,,,,
,,,,,,,,11,2021-02-16_19h31.32.942,premceCat_ses-02_part-02_label-phase2,2020.2.10,Win32,60,right,0.835,2,0.678,0,77,77,113,1,stimuli/objects/paintscraper.jpg,left,old,257,,,,,,,,
,,,,,,,,11,2021-02-16_19h31.32.942,premceCat_ses-02_part-02_label-phase2,2020.2.10,Win32,60,right,1.17,1,0.117,0,78,78,21,1,stimuli/objects/paintbrush01.jpg,left,old,165,,,,,,,,
,,,,,,,,11,2021-02-16_19h31.32.942,premceCat_ses-02_part-02_label-phase2,2020.2.10,Win32,60,left,1.124,1,0.137,0,79,79,98,1,stimuli/objects/phonejack.jpg,right,new,242,,,,,,,,
,,,,,,,,11,2021-02-16_19h31.32.942,premceCat_ses-02_part-02_label-phase2,2020.2.10,Win32,60,right,1.008,3,0.133,0,80,80,26,1,stimuli/objects/backpack01a.jpg,right,new,170,,,,,,,,
,,,,,,,,11,2021-02-16_19h31.32.942,premceCat_ses-02_part-02_label-phase2,2020.2.10,Win32,60,left,0.955,3,0.325,0,81,81,52,1,stimuli/objects/radio01.jpg,left,old,196,,,,,,,,
,,,,,,,,11,2021-02-16_19h31.32.942,premceCat_ses-02_part-02_label-phase2,2020.2.10,Win32,60,left,1.024,4,0.275,0,82,82,64,1,stimuli/objects/handblender.jpg,left,old,208,,,,,,,,
,,,,,,,,11,2021-02-16_19h31.32.942,premceCat_ses-02_part-02_label-phase2,2020.2.10,Win32,60,left,0.834,2,0.261,0,83,83,73,1,stimuli/objects/lockingplier.jpg,left,old,217,,,,,,,,
,,,,,,,,11,2021-02-16_19h31.32.942,premceCat_ses-02_part-02_label-phase2,2020.2.10,Win32,60,left,0.736,3,0.439,0,84,84,139,1,stimuli/objects/podium.jpg,left,old,283,,,,,,,,
,,,,,,,,11,2021-02-16_19h31.32.942,premceCat_ses-02_part-02_label-phase2,2020.2.10,Win32,60,right,2.359,4,1.177,0,85,85,43,1,stimuli/objects/exercisebike.jpg,right,new,187,,,,,,,,
,,,,,,,,11,2021-02-16_19h31.32.942,premceCat_ses-02_part-02_label-phase2,2020.2.10,Win32,60,left,0.937,3,0.34,0,86,86,72,1,stimuli/objects/videotape01b.jpg,left,old,216,,,,,,,,
,,,,,,,,11,2021-02-16_19h31.32.942,premceCat_ses-02_part-02_label-phase2,2020.2.10,Win32,60,left,1.729,3,0.572,0,87,87,1,1,stimuli/objects/huntingknife.jpg,left,old,145,,,,,,,,
,,,,,,,,11,2021-02-16_19h31.32.942,premceCat_ses-02_part-02_label-phase2,2020.2.10,Win32,60,right,0.932,2,0.298,0,88,88,37,1,stimuli/objects/pipewrench.jpg,right,new,181,,,,,,,,
,,,,,,,,11,2021-02-16_19h31.32.942,premceCat_ses-02_part-02_label-phase2,2020.2.10,Win32,60,right,0.87,4,0.321,0,89,89,138,1,stimuli/objects/punchingball.jpg,right,new,282,,,,,,,,
,,,,,,,,11,2021-02-16_19h31.32.942,premceCat_ses-02_part-02_label-phase2,2020.2.10,Win32,60,left,1.199,3,0.158,0,90,90,115,1,stimuli/objects/pitcher02b.jpg,left,old,259,,,,,,,,
,,,,,,,,11,2021-02-16_19h31.32.942,premceCat_ses-02_part-02_label-phase2,2020.2.10,Win32,60,left,1.345,2,0.243,0,91,91,31,1,stimuli/objects/solderingwire.jpg,left,old,175,,,,,,,,
,,,,,,,,11,2021-02-16_19h31.32.942,premceCat_ses-02_part-02_label-phase2,2020.2.10,Win32,60,right,1.127,2,0.234,0,92,92,118,1,stimuli/objects/fanheater.jpg,right,new,262,,,,,,,,
,,,,,,,,11,2021-02-16_19h31.32.942,premceCat_ses-02_part-02_label-phase2,2020.2.10,Win32,60,right,0.9,3,0.264,0,93,93,34,1,stimuli/objects/floodlight.jpg,right,new,178,,,,,,,,
,,,,,,,,11,2021-02-16_19h31.32.942,premceCat_ses-02_part-02_label-phase2,2020.2.10,Win32,60,right,0.956,3,0.171,0,94,94,142,1,stimuli/objects/file.jpg,right,new,286,,,,,,,,
,,,,,,,,11,2021-02-16_19h31.32.942,premceCat_ses-02_part-02_label-phase2,2020.2.10,Win32,60,right,1.179,2,0.212,0,95,95,14,1,stimuli/objects/hedgetrimmer.jpg,left,old,158,,,,,,,,
,,,,,,,,11,2021-02-16_19h31.32.942,premceCat_ses-02_part-02_label-phase2,2020.2.10,Win32,60,left,0.827,3,0.034,0,96,96,27,1,stimuli/objects/chisel02b.jpg,left,old,171,,,,,,,,
,,,,,,,,11,2021-02-16_19h31.32.942,premceCat_ses-02_part-02_label-phase2,2020.2.10,Win32,60,left,0.782,3,0.165,0,97,97,41,1,stimuli/objects/musicalwoodenspoons.jpg,left,old,185,,,,,,,,
,,,,,,,,11,2021-02-16_19h31.32.942,premceCat_ses-02_part-02_label-phase2,2020.2.10,Win32,60,left,1.056,2,0.11,0,98,98,117,1,stimuli/objects/fan.jpg,left,old,261,,,,,,,,
,,,,,,,,11,2021-02-16_19h31.32.942,premceCat_ses-02_part-02_label-phase2,2020.2.10,Win32,60,left,0.731,4,0.321,0,99,99,96,1,stimuli/objects/sledgehammer.jpg,left,old,240,,,,,,,,
,,,,,,,,11,2021-02-16_19h31.32.942,premceCat_ses-02_part-02_label-phase2,2020.2.10,Win32,60,left,0.62,4,0.18,0,100,100,7,1,stimuli/objects/kite.jpg,left,old,151,,,,,,,,
,,,,,,,,11,2021-02-16_19h31.32.942,premceCat_ses-02_part-02_label-phase2,2020.2.10,Win32,60,right,0.926,4,0.25,0,101,101,95,1,stimuli/objects/microwave.jpg,right,new,239,,,,,,,,
,,,,,,,,11,2021-02-16_19h31.32.942,premceCat_ses-02_part-02_label-phase2,2020.2.10,Win32,60,right,0.887,3,0.297,0,102,102,59,1,stimuli/objects/shovel01.jpg,right,new,203,,,,,,,,
,,,,,,,,11,2021-02-16_19h31.32.942,premceCat_ses-02_part-02_label-phase2,2020.2.10,Win32,60,right,2.627,1,1.104,0,103,103,38,1,stimuli/objects/papershredder.jpg,left,old,182,,,,,,,,
,,,,,,,,11,2021-02-16_19h31.32.942,premceCat_ses-02_part-02_label-phase2,2020.2.10,Win32,60,right,1.223,3,0.344,0,104,104,127,1,stimuli/objects/airconditioner.jpg,right,new,271,,,,,,,,
,,,,,,,,11,2021-02-16_19h31.32.942,premceCat_ses-02_part-02_label-phase2,2020.2.10,Win32,60,right,1.229,3,0.235,0,105,105,78,1,stimuli/objects/swissarmyknife01a.jpg,right,new,222,,,,,,,,
,,,,,,,,11,2021-02-16_19h31.32.942,premceCat_ses-02_part-02_label-phase2,2020.2.10,Win32,60,left,1.001,2,0.206,0,106,106,110,1,stimuli/objects/icecubetray01a.jpg,left,old,254,,,,,,,,
,,,,,,,,11,2021-02-16_19h31.32.942,premceCat_ses-02_part-02_label-phase2,2020.2.10,Win32,60,left,0.845,3,0.48,0,107,107,133,1,stimuli/objects/reflector.jpg,left,old,277,,,,,,,,
,,,,,,,,11,2021-02-16_19h31.32.942,premceCat_ses-02_part-02_label-phase2,2020.2.10,Win32,60,left,1.117,4,0.466,0,108,108,137,1,stimuli/objects/monitor.jpg,left,old,281,,,,,,,,
,,,,,,,,11,2021-02-16_19h31.32.942,premceCat_ses-02_part-02_label-phase2,2020.2.10,Win32,60,left,0.879,4,0.182,0,109,109,58,1,stimuli/objects/bottlecap.jpg,left,old,202,,,,,,,,
,,,,,,,,11,2021-02-16_19h31.32.942,premceCat_ses-02_part-02_label-phase2,2020.2.10,Win32,60,left,0.819,4,0.184,0,110,110,116,1,stimuli/objects/measuringtape01.jpg,left,old,260,,,,,,,,
,,,,,,,,11,2021-02-16_19h31.32.942,premceCat_ses-02_part-02_label-phase2,2020.2.10,Win32,60,right,1.135,4,0.257,0,111,111,108,1,stimuli/objects/fishinghook03.jpg,right,new,252,,,,,,,,
,,,,,,,,11,2021-02-16_19h31.32.942,premceCat_ses-02_part-02_label-phase2,2020.2.10,Win32,60,right,0.922,3,0.431,0,112,112,90,1,stimuli/objects/dolly01.jpg,left,old,234,,,,,,,,
,,,,,,,,11,2021-02-16_19h31.32.942,premceCat_ses-02_part-02_label-phase2,2020.2.10,Win32,60,right,1.275,2,0.19,0,113,113,100,1,stimuli/objects/woodenspoon.jpg,left,old,244,,,,,,,,
,,,,,,,,11,2021-02-16_19h31.32.942,premceCat_ses-02_part-02_label-phase2,2020.2.10,Win32,60,right,0.95,3,0.233,0,114,114,130,1,stimuli/objects/snowbrush.jpg,right,new,274,,,,,,,,
,,,,,,,,11,2021-02-16_19h31.32.942,premceCat_ses-02_part-02_label-phase2,2020.2.10,Win32,60,right,0.944,4,0.252,0,115,115,77,1,stimuli/objects/iceskate.jpg,right,new,221,,,,,,,,
,,,,,,,,11,2021-02-16_19h31.32.942,premceCat_ses-02_part-02_label-phase2,2020.2.10,Win32,60,right,0.885,3,0.297,0,116,116,76,1,stimuli/objects/footballhelmet.jpg,right,new,220,,,,,,,,
,,,,,,,,11,2021-02-16_19h31.32.942,premceCat_ses-02_part-02_label-phase2,2020.2.10,Win32,60,left,0.835,3,0.669,0,117,117,29,1,stimuli/objects/exercisebench.jpg,left,old,173,,,,,,,,
,,,,,,,,11,2021-02-16_19h31.32.942,premceCat_ses-02_part-02_label-phase2,2020.2.10,Win32,60,left,0.881,4,0.725,0,118,118,106,1,stimuli/objects/studiolight.jpg,left,old,250,,,,,,,,
,,,,,,,,11,2021-02-16_19h31.32.942,premceCat_ses-02_part-02_label-phase2,2020.2.10,Win32,60,left,1.19,2,0.141,0,119,119,6,1,stimuli/objects/binoculars01b.jpg,right,new,150,,,,,,,,
,,,,,,,,11,2021-02-16_19h31.32.942,premceCat_ses-02_part-02_label-phase2,2020.2.10,Win32,60,right,1.439,1,0.042,0,120,120,74,1,stimuli/objects/videocamera01a.jpg,right,new,218,,,,,,,,
,,,,,,,,11,2021-02-16_19h31.32.942,premceCat_ses-02_part-02_label-phase2,2020.2.10,Win32,60,right,0.906,4,0.239,0,121,121,39,1,stimuli/objects/beachumbrella01.jpg,right,new,183,,,,,,,,
,,,,,,,,11,2021-02-16_19h31.32.942,premceCat_ses-02_part-02_label-phase2,2020.2.10,Win32,60,right,0.963,3,0.215,0,122,122,46,1,stimuli/objects/grater01a.jpg,right,new,190,,,,,,,,
,,,,,,,,11,2021-02-16_19h31.32.942,premceCat_ses-02_part-02_label-phase2,2020.2.10,Win32,60,right,0.767,4,0.339,0,123,123,94,1,stimuli/objects/microphone01.jpg,right,new,238,,,,,,,,
,,,,,,,,11,2021-02-16_19h31.32.942,premceCat_ses-02_part-02_label-phase2,2020.2.10,Win32,60,left,0.908,4,0.654,0,124,124,129,1,stimuli/objects/toothpick02.jpg,left,old,273,,,,,,,,
,,,,,,,,11,2021-02-16_19h31.32.942,premceCat_ses-02_part-02_label-phase2,2020.2.10,Win32,60,right,1.243,2,0.131,0,125,125,2,1,stimuli/objects/carlighter02.jpg,right,new,146,,,,,,,,
,,,,,,,,11,2021-02-16_19h31.32.942,premceCat_ses-02_part-02_label-phase2,2020.2.10,Win32,60,right,0.916,3,0.138,0,126,126,82,1,stimuli/objects/carantenna.jpg,right,new,226,,,,,,,,
,,,,,,,,11,2021-02-16_19h31.32.942,premceCat_ses-02_part-02_label-phase2,2020.2.10,Win32,60,right,1.177,2,0.275,0,127,127,48,1,stimuli/objects/adjustablewrench01b.jpg,right,new,192,,,,,,,,
,,,,,,,,11,2021-02-16_19h31.32.942,premceCat_ses-02_part-02_label-phase2,2020.2.10,Win32,60,right,0.903,4,0.156,0,128,128,56,1,stimuli/objects/gymnasticring.jpg,left,old,200,,,,,,,,
,,,,,,,,11,2021-02-16_19h31.32.942,premceCat_ses-02_part-02_label-phase2,2020.2.10,Win32,60,left,1.953,1,0.149,0,129,129,123,1,stimuli/objects/ladle02a.jpg,right,new,267,,,,,,,,
,,,,,,,,11,2021-02-16_19h31.32.942,premceCat_ses-02_part-02_label-phase2,2020.2.10,Win32,60,right,0.958,3,0.216,0,130,130,0,1,stimuli/objects/saw02b.jpg,right,new,144,,,,,,,,
,,,,,,,,11,2021-02-16_19h31.32.942,premceCat_ses-02_part-02_label-phase2,2020.2.10,Win32,60,right,1.149,3,0.275,0,131,131,55,1,stimuli/objects/hockeypuck.jpg,right,new,199,,,,,,,,
,,,,,,,,11,2021-02-16_19h31.32.942,premceCat_ses-02_part-02_label-phase2,2020.2.10,Win32,60,right,0.812,3,0.277,0,132,132,36,1,stimuli/objects/gasburner.jpg,right,new,180,,,,,,,,
,,,,,,,,11,2021-02-16_19h31.32.942,premceCat_ses-02_part-02_label-phase2,2020.2.10,Win32,60,left,0.988,2,0.192,0,133,133,86,1,stimuli/objects/tennisracket.jpg,right,new,230,,,,,,,,
,,,,,,,,11,2021-02-16_19h31.32.942,premceCat_ses-02_part-02_label-phase2,2020.2.10,Win32,60,left,0.962,4,0.236,0,134,134,24,1,stimuli/objects/peppermill02b.jpg,left,old,168,,,,,,,,
,,,,,,,,11,2021-02-16_19h31.32.942,premceCat_ses-02_part-02_label-phase2,2020.2.10,Win32,60,left,1.427,2,0.342,0,135,135,83,1,stimuli/objects/vhstape.jpg,right,new,227,,,,,,,,
,,,,,,,,11,2021-02-16_19h31.32.942,premceCat_ses-02_part-02_label-phase2,2020.2.10,Win32,60,right,1.081,2,0.627,0,136,136,57,1,stimuli/objects/extensioncord.jpg,left,old,201,,,,,,,,
,,,,,,,,11,2021-02-16_19h31.32.942,premceCat_ses-02_part-02_label-phase2,2020.2.10,Win32,60,left,0.855,3,0.179,0,137,137,124,1,stimuli/objects/whisk.jpg,right,new,268,,,,,,,,
,,,,,,,,11,2021-02-16_19h31.32.942,premceCat_ses-02_part-02_label-phase2,2020.2.10,Win32,60,right,1.168,3,0.198,0,138,138,54,1,stimuli/objects/alarmsystem.jpg,right,new,198,,,,,,,,
,,,,,,,,11,2021-02-16_19h31.32.942,premceCat_ses-02_part-02_label-phase2,2020.2.10,Win32,60,right,0.963,4,0.256,0,139,139,11,1,stimuli/objects/coffeemachine.jpg,right,new,155,,,,,,,,
,,,,,,,,11,2021-02-16_19h31.32.942,premceCat_ses-02_part-02_label-phase2,2020.2.10,Win32,60,left,1.579,2,0.228,0,140,140,53,1,stimuli/objects/stepladder.jpg,left,old,197,,,,,,,,
,,,,,,,,11,2021-02-16_19h31.32.942,premceCat_ses-02_part-02_label-phase2,2020.2.10,Win32,60,right,0.801,1,0.462,0,141,141,25,1,stimuli/objects/pitchfork.jpg,left,old,169,,,,,,,,
,,,,,,,,11,2021-02-16_19h31.32.942,premceCat_ses-02_part-02_label-phase2,2020.2.10,Win32,60,right,2.719,2,0.502,0,142,142,135,1,stimuli/objects/teapot.jpg,right,new,279,,,,,,,,
,,,,,,,,11,2021-02-16_19h31.32.942,premceCat_ses-02_part-02_label-phase2,2020.2.10,Win32,60,,,,,,,,,,,,,,space,4.468,0,1,1,1,1,condition_files/ImagesforRecog4_2.csv
