instructions_loop.thisRepN,instructions_loop.thisTrialN,instructions_loop.thisN,instructions_loop.thisIndex,instructions_loop.ran,text1,text2,text3,participant,date,expName,psychopyVersion,OS,frameRate,recog_resp.keys,recog_resp.rt,conf_resp.keys,conf_resp.rt,recog_loop.thisRepN,recog_loop.thisTrialN,recog_loop.thisN,recog_loop.thisIndex,recog_loop.ran,images,corr_ans,type,order,key_resp_break.keys,key_resp_break.rt,list_loop.thisRepN,list_loop.thisTrialN,list_loop.thisN,list_loop.thisIndex,list_loop.ran,recog_list
0,0,0,0,1,Welcome to the last phase of this experiment!,.,Please press the space bar to continue,8,2021-02-10_15h27.31.547,premceCat_ses-02_part-02_label-phase2,2020.2.10,Win32,60,,,,,,,,,,,,,,,,,,,,,
0,1,1,1,1,.,"In this phase, you will see some objects. 

For each object, you should indicate whether you have seen it before during the experiment.

Press LEFT ARROW for YES
Press RIGHT ARROW for NO

",Please press the space bar to continue ,8,2021-02-10_15h27.31.547,premceCat_ses-02_part-02_label-phase2,2020.2.10,Win32,60,,,,,,,,,,,,,,,,,,,,,
0,2,2,2,1,.,"After that, you will be asked how confident you are of your choice.

Please rate the confidence in your choce with the numbers from 1 to 4 of your keyboard. 

The numbers correspond to:

1 = Very unsure
2 = Unsure
3 = Sure
4 = Very Sure",Please press the space bar to continue,8,2021-02-10_15h27.31.547,premceCat_ses-02_part-02_label-phase2,2020.2.10,Win32,60,,,,,,,,,,,,,,,,,,,,,
0,3,3,3,1,.,"After completing half of the task, you will be given the possibility to take a break. ",Please press the space bar to start with the task!,8,2021-02-10_15h27.31.547,premceCat_ses-02_part-02_label-phase2,2020.2.10,Win32,60,,,,,,,,,,,,,,,,,,,,,
,,,,,,,,8,2021-02-10_15h27.31.547,premceCat_ses-02_part-02_label-phase2,2020.2.10,Win32,60,right,1.39724,4,1.386185,0,0,0,21,1,stimuli/objects/measuringspoon.jpg,right,new,22,,,,,,,,
,,,,,,,,8,2021-02-10_15h27.31.547,premceCat_ses-02_part-02_label-phase2,2020.2.10,Win32,60,right,1.212405,4,0.445865,0,1,1,42,1,stimuli/objects/anchor.jpg,right,new,43,,,,,,,,
,,,,,,,,8,2021-02-10_15h27.31.547,premceCat_ses-02_part-02_label-phase2,2020.2.10,Win32,60,left,0.900695,4,0.6644,0,2,2,3,1,stimuli/objects/telephone01b.jpg,left,old,4,,,,,,,,
,,,,,,,,8,2021-02-10_15h27.31.547,premceCat_ses-02_part-02_label-phase2,2020.2.10,Win32,60,right,1.58095,2,0.77323,0,3,3,33,1,stimuli/objects/spatula03.jpg,right,new,34,,,,,,,,
,,,,,,,,8,2021-02-10_15h27.31.547,premceCat_ses-02_part-02_label-phase2,2020.2.10,Win32,60,left,0.917545,4,0.397095,0,4,4,140,1,stimuli/objects/handblender.jpg,left,old,141,,,,,,,,
,,,,,,,,8,2021-02-10_15h27.31.547,premceCat_ses-02_part-02_label-phase2,2020.2.10,Win32,60,right,2.331125,2,0.39911,0,5,5,60,1,stimuli/objects/plate01b.jpg,right,new,61,,,,,,,,
,,,,,,,,8,2021-02-10_15h27.31.547,premceCat_ses-02_part-02_label-phase2,2020.2.10,Win32,60,right,1.28203,4,0.28253,0,6,6,83,1,stimuli/objects/contactlens.jpg,right,new,84,,,,,,,,
,,,,,,,,8,2021-02-10_15h27.31.547,premceCat_ses-02_part-02_label-phase2,2020.2.10,Win32,60,left,0.967335,4,0.470235,0,7,7,16,1,stimuli/objects/ceilingspeaker.jpg,left,old,17,,,,,,,,
,,,,,,,,8,2021-02-10_15h27.31.547,premceCat_ses-02_part-02_label-phase2,2020.2.10,Win32,60,right,1.10003,4,0.580155,0,8,8,96,1,stimuli/objects/chandelier.jpg,right,new,97,,,,,,,,
,,,,,,,,8,2021-02-10_15h27.31.547,premceCat_ses-02_part-02_label-phase2,2020.2.10,Win32,60,left,0.96318,4,0.33559,0,9,9,52,1,stimuli/objects/surfboard.jpg,left,old,53,,,,,,,,
,,,,,,,,8,2021-02-10_15h27.31.547,premceCat_ses-02_part-02_label-phase2,2020.2.10,Win32,60,left,0.726005,4,0.284445,0,10,10,8,1,stimuli/objects/icepack.jpg,left,old,9,,,,,,,,
,,,,,,,,8,2021-02-10_15h27.31.547,premceCat_ses-02_part-02_label-phase2,2020.2.10,Win32,60,left,0.685305,4,0.221045,0,11,11,40,1,stimuli/objects/usbcable01a.jpg,left,old,41,,,,,,,,
,,,,,,,,8,2021-02-10_15h27.31.547,premceCat_ses-02_part-02_label-phase2,2020.2.10,Win32,60,right,1.386425,3,0.4831,0,12,12,23,1,stimuli/objects/volleyball.jpg,right,new,24,,,,,,,,
,,,,,,,,8,2021-02-10_15h27.31.547,premceCat_ses-02_part-02_label-phase2,2020.2.10,Win32,60,left,0.664755,4,0.22299,0,13,13,28,1,stimuli/objects/travelmug.jpg,left,old,29,,,,,,,,
,,,,,,,,8,2021-02-10_15h27.31.547,premceCat_ses-02_part-02_label-phase2,2020.2.10,Win32,60,left,0.6968,4,0.316255,0,14,14,122,1,stimuli/objects/kite.jpg,left,old,123,,,,,,,,
,,,,,,,,8,2021-02-10_15h27.31.547,premceCat_ses-02_part-02_label-phase2,2020.2.10,Win32,60,right,1.417355,2,0.602975,0,15,15,55,1,stimuli/objects/snowblower.jpg,right,new,56,,,,,,,,
,,,,,,,,8,2021-02-10_15h27.31.547,premceCat_ses-02_part-02_label-phase2,2020.2.10,Win32,60,left,0.637165,4,0.398975,0,16,16,6,1,stimuli/objects/monitor.jpg,left,old,7,,,,,,,,
,,,,,,,,8,2021-02-10_15h27.31.547,premceCat_ses-02_part-02_label-phase2,2020.2.10,Win32,60,left,0.899945,4,0.06117,0,17,17,116,1,stimuli/objects/spoon01.jpg,right,new,117,,,,,,,,
,,,,,,,,8,2021-02-10_15h27.31.547,premceCat_ses-02_part-02_label-phase2,2020.2.10,Win32,60,right,0.907585,4,0.31578,0,18,18,90,1,stimuli/objects/canister.jpg,right,new,91,,,,,,,,
,,,,,,,,8,2021-02-10_15h27.31.547,premceCat_ses-02_part-02_label-phase2,2020.2.10,Win32,60,left,0.90312,4,0.233405,0,19,19,142,1,stimuli/objects/audiocablesplitter.jpg,left,old,143,,,,,,,,
,,,,,,,,8,2021-02-10_15h27.31.547,premceCat_ses-02_part-02_label-phase2,2020.2.10,Win32,60,right,1.39395,2,0.291345,0,20,20,68,1,stimuli/objects/flooringstapler.jpg,right,new,69,,,,,,,,
,,,,,,,,8,2021-02-10_15h27.31.547,premceCat_ses-02_part-02_label-phase2,2020.2.10,Win32,60,left,0.903115,4,0.260655,0,21,21,74,1,stimuli/objects/crosscountryski.jpg,left,old,75,,,,,,,,
,,,,,,,,8,2021-02-10_15h27.31.547,premceCat_ses-02_part-02_label-phase2,2020.2.10,Win32,60,left,0.65912,4,0.183515,0,22,22,132,1,stimuli/objects/baseballglove.jpg,left,old,133,,,,,,,,
,,,,,,,,8,2021-02-10_15h27.31.547,premceCat_ses-02_part-02_label-phase2,2020.2.10,Win32,60,left,0.66365,4,0.185845,0,23,23,29,1,stimuli/objects/scanner.jpg,left,old,30,,,,,,,,
,,,,,,,,8,2021-02-10_15h27.31.547,premceCat_ses-02_part-02_label-phase2,2020.2.10,Win32,60,left,0.55648,4,0.127985,0,24,24,61,1,stimuli/objects/alarmclock01.jpg,left,old,62,,,,,,,,
,,,,,,,,8,2021-02-10_15h27.31.547,premceCat_ses-02_part-02_label-phase2,2020.2.10,Win32,60,right,1.06816,2,0.765945,0,25,25,125,1,stimuli/objects/diaperbag.jpg,right,new,126,,,,,,,,
,,,,,,,,8,2021-02-10_15h27.31.547,premceCat_ses-02_part-02_label-phase2,2020.2.10,Win32,60,right,1.18089,4,0.296045,0,26,26,4,1,stimuli/objects/atm.jpg,right,new,5,,,,,,,,
,,,,,,,,8,2021-02-10_15h27.31.547,premceCat_ses-02_part-02_label-phase2,2020.2.10,Win32,60,left,0.94018,4,0.327105,0,27,27,26,1,stimuli/objects/hockeygoaliepad.jpg,right,new,27,,,,,,,,
,,,,,,,,8,2021-02-10_15h27.31.547,premceCat_ses-02_part-02_label-phase2,2020.2.10,Win32,60,left,0.780065,4,0.10135,0,28,28,123,1,stimuli/objects/metalscissors.jpg,left,old,124,,,,,,,,
,,,,,,,,8,2021-02-10_15h27.31.547,premceCat_ses-02_part-02_label-phase2,2020.2.10,Win32,60,left,0.615965,4,0.11775,0,29,29,15,1,stimuli/objects/lock03a.jpg,left,old,16,,,,,,,,
,,,,,,,,8,2021-02-10_15h27.31.547,premceCat_ses-02_part-02_label-phase2,2020.2.10,Win32,60,right,1.0874,4,0.45098,0,30,30,54,1,stimuli/objects/cashregister01.jpg,right,new,55,,,,,,,,
,,,,,,,,8,2021-02-10_15h27.31.547,premceCat_ses-02_part-02_label-phase2,2020.2.10,Win32,60,right,1.082535,4,0.21535,0,31,31,30,1,stimuli/objects/satellitedish01.jpg,right,new,31,,,,,,,,
,,,,,,,,8,2021-02-10_15h27.31.547,premceCat_ses-02_part-02_label-phase2,2020.2.10,Win32,60,left,0.921885,1,0.59876,0,32,32,19,1,stimuli/objects/coffeepot03a.jpg,right,new,20,,,,,,,,
,,,,,,,,8,2021-02-10_15h27.31.547,premceCat_ses-02_part-02_label-phase2,2020.2.10,Win32,60,left,1.24995,4,0.300205,0,33,33,47,1,stimuli/objects/axe01.jpg,left,old,48,,,,,,,,
,,,,,,,,8,2021-02-10_15h27.31.547,premceCat_ses-02_part-02_label-phase2,2020.2.10,Win32,60,right,2.052535,1,0.915025,0,34,34,112,1,stimuli/objects/bikelock.jpg,right,new,113,,,,,,,,
,,,,,,,,8,2021-02-10_15h27.31.547,premceCat_ses-02_part-02_label-phase2,2020.2.10,Win32,60,right,1.5204,3,1.052265,0,35,35,81,1,stimuli/objects/tripod01.jpg,right,new,82,,,,,,,,
,,,,,,,,8,2021-02-10_15h27.31.547,premceCat_ses-02_part-02_label-phase2,2020.2.10,Win32,60,left,0.86856,4,0.257345,0,36,36,18,1,stimuli/objects/electricoutlet.jpg,right,new,19,,,,,,,,
,,,,,,,,8,2021-02-10_15h27.31.547,premceCat_ses-02_part-02_label-phase2,2020.2.10,Win32,60,right,0.697735,4,0.20721,0,37,37,50,1,stimuli/objects/wateringcan.jpg,right,new,51,,,,,,,,
,,,,,,,,8,2021-02-10_15h27.31.547,premceCat_ses-02_part-02_label-phase2,2020.2.10,Win32,60,right,1.18353,3,0.30301,0,38,38,46,1,stimuli/objects/sportbag.jpg,right,new,47,,,,,,,,
,,,,,,,,8,2021-02-10_15h27.31.547,premceCat_ses-02_part-02_label-phase2,2020.2.10,Win32,60,left,0.848305,4,0.104475,0,39,39,11,1,stimuli/objects/cameracase01a.jpg,left,old,12,,,,,,,,
,,,,,,,,8,2021-02-10_15h27.31.547,premceCat_ses-02_part-02_label-phase2,2020.2.10,Win32,60,right,1.665855,2,0.718495,0,40,40,58,1,stimuli/objects/gardenshears01a.jpg,left,old,59,,,,,,,,
,,,,,,,,8,2021-02-10_15h27.31.547,premceCat_ses-02_part-02_label-phase2,2020.2.10,Win32,60,right,1.12861,4,0.263285,0,41,41,117,1,stimuli/objects/ipad02.jpg,right,new,118,,,,,,,,
,,,,,,,,8,2021-02-10_15h27.31.547,premceCat_ses-02_part-02_label-phase2,2020.2.10,Win32,60,left,0.967935,4,0.294645,0,42,42,64,1,stimuli/objects/huntingknife.jpg,left,old,65,,,,,,,,
,,,,,,,,8,2021-02-10_15h27.31.547,premceCat_ses-02_part-02_label-phase2,2020.2.10,Win32,60,left,0.802835,4,0.004885,0,43,43,37,1,stimuli/objects/staplegun.jpg,left,old,38,,,,,,,,
,,,,,,,,8,2021-02-10_15h27.31.547,premceCat_ses-02_part-02_label-phase2,2020.2.10,Win32,60,left,0.780805,4,0.24485,0,44,44,35,1,stimuli/objects/tent.jpg,left,old,36,,,,,,,,
,,,,,,,,8,2021-02-10_15h27.31.547,premceCat_ses-02_part-02_label-phase2,2020.2.10,Win32,60,left,0.68344,4,0.202005,0,45,45,130,1,stimuli/objects/wineglass01.jpg,left,old,131,,,,,,,,
,,,,,,,,8,2021-02-10_15h27.31.547,premceCat_ses-02_part-02_label-phase2,2020.2.10,Win32,60,right,0.669235,3,0.34328,0,46,46,82,1,stimuli/objects/caulking.jpg,right,new,83,,,,,,,,
,,,,,,,,8,2021-02-10_15h27.31.547,premceCat_ses-02_part-02_label-phase2,2020.2.10,Win32,60,left,0.87904,2,0.38773,0,47,47,113,1,stimuli/objects/taperecorder.jpg,right,new,114,,,,,,,,
,,,,,,,,8,2021-02-10_15h27.31.547,premceCat_ses-02_part-02_label-phase2,2020.2.10,Win32,60,left,0.735815,4,0.22321,0,48,48,99,1,stimuli/objects/bowrake.jpg,left,old,100,,,,,,,,
,,,,,,,,8,2021-02-10_15h27.31.547,premceCat_ses-02_part-02_label-phase2,2020.2.10,Win32,60,left,0.584925,4,0.25043,0,49,49,105,1,stimuli/objects/photocopier.jpg,left,old,106,,,,,,,,
,,,,,,,,8,2021-02-10_15h27.31.547,premceCat_ses-02_part-02_label-phase2,2020.2.10,Win32,60,right,0.922855,4,0.235805,0,50,50,131,1,stimuli/objects/electricmixer.jpg,right,new,132,,,,,,,,
,,,,,,,,8,2021-02-10_15h27.31.547,premceCat_ses-02_part-02_label-phase2,2020.2.10,Win32,60,left,0.61629,4,0.19671,0,51,51,133,1,stimuli/objects/avcable.jpg,right,new,134,,,,,,,,
,,,,,,,,8,2021-02-10_15h27.31.547,premceCat_ses-02_part-02_label-phase2,2020.2.10,Win32,60,left,0.624325,3,0.27725,0,52,52,119,1,stimuli/objects/crocodileclips.jpg,right,new,120,,,,,,,,
,,,,,,,,8,2021-02-10_15h27.31.547,premceCat_ses-02_part-02_label-phase2,2020.2.10,Win32,60,left,0.61569,4,0.106325,0,53,53,31,1,stimuli/objects/ethernetcable02.jpg,left,old,32,,,,,,,,
,,,,,,,,8,2021-02-10_15h27.31.547,premceCat_ses-02_part-02_label-phase2,2020.2.10,Win32,60,left,0.89968,4,1.14915,0,54,54,7,1,stimuli/objects/level03a.jpg,left,old,8,,,,,,,,
,,,,,,,,8,2021-02-10_15h27.31.547,premceCat_ses-02_part-02_label-phase2,2020.2.10,Win32,60,right,1.01658,4,0.141415,0,55,55,53,1,stimuli/objects/smokedetector02.jpg,right,new,54,,,,,,,,
,,,,,,,,8,2021-02-10_15h27.31.547,premceCat_ses-02_part-02_label-phase2,2020.2.10,Win32,60,left,0.90404,2,0.301975,0,56,56,72,1,stimuli/objects/hedgeshears.jpg,right,new,73,,,,,,,,
,,,,,,,,8,2021-02-10_15h27.31.547,premceCat_ses-02_part-02_label-phase2,2020.2.10,Win32,60,right,1.22983,1,0.320555,0,57,57,134,1,stimuli/objects/television.jpg,right,new,135,,,,,,,,
,,,,,,,,8,2021-02-10_15h27.31.547,premceCat_ses-02_part-02_label-phase2,2020.2.10,Win32,60,left,0.728945,4,0.0672,0,58,58,67,1,stimuli/objects/cleaver01.jpg,left,old,68,,,,,,,,
,,,,,,,,8,2021-02-10_15h27.31.547,premceCat_ses-02_part-02_label-phase2,2020.2.10,Win32,60,left,0.920865,3,0.230285,0,59,59,100,1,stimuli/objects/pot01.jpg,right,new,101,,,,,,,,
,,,,,,,,8,2021-02-10_15h27.31.547,premceCat_ses-02_part-02_label-phase2,2020.2.10,Win32,60,left,0.62295,4,0.245455,0,60,60,107,1,stimuli/objects/stubbywrench01a.jpg,left,old,108,,,,,,,,
,,,,,,,,8,2021-02-10_15h27.31.547,premceCat_ses-02_part-02_label-phase2,2020.2.10,Win32,60,left,0.78339,4,0.22864,0,61,61,10,1,stimuli/objects/carbattery.jpg,left,old,11,,,,,,,,
,,,,,,,,8,2021-02-10_15h27.31.547,premceCat_ses-02_part-02_label-phase2,2020.2.10,Win32,60,right,0.861485,2,0.36629,0,62,62,12,1,stimuli/objects/drinkshaker.jpg,right,new,13,,,,,,,,
,,,,,,,,8,2021-02-10_15h27.31.547,premceCat_ses-02_part-02_label-phase2,2020.2.10,Win32,60,right,1.03955,4,0.31869,0,63,63,71,1,stimuli/objects/webcam.jpg,right,new,72,,,,,,,,
,,,,,,,,8,2021-02-10_15h27.31.547,premceCat_ses-02_part-02_label-phase2,2020.2.10,Win32,60,right,1.81201,2,0.339165,0,64,64,20,1,stimuli/objects/walkman.jpg,right,new,21,,,,,,,,
,,,,,,,,8,2021-02-10_15h27.31.547,premceCat_ses-02_part-02_label-phase2,2020.2.10,Win32,60,left,0.6303,4,0.10091,0,65,65,69,1,stimuli/objects/boxingglove01.jpg,left,old,70,,,,,,,,
,,,,,,,,8,2021-02-10_15h27.31.547,premceCat_ses-02_part-02_label-phase2,2020.2.10,Win32,60,left,0.62273,4,0.14943,0,66,66,137,1,stimuli/objects/soccerball.jpg,left,old,138,,,,,,,,
,,,,,,,,8,2021-02-10_15h27.31.547,premceCat_ses-02_part-02_label-phase2,2020.2.10,Win32,60,left,0.54646,4,0.19698,0,67,67,5,1,stimuli/objects/chisel02b.jpg,left,old,6,,,,,,,,
,,,,,,,,8,2021-02-10_15h27.31.547,premceCat_ses-02_part-02_label-phase2,2020.2.10,Win32,60,right,1.070685,3,0.553785,0,68,68,22,1,stimuli/objects/rollerblade.jpg,right,new,23,,,,,,,,
,,,,,,,,8,2021-02-10_15h27.31.547,premceCat_ses-02_part-02_label-phase2,2020.2.10,Win32,60,right,1.07353,4,0.19883,0,69,69,126,1,stimuli/objects/swing.jpg,right,new,127,,,,,,,,
,,,,,,,,8,2021-02-10_15h27.31.547,premceCat_ses-02_part-02_label-phase2,2020.2.10,Win32,60,right,1.980395,1,0.343445,0,70,70,59,1,stimuli/objects/dvdplayer.jpg,right,new,60,,,,,,,,
,,,,,,,,8,2021-02-10_15h27.31.547,premceCat_ses-02_part-02_label-phase2,2020.2.10,Win32,60,left,0.78183,4,0.0973,0,71,71,110,1,stimuli/objects/hammer01.jpg,right,new,111,,,,,,,,
,,,,,,,,8,2021-02-10_15h27.31.547,premceCat_ses-02_part-02_label-phase2,2020.2.10,Win32,60,left,0.87832,4,0.11539,0,72,72,45,1,stimuli/objects/wetfloorsign.jpg,left,old,46,,,,,,,,
,,,,,,,,8,2021-02-10_15h27.31.547,premceCat_ses-02_part-02_label-phase2,2020.2.10,Win32,60,left,0.5018,1,1.031645,0,73,73,63,1,stimuli/objects/knife03.jpg,right,new,64,,,,,,,,
,,,,,,,,8,2021-02-10_15h27.31.547,premceCat_ses-02_part-02_label-phase2,2020.2.10,Win32,60,right,1.17792,1,0.38173,0,74,74,85,1,stimuli/objects/skigoggles01.jpg,right,new,86,,,,,,,,
,,,,,,,,8,2021-02-10_15h27.31.547,premceCat_ses-02_part-02_label-phase2,2020.2.10,Win32,60,left,0.699285,4,0.060735,0,75,75,49,1,stimuli/objects/espressomachine.jpg,left,old,50,,,,,,,,
,,,,,,,,8,2021-02-10_15h27.31.547,premceCat_ses-02_part-02_label-phase2,2020.2.10,Win32,60,left,0.555385,4,0.09624,0,76,76,77,1,stimuli/objects/downhillski.jpg,left,old,78,,,,,,,,
,,,,,,,,8,2021-02-10_15h27.31.547,premceCat_ses-02_part-02_label-phase2,2020.2.10,Win32,60,left,0.626805,4,0.17896,0,77,77,92,1,stimuli/objects/pliers02b.jpg,right,new,93,,,,,,,,
,,,,,,,,8,2021-02-10_15h27.31.547,premceCat_ses-02_part-02_label-phase2,2020.2.10,Win32,60,left,0.529155,4,0.15141,0,78,78,84,1,stimuli/objects/sledgehammer.jpg,left,old,85,,,,,,,,
,,,,,,,,8,2021-02-10_15h27.31.547,premceCat_ses-02_part-02_label-phase2,2020.2.10,Win32,60,left,0.594875,4,0.119235,0,79,79,65,1,stimuli/objects/videotape01b.jpg,left,old,66,,,,,,,,
,,,,,,,,8,2021-02-10_15h27.31.547,premceCat_ses-02_part-02_label-phase2,2020.2.10,Win32,60,left,0.579335,4,0.134855,0,80,80,27,1,stimuli/objects/catchermask.jpg,left,old,28,,,,,,,,
,,,,,,,,8,2021-02-10_15h27.31.547,premceCat_ses-02_part-02_label-phase2,2020.2.10,Win32,60,left,0.49395,2,0.502715,0,81,81,44,1,stimuli/objects/paintbrush01.jpg,left,old,45,,,,,,,,
,,,,,,,,8,2021-02-10_15h27.31.547,premceCat_ses-02_part-02_label-phase2,2020.2.10,Win32,60,right,1.037115,3,0.73358,0,82,82,9,1,stimuli/objects/shopvac.jpg,right,new,10,,,,,,,,
,,,,,,,,8,2021-02-10_15h27.31.547,premceCat_ses-02_part-02_label-phase2,2020.2.10,Win32,60,left,0.812455,4,0.000465,0,83,83,48,1,stimuli/objects/ladder.jpg,left,old,49,,,,,,,,
,,,,,,,,8,2021-02-10_15h27.31.547,premceCat_ses-02_part-02_label-phase2,2020.2.10,Win32,60,right,0.83496,4,1.21831,0,84,84,106,1,stimuli/objects/towel01.jpg,right,new,107,,,,,,,,
,,,,,,,,8,2021-02-10_15h27.31.547,premceCat_ses-02_part-02_label-phase2,2020.2.10,Win32,60,left,0.610695,4,0.099235,0,85,85,1,1,stimuli/objects/skateboard.jpg,left,old,2,,,,,,,,
,,,,,,,,8,2021-02-10_15h27.31.547,premceCat_ses-02_part-02_label-phase2,2020.2.10,Win32,60,right,0.885095,4,0.155805,0,86,86,73,1,stimuli/objects/kiddiepool.jpg,right,new,74,,,,,,,,
,,,,,,,,8,2021-02-10_15h27.31.547,premceCat_ses-02_part-02_label-phase2,2020.2.10,Win32,60,right,1.26213,1,0.25252,0,87,87,89,1,stimuli/objects/jumpingjack.jpg,right,new,90,,,,,,,,
,,,,,,,,8,2021-02-10_15h27.31.547,premceCat_ses-02_part-02_label-phase2,2020.2.10,Win32,60,right,1.037855,1,0.13375,0,88,88,94,1,stimuli/objects/corkscrew03a.jpg,right,new,95,,,,,,,,
,,,,,,,,8,2021-02-10_15h27.31.547,premceCat_ses-02_part-02_label-phase2,2020.2.10,Win32,60,left,0.61467,4,0.03551,0,89,89,0,1,stimuli/objects/filmnegative.jpg,left,old,1,,,,,,,,
,,,,,,,,8,2021-02-10_15h27.31.547,premceCat_ses-02_part-02_label-phase2,2020.2.10,Win32,60,left,0.56248,4,0.03694,0,90,90,114,1,stimuli/objects/headphones02b.jpg,left,old,115,,,,,,,,
,,,,,,,,8,2021-02-10_15h27.31.547,premceCat_ses-02_part-02_label-phase2,2020.2.10,Win32,60,left,0.618025,4,0.13403,0,91,91,70,1,stimuli/objects/heatpump.jpg,left,old,71,,,,,,,,
,,,,,,,,8,2021-02-10_15h27.31.547,premceCat_ses-02_part-02_label-phase2,2020.2.10,Win32,60,right,0.91584,2,0.848545,0,92,92,86,1,stimuli/objects/styrofoamcup.jpg,right,new,87,,,,,,,,
,,,,,,,,8,2021-02-10_15h27.31.547,premceCat_ses-02_part-02_label-phase2,2020.2.10,Win32,60,right,1.20288,4,0.16631,0,93,93,38,1,stimuli/objects/fuse.jpg,right,new,39,,,,,,,,
,,,,,,,,8,2021-02-10_15h27.31.547,premceCat_ses-02_part-02_label-phase2,2020.2.10,Win32,60,right,1.06214,4,0.047815,0,94,94,51,1,stimuli/objects/walkietalkie.jpg,right,new,52,,,,,,,,
,,,,,,,,8,2021-02-10_15h27.31.547,premceCat_ses-02_part-02_label-phase2,2020.2.10,Win32,60,left,1.045535,4,0.124365,0,95,95,91,1,stimuli/objects/aluminiumfoil.jpg,left,old,92,,,,,,,,
,,,,,,,,8,2021-02-10_15h27.31.547,premceCat_ses-02_part-02_label-phase2,2020.2.10,Win32,60,left,0.648855,2,0.46798,0,96,96,95,1,stimuli/objects/cooler01.jpg,left,old,96,,,,,,,,
,,,,,,,,8,2021-02-10_15h27.31.547,premceCat_ses-02_part-02_label-phase2,2020.2.10,Win32,60,left,0.69675,4,0.651315,0,97,97,14,1,stimuli/objects/toothpick02.jpg,left,old,15,,,,,,,,
,,,,,,,,8,2021-02-10_15h27.31.547,premceCat_ses-02_part-02_label-phase2,2020.2.10,Win32,60,right,1.082215,4,0.0322,0,98,98,43,1,stimuli/objects/lifejacket.jpg,right,new,44,,,,,,,,
,,,,,,,,8,2021-02-10_15h27.31.547,premceCat_ses-02_part-02_label-phase2,2020.2.10,Win32,60,left,0.91764,1,0.91722,0,99,99,66,1,stimuli/objects/tablesaw.jpg,right,new,67,,,,,,,,
,,,,,,,,8,2021-02-10_15h27.31.547,premceCat_ses-02_part-02_label-phase2,2020.2.10,Win32,60,left,0.80073,4,0.067655,0,100,100,135,1,stimuli/objects/desktopcomputer.jpg,left,old,136,,,,,,,,
,,,,,,,,8,2021-02-10_15h27.31.547,premceCat_ses-02_part-02_label-phase2,2020.2.10,Win32,60,right,1.11412,4,0.034045,0,101,101,57,1,stimuli/objects/dvdcase01.jpg,right,new,58,,,,,,,,
,,,,,,,,8,2021-02-10_15h27.31.547,premceCat_ses-02_part-02_label-phase2,2020.2.10,Win32,60,left,0.801165,3,0.76759,0,102,102,39,1,stimuli/objects/tableknife02.jpg,right,new,40,,,,,,,,
,,,,,,,,8,2021-02-10_15h27.31.547,premceCat_ses-02_part-02_label-phase2,2020.2.10,Win32,60,right,0.81527,2,0.814255,0,103,103,141,1,stimuli/objects/skiboot01a.jpg,right,new,142,,,,,,,,
,,,,,,,,8,2021-02-10_15h27.31.547,premceCat_ses-02_part-02_label-phase2,2020.2.10,Win32,60,left,0.79538,4,0.180965,0,104,104,97,1,stimuli/objects/poolnet.jpg,left,old,98,,,,,,,,
,,,,,,,,8,2021-02-10_15h27.31.547,premceCat_ses-02_part-02_label-phase2,2020.2.10,Win32,60,right,0.80082,4,0.24883,0,105,105,80,1,stimuli/objects/fanblades.jpg,right,new,81,,,,,,,,
,,,,,,,,8,2021-02-10_15h27.31.547,premceCat_ses-02_part-02_label-phase2,2020.2.10,Win32,60,left,0.849615,4,0.13819,0,106,106,87,1,stimuli/objects/birdie.jpg,left,old,88,,,,,,,,
,,,,,,,,8,2021-02-10_15h27.31.547,premceCat_ses-02_part-02_label-phase2,2020.2.10,Win32,60,right,1.316945,2,0.335515,0,107,107,79,1,stimuli/objects/servingspoon01.jpg,left,old,80,,,,,,,,
,,,,,,,,8,2021-02-10_15h27.31.547,premceCat_ses-02_part-02_label-phase2,2020.2.10,Win32,60,left,0.84919,4,0.1233,0,108,108,127,1,stimuli/objects/drillbit03a.jpg,left,old,128,,,,,,,,
,,,,,,,,8,2021-02-10_15h27.31.547,premceCat_ses-02_part-02_label-phase2,2020.2.10,Win32,60,left,0.61956,4,0.203805,0,109,109,104,1,stimuli/objects/toaster01.jpg,left,old,105,,,,,,,,
,,,,,,,,8,2021-02-10_15h27.31.547,premceCat_ses-02_part-02_label-phase2,2020.2.10,Win32,60,left,0.5777,4,0.16695,0,110,110,56,1,stimuli/objects/halogenlightbulb.jpg,left,old,57,,,,,,,,
,,,,,,,,8,2021-02-10_15h27.31.547,premceCat_ses-02_part-02_label-phase2,2020.2.10,Win32,60,right,0.63036,4,0.15571,0,111,111,93,1,stimuli/objects/payphone.jpg,right,new,94,,,,,,,,
,,,,,,,,8,2021-02-10_15h27.31.547,premceCat_ses-02_part-02_label-phase2,2020.2.10,Win32,60,left,0.72838,4,0.18486,0,112,112,34,1,stimuli/objects/mallet01b.jpg,left,old,35,,,,,,,,
,,,,,,,,8,2021-02-10_15h27.31.547,premceCat_ses-02_part-02_label-phase2,2020.2.10,Win32,60,right,0.89981,3,0.38358,0,113,113,109,1,stimuli/objects/computerkeyboard02.jpg,right,new,110,,,,,,,,
,,,,,,,,8,2021-02-10_15h27.31.547,premceCat_ses-02_part-02_label-phase2,2020.2.10,Win32,60,right,1.04191,4,0.15097,0,114,114,76,1,stimuli/objects/parachute.jpg,right,new,77,,,,,,,,
,,,,,,,,8,2021-02-10_15h27.31.547,premceCat_ses-02_part-02_label-phase2,2020.2.10,Win32,60,right,1.44555,4,0.983835,0,115,115,111,1,stimuli/objects/tray.jpg,right,new,112,,,,,,,,
,,,,,,,,8,2021-02-10_15h27.31.547,premceCat_ses-02_part-02_label-phase2,2020.2.10,Win32,60,right,0.99705,4,0.17275,0,116,116,121,1,stimuli/objects/chocolatefonduedish.jpg,right,new,122,,,,,,,,
,,,,,,,,8,2021-02-10_15h27.31.547,premceCat_ses-02_part-02_label-phase2,2020.2.10,Win32,60,right,1.028395,4,0.2334,0,117,117,136,1,stimuli/objects/laptop01a.jpg,right,new,137,,,,,,,,
,,,,,,,,8,2021-02-10_15h27.31.547,premceCat_ses-02_part-02_label-phase2,2020.2.10,Win32,60,left,1.095495,4,0.285385,0,118,118,75,1,stimuli/objects/puttyknife.jpg,right,new,76,,,,,,,,
,,,,,,,,8,2021-02-10_15h27.31.547,premceCat_ses-02_part-02_label-phase2,2020.2.10,Win32,60,right,0.71332,3,0.268205,0,119,119,13,1,stimuli/objects/cookingpot.jpg,right,new,14,,,,,,,,
,,,,,,,,8,2021-02-10_15h27.31.547,premceCat_ses-02_part-02_label-phase2,2020.2.10,Win32,60,right,1.090515,4,0.03495,0,120,120,138,1,stimuli/objects/minifridge.jpg,right,new,139,,,,,,,,
,,,,,,,,8,2021-02-10_15h27.31.547,premceCat_ses-02_part-02_label-phase2,2020.2.10,Win32,60,right,0.792495,1,0.981165,0,121,121,118,1,stimuli/objects/gluetube.jpg,left,old,119,,,,,,,,
,,,,,,,,8,2021-02-10_15h27.31.547,premceCat_ses-02_part-02_label-phase2,2020.2.10,Win32,60,right,0.91704,4,0.267815,0,122,122,2,1,stimuli/objects/rollingpin01a.jpg,left,old,3,,,,,,,,
,,,,,,,,8,2021-02-10_15h27.31.547,premceCat_ses-02_part-02_label-phase2,2020.2.10,Win32,60,left,0.94882,4,0.08714,0,123,123,102,1,stimuli/objects/bottlecap.jpg,left,old,103,,,,,,,,
,,,,,,,,8,2021-02-10_15h27.31.547,premceCat_ses-02_part-02_label-phase2,2020.2.10,Win32,60,left,0.680735,4,0.17324,0,124,124,36,1,stimuli/objects/gymnasticring.jpg,left,old,37,,,,,,,,
,,,,,,,,8,2021-02-10_15h27.31.547,premceCat_ses-02_part-02_label-phase2,2020.2.10,Win32,60,left,0.53464,4,0.133365,0,125,125,78,1,stimuli/objects/exercisemachine.jpg,left,old,79,,,,,,,,
,,,,,,,,8,2021-02-10_15h27.31.547,premceCat_ses-02_part-02_label-phase2,2020.2.10,Win32,60,left,0.9864,3,0.26697,0,126,126,25,1,stimuli/objects/bikepump01.jpg,right,new,26,,,,,,,,
,,,,,,,,8,2021-02-10_15h27.31.547,premceCat_ses-02_part-02_label-phase2,2020.2.10,Win32,60,left,0.669465,4,0.09657,0,127,127,62,1,stimuli/objects/clock01a.jpg,left,old,63,,,,,,,,
,,,,,,,,8,2021-02-10_15h27.31.547,premceCat_ses-02_part-02_label-phase2,2020.2.10,Win32,60,left,0.586925,4,0.06498,0,128,128,120,1,stimuli/objects/usbkey.jpg,left,old,121,,,,,,,,
,,,,,,,,8,2021-02-10_15h27.31.547,premceCat_ses-02_part-02_label-phase2,2020.2.10,Win32,60,right,0.905905,3,0.117285,0,129,129,103,1,stimuli/objects/studiolight.jpg,left,old,104,,,,,,,,
,,,,,,,,8,2021-02-10_15h27.31.547,premceCat_ses-02_part-02_label-phase2,2020.2.10,Win32,60,right,1.076025,4,0.094105,0,130,130,128,1,stimuli/objects/bastingbrush.jpg,right,new,129,,,,,,,,
,,,,,,,,8,2021-02-10_15h27.31.547,premceCat_ses-02_part-02_label-phase2,2020.2.10,Win32,60,left,1.26497,4,0.25325,0,131,131,115,1,stimuli/objects/toasteroven.jpg,left,old,116,,,,,,,,
,,,,,,,,8,2021-02-10_15h27.31.547,premceCat_ses-02_part-02_label-phase2,2020.2.10,Win32,60,right,0.798415,4,0.066895,0,132,132,41,1,stimuli/objects/foodprocessor.jpg,right,new,42,,,,,,,,
,,,,,,,,8,2021-02-10_15h27.31.547,premceCat_ses-02_part-02_label-phase2,2020.2.10,Win32,60,right,0.932285,4,0.718335,0,133,133,32,1,stimuli/objects/mitresaw.jpg,right,new,33,,,,,,,,
,,,,,,,,8,2021-02-10_15h27.31.547,premceCat_ses-02_part-02_label-phase2,2020.2.10,Win32,60,right,0.847445,1,0.72955,0,134,134,98,1,stimuli/objects/eggslicer.jpg,left,old,99,,,,,,,,
,,,,,,,,8,2021-02-10_15h27.31.547,premceCat_ses-02_part-02_label-phase2,2020.2.10,Win32,60,left,0.872465,4,0.252475,0,135,135,88,1,stimuli/objects/battery02b.jpg,left,old,89,,,,,,,,
,,,,,,,,8,2021-02-10_15h27.31.547,premceCat_ses-02_part-02_label-phase2,2020.2.10,Win32,60,right,0.907675,2,1.310275,0,136,136,24,1,stimuli/objects/punchingbag.jpg,right,new,25,,,,,,,,
,,,,,,,,8,2021-02-10_15h27.31.547,premceCat_ses-02_part-02_label-phase2,2020.2.10,Win32,60,left,0.98076,4,0.11523,0,137,137,101,1,stimuli/objects/stroller.jpg,left,old,102,,,,,,,,
,,,,,,,,8,2021-02-10_15h27.31.547,premceCat_ses-02_part-02_label-phase2,2020.2.10,Win32,60,right,0.834045,4,0.66359,0,138,138,17,1,stimuli/objects/basketballhoop01.jpg,right,new,18,,,,,,,,
,,,,,,,,8,2021-02-10_15h27.31.547,premceCat_ses-02_part-02_label-phase2,2020.2.10,Win32,60,left,1.280345,1,0.3357,0,139,139,129,1,stimuli/objects/shinpad.jpg,left,old,130,,,,,,,,
,,,,,,,,8,2021-02-10_15h27.31.547,premceCat_ses-02_part-02_label-phase2,2020.2.10,Win32,60,left,1.017785,4,0.18176,0,140,140,124,1,stimuli/objects/magneticcompass.jpg,left,old,125,,,,,,,,
,,,,,,,,8,2021-02-10_15h27.31.547,premceCat_ses-02_part-02_label-phase2,2020.2.10,Win32,60,right,0.849455,4,0.263235,0,141,141,108,1,stimuli/objects/pylon01.jpg,right,new,109,,,,,,,,
,,,,,,,,8,2021-02-10_15h27.31.547,premceCat_ses-02_part-02_label-phase2,2020.2.10,Win32,60,left,1.16361,1,1.7692,0,142,142,139,1,stimuli/objects/solderingiron.jpg,right,new,140,,,,,,,,
,,,,,,,,8,2021-02-10_15h27.31.547,premceCat_ses-02_part-02_label-phase2,2020.2.10,Win32,60,,,,,,,,,,,,,,space,146.686525,0,0,0,0,1,condition_files/ImagesforRecog1_1.csv
,,,,,,,,8,2021-02-10_15h27.31.547,premceCat_ses-02_part-02_label-phase2,2020.2.10,Win32,60,left,1.1846,3,0.812955,0,0,0,49,1,stimuli/objects/jigsaw.jpg,right,new,193,,,,,,,,
,,,,,,,,8,2021-02-10_15h27.31.547,premceCat_ses-02_part-02_label-phase2,2020.2.10,Win32,60,left,1.184345,4,0.0608,0,1,1,119,1,stimuli/objects/trampoline.jpg,left,old,263,,,,,,,,
,,,,,,,,8,2021-02-10_15h27.31.547,premceCat_ses-02_part-02_label-phase2,2020.2.10,Win32,60,left,0.6127,4,0.517025,0,2,2,100,1,stimuli/objects/fridge.jpg,left,old,244,,,,,,,,
,,,,,,,,8,2021-02-10_15h27.31.547,premceCat_ses-02_part-02_label-phase2,2020.2.10,Win32,60,left,0.569055,4,0.22136,0,3,3,29,1,stimuli/objects/golfball.jpg,left,old,173,,,,,,,,
,,,,,,,,8,2021-02-10_15h27.31.547,premceCat_ses-02_part-02_label-phase2,2020.2.10,Win32,60,left,1.03565,3,0.129735,0,4,4,111,1,stimuli/objects/bicycle.jpg,right,new,255,,,,,,,,
,,,,,,,,8,2021-02-10_15h27.31.547,premceCat_ses-02_part-02_label-phase2,2020.2.10,Win32,60,left,0.65309,4,0.263225,0,5,5,58,1,stimuli/objects/fork03c.jpg,left,old,202,,,,,,,,
,,,,,,,,8,2021-02-10_15h27.31.547,premceCat_ses-02_part-02_label-phase2,2020.2.10,Win32,60,left,0.464315,2,0.39485,0,6,6,19,1,stimuli/objects/bikehelmet.jpg,right,new,163,,,,,,,,
,,,,,,,,8,2021-02-10_15h27.31.547,premceCat_ses-02_part-02_label-phase2,2020.2.10,Win32,60,left,0.87765,4,0.298065,0,7,7,116,1,stimuli/objects/jumpercables.jpg,left,old,260,,,,,,,,
,,,,,,,,8,2021-02-10_15h27.31.547,premceCat_ses-02_part-02_label-phase2,2020.2.10,Win32,60,left,0.81463,4,0.2326,0,8,8,114,1,stimuli/objects/gastank.jpg,left,old,258,,,,,,,,
,,,,,,,,8,2021-02-10_15h27.31.547,premceCat_ses-02_part-02_label-phase2,2020.2.10,Win32,60,left,0.641425,4,0.201345,0,9,9,18,1,stimuli/objects/ellipticalmachine.jpg,left,old,162,,,,,,,,
,,,,,,,,8,2021-02-10_15h27.31.547,premceCat_ses-02_part-02_label-phase2,2020.2.10,Win32,60,left,0.58189,4,0.133535,0,10,10,115,1,stimuli/objects/kitchenscale01a.jpg,left,old,259,,,,,,,,
,,,,,,,,8,2021-02-10_15h27.31.547,premceCat_ses-02_part-02_label-phase2,2020.2.10,Win32,60,left,0.56455,4,0.276575,0,11,11,85,1,stimuli/objects/exercisebench.jpg,left,old,229,,,,,,,,
,,,,,,,,8,2021-02-10_15h27.31.547,premceCat_ses-02_part-02_label-phase2,2020.2.10,Win32,60,left,0.71533,1,0.4331,0,12,12,0,1,stimuli/objects/saw02b.jpg,right,new,144,,,,,,,,
,,,,,,,,8,2021-02-10_15h27.31.547,premceCat_ses-02_part-02_label-phase2,2020.2.10,Win32,60,right,1.11302,4,0.204485,0,13,13,23,1,stimuli/objects/bucket02.jpg,right,new,167,,,,,,,,
,,,,,,,,8,2021-02-10_15h27.31.547,premceCat_ses-02_part-02_label-phase2,2020.2.10,Win32,60,left,1.34545,3,0.33451,0,14,14,66,1,stimuli/objects/securitycamera.jpg,right,new,210,,,,,,,,
,,,,,,,,8,2021-02-10_15h27.31.547,premceCat_ses-02_part-02_label-phase2,2020.2.10,Win32,60,left,0.63199,4,0.12271,0,15,15,110,1,stimuli/objects/pitcher02b.jpg,left,old,254,,,,,,,,
,,,,,,,,8,2021-02-10_15h27.31.547,premceCat_ses-02_part-02_label-phase2,2020.2.10,Win32,60,left,0.634785,4,0.232375,0,16,16,136,1,stimuli/objects/camera01a.jpg,left,old,280,,,,,,,,
,,,,,,,,8,2021-02-10_15h27.31.547,premceCat_ses-02_part-02_label-phase2,2020.2.10,Win32,60,right,1.25357,1,0.29732,0,17,17,95,1,stimuli/objects/microwave.jpg,right,new,239,,,,,,,,
,,,,,,,,8,2021-02-10_15h27.31.547,premceCat_ses-02_part-02_label-phase2,2020.2.10,Win32,60,right,0.93314,4,0.114565,0,18,18,65,1,stimuli/objects/jar02.jpg,right,new,209,,,,,,,,
,,,,,,,,8,2021-02-10_15h27.31.547,premceCat_ses-02_part-02_label-phase2,2020.2.10,Win32,60,right,1.88206,2,0.19754,0,19,19,2,1,stimuli/objects/carlighter02.jpg,right,new,146,,,,,,,,
,,,,,,,,8,2021-02-10_15h27.31.547,premceCat_ses-02_part-02_label-phase2,2020.2.10,Win32,60,left,1.11245,2,0.28619,0,20,20,1,1,stimuli/objects/tupperware03a.jpg,left,old,145,,,,,,,,
,,,,,,,,8,2021-02-10_15h27.31.547,premceCat_ses-02_part-02_label-phase2,2020.2.10,Win32,60,left,0.700415,4,0.05104,0,21,21,93,1,stimuli/objects/mug01.jpg,left,old,237,,,,,,,,
,,,,,,,,8,2021-02-10_15h27.31.547,premceCat_ses-02_part-02_label-phase2,2020.2.10,Win32,60,left,0.7458,4,0.12312,0,22,22,72,1,stimuli/objects/pda.jpg,left,old,216,,,,,,,,
,,,,,,,,8,2021-02-10_15h27.31.547,premceCat_ses-02_part-02_label-phase2,2020.2.10,Win32,60,left,0.74538,1,0.547205,0,23,23,77,1,stimuli/objects/iceskate.jpg,right,new,221,,,,,,,,
,,,,,,,,8,2021-02-10_15h27.31.547,premceCat_ses-02_part-02_label-phase2,2020.2.10,Win32,60,left,0.768375,4,0.07609,0,24,24,53,1,stimuli/objects/paintroller01.jpg,left,old,197,,,,,,,,
,,,,,,,,8,2021-02-10_15h27.31.547,premceCat_ses-02_part-02_label-phase2,2020.2.10,Win32,60,left,0.549145,1,0.383855,0,25,25,50,1,stimuli/objects/coffeemaker.jpg,right,new,194,,,,,,,,
,,,,,,,,8,2021-02-10_15h27.31.547,premceCat_ses-02_part-02_label-phase2,2020.2.10,Win32,60,left,1.063555,4,0.10719,0,26,26,47,1,stimuli/objects/butterknife.jpg,left,old,191,,,,,,,,
,,,,,,,,8,2021-02-10_15h27.31.547,premceCat_ses-02_part-02_label-phase2,2020.2.10,Win32,60,left,0.653995,4,0.07099,0,27,27,27,1,stimuli/objects/setsquare.jpg,left,old,171,,,,,,,,
,,,,,,,,8,2021-02-10_15h27.31.547,premceCat_ses-02_part-02_label-phase2,2020.2.10,Win32,60,left,0.533715,1,0.6091,0,28,28,90,1,stimuli/objects/drill01b.jpg,left,old,234,,,,,,,,
,,,,,,,,8,2021-02-10_15h27.31.547,premceCat_ses-02_part-02_label-phase2,2020.2.10,Win32,60,right,1.079475,4,0.13457,0,29,29,78,1,stimuli/objects/swissarmyknife01a.jpg,right,new,222,,,,,,,,
,,,,,,,,8,2021-02-10_15h27.31.547,premceCat_ses-02_part-02_label-phase2,2020.2.10,Win32,60,right,0.854885,4,0.107425,0,30,30,36,1,stimuli/objects/gasburner.jpg,right,new,180,,,,,,,,
,,,,,,,,8,2021-02-10_15h27.31.547,premceCat_ses-02_part-02_label-phase2,2020.2.10,Win32,60,left,0.847035,4,0.08598,0,31,31,70,1,stimuli/objects/waterbottle03.jpg,left,old,214,,,,,,,,
,,,,,,,,8,2021-02-10_15h27.31.547,premceCat_ses-02_part-02_label-phase2,2020.2.10,Win32,60,left,0.6286,4,0.088155,0,32,32,62,1,stimuli/objects/toyhardhat.jpg,left,old,206,,,,,,,,
,,,,,,,,8,2021-02-10_15h27.31.547,premceCat_ses-02_part-02_label-phase2,2020.2.10,Win32,60,left,0.930275,4,0.139815,0,33,33,80,1,stimuli/objects/reflector.jpg,left,old,224,,,,,,,,
,,,,,,,,8,2021-02-10_15h27.31.547,premceCat_ses-02_part-02_label-phase2,2020.2.10,Win32,60,left,0.678955,4,0.084145,0,34,34,81,1,stimuli/objects/lockingplier.jpg,left,old,225,,,,,,,,
,,,,,,,,8,2021-02-10_15h27.31.547,premceCat_ses-02_part-02_label-phase2,2020.2.10,Win32,60,right,1.077775,3,0.21109,0,35,35,121,1,stimuli/objects/chainsaw.jpg,right,new,265,,,,,,,,
,,,,,,,,8,2021-02-10_15h27.31.547,premceCat_ses-02_part-02_label-phase2,2020.2.10,Win32,60,left,1.023555,4,0.112815,0,36,36,52,1,stimuli/objects/wiicontroller.jpg,left,old,196,,,,,,,,
,,,,,,,,8,2021-02-10_15h27.31.547,premceCat_ses-02_part-02_label-phase2,2020.2.10,Win32,60,right,1.832895,1,0.45361,0,37,37,84,1,stimuli/objects/stepladder.jpg,left,old,228,,,,,,,,
,,,,,,,,8,2021-02-10_15h27.31.547,premceCat_ses-02_part-02_label-phase2,2020.2.10,Win32,60,right,1.08458,4,0.78167,0,38,38,102,1,stimuli/objects/skihelmet01.jpg,left,old,246,,,,,,,,
,,,,,,,,8,2021-02-10_15h27.31.547,premceCat_ses-02_part-02_label-phase2,2020.2.10,Win32,60,left,1.36903,2,0.2885,0,39,39,118,1,stimuli/objects/fanheater.jpg,right,new,262,,,,,,,,
,,,,,,,,8,2021-02-10_15h27.31.547,premceCat_ses-02_part-02_label-phase2,2020.2.10,Win32,60,left,1.09754,1,0.26735,0,40,40,130,1,stimuli/objects/snowbrush.jpg,right,new,274,,,,,,,,
,,,,,,,,8,2021-02-10_15h27.31.547,premceCat_ses-02_part-02_label-phase2,2020.2.10,Win32,60,right,1.06794,1,0.826385,0,41,41,126,1,stimuli/objects/hedgetrimmer.jpg,left,old,270,,,,,,,,
,,,,,,,,8,2021-02-10_15h27.31.547,premceCat_ses-02_part-02_label-phase2,2020.2.10,Win32,60,right,2.00939,4,0.2865,0,42,42,12,1,stimuli/objects/bottleopener01.jpg,right,new,156,,,,,,,,
,,,,,,,,8,2021-02-10_15h27.31.547,premceCat_ses-02_part-02_label-phase2,2020.2.10,Win32,60,right,0.76541,4,1.096605,0,43,43,45,1,stimuli/objects/lawnmower.jpg,left,old,189,,,,,,,,
,,,,,,,,8,2021-02-10_15h27.31.547,premceCat_ses-02_part-02_label-phase2,2020.2.10,Win32,60,left,1.37944,4,0.20328,0,44,44,104,1,stimuli/objects/wafflemaker.jpg,left,old,248,,,,,,,,
,,,,,,,,8,2021-02-10_15h27.31.547,premceCat_ses-02_part-02_label-phase2,2020.2.10,Win32,60,left,0.76643,4,0.25365,0,45,45,113,1,stimuli/objects/boxcutter03a.jpg,left,old,257,,,,,,,,
,,,,,,,,8,2021-02-10_15h27.31.547,premceCat_ses-02_part-02_label-phase2,2020.2.10,Win32,60,left,1.51779,4,0.15266,0,46,46,33,1,stimuli/objects/propanetank01.jpg,left,old,177,,,,,,,,
,,,,,,,,8,2021-02-10_15h27.31.547,premceCat_ses-02_part-02_label-phase2,2020.2.10,Win32,60,right,0.902215,1,0.34932,0,47,47,5,1,stimuli/objects/handgripper.jpg,right,new,149,,,,,,,,
,,,,,,,,8,2021-02-10_15h27.31.547,premceCat_ses-02_part-02_label-phase2,2020.2.10,Win32,60,left,0.583515,4,0.04003,0,48,48,8,1,stimuli/objects/paninigrill.jpg,left,old,152,,,,,,,,
,,,,,,,,8,2021-02-10_15h27.31.547,premceCat_ses-02_part-02_label-phase2,2020.2.10,Win32,60,right,0.879135,1,0.28696,0,49,49,137,1,stimuli/objects/gps.jpg,left,old,281,,,,,,,,
,,,,,,,,8,2021-02-10_15h27.31.547,premceCat_ses-02_part-02_label-phase2,2020.2.10,Win32,60,right,1.74479,4,2.28057,0,50,50,79,1,stimuli/objects/snowshoe.jpg,right,new,223,,,,,,,,
,,,,,,,,8,2021-02-10_15h27.31.547,premceCat_ses-02_part-02_label-phase2,2020.2.10,Win32,60,right,1.184265,3,0.373635,0,51,51,122,1,stimuli/objects/faxmachine.jpg,right,new,266,,,,,,,,
,,,,,,,,8,2021-02-10_15h27.31.547,premceCat_ses-02_part-02_label-phase2,2020.2.10,Win32,60,left,0.615405,4,0.100375,0,52,52,48,1,stimuli/objects/adjustablewrench01b.jpg,right,new,192,,,,,,,,
,,,,,,,,8,2021-02-10_15h27.31.547,premceCat_ses-02_part-02_label-phase2,2020.2.10,Win32,60,right,0.83094,4,0.199245,0,53,53,39,1,stimuli/objects/beachumbrella01.jpg,right,new,183,,,,,,,,
,,,,,,,,8,2021-02-10_15h27.31.547,premceCat_ses-02_part-02_label-phase2,2020.2.10,Win32,60,right,0.81602,4,0.09107,0,54,54,108,1,stimuli/objects/fishinghook03.jpg,right,new,252,,,,,,,,
,,,,,,,,8,2021-02-10_15h27.31.547,premceCat_ses-02_part-02_label-phase2,2020.2.10,Win32,60,right,0.934765,4,0.244135,0,55,55,10,1,stimuli/objects/toyhockeystick01.jpg,right,new,154,,,,,,,,
,,,,,,,,8,2021-02-10_15h27.31.547,premceCat_ses-02_part-02_label-phase2,2020.2.10,Win32,60,right,0.71918,4,0.236405,0,56,56,11,1,stimuli/objects/coffeemachine.jpg,right,new,155,,,,,,,,
,,,,,,,,8,2021-02-10_15h27.31.547,premceCat_ses-02_part-02_label-phase2,2020.2.10,Win32,60,right,0.673695,4,0.232475,0,57,57,124,1,stimuli/objects/whisk.jpg,right,new,268,,,,,,,,
,,,,,,,,8,2021-02-10_15h27.31.547,premceCat_ses-02_part-02_label-phase2,2020.2.10,Win32,60,left,0.856255,4,0.17821,0,58,58,61,1,stimuli/objects/outletadapter.jpg,left,old,205,,,,,,,,
,,,,,,,,8,2021-02-10_15h27.31.547,premceCat_ses-02_part-02_label-phase2,2020.2.10,Win32,60,right,0.82077,4,0.144905,0,59,59,35,1,stimuli/objects/remotecontrol04.jpg,right,new,179,,,,,,,,
,,,,,,,,8,2021-02-10_15h27.31.547,premceCat_ses-02_part-02_label-phase2,2020.2.10,Win32,60,left,0.60855,4,0.157035,0,60,60,67,1,stimuli/objects/woodenspoon.jpg,left,old,211,,,,,,,,
,,,,,,,,8,2021-02-10_15h27.31.547,premceCat_ses-02_part-02_label-phase2,2020.2.10,Win32,60,left,0.64733,4,0.050755,0,61,61,106,1,stimuli/objects/jack.jpg,left,old,250,,,,,,,,
,,,,,,,,8,2021-02-10_15h27.31.547,premceCat_ses-02_part-02_label-phase2,2020.2.10,Win32,60,left,1.164395,3,0.164855,0,62,62,140,1,stimuli/objects/baseballbat.jpg,left,old,284,,,,,,,,
,,,,,,,,8,2021-02-10_15h27.31.547,premceCat_ses-02_part-02_label-phase2,2020.2.10,Win32,60,right,1.435745,2,0.120075,0,63,63,109,1,stimuli/objects/knifesharpener.jpg,right,new,253,,,,,,,,
,,,,,,,,8,2021-02-10_15h27.31.547,premceCat_ses-02_part-02_label-phase2,2020.2.10,Win32,60,left,0.75259,4,0.017505,0,64,64,96,1,stimuli/objects/dolly01.jpg,left,old,240,,,,,,,,
,,,,,,,,8,2021-02-10_15h27.31.547,premceCat_ses-02_part-02_label-phase2,2020.2.10,Win32,60,right,0.803685,4,0.12916,0,65,65,54,1,stimuli/objects/alarmsystem.jpg,right,new,198,,,,,,,,
,,,,,,,,8,2021-02-10_15h27.31.547,premceCat_ses-02_part-02_label-phase2,2020.2.10,Win32,60,left,0.905545,2,0.35081,0,66,66,76,1,stimuli/objects/footballhelmet.jpg,right,new,220,,,,,,,,
,,,,,,,,8,2021-02-10_15h27.31.547,premceCat_ses-02_part-02_label-phase2,2020.2.10,Win32,60,left,0.75825,4,1.0353,0,67,67,4,1,stimuli/objects/leafrake.jpg,right,new,148,,,,,,,,
,,,,,,,,8,2021-02-10_15h27.31.547,premceCat_ses-02_part-02_label-phase2,2020.2.10,Win32,60,right,1.179245,3,0.80077,0,68,68,56,1,stimuli/objects/hose.jpg,left,old,200,,,,,,,,
,,,,,,,,8,2021-02-10_15h27.31.547,premceCat_ses-02_part-02_label-phase2,2020.2.10,Win32,60,left,1.0843,4,0.124845,0,69,69,117,1,stimuli/objects/papershredder.jpg,left,old,261,,,,,,,,
,,,,,,,,8,2021-02-10_15h27.31.547,premceCat_ses-02_part-02_label-phase2,2020.2.10,Win32,60,right,0.94282,1,0.509735,0,70,70,68,1,stimuli/objects/jackhammer.jpg,right,new,212,,,,,,,,
,,,,,,,,8,2021-02-10_15h27.31.547,premceCat_ses-02_part-02_label-phase2,2020.2.10,Win32,60,right,1.398185,1,1.153255,0,71,71,127,1,stimuli/objects/airconditioner.jpg,right,new,271,,,,,,,,
,,,,,,,,8,2021-02-10_15h27.31.547,premceCat_ses-02_part-02_label-phase2,2020.2.10,Win32,60,left,1.330785,3,0.20481,0,72,72,125,1,stimuli/objects/musicalwoodenspoons.jpg,left,old,269,,,,,,,,
,,,,,,,,8,2021-02-10_15h27.31.547,premceCat_ses-02_part-02_label-phase2,2020.2.10,Win32,60,left,0.88208,4,0.135335,0,73,73,25,1,stimuli/objects/rope03.jpg,left,old,169,,,,,,,,
,,,,,,,,8,2021-02-10_15h27.31.547,premceCat_ses-02_part-02_label-phase2,2020.2.10,Win32,60,left,0.562885,1,0.377145,0,74,74,60,1,stimuli/objects/canoepaddle02.jpg,left,old,204,,,,,,,,
,,,,,,,,8,2021-02-10_15h27.31.547,premceCat_ses-02_part-02_label-phase2,2020.2.10,Win32,60,left,0.74663,4,0.000615,0,75,75,20,1,stimuli/objects/shotglass.jpg,left,old,164,,,,,,,,
,,,,,,,,8,2021-02-10_15h27.31.547,premceCat_ses-02_part-02_label-phase2,2020.2.10,Win32,60,right,1.12212,1,0.96489,0,76,76,40,1,stimuli/objects/nailgun.jpg,right,new,184,,,,,,,,
,,,,,,,,8,2021-02-10_15h27.31.547,premceCat_ses-02_part-02_label-phase2,2020.2.10,Win32,60,right,1.202155,4,0.115435,0,77,77,123,1,stimuli/objects/ladle02a.jpg,right,new,267,,,,,,,,
,,,,,,,,8,2021-02-10_15h27.31.547,premceCat_ses-02_part-02_label-phase2,2020.2.10,Win32,60,left,0.583035,4,0.051305,0,78,78,22,1,stimuli/objects/lightbulb01.jpg,left,old,166,,,,,,,,
,,,,,,,,8,2021-02-10_15h27.31.547,premceCat_ses-02_part-02_label-phase2,2020.2.10,Win32,60,right,0.86136,4,0.000615,0,79,79,135,1,stimuli/objects/teapot.jpg,right,new,279,,,,,,,,
,,,,,,,,8,2021-02-10_15h27.31.547,premceCat_ses-02_part-02_label-phase2,2020.2.10,Win32,60,left,0.855575,4,0.007365,0,80,80,28,1,stimuli/objects/paintscraper.jpg,left,old,172,,,,,,,,
,,,,,,,,8,2021-02-10_15h27.31.547,premceCat_ses-02_part-02_label-phase2,2020.2.10,Win32,60,left,0.59921,4,0.057635,0,81,81,24,1,stimuli/objects/measuringcup01.jpg,left,old,168,,,,,,,,
,,,,,,,,8,2021-02-10_15h27.31.547,premceCat_ses-02_part-02_label-phase2,2020.2.10,Win32,60,left,0.61292,4,0.16039,0,82,82,31,1,stimuli/objects/sewingmachine01a.jpg,left,old,175,,,,,,,,
,,,,,,,,8,2021-02-10_15h27.31.547,premceCat_ses-02_part-02_label-phase2,2020.2.10,Win32,60,left,0.59671,4,0.15096,0,83,83,103,1,stimuli/objects/snowman.jpg,left,old,247,,,,,,,,
,,,,,,,,8,2021-02-10_15h27.31.547,premceCat_ses-02_part-02_label-phase2,2020.2.10,Win32,60,left,0.911635,4,0.318045,0,84,84,3,1,stimuli/objects/wirestripper.jpg,right,new,147,,,,,,,,
,,,,,,,,8,2021-02-10_15h27.31.547,premceCat_ses-02_part-02_label-phase2,2020.2.10,Win32,60,right,0.71012,4,0.09081,0,85,85,128,1,stimuli/objects/funnel.jpg,right,new,272,,,,,,,,
,,,,,,,,8,2021-02-10_15h27.31.547,premceCat_ses-02_part-02_label-phase2,2020.2.10,Win32,60,left,0.64901,4,0.086235,0,86,86,75,1,stimuli/objects/peppermill02b.jpg,left,old,219,,,,,,,,
,,,,,,,,8,2021-02-10_15h27.31.547,premceCat_ses-02_part-02_label-phase2,2020.2.10,Win32,60,left,0.730165,4,0.27471,0,87,87,32,1,stimuli/objects/weight01.jpg,left,old,176,,,,,,,,
,,,,,,,,8,2021-02-10_15h27.31.547,premceCat_ses-02_part-02_label-phase2,2020.2.10,Win32,60,left,0.73151,4,0.08696,0,88,88,132,1,stimuli/objects/kneepad01c.jpg,left,old,276,,,,,,,,
,,,,,,,,8,2021-02-10_15h27.31.547,premceCat_ses-02_part-02_label-phase2,2020.2.10,Win32,60,left,0.719325,3,1.36044,0,89,89,87,1,stimuli/objects/boltcutter.jpg,right,new,231,,,,,,,,
,,,,,,,,8,2021-02-10_15h27.31.547,premceCat_ses-02_part-02_label-phase2,2020.2.10,Win32,60,left,1.53442,2,0.23219,0,90,90,69,1,stimuli/objects/wheelbarrow01.jpg,right,new,213,,,,,,,,
,,,,,,,,8,2021-02-10_15h27.31.547,premceCat_ses-02_part-02_label-phase2,2020.2.10,Win32,60,left,0.737225,4,0.06839,0,91,91,92,1,stimuli/objects/cork02.jpg,left,old,236,,,,,,,,
,,,,,,,,8,2021-02-10_15h27.31.547,premceCat_ses-02_part-02_label-phase2,2020.2.10,Win32,60,right,0.815255,1,0.42371,0,92,92,94,1,stimuli/objects/microphone01.jpg,right,new,238,,,,,,,,
,,,,,,,,8,2021-02-10_15h27.31.547,premceCat_ses-02_part-02_label-phase2,2020.2.10,Win32,60,left,0.71153,3,0.231525,0,93,93,57,1,stimuli/objects/printer02.jpg,left,old,201,,,,,,,,
,,,,,,,,8,2021-02-10_15h27.31.547,premceCat_ses-02_part-02_label-phase2,2020.2.10,Win32,60,right,0.72394,4,1.380895,0,94,94,34,1,stimuli/objects/floodlight.jpg,right,new,178,,,,,,,,
,,,,,,,,8,2021-02-10_15h27.31.547,premceCat_ses-02_part-02_label-phase2,2020.2.10,Win32,60,left,0.90475,2,0.24722,0,95,95,133,1,stimuli/objects/golfbag.jpg,left,old,277,,,,,,,,
,,,,,,,,8,2021-02-10_15h27.31.547,premceCat_ses-02_part-02_label-phase2,2020.2.10,Win32,60,left,1.53738,4,0.01465,0,96,96,139,1,stimuli/objects/hockeygoaliemask.jpg,left,old,283,,,,,,,,
,,,,,,,,8,2021-02-10_15h27.31.547,premceCat_ses-02_part-02_label-phase2,2020.2.10,Win32,60,right,0.831745,1,0.740185,0,97,97,13,1,stimuli/objects/spotlight.jpg,left,old,157,,,,,,,,
,,,,,,,,8,2021-02-10_15h27.31.547,premceCat_ses-02_part-02_label-phase2,2020.2.10,Win32,60,right,1.53562,1,0.49821,0,98,98,26,1,stimuli/objects/backpack01a.jpg,right,new,170,,,,,,,,
,,,,,,,,8,2021-02-10_15h27.31.547,premceCat_ses-02_part-02_label-phase2,2020.2.10,Win32,60,right,0.80144,1,0.188235,0,99,99,86,1,stimuli/objects/tennisracket.jpg,right,new,230,,,,,,,,
,,,,,,,,8,2021-02-10_15h27.31.547,premceCat_ses-02_part-02_label-phase2,2020.2.10,Win32,60,right,1.096685,4,0.018115,0,100,100,44,1,stimuli/objects/dishrack.jpg,right,new,188,,,,,,,,
,,,,,,,,8,2021-02-10_15h27.31.547,premceCat_ses-02_part-02_label-phase2,2020.2.10,Win32,60,right,0.877665,4,0.18751,0,101,101,74,1,stimuli/objects/videocamera01a.jpg,right,new,218,,,,,,,,
,,,,,,,,8,2021-02-10_15h27.31.547,premceCat_ses-02_part-02_label-phase2,2020.2.10,Win32,60,left,1.746285,3,0.283865,0,102,102,99,1,stimuli/objects/flashlight02b.jpg,right,new,243,,,,,,,,
,,,,,,,,8,2021-02-10_15h27.31.547,premceCat_ses-02_part-02_label-phase2,2020.2.10,Win32,60,right,0.98914,1,0.866555,0,103,103,51,1,stimuli/objects/fonduefork01.jpg,right,new,195,,,,,,,,
,,,,,,,,8,2021-02-10_15h27.31.547,premceCat_ses-02_part-02_label-phase2,2020.2.10,Win32,60,right,3.26212,1,0.717415,0,104,104,98,1,stimuli/objects/phonejack.jpg,right,new,242,,,,,,,,
,,,,,,,,8,2021-02-10_15h27.31.547,premceCat_ses-02_part-02_label-phase2,2020.2.10,Win32,60,left,0.895625,4,0.17624,0,105,105,37,1,stimuli/objects/pipewrench.jpg,right,new,181,,,,,,,,
,,,,,,,,8,2021-02-10_15h27.31.547,premceCat_ses-02_part-02_label-phase2,2020.2.10,Win32,60,left,0.530975,4,0.118415,0,106,106,14,1,stimuli/objects/pitchfork.jpg,left,old,158,,,,,,,,
,,,,,,,,8,2021-02-10_15h27.31.547,premceCat_ses-02_part-02_label-phase2,2020.2.10,Win32,60,left,0.813315,4,0.057555,0,107,107,64,1,stimuli/objects/tongs01b.jpg,left,old,208,,,,,,,,
,,,,,,,,8,2021-02-10_15h27.31.547,premceCat_ses-02_part-02_label-phase2,2020.2.10,Win32,60,right,0.71325,4,1.214665,0,108,108,16,1,stimuli/objects/charcoalbarbecue.jpg,right,new,160,,,,,,,,
,,,,,,,,8,2021-02-10_15h27.31.547,premceCat_ses-02_part-02_label-phase2,2020.2.10,Win32,60,left,0.61475,4,0.08196,0,109,109,89,1,stimuli/objects/cellphone.jpg,left,old,233,,,,,,,,
,,,,,,,,8,2021-02-10_15h27.31.547,premceCat_ses-02_part-02_label-phase2,2020.2.10,Win32,60,left,0.843425,4,0.051775,0,110,110,6,1,stimuli/objects/binoculars01b.jpg,right,new,150,,,,,,,,
,,,,,,,,8,2021-02-10_15h27.31.547,premceCat_ses-02_part-02_label-phase2,2020.2.10,Win32,60,right,0.713815,2,0.521325,0,111,111,142,1,stimuli/objects/file.jpg,right,new,286,,,,,,,,
,,,,,,,,8,2021-02-10_15h27.31.547,premceCat_ses-02_part-02_label-phase2,2020.2.10,Win32,60,left,0.747125,4,0.01807,0,112,112,134,1,stimuli/objects/straw.jpg,left,old,278,,,,,,,,
,,,,,,,,8,2021-02-10_15h27.31.547,premceCat_ses-02_part-02_label-phase2,2020.2.10,Win32,60,right,0.81653,4,0.155815,0,113,113,55,1,stimuli/objects/hockeypuck.jpg,right,new,199,,,,,,,,
,,,,,,,,8,2021-02-10_15h27.31.547,premceCat_ses-02_part-02_label-phase2,2020.2.10,Win32,60,right,0.79833,4,0.00086,0,114,114,107,1,stimuli/objects/telescope.jpg,right,new,251,,,,,,,,
,,,,,,,,8,2021-02-10_15h27.31.547,premceCat_ses-02_part-02_label-phase2,2020.2.10,Win32,60,right,0.68422,1,0.867115,0,115,115,97,1,stimuli/objects/powercable.jpg,left,old,241,,,,,,,,
,,,,,,,,8,2021-02-10_15h27.31.547,premceCat_ses-02_part-02_label-phase2,2020.2.10,Win32,60,left,1.165755,4,0.184945,0,116,116,42,1,stimuli/objects/football.jpg,left,old,186,,,,,,,,
,,,,,,,,8,2021-02-10_15h27.31.547,premceCat_ses-02_part-02_label-phase2,2020.2.10,Win32,60,right,0.77979,4,0.65098,0,117,117,88,1,stimuli/objects/cuttingboard.jpg,right,new,232,,,,,,,,
,,,,,,,,8,2021-02-10_15h27.31.547,premceCat_ses-02_part-02_label-phase2,2020.2.10,Win32,60,left,2.66138,4,0.296315,0,118,118,105,1,stimuli/objects/radio01.jpg,left,old,249,,,,,,,,
,,,,,,,,8,2021-02-10_15h27.31.547,premceCat_ses-02_part-02_label-phase2,2020.2.10,Win32,60,left,0.66791,2,0.09131,0,119,119,91,1,stimuli/objects/screwdriver04b.jpg,right,new,235,,,,,,,,
,,,,,,,,8,2021-02-10_15h27.31.547,premceCat_ses-02_part-02_label-phase2,2020.2.10,Win32,60,left,0.88774,4,0.06787,0,120,120,129,1,stimuli/objects/icecubetray01a.jpg,left,old,273,,,,,,,,
,,,,,,,,8,2021-02-10_15h27.31.547,premceCat_ses-02_part-02_label-phase2,2020.2.10,Win32,60,right,0.861165,2,0.15515,0,121,121,46,1,stimuli/objects/grater01a.jpg,right,new,190,,,,,,,,
,,,,,,,,8,2021-02-10_15h27.31.547,premceCat_ses-02_part-02_label-phase2,2020.2.10,Win32,60,right,1.122675,4,0.521485,0,122,122,120,1,stimuli/objects/wire.jpg,right,new,264,,,,,,,,
,,,,,,,,8,2021-02-10_15h27.31.547,premceCat_ses-02_part-02_label-phase2,2020.2.10,Win32,60,right,0.89592,2,0.64831,0,123,123,101,1,stimuli/objects/weedwacker.jpg,left,old,245,,,,,,,,
,,,,,,,,8,2021-02-10_15h27.31.547,premceCat_ses-02_part-02_label-phase2,2020.2.10,Win32,60,left,0.619325,4,0.157655,0,124,124,41,1,stimuli/objects/glass02a.jpg,left,old,185,,,,,,,,
,,,,,,,,8,2021-02-10_15h27.31.547,premceCat_ses-02_part-02_label-phase2,2020.2.10,Win32,60,right,0.86392,2,0.343955,0,125,125,82,1,stimuli/objects/carantenna.jpg,right,new,226,,,,,,,,
,,,,,,,,8,2021-02-10_15h27.31.547,premceCat_ses-02_part-02_label-phase2,2020.2.10,Win32,60,left,1.25091,4,0.0941,0,126,126,7,1,stimuli/objects/backfloat.jpg,left,old,151,,,,,,,,
,,,,,,,,8,2021-02-10_15h27.31.547,premceCat_ses-02_part-02_label-phase2,2020.2.10,Win32,60,left,0.55442,4,0.2314,0,127,127,59,1,stimuli/objects/shovel01.jpg,right,new,203,,,,,,,,
,,,,,,,,8,2021-02-10_15h27.31.547,premceCat_ses-02_part-02_label-phase2,2020.2.10,Win32,60,left,0.64503,4,0.21028,0,128,128,38,1,stimuli/objects/nintendods.jpg,left,old,182,,,,,,,,
,,,,,,,,8,2021-02-10_15h27.31.547,premceCat_ses-02_part-02_label-phase2,2020.2.10,Win32,60,right,0.66349,1,0.716725,0,129,129,9,1,stimuli/objects/waterbottleholder.jpg,left,old,153,,,,,,,,
,,,,,,,,8,2021-02-10_15h27.31.547,premceCat_ses-02_part-02_label-phase2,2020.2.10,Win32,60,left,1.11106,4,0.09872,0,130,130,73,1,stimuli/objects/hosenozzle.jpg,left,old,217,,,,,,,,
,,,,,,,,8,2021-02-10_15h27.31.547,premceCat_ses-02_part-02_label-phase2,2020.2.10,Win32,60,left,0.81326,4,0.06769,0,131,131,21,1,stimuli/objects/toolbox02.jpg,left,old,165,,,,,,,,
,,,,,,,,8,2021-02-10_15h27.31.547,premceCat_ses-02_part-02_label-phase2,2020.2.10,Win32,60,right,2.0469,1,0.11803,0,132,132,141,1,stimuli/objects/boatmotor.jpg,right,new,285,,,,,,,,
,,,,,,,,8,2021-02-10_15h27.31.547,premceCat_ses-02_part-02_label-phase2,2020.2.10,Win32,60,left,0.6621,4,0.1381,0,133,133,112,1,stimuli/objects/tennisball01b.jpg,right,new,256,,,,,,,,
,,,,,,,,8,2021-02-10_15h27.31.547,premceCat_ses-02_part-02_label-phase2,2020.2.10,Win32,60,left,0.614715,4,0.114115,0,134,134,63,1,stimuli/objects/soundmixer.jpg,left,old,207,,,,,,,,
,,,,,,,,8,2021-02-10_15h27.31.547,premceCat_ses-02_part-02_label-phase2,2020.2.10,Win32,60,left,0.637415,1,0.270265,0,135,135,43,1,stimuli/objects/exercisebike.jpg,right,new,187,,,,,,,,
,,,,,,,,8,2021-02-10_15h27.31.547,premceCat_ses-02_part-02_label-phase2,2020.2.10,Win32,60,left,0.94437,1,1.18227,0,136,136,30,1,stimuli/objects/pastaspoon.jpg,right,new,174,,,,,,,,
,,,,,,,,8,2021-02-10_15h27.31.547,premceCat_ses-02_part-02_label-phase2,2020.2.10,Win32,60,right,1.151555,2,1.44754,0,137,137,138,1,stimuli/objects/punchingball.jpg,right,new,282,,,,,,,,
,,,,,,,,8,2021-02-10_15h27.31.547,premceCat_ses-02_part-02_label-phase2,2020.2.10,Win32,60,left,1.16348,3,0.43246,0,138,138,131,1,stimuli/objects/hockeygoalieglove.jpg,right,new,275,,,,,,,,
,,,,,,,,8,2021-02-10_15h27.31.547,premceCat_ses-02_part-02_label-phase2,2020.2.10,Win32,60,right,0.79304,1,0.415105,0,139,139,71,1,stimuli/objects/solderingwire.jpg,left,old,215,,,,,,,,
,,,,,,,,8,2021-02-10_15h27.31.547,premceCat_ses-02_part-02_label-phase2,2020.2.10,Win32,60,left,0.962275,4,0.04976,0,140,140,17,1,stimuli/objects/ramekin01.jpg,left,old,161,,,,,,,,
,,,,,,,,8,2021-02-10_15h27.31.547,premceCat_ses-02_part-02_label-phase2,2020.2.10,Win32,60,right,0.8697,4,0.11683,0,141,141,83,1,stimuli/objects/vhstape.jpg,right,new,227,,,,,,,,
,,,,,,,,8,2021-02-10_15h27.31.547,premceCat_ses-02_part-02_label-phase2,2020.2.10,Win32,60,right,0.82921,4,0.58999,0,142,142,15,1,stimuli/objects/jug.jpg,right,new,159,,,,,,,,
,,,,,,,,8,2021-02-10_15h27.31.547,premceCat_ses-02_part-02_label-phase2,2020.2.10,Win32,60,,,,,,,,,,,,,,space,2.402585,0,1,1,1,1,condition_files/ImagesforRecog1_2.csv
