"participant","pract_resp.keys","pract_resp.corr","pract_resp.rt","first_character","second_character","Cue","left_categ","centleft_categ","centright_categ","right_categ","corr_ans","obj_category","image","trial_cond","cuedCharacter","task_resp.keys","task_resp.corr","task_resp.rt"
6,NA,NA,NA,"","",NA,"","","","",NA,"","",NA,"",NA,NA,NA
6,NA,NA,NA,"","",NA,"","","","",NA,"","",NA,"",NA,NA,NA
6,NA,NA,NA,"","",NA,"","","","",NA,"","",NA,"",NA,NA,NA
6,NA,NA,NA,"","",NA,"","","","",NA,"","",NA,"",NA,NA,NA
6,NA,NA,NA,"","",NA,"","","","",NA,"","",NA,"",NA,NA,NA
6,NA,NA,NA,"","",NA,"","","","",NA,"","",NA,"",NA,NA,NA
6,1,0,1.432,"stimuli/m1.jpg","stimuli/m4.jpg",1,"stimuli/Vehicle.png","stimuli/Stationary & school supply.png","stimuli/Clothing.png","stimuli/Gamestoy & entertainment.png",2,"","stimuli/objects/pen04b.jpg",1,"stimuli/m1.jpg",NA,NA,NA
6,3,0,2.103,"stimuli/m1.jpg","stimuli/m4.jpg",1,"stimuli/Stationary & school supply.png","stimuli/Gamestoy & entertainment.png","stimuli/Clothing.png","stimuli/Vehicle.png",1,"","stimuli/objects/marker01a.jpg",1,"stimuli/m1.jpg",NA,NA,NA
6,2,1,1.769,"stimuli/m1.jpg","stimuli/m4.jpg",1,"stimuli/Gamestoy & entertainment.png","stimuli/Stationary & school supply.png","stimuli/Clothing.png","stimuli/Vehicle.png",2,"","stimuli/objects/ruler04.jpg",1,"stimuli/m1.jpg",NA,NA,NA
6,1,0,1.103,"stimuli/m4.jpg","stimuli/m1.jpg",1,"stimuli/Stationary & school supply.png","stimuli/Vehicle.png","stimuli/Gamestoy & entertainment.png","stimuli/Clothing.png",4,"","stimuli/objects/scarf.jpg",1,"stimuli/m4.jpg",NA,NA,NA
6,4,0,2.002,"stimuli/m4.jpg","stimuli/m1.jpg",1,"stimuli/Clothing.png","stimuli/Vehicle.png","stimuli/Gamestoy & entertainment.png","stimuli/Stationary & school supply.png",1,"","stimuli/objects/waders.jpg",1,"stimuli/m4.jpg",NA,NA,NA
6,1,1,1.147,"stimuli/m1.jpg","stimuli/m4.jpg",1,"stimuli/Stationary & school supply.png","stimuli/Clothing.png","stimuli/Vehicle.png","stimuli/Gamestoy & entertainment.png",1,"","stimuli/objects/stapleremover.jpg",1,"stimuli/m1.jpg",NA,NA,NA
6,3,1,1.084,"stimuli/m1.jpg","stimuli/m4.jpg",2,"stimuli/Stationary & school supply.png","stimuli/Vehicle.png","stimuli/Clothing.png","stimuli/Gamestoy & entertainment.png",3,"","stimuli/objects/zipper.jpg",1,"stimuli/m4.jpg",NA,NA,NA
6,1,0,1.303,"stimuli/m4.jpg","stimuli/m1.jpg",1,"stimuli/Clothing.png","stimuli/Gamestoy & entertainment.png","stimuli/Stationary & school supply.png","stimuli/Vehicle.png",4,"","stimuli/objects/convertible.jpg",0,"stimuli/m4.jpg",NA,NA,NA
6,3,1,1.251,"stimuli/m1.jpg","stimuli/m4.jpg",1,"stimuli/Vehicle.png","stimuli/Gamestoy & entertainment.png","stimuli/Stationary & school supply.png","stimuli/Clothing.png",3,"","stimuli/objects/paperclip03.jpg",1,"stimuli/m1.jpg",NA,NA,NA
6,3,1,1.067,"stimuli/m4.jpg","stimuli/m1.jpg",2,"stimuli/Vehicle.png","stimuli/Clothing.png","stimuli/Stationary & school supply.png","stimuli/Gamestoy & entertainment.png",3,"","stimuli/objects/mathcompass.jpg",1,"stimuli/m1.jpg",NA,NA,NA
6,1,1,2.203,"stimuli/m4.jpg","stimuli/m1.jpg",2,"stimuli/Stationary & school supply.png","stimuli/Vehicle.png","stimuli/Gamestoy & entertainment.png","stimuli/Clothing.png",1,"","stimuli/objects/folder.jpg",1,"stimuli/m1.jpg",NA,NA,NA
6,2,1,1.602,"stimuli/m1.jpg","stimuli/m4.jpg",2,"stimuli/Vehicle.png","stimuli/Clothing.png","stimuli/Gamestoy & entertainment.png","stimuli/Stationary & school supply.png",2,"","stimuli/objects/poloshirt.jpg",1,"stimuli/m4.jpg",NA,NA,NA
6,1,1,0.918,"stimuli/m1.jpg","stimuli/m4.jpg",2,"stimuli/Clothing.png","stimuli/Gamestoy & entertainment.png","stimuli/Vehicle.png","stimuli/Stationary & school supply.png",1,"","stimuli/objects/hat03b.jpg",1,"stimuli/m4.jpg",NA,NA,NA
6,NA,NA,NA,"","",NA,"","","","",NA,"","",NA,"",NA,NA,NA
6,2,1,2.416,"stimuli/m1.jpg","stimuli/m4.jpg",1,"stimuli/Vehicle.png","stimuli/Stationary & school supply.png","stimuli/Clothing.png","stimuli/Gamestoy & entertainment.png",2,"","stimuli/objects/pen04b.jpg",1,"stimuli/m1.jpg",NA,NA,NA
6,1,1,1.066,"stimuli/m1.jpg","stimuli/m4.jpg",1,"stimuli/Stationary & school supply.png","stimuli/Gamestoy & entertainment.png","stimuli/Clothing.png","stimuli/Vehicle.png",1,"","stimuli/objects/marker01a.jpg",1,"stimuli/m1.jpg",NA,NA,NA
6,2,1,1.038,"stimuli/m1.jpg","stimuli/m4.jpg",1,"stimuli/Gamestoy & entertainment.png","stimuli/Stationary & school supply.png","stimuli/Clothing.png","stimuli/Vehicle.png",2,"","stimuli/objects/ruler04.jpg",1,"stimuli/m1.jpg",NA,NA,NA
6,4,1,1.866,"stimuli/m4.jpg","stimuli/m1.jpg",1,"stimuli/Stationary & school supply.png","stimuli/Vehicle.png","stimuli/Gamestoy & entertainment.png","stimuli/Clothing.png",4,"","stimuli/objects/scarf.jpg",1,"stimuli/m4.jpg",NA,NA,NA
6,1,1,1.433,"stimuli/m4.jpg","stimuli/m1.jpg",1,"stimuli/Clothing.png","stimuli/Vehicle.png","stimuli/Gamestoy & entertainment.png","stimuli/Stationary & school supply.png",1,"","stimuli/objects/waders.jpg",1,"stimuli/m4.jpg",NA,NA,NA
6,1,1,1.369,"stimuli/m1.jpg","stimuli/m4.jpg",1,"stimuli/Stationary & school supply.png","stimuli/Clothing.png","stimuli/Vehicle.png","stimuli/Gamestoy & entertainment.png",1,"","stimuli/objects/stapleremover.jpg",1,"stimuli/m1.jpg",NA,NA,NA
6,3,1,1.554,"stimuli/m1.jpg","stimuli/m4.jpg",2,"stimuli/Stationary & school supply.png","stimuli/Vehicle.png","stimuli/Clothing.png","stimuli/Gamestoy & entertainment.png",3,"","stimuli/objects/zipper.jpg",1,"stimuli/m4.jpg",NA,NA,NA
6,1,0,1.153,"stimuli/m4.jpg","stimuli/m1.jpg",1,"stimuli/Clothing.png","stimuli/Gamestoy & entertainment.png","stimuli/Stationary & school supply.png","stimuli/Vehicle.png",4,"","stimuli/objects/convertible.jpg",0,"stimuli/m4.jpg",NA,NA,NA
6,3,1,1.432,"stimuli/m1.jpg","stimuli/m4.jpg",1,"stimuli/Vehicle.png","stimuli/Gamestoy & entertainment.png","stimuli/Stationary & school supply.png","stimuli/Clothing.png",3,"","stimuli/objects/paperclip03.jpg",1,"stimuli/m1.jpg",NA,NA,NA
6,3,1,1.37,"stimuli/m4.jpg","stimuli/m1.jpg",2,"stimuli/Vehicle.png","stimuli/Clothing.png","stimuli/Stationary & school supply.png","stimuli/Gamestoy & entertainment.png",3,"","stimuli/objects/mathcompass.jpg",1,"stimuli/m1.jpg",NA,NA,NA
6,1,1,1.302,"stimuli/m4.jpg","stimuli/m1.jpg",2,"stimuli/Stationary & school supply.png","stimuli/Vehicle.png","stimuli/Gamestoy & entertainment.png","stimuli/Clothing.png",1,"","stimuli/objects/folder.jpg",1,"stimuli/m1.jpg",NA,NA,NA
6,NA,NA,NA,"","",NA,"","","","",NA,"","",NA,"",NA,NA,NA
6,1,0,1.504,"stimuli/m1.jpg","stimuli/m4.jpg",1,"stimuli/Vehicle.png","stimuli/Stationary & school supply.png","stimuli/Clothing.png","stimuli/Gamestoy & entertainment.png",2,"","stimuli/objects/pen04b.jpg",1,"stimuli/m1.jpg",NA,NA,NA
6,3,0,2.287,"stimuli/m1.jpg","stimuli/m4.jpg",1,"stimuli/Stationary & school supply.png","stimuli/Gamestoy & entertainment.png","stimuli/Clothing.png","stimuli/Vehicle.png",1,"","stimuli/objects/marker01a.jpg",1,"stimuli/m1.jpg",NA,NA,NA
6,2,1,1.303,"stimuli/m1.jpg","stimuli/m4.jpg",1,"stimuli/Gamestoy & entertainment.png","stimuli/Stationary & school supply.png","stimuli/Clothing.png","stimuli/Vehicle.png",2,"","stimuli/objects/ruler04.jpg",1,"stimuli/m1.jpg",NA,NA,NA
6,2,0,1.268,"stimuli/m4.jpg","stimuli/m1.jpg",1,"stimuli/Stationary & school supply.png","stimuli/Vehicle.png","stimuli/Gamestoy & entertainment.png","stimuli/Clothing.png",4,"","stimuli/objects/scarf.jpg",1,"stimuli/m4.jpg",NA,NA,NA
6,1,1,1.48,"stimuli/m4.jpg","stimuli/m1.jpg",1,"stimuli/Clothing.png","stimuli/Vehicle.png","stimuli/Gamestoy & entertainment.png","stimuli/Stationary & school supply.png",1,"","stimuli/objects/waders.jpg",1,"stimuli/m4.jpg",NA,NA,NA
6,1,1,1.335,"stimuli/m1.jpg","stimuli/m4.jpg",1,"stimuli/Stationary & school supply.png","stimuli/Clothing.png","stimuli/Vehicle.png","stimuli/Gamestoy & entertainment.png",1,"","stimuli/objects/stapleremover.jpg",1,"stimuli/m1.jpg",NA,NA,NA
6,3,1,1.731,"stimuli/m1.jpg","stimuli/m4.jpg",2,"stimuli/Stationary & school supply.png","stimuli/Vehicle.png","stimuli/Clothing.png","stimuli/Gamestoy & entertainment.png",3,"","stimuli/objects/zipper.jpg",1,"stimuli/m4.jpg",NA,NA,NA
6,1,0,1.353,"stimuli/m4.jpg","stimuli/m1.jpg",1,"stimuli/Clothing.png","stimuli/Gamestoy & entertainment.png","stimuli/Stationary & school supply.png","stimuli/Vehicle.png",4,"","stimuli/objects/convertible.jpg",0,"stimuli/m4.jpg",NA,NA,NA
6,3,1,1.117,"stimuli/m1.jpg","stimuli/m4.jpg",1,"stimuli/Vehicle.png","stimuli/Gamestoy & entertainment.png","stimuli/Stationary & school supply.png","stimuli/Clothing.png",3,"","stimuli/objects/paperclip03.jpg",1,"stimuli/m1.jpg",NA,NA,NA
6,3,1,1.231,"stimuli/m4.jpg","stimuli/m1.jpg",2,"stimuli/Vehicle.png","stimuli/Clothing.png","stimuli/Stationary & school supply.png","stimuli/Gamestoy & entertainment.png",3,"","stimuli/objects/mathcompass.jpg",1,"stimuli/m1.jpg",NA,NA,NA
6,1,1,1.439,"stimuli/m4.jpg","stimuli/m1.jpg",2,"stimuli/Stationary & school supply.png","stimuli/Vehicle.png","stimuli/Gamestoy & entertainment.png","stimuli/Clothing.png",1,"","stimuli/objects/folder.jpg",1,"stimuli/m1.jpg",NA,NA,NA
6,1,0,1.601,"stimuli/m1.jpg","stimuli/m4.jpg",2,"stimuli/Vehicle.png","stimuli/Clothing.png","stimuli/Gamestoy & entertainment.png","stimuli/Stationary & school supply.png",2,"","stimuli/objects/poloshirt.jpg",1,"stimuli/m4.jpg",NA,NA,NA
6,1,1,1.454,"stimuli/m1.jpg","stimuli/m4.jpg",2,"stimuli/Clothing.png","stimuli/Gamestoy & entertainment.png","stimuli/Vehicle.png","stimuli/Stationary & school supply.png",1,"","stimuli/objects/hat03b.jpg",1,"stimuli/m4.jpg",NA,NA,NA
6,NA,NA,NA,"","",NA,"","","","",NA,"","",NA,"",NA,NA,NA
6,2,1,2.904,"stimuli/m1.jpg","stimuli/m4.jpg",1,"stimuli/Vehicle.png","stimuli/Stationary & school supply.png","stimuli/Clothing.png","stimuli/Gamestoy & entertainment.png",2,"","stimuli/objects/pen04b.jpg",1,"stimuli/m1.jpg",NA,NA,NA
6,1,1,1.045,"stimuli/m1.jpg","stimuli/m4.jpg",1,"stimuli/Stationary & school supply.png","stimuli/Gamestoy & entertainment.png","stimuli/Clothing.png","stimuli/Vehicle.png",1,"","stimuli/objects/marker01a.jpg",1,"stimuli/m1.jpg",NA,NA,NA
6,2,1,0.918,"stimuli/m1.jpg","stimuli/m4.jpg",1,"stimuli/Gamestoy & entertainment.png","stimuli/Stationary & school supply.png","stimuli/Clothing.png","stimuli/Vehicle.png",2,"","stimuli/objects/ruler04.jpg",1,"stimuli/m1.jpg",NA,NA,NA
6,4,1,1.919,"stimuli/m4.jpg","stimuli/m1.jpg",1,"stimuli/Stationary & school supply.png","stimuli/Vehicle.png","stimuli/Gamestoy & entertainment.png","stimuli/Clothing.png",4,"","stimuli/objects/scarf.jpg",1,"stimuli/m4.jpg",NA,NA,NA
6,1,1,1.119,"stimuli/m4.jpg","stimuli/m1.jpg",1,"stimuli/Clothing.png","stimuli/Vehicle.png","stimuli/Gamestoy & entertainment.png","stimuli/Stationary & school supply.png",1,"","stimuli/objects/waders.jpg",1,"stimuli/m4.jpg",NA,NA,NA
6,2,0,1.002,"stimuli/m1.jpg","stimuli/m4.jpg",1,"stimuli/Stationary & school supply.png","stimuli/Clothing.png","stimuli/Vehicle.png","stimuli/Gamestoy & entertainment.png",1,"","stimuli/objects/stapleremover.jpg",1,"stimuli/m1.jpg",NA,NA,NA
6,3,1,1.701,"stimuli/m1.jpg","stimuli/m4.jpg",2,"stimuli/Stationary & school supply.png","stimuli/Vehicle.png","stimuli/Clothing.png","stimuli/Gamestoy & entertainment.png",3,"","stimuli/objects/zipper.jpg",1,"stimuli/m4.jpg",NA,NA,NA
6,1,0,1.119,"stimuli/m4.jpg","stimuli/m1.jpg",1,"stimuli/Clothing.png","stimuli/Gamestoy & entertainment.png","stimuli/Stationary & school supply.png","stimuli/Vehicle.png",4,"","stimuli/objects/convertible.jpg",0,"stimuli/m4.jpg",NA,NA,NA
6,3,1,1.187,"stimuli/m1.jpg","stimuli/m4.jpg",1,"stimuli/Vehicle.png","stimuli/Gamestoy & entertainment.png","stimuli/Stationary & school supply.png","stimuli/Clothing.png",3,"","stimuli/objects/paperclip03.jpg",1,"stimuli/m1.jpg",NA,NA,NA
6,3,1,1.247,"stimuli/m4.jpg","stimuli/m1.jpg",2,"stimuli/Vehicle.png","stimuli/Clothing.png","stimuli/Stationary & school supply.png","stimuli/Gamestoy & entertainment.png",3,"","stimuli/objects/mathcompass.jpg",1,"stimuli/m1.jpg",NA,NA,NA
6,1,1,1.136,"stimuli/m4.jpg","stimuli/m1.jpg",2,"stimuli/Stationary & school supply.png","stimuli/Vehicle.png","stimuli/Gamestoy & entertainment.png","stimuli/Clothing.png",1,"","stimuli/objects/folder.jpg",1,"stimuli/m1.jpg",NA,NA,NA
6,NA,NA,NA,"","",NA,"","","","",NA,"","",NA,"",NA,NA,NA
6,NA,NA,NA,"stimuli/m2.jpg","stimuli/m5.jpg",1,"stimuli/Outdoor activity & sport item.png","stimuli/Electronic device & accessory.png","stimuli/Kitchen & utensil.png","stimuli/Hand labour tool & accessory.png",3,"Kitchen & utensil","stimuli/objects/cutleryset.jpg",1,"stimuli/m2.jpg",2,0,1.666
6,NA,NA,NA,"stimuli/m5.jpg","stimuli/m2.jpg",2,"stimuli/Kitchen & utensil.png","stimuli/Electronic device & accessory.png","stimuli/Outdoor activity & sport item.png","stimuli/Hand labour tool & accessory.png",1,"Kitchen & utensil","stimuli/objects/grill.jpg",1,"stimuli/m2.jpg",1,1,1.199
6,NA,NA,NA,"stimuli/m5.jpg","stimuli/m2.jpg",1,"stimuli/Hand labour tool & accessory.png","stimuli/Outdoor activity & sport item.png","stimuli/Electronic device & accessory.png","stimuli/Kitchen & utensil.png",1,"Hand labour tool & accessory","stimuli/objects/ducttape.jpg",1,"stimuli/m5.jpg",2,0,1.098
6,NA,NA,NA,"stimuli/m5.jpg","stimuli/m2.jpg",2,"stimuli/Electronic device & accessory.png","stimuli/Kitchen & utensil.png","stimuli/Outdoor activity & sport item.png","stimuli/Hand labour tool & accessory.png",2,"Kitchen & utensil","stimuli/objects/cakeplatter.jpg",1,"stimuli/m2.jpg",2,1,1.272
6,NA,NA,NA,"stimuli/m5.jpg","stimuli/m2.jpg",2,"stimuli/Outdoor activity & sport item.png","stimuli/Hand labour tool & accessory.png","stimuli/Electronic device & accessory.png","stimuli/Kitchen & utensil.png",4,"Kitchen & utensil","stimuli/objects/bagtie.jpg",1,"stimuli/m2.jpg",4,1,2.101
6,NA,NA,NA,"stimuli/m5.jpg","stimuli/m2.jpg",1,"stimuli/Outdoor activity & sport item.png","stimuli/Kitchen & utensil.png","stimuli/Electronic device & accessory.png","stimuli/Hand labour tool & accessory.png",4,"Hand labour tool & accessory","stimuli/objects/generator.jpg",1,"stimuli/m5.jpg",4,1,2.82
6,NA,NA,NA,"stimuli/m2.jpg","stimuli/m5.jpg",1,"stimuli/Electronic device & accessory.png","stimuli/Outdoor activity & sport item.png","stimuli/Hand labour tool & accessory.png","stimuli/Kitchen & utensil.png",4,"Kitchen & utensil","stimuli/objects/thermos.jpg",1,"stimuli/m2.jpg",4,1,2.418
6,NA,NA,NA,"stimuli/m2.jpg","stimuli/m5.jpg",1,"stimuli/Electronic device & accessory.png","stimuli/Hand labour tool & accessory.png","stimuli/Outdoor activity & sport item.png","stimuli/Kitchen & utensil.png",4,"Kitchen & utensil","stimuli/objects/fryingpan02a.jpg",1,"stimuli/m2.jpg",4,1,1.55
6,NA,NA,NA,"stimuli/m5.jpg","stimuli/m2.jpg",1,"stimuli/Electronic device & accessory.png","stimuli/Hand labour tool & accessory.png","stimuli/Kitchen & utensil.png","stimuli/Outdoor activity & sport item.png",2,"Hand labour tool & accessory","stimuli/objects/cheeseknife01.jpg",1,"stimuli/m5.jpg",2,1,2.654
6,NA,NA,NA,"stimuli/m2.jpg","stimuli/m5.jpg",1,"stimuli/Hand labour tool & accessory.png","stimuli/Electronic device & accessory.png","stimuli/Outdoor activity & sport item.png","stimuli/Kitchen & utensil.png",4,"Kitchen & utensil","stimuli/objects/bowl02a.jpg",1,"stimuli/m2.jpg",4,1,1.756
6,NA,NA,NA,"stimuli/m5.jpg","stimuli/m2.jpg",1,"stimuli/Kitchen & utensil.png","stimuli/Electronic device & accessory.png","stimuli/Outdoor activity & sport item.png","stimuli/Hand labour tool & accessory.png",4,"Hand labour tool & accessory","stimuli/objects/sandpaper.jpg",1,"stimuli/m5.jpg",4,1,2.25
6,NA,NA,NA,"stimuli/m2.jpg","stimuli/m5.jpg",1,"stimuli/Outdoor activity & sport item.png","stimuli/Kitchen & utensil.png","stimuli/Hand labour tool & accessory.png","stimuli/Electronic device & accessory.png",2,"Kitchen & utensil","stimuli/objects/saladspinner.jpg",1,"stimuli/m2.jpg",2,1,1.969
6,NA,NA,NA,"stimuli/m5.jpg","stimuli/m2.jpg",1,"stimuli/Outdoor activity & sport item.png","stimuli/Kitchen & utensil.png","stimuli/Hand labour tool & accessory.png","stimuli/Electronic device & accessory.png",3,"Hand labour tool & accessory","stimuli/objects/cuttingpliers02.jpg",1,"stimuli/m5.jpg",3,1,2.321
6,NA,NA,NA,"stimuli/m2.jpg","stimuli/m5.jpg",2,"stimuli/Outdoor activity & sport item.png","stimuli/Electronic device & accessory.png","stimuli/Kitchen & utensil.png","stimuli/Hand labour tool & accessory.png",4,"Hand labour tool & accessory","stimuli/objects/gavel.jpg",1,"stimuli/m5.jpg",4,1,1.997
6,NA,NA,NA,"stimuli/m5.jpg","stimuli/m2.jpg",1,"stimuli/Electronic device & accessory.png","stimuli/Kitchen & utensil.png","stimuli/Hand labour tool & accessory.png","stimuli/Outdoor activity & sport item.png",3,"Hand labour tool & accessory","stimuli/objects/bungeecord02.jpg",1,"stimuli/m5.jpg",3,1,1.465
6,NA,NA,NA,"stimuli/m2.jpg","stimuli/m5.jpg",1,"stimuli/Hand labour tool & accessory.png","stimuli/Outdoor activity & sport item.png","stimuli/Electronic device & accessory.png","stimuli/Kitchen & utensil.png",4,"Kitchen & utensil","stimuli/objects/spicerack.jpg",1,"stimuli/m2.jpg",4,1,2.003
6,NA,NA,NA,"stimuli/m5.jpg","stimuli/m2.jpg",2,"stimuli/Hand labour tool & accessory.png","stimuli/Kitchen & utensil.png","stimuli/Outdoor activity & sport item.png","stimuli/Electronic device & accessory.png",2,"Kitchen & utensil","stimuli/objects/potatomasher03b.jpg",1,"stimuli/m2.jpg",2,1,1.55
6,NA,NA,NA,"stimuli/m2.jpg","stimuli/m5.jpg",2,"stimuli/Electronic device & accessory.png","stimuli/Outdoor activity & sport item.png","stimuli/Kitchen & utensil.png","stimuli/Hand labour tool & accessory.png",3,"Kitchen & utensil","stimuli/objects/oven.jpg",0,"stimuli/m5.jpg",4,0,1.717
6,NA,NA,NA,"stimuli/m2.jpg","stimuli/m5.jpg",1,"stimuli/Hand labour tool & accessory.png","stimuli/Kitchen & utensil.png","stimuli/Outdoor activity & sport item.png","stimuli/Electronic device & accessory.png",3,"Outdoor activity & sport item","stimuli/objects/basketball01.jpg",0,"stimuli/m2.jpg",2,0,1.401
6,NA,NA,NA,"stimuli/m2.jpg","stimuli/m5.jpg",2,"stimuli/Outdoor activity & sport item.png","stimuli/Kitchen & utensil.png","stimuli/Hand labour tool & accessory.png","stimuli/Electronic device & accessory.png",3,"Hand labour tool & accessory","stimuli/objects/cclamp.jpg",1,"stimuli/m5.jpg",2,0,1.264
6,NA,NA,NA,"stimuli/m5.jpg","stimuli/m2.jpg",2,"stimuli/Kitchen & utensil.png","stimuli/Hand labour tool & accessory.png","stimuli/Outdoor activity & sport item.png","stimuli/Electronic device & accessory.png",1,"Kitchen & utensil","stimuli/objects/martiniglass01b.jpg",1,"stimuli/m2.jpg",1,1,1.403
6,NA,NA,NA,"stimuli/m2.jpg","stimuli/m5.jpg",2,"stimuli/Kitchen & utensil.png","stimuli/Hand labour tool & accessory.png","stimuli/Outdoor activity & sport item.png","stimuli/Electronic device & accessory.png",3,"Outdoor activity & sport item","stimuli/objects/racquetballracket.jpg",0,"stimuli/m5.jpg",2,0,1.053
6,NA,NA,NA,"stimuli/m5.jpg","stimuli/m2.jpg",2,"stimuli/Outdoor activity & sport item.png","stimuli/Electronic device & accessory.png","stimuli/Hand labour tool & accessory.png","stimuli/Kitchen & utensil.png",4,"Kitchen & utensil","stimuli/objects/strainer01b.jpg",1,"stimuli/m2.jpg",4,1,2.138
6,NA,NA,NA,"stimuli/m2.jpg","stimuli/m5.jpg",2,"stimuli/Electronic device & accessory.png","stimuli/Kitchen & utensil.png","stimuli/Outdoor activity & sport item.png","stimuli/Hand labour tool & accessory.png",4,"Hand labour tool & accessory","stimuli/objects/metalbrush.jpg",1,"stimuli/m5.jpg",3,0,1.631
6,NA,NA,NA,"stimuli/m5.jpg","stimuli/m2.jpg",1,"stimuli/Hand labour tool & accessory.png","stimuli/Kitchen & utensil.png","stimuli/Outdoor activity & sport item.png","stimuli/Electronic device & accessory.png",1,"Hand labour tool & accessory","stimuli/objects/pressurewasher.jpg",1,"stimuli/m5.jpg",3,0,1.743
6,NA,NA,NA,"stimuli/m2.jpg","stimuli/m5.jpg",1,"stimuli/Outdoor activity & sport item.png","stimuli/Hand labour tool & accessory.png","stimuli/Electronic device & accessory.png","stimuli/Kitchen & utensil.png",4,"Kitchen & utensil","stimuli/objects/mortarandpestle.jpg",1,"stimuli/m2.jpg",4,1,1.714
6,NA,NA,NA,"stimuli/m5.jpg","stimuli/m2.jpg",1,"stimuli/Electronic device & accessory.png","stimuli/Hand labour tool & accessory.png","stimuli/Outdoor activity & sport item.png","stimuli/Kitchen & utensil.png",1,"Electronic device & accessory","stimuli/objects/speaker04.jpg",0,"stimuli/m5.jpg",2,0,1.231
6,NA,NA,NA,"stimuli/m2.jpg","stimuli/m5.jpg",2,"stimuli/Hand labour tool & accessory.png","stimuli/Kitchen & utensil.png","stimuli/Electronic device & accessory.png","stimuli/Outdoor activity & sport item.png",1,"Hand labour tool & accessory","stimuli/objects/squeegee01b.jpg",1,"stimuli/m5.jpg",1,1,2.935
6,NA,NA,NA,"stimuli/m5.jpg","stimuli/m2.jpg",2,"stimuli/Hand labour tool & accessory.png","stimuli/Outdoor activity & sport item.png","stimuli/Kitchen & utensil.png","stimuli/Electronic device & accessory.png",4,"Electronic device & accessory","stimuli/objects/antenna.jpg",0,"stimuli/m2.jpg",3,0,1.902
6,NA,NA,NA,"stimuli/m5.jpg","stimuli/m2.jpg",2,"stimuli/Electronic device & accessory.png","stimuli/Outdoor activity & sport item.png","stimuli/Hand labour tool & accessory.png","stimuli/Kitchen & utensil.png",4,"Kitchen & utensil","stimuli/objects/sippycup.jpg",1,"stimuli/m2.jpg",1,0,2.053
6,NA,NA,NA,"stimuli/m2.jpg","stimuli/m5.jpg",2,"stimuli/Kitchen & utensil.png","stimuli/Outdoor activity & sport item.png","stimuli/Electronic device & accessory.png","stimuli/Hand labour tool & accessory.png",4,"Hand labour tool & accessory","stimuli/objects/painttray.jpg",1,"stimuli/m5.jpg",4,1,2.251
6,NA,NA,NA,"stimuli/m2.jpg","stimuli/m5.jpg",1,"stimuli/Hand labour tool & accessory.png","stimuli/Kitchen & utensil.png","stimuli/Electronic device & accessory.png","stimuli/Outdoor activity & sport item.png",2,"Kitchen & utensil","stimuli/objects/handmixer01d.jpg",1,"stimuli/m2.jpg",2,1,1.271
6,NA,NA,NA,"stimuli/m5.jpg","stimuli/m2.jpg",2,"stimuli/Outdoor activity & sport item.png","stimuli/Kitchen & utensil.png","stimuli/Electronic device & accessory.png","stimuli/Hand labour tool & accessory.png",4,"Hand labour tool & accessory","stimuli/objects/hoe.jpg",0,"stimuli/m2.jpg",2,0,0.954
6,NA,NA,NA,"stimuli/m2.jpg","stimuli/m5.jpg",2,"stimuli/Hand labour tool & accessory.png","stimuli/Kitchen & utensil.png","stimuli/Outdoor activity & sport item.png","stimuli/Electronic device & accessory.png",1,"Hand labour tool & accessory","stimuli/objects/loppingshears.jpg",1,"stimuli/m5.jpg",1,1,1.405
6,NA,NA,NA,"stimuli/m2.jpg","stimuli/m5.jpg",1,"stimuli/Kitchen & utensil.png","stimuli/Electronic device & accessory.png","stimuli/Outdoor activity & sport item.png","stimuli/Hand labour tool & accessory.png",1,"Kitchen & utensil","stimuli/objects/hourglass.jpg",1,"stimuli/m2.jpg",1,1,2.036
6,NA,NA,NA,"stimuli/m2.jpg","stimuli/m5.jpg",2,"stimuli/Electronic device & accessory.png","stimuli/Hand labour tool & accessory.png","stimuli/Kitchen & utensil.png","stimuli/Outdoor activity & sport item.png",2,"Hand labour tool & accessory","stimuli/objects/snowshovel.jpg",1,"stimuli/m5.jpg",2,1,2.221
6,NA,NA,NA,"stimuli/m2.jpg","stimuli/m5.jpg",2,"stimuli/Electronic device & accessory.png","stimuli/Hand labour tool & accessory.png","stimuli/Outdoor activity & sport item.png","stimuli/Kitchen & utensil.png",2,"Hand labour tool & accessory","stimuli/objects/carjack.jpg",1,"stimuli/m5.jpg",2,1,1.185
6,NA,NA,NA,"stimuli/m2.jpg","stimuli/m5.jpg",2,"stimuli/Hand labour tool & accessory.png","stimuli/Electronic device & accessory.png","stimuli/Kitchen & utensil.png","stimuli/Outdoor activity & sport item.png",1,"Hand labour tool & accessory","stimuli/objects/wheel01.jpg",1,"stimuli/m5.jpg",1,1,1.531
6,NA,NA,NA,"stimuli/m2.jpg","stimuli/m5.jpg",1,"stimuli/Outdoor activity & sport item.png","stimuli/Electronic device & accessory.png","stimuli/Hand labour tool & accessory.png","stimuli/Kitchen & utensil.png",4,"Kitchen & utensil","stimuli/objects/winerack.jpg",1,"stimuli/m2.jpg",4,1,1.835
6,NA,NA,NA,"stimuli/m5.jpg","stimuli/m2.jpg",2,"stimuli/Hand labour tool & accessory.png","stimuli/Kitchen & utensil.png","stimuli/Electronic device & accessory.png","stimuli/Outdoor activity & sport item.png",2,"Kitchen & utensil","stimuli/objects/butterdish.jpg",1,"stimuli/m2.jpg",2,1,1.201
6,NA,NA,NA,"stimuli/m2.jpg","stimuli/m5.jpg",2,"stimuli/Hand labour tool & accessory.png","stimuli/Outdoor activity & sport item.png","stimuli/Kitchen & utensil.png","stimuli/Electronic device & accessory.png",1,"Hand labour tool & accessory","stimuli/objects/needlenosepliers01.jpg",1,"stimuli/m5.jpg",1,1,0.952
6,NA,NA,NA,"stimuli/m2.jpg","stimuli/m5.jpg",2,"stimuli/Kitchen & utensil.png","stimuli/Hand labour tool & accessory.png","stimuli/Electronic device & accessory.png","stimuli/Outdoor activity & sport item.png",2,"Hand labour tool & accessory","stimuli/objects/pickaxe02.jpg",1,"stimuli/m5.jpg",2,1,1.215
6,NA,NA,NA,"","",NA,"","","","",NA,"","",NA,"",NA,NA,NA
