"PartNum","alpha","beta","BIC","LL"
1,0.230200544857249,5.31713345615781,483.794617159111,-236.639813207528
2,0.293663995959678,5.64326734929152,470.030708323247,-229.757858789596
3,0.247380525978496,4.50356708467384,507.681115196772,-248.583062226358
4,0.258419380327727,7.8414175964388,415.596086276225,-202.540547766085
5,0.183283589966667,7.63042958838365,446.222478001926,-217.853743628935
6,0.232612167967726,8.60519440530639,392.395613856402,-190.940311556173
7,0.214711541120233,6.24270733061234,496.883354163615,-243.18418170978
8,0.2107231359943,3.73736741694223,521.770635641928,-255.627822448936
9,0.159689272954672,8.83643034021038,446.273269578369,-217.879139417157
10,0.201704760746971,7.23247063168332,454.044025949033,-221.764517602489
11,0.190643018345437,5.45793757686229,492.084004789084,-240.784507022514
12,0.131078619832696,6.70164338451935,489.372400707384,-239.428704981664
13,0.178287912591793,8.04767999778858,425.290413397994,-207.387711326969
14,0.276951500309668,5.62080082420683,475.665656961838,-232.575333108891
15,0.172092231082959,6.60389798611646,482.889640605263,-236.187324930604
16,0.2570299750474,9.27656453611606,374.32116966759,-181.903089461767
17,0.274008542739126,4.4531610226195,490.218485960041,-239.851747607992
18,0.202023002989567,8.51725360427871,404.134477468144,-196.809743362044
19,0.150013951706018,5.0872836010133,520.429721885645,-254.957365570795
20,0.251159352861232,9.43169449496583,362.008337466423,-175.746673361184
