"simAlpha","fitAlpha","simBeta","fitBeta","simEta","fitEta","BIC"
NA,NA,NA,NA,NA,NA,NA
0,0,0.588930076919496,1,0,-2.77555756156289e-17,548.109520786121
0,1,0.588930076919496,1,0,0.479789482702569,559.199135067959
0,0,0.588930076919496,1,0.25,0.290594949154005,547.046310628951
0,0.11741883402928,0.588930076919496,1,0.25,0,544.895890581315
0,0.0582449827074462,0.588930076919496,1,0.5,0,547.524488773275
0,0,0.588930076919496,1.00000032532054,0,0.0017096601741228,547.839758297321
0,0,0.588930076919496,1,0.75,0.822976974634962,547.383345632936
0,0,0.588930076919496,1,0.25,0.631269089207607,548.120759105471
0,0.0464776783783214,0.588930076919496,2.19831040649306,0.5,0.00564691829911401,531.308339450759
0,1,0.588930076919496,1,1,0.951210411670605,543.293758429366
0,0,1.10297953399519,1,0,0,548.109520786121
0,0,0.588930076919496,1,0.5,0.663916418219687,543.76175326956
0,1,0.588930076919496,1,0.75,0.989783318659142,544.049263062735
0,0.393360660538695,1.10297953399519,1,0.25,0.764133556935166,542.395507051105
0,1,0.588930076919496,1,0.75,0.852148352682062,541.692942325766
0,0.0115754784500223,0.588930076919496,1.00000169075568,1,0,548.027976271385
0,0,1.10297953399519,1,0.5,0.922335921885271,535.066755412517
0,0.358850111882522,0.588930076919496,1,1,0.33530918903047,548.864619539105
0,0.0217202646685918,1.10297953399519,1.00000324023974,0,0,547.930492295908
0,0.00890074517696989,1.10297953399519,1,0,0,548.071822391745
0,0,1.10297953399519,1.49877837524599,0.75,0.358675528920567,516.14130963917
0,0.717344506327246,1.10297953399519,1.39110855257377,0.25,0.104850952832327,522.688800431497
0,0.776081580660312,1.10297953399519,1.02910540674605,1,1,520.18575909767
0,1,1.10297953399519,1.59005381121834,0.5,0.598053207609561,516.892333766279
0,0.0307006944373184,1.10297953399519,1.51074803492554,0.25,0.0470760194250217,527.734687017587
0,1,1.10297953399519,1,0.5,0.595542996266553,538.559382663444
0,1,1.10297953399519,1.20334444931735,0.75,0.020108581134423,520.743647326277
0,0.664418942149568,1.10297953399519,1.17998718092759,0.75,0.248079011108532,526.846014629723
0,0.0021976984291421,2.15036957059056,10,0,0,547.829260546536
0,1,1.10297953399519,1.75651311918217,1,0.943834650682043,523.152372785867
0,1,1.10297953399519,1.14168024997036,1,1,526.472332959366
0,0.7486772713748,2.15036957059056,2.12072387671851,0.25,0.0974027922048903,488.754991698548
0,0,2.15036957059056,1,0,0.0117350883739713,546.55683501194
0,0,2.15036957059056,2.12087975666877,0.5,0.589485058549936,478.839358238399
0,0.239327553236659,2.15036957059056,2.23787545807036,0.75,0.388464209267479,470.594324435217
0,0,2.15036957059056,2.85009189655796,0.25,0.215029513452018,472.119526770163
0,0,2.15036957059056,2.87715428410876,0.5,0.609877019883017,486.561358338899
0,0.739919333748017,2.15036957059056,2.10677271190094,1,0.986374608111063,463.123129788864
0,0,2.15036957059056,1.00000137152534,0,0.00150463341316994,547.874679214573
0,1,2.15036957059056,1.75976966541549,0.75,0.878291288212354,513.241373107224
0,0,2.15036957059056,2.7064889876302,0.25,0.4100483169873,463.425000841693
0,0.0480322689391556,3.19621687072868,1.00001152493077,0,0,547.364327871878
0,0.671615475429202,2.15036957059056,2.34538630744246,1,1,473.394677368964
0,0,2.15036957059056,2.6271630420158,0.5,0.0979095291985762,480.13719329897
0,0.00794657510129762,3.19621687072868,2.55168993063266,0.25,0.202105888669403,488.283464427017
0,0.471914546473122,2.15036957059056,1.97290233293029,0.75,0.791377543873117,477.804234538455
0,0.350244505677734,3.19621687072868,2.32959640308176,0.5,0.771739724994501,488.4480398587
0,0,2.15036957059056,2.3256911201162,1,1,480.982243217568
0,0.00553389623322374,3.19621687072868,1.0000001399076,0,0,548.085469781478
0,0.252576763690179,3.19621687072868,3.01725672715083,0.75,0.623877348005128,426.077480595965
0,0.00500272844296098,3.19621687072868,10,0,0,547.092086280681
0,0.466582193605303,3.19621687072868,2.94739514562324,1,1,428.145035483019
