"","simBeta","fitBeta","simH","fitH","BIC"
"1",1.76679023075849,1,0,0.0520429836340583,551.577095169421
"2",3.30893860198557,1,0,0.00425567703761139,553.416080235364
"3",6.45110871177167,1,0,0.0870220964951168,550.896600288644
"4",9.58865061218603,1,0,0,548.968677931869
"5",13.9982274805272,1,0,0.5,563.136124902206
"6",1.76679023075849,1,0.025,0.00153425788383074,539.832838853866
"7",3.30893860198557,1,0.025,0.0156040044131409,543.918105684609
"8",6.45110871177167,1,0.025,0.0324168203435976,545.904075563553
"9",9.58865061218603,1,0.025,0.0301325011370527,543.079600713842
"10",13.9982274805272,1,0.025,0.0271975345413192,545.938907513294
"11",1.76679023075849,1,0.05,0.00588436645110817,547.584912428433
"12",3.30893860198557,1,0.05,0.0199227426078219,550.290812577676
"13",6.45110871177167,1,0.05,0.0321101281740667,545.273569819023
"14",9.58865061218603,1,0.05,0.047200508972795,541.713635720433
"15",13.9982274805272,1,0.05,0.0272531889507956,542.023101070281
"16",1.76679023075849,1,0.075,0.0252259594449289,540.477180789926
"17",3.30893860198557,1,0.075,0.0798506561410384,543.089162930626
"18",6.45110871177167,1,0.075,0.0416690008237924,547.594914318056
"19",9.58865061218603,1,0.075,0.0468909306201474,544.76352965822
"20",13.9982274805272,1,0.075,0.0399157138408723,545.090214480294
"21",1.76679023075849,1,0.1,0.0262903683890043,537.271761040133
"22",3.30893860198557,1,0.1,0.0535558970456307,539.667955549003
"23",6.45110871177167,1,0.1,0.0362928938130448,545.167302532766
"24",9.58865061218603,1,0.1,0.0266580805487438,545.091438861946
"25",13.9982274805272,1,0.1,0.0330519181840698,545.674882631921
"26",1.76679023075849,1,0,0,552.770653550698
"27",3.30893860198557,1,0,0,543.534530223231
"28",6.45110871177167,1,0,0.00814057750290884,547.213716555535
"29",9.58865061218603,1,0,0.0453017162144219,546.260901760081
"30",13.9982274805272,1,0,0.00520781908943683,547.412239209954
"31",1.76679023075849,1,0.025,0,555.431664787972
"32",3.30893860198557,1,0.025,0.00851059649279771,542.090062074356
"33",6.45110871177167,1,0.025,0.0183418852444139,547.932703909014
"34",9.58865061218603,1,0.025,0.0326230605633164,543.716601730954
"35",13.9982274805272,1,0.025,0.0308171197424523,545.680482191516
"36",1.76679023075849,1,0.05,0,548.277329982231
"37",3.30893860198557,1,0.05,0.0406155065699005,545.979628645224
"38",6.45110871177167,1,0.05,0.0499920119639458,542.903804009368
"39",9.58865061218603,1,0.05,0.0449584652033683,541.061481099342
"40",13.9982274805272,1,0.05,0.0299761334280015,546.399721482126
"41",1.76679023075849,1,0.075,0.0896745988978571,538.092743371927
"42",3.30893860198557,1,0.075,0.0117961398833997,548.367281225105
"43",6.45110871177167,1,0.075,0.0552977812452409,542.389954599104
"44",9.58865061218603,1,0.075,0.0336203965118502,546.784837636956
"45",13.9982274805272,1,0.075,0.0321777832394892,543.825440157251
"46",1.76679023075849,1,0.1,0.0870942516758041,537.597305087698
"47",3.30893860198557,1,0.1,0.022295136513416,537.939410095256
"48",6.45110871177167,1,0.1,0.0345415200637672,545.25140946307
"49",9.58865061218603,1,0.1,0.0496347036417826,544.817655545958
"50",13.9982274805272,1,0.1,0.0298772927359728,544.999165206797
"51",1.76679023075849,1,0,0.0223463080971341,549.940249904299
"52",3.30893860198557,1,0,0.00414111289530942,543.252454873847
"53",6.45110871177167,1,0,0.0120740625272334,545.442489312588
"54",9.58865061218603,1,0,0.5,560.743838114191
"55",13.9982274805272,1,0,0.00530643705245187,547.340561374194
"56",1.76679023075849,1,0.025,0.033230332459743,550.509145692251
"57",3.30893860198557,1,0.025,0,547.788385271422
"58",6.45110871177167,1,0.025,0.0197552219585971,548.461164853512
"59",9.58865061218603,1,0.025,0.0175655877679287,543.836928367588
"60",13.9982274805272,1,0.025,0.0459027805191497,545.854292540148
"61",1.76679023075849,1,0.05,0,542.60969825818
"62",3.30893860198557,1,0.05,0,539.837924939945
"63",6.45110871177167,1,0.05,0.0770194637057574,547.178559062424
"64",9.58865061218603,1,0.05,0.0369016957811284,545.453504729972
"65",13.9982274805272,1,0.05,0.0281658844264549,545.981562579796
"66",1.76679023075849,1,0.075,0.0218686585601714,548.897772592537
"67",3.30893860198557,1,0.075,0.00142527046976682,543.619071461232
"68",6.45110871177167,1,0.075,0.0310203410041869,541.896382858458
"69",9.58865061218603,1,0.075,0.053333242450219,542.308015366153
"70",13.9982274805272,1,0.075,0.0302576544520373,543.833570900085
"71",1.76679023075849,1,0.1,0,546.620304999525
"72",3.30893860198557,1,0.1,0.0162072278415377,545.408595355835
"73",6.45110871177167,1,0.1,0.0545162136452079,546.477020232542
"74",9.58865061218603,1,0.1,0.0410732368753208,543.844049036145
"75",13.9982274805272,1,0.1,0.0483397378983603,542.064618250111
"76",1.76679023075849,1,0,0.0831779945145716,548.071145012426
"77",3.30893860198557,1,0,0.0514161663274111,545.304296956747
"78",6.45110871177167,1,0,0.00211730603067738,547.014505354426
"79",9.58865061218603,1,0,0.00242669284596388,546.02714046719
"80",13.9982274805272,1,0,0.0094082861243826,546.422026580513
"81",1.76679023075849,1,0.025,0.39162516141502,545.391145982434
"82",3.30893860198557,1,0.025,0,544.187962082663
"83",6.45110871177167,1,0.025,0.0186045232905335,552.005122590331
"84",9.58865061218603,1,0.025,0.0397749230081026,546.93867344895
"85",13.9982274805272,1,0.025,0.0348040120005007,544.627407213739
"86",1.76679023075849,1,0.05,0,543.885945541752
"87",3.30893860198557,1,0.05,0.0355144748241034,542.683251365441
"88",6.45110871177167,1,0.05,0.0139074882783801,542.348389654265
"89",9.58865061218603,1,0.05,0.0418947602907577,545.964293129112
"90",13.9982274805272,1,0.05,0.0400986251757793,544.998203260452
"91",1.76679023075849,1,0.075,0.0120051215000521,546.343793273403
"92",3.30893860198557,1,0.075,0.0334520377499789,548.42498679912
"93",6.45110871177167,1,0.075,0.0394632257487885,546.478983584787
"94",9.58865061218603,1,0.075,0.0393913335167675,542.27703736184
"95",13.9982274805272,1,0.075,0.0505122863810589,543.224564960357
"96",1.76679023075849,1,0.1,0.0840433507807679,543.98270752396
"97",3.30893860198557,1,0.1,0.0345458940873674,540.168337156289
"98",6.45110871177167,1,0.1,0.0235874169549974,545.086377672593
"99",9.58865061218603,1,0.1,0.0246772021952899,545.802230218074
"100",13.9982274805272,1,0.1,0.0370586997841051,544.295139594569
"101",1.76679023075849,1,0,0.0195152371672988,549.054185569099
"102",3.30893860198557,1,0,0.00562177242496621,545.68259418555
"103",6.45110871177167,1,0,0,543.663747444604
"104",9.58865061218603,1,0,0,545.846887157842
"105",13.9982274805272,1,0,0,546.131711931373
"106",1.76679023075849,1,0.025,0.0250404406048333,544.93230976944
"107",3.30893860198557,1,0.025,0,545.85269510634
"108",6.45110871177167,1,0.025,0.0118015402979004,552.076543826127
"109",9.58865061218603,1,0.025,0.0325859633868137,539.962500064751
"110",13.9982274805272,1,0.025,0.0316470213042202,545.406043244241
"111",1.76679023075849,1,0.05,0.00894710728275357,546.188186594713
"112",3.30893860198557,1,0.05,0.00601305007497493,547.236387762737
"113",6.45110871177167,1,0.05,0.00319668497490544,540.921246338481
"114",9.58865061218603,1,0.05,0.0233413190870996,546.417259764587
"115",13.9982274805272,1,0.05,0.0254979291439673,547.827612614963
"116",1.76679023075849,1,0.075,0.0345341491231443,548.263704206856
"117",3.30893860198557,1,0.075,0.0620207892242647,550.072335015498
"118",6.45110871177167,1,0.075,0.0376706161209149,546.340406820703
"119",9.58865061218603,1,0.075,0.0275187485353859,548.060971327085
"120",13.9982274805272,1,0.075,0.0424209432359431,545.038007215213
"121",1.76679023075849,1,0.1,0.0101589721669851,542.911964914252
"122",3.30893860198557,1,0.1,0.0664496845869061,543.694528720814
"123",6.45110871177167,1,0.1,0.0610843468349096,547.538209848806
"124",9.58865061218603,1,0.1,0.0495707823035819,545.922702452252
"125",13.9982274805272,1,0.1,0.0306196777997797,543.497276134107
"126",1.76679023075849,1,0,0.00337966748286127,547.871214855427
"127",3.30893860198557,1,0,0.0776808946288278,544.325800646631
"128",6.45110871177167,1,0,0.0408979024919662,548.237040990184
"129",9.58865061218603,1,0,0,545.804678953251
"130",13.9982274805272,1,0,0,546.497852994393
"131",1.76679023075849,1,0.025,0.01991630923373,536.889676575656
"132",3.30893860198557,1,0.025,0,543.76449714671
"133",6.45110871177167,1,0.025,0.0344747784473823,550.701728994704
"134",9.58865061218603,1,0.025,0.0170756588547843,544.90412642139
"135",13.9982274805272,1,0.025,0.0224857879120898,545.851277757186
"136",1.76679023075849,1,0.05,0.0240487439885945,544.912670896064
"137",3.30893860198557,1,0.05,0.0195265559784357,546.099095892326
"138",6.45110871177167,1,0.05,0.0319953452134168,552.091403229026
"139",9.58865061218603,1,0.05,0.0409860076957424,546.629330420927
"140",13.9982274805272,1,0.05,0.0505052514056338,545.507980325244
"141",1.76679023075849,1,0.075,0.182341507042516,550.124760047489
"142",3.30893860198557,1,0.075,0.0227909614019349,540.745079134601
"143",6.45110871177167,1,0.075,0.00925382940125687,544.157588283412
"144",9.58865061218603,1,0.075,0.0502125851256394,544.325787371619
"145",13.9982274805272,1,0.075,0.0354654645747294,545.515557466017
"146",1.76679023075849,1,0.1,0.0499709596156538,546.83234537124
"147",3.30893860198557,1,0.1,0.0650711553508029,543.641475673109
"148",6.45110871177167,1,0.1,0.0265820497122954,547.26278547276
"149",9.58865061218603,1,0.1,0.0510308263744583,545.196727026731
"150",13.9982274805272,1,0.1,0.0487645950248856,546.098204145951
"151",1.76679023075849,1,0,0.0500975142788026,544.530526506185
"152",3.30893860198557,1,0,0.0127483289806106,544.995810502646
"153",6.45110871177167,1,0,0,544.956060577475
"154",9.58865061218603,1,0,0,546.034169321666
"155",13.9982274805272,1,0,0,548.789486512851
"156",1.76679023075849,1,0.025,0.0534349416141701,545.766259783843
"157",3.30893860198557,1,0.025,0.00464505096231628,547.272944025338
"158",6.45110871177167,1,0.025,0.04443581769179,545.275265253093
"159",9.58865061218603,1,0.025,0.0367735512540396,545.931841394911
"160",13.9982274805272,1,0.025,0.0337519380090808,547.295143794227
"161",1.76679023075849,1,0.05,0.0371448344500112,543.932262699397
"162",3.30893860198557,1,0.05,0.05444054290446,543.120983243002
"163",6.45110871177167,1,0.05,0.0718773388822915,545.553177177012
"164",9.58865061218603,1,0.05,0.0442278754356603,544.636689103576
"165",13.9982274805272,1,0.05,0.04760693207858,543.19455305179
"166",1.76679023075849,1,0.075,0.0502438135768426,543.832948769816
"167",3.30893860198557,1,0.075,0.0278786896509766,547.475509850283
"168",6.45110871177167,1,0.075,0.0594245083894898,543.240930142564
"169",9.58865061218603,1,0.075,0.0505617992438119,540.120779456611
"170",13.9982274805272,1,0.075,0.0402035203427758,544.568522415837
"171",1.76679023075849,1,0.1,0,539.359200054867
"172",3.30893860198557,1,0.1,0.0111872080895947,540.50495339769
"173",6.45110871177167,1,0.1,0.057431437756661,542.288045467487
"174",9.58865061218603,1,0.1,0.0510873458090436,547.281744573427
"175",13.9982274805272,1,0.1,0.02730035440862,545.069574038566
"176",1.76679023075849,1,0,0,549.92312093599
"177",3.30893860198557,1,0,0,541.468201120888
"178",6.45110871177167,1,0,0,547.449738788845
"179",9.58865061218603,1,0,0.00568730760771805,550.943028257066
"180",13.9982274805272,1,0,0.00275663993338171,546.028819183696
"181",1.76679023075849,1,0.025,0.0400328985817539,551.97599190284
"182",3.30893860198557,1,0.025,0,543.520643137624
"183",6.45110871177167,1,0.025,0.0150666677969739,545.061385514507
"184",9.58865061218603,1,0.025,0.0143907203999125,546.220862536477
"185",13.9982274805272,1,0.025,0.0345926112159828,546.355972803783
"186",1.76679023075849,1,0.05,0,543.306514976424
"187",3.30893860198557,1,0.05,0.0524269634460224,547.774401826414
"188",6.45110871177167,1,0.05,0.0477598198984573,542.849707374276
"189",9.58865061218603,1,0.05,0.0626945985754599,544.431572075523
"190",13.9982274805272,1,0.05,0.043027717995811,545.743099729592
"191",1.76679023075849,1,0.075,0.0447664289254869,547.418221025177
"192",3.30893860198557,1,0.075,0.0376287598781107,544.415399068649
"193",6.45110871177167,1,0.075,0.0505457043487377,545.786676528591
"194",9.58865061218603,1,0.075,0.0363834375867918,545.647348551164
"195",13.9982274805272,1,0.075,0.036121357712185,545.219557990548
"196",1.76679023075849,1,0.1,0.0282868952642716,543.745107497073
"197",3.30893860198557,1,0.1,0.0601747331454328,550.146591215863
"198",6.45110871177167,1,0.1,0.0459274509669757,545.706573719122
"199",9.58865061218603,1,0.1,0.0524136487115686,542.593282663624
"200",13.9982274805272,1,0.1,0.0587987304460728,542.241297844479
"201",1.76679023075849,1,0,0.5,562.614907975769
"202",3.30893860198557,1,0,0,543.738633090979
"203",6.45110871177167,1,0,0.0325068045609366,548.984598246046
"204",9.58865061218603,1,0,0.00501857981583771,546.346471440368
"205",13.9982274805272,1,0,0,544.922980249255
"206",1.76679023075849,1,0.025,0,547.685466963255
"207",3.30893860198557,1,0.025,0.0418273382954011,551.331746629348
"208",6.45110871177167,1,0.025,0,548.872377497147
"209",9.58865061218603,1,0.025,0,542.654336169667
"210",13.9982274805272,1,0.025,0.0322153791119759,545.078377583024
"211",1.76679023075849,1,0.05,0.00350542739709418,543.212547977951
"212",3.30893860198557,1,0.05,0,549.020333283487
"213",6.45110871177167,1,0.05,0.0413890734593276,544.134323690834
"214",9.58865061218603,1,0.05,0.055533647600886,544.935093665717
"215",13.9982274805272,1,0.05,0.0278865469867081,545.409170483443
"216",1.76679023075849,1,0.075,0.0424855168713746,558.396048459317
"217",3.30893860198557,1,0.075,0.0708960353769826,548.5784781425
"218",6.45110871177167,1,0.075,0.0835897674357942,542.622502172073
"219",9.58865061218603,1,0.075,0.0456209636961529,546.465277145236
"220",13.9982274805272,1,0.075,0.0424202220409734,545.863647053624
"221",1.76679023075849,1,0.1,0,551.350127554932
"222",3.30893860198557,1,0.1,0.0325720990151155,542.487402767201
"223",6.45110871177167,1,0.1,0.0440177255807845,545.987786261732
"224",9.58865061218603,1,0.1,0.0408805959831908,543.499695398908
"225",13.9982274805272,1,0.1,0.0477206994958489,545.347261956969
"226",1.76679023075849,1,0,0.00986411414594887,554.863518527378
"227",3.30893860198557,1,0,0.0263912700823925,548.242025731352
"228",6.45110871177167,1,0,0,540.059633968571
"229",9.58865061218603,1,0,0.00240643321277451,545.771805300738
"230",13.9982274805272,1,0,0,546.786261099806
"231",1.76679023075849,1,0.025,0,548.177530495691
"232",3.30893860198557,1,0.025,0,547.300781931353
"233",6.45110871177167,1,0.025,0.0482591424808358,547.519391021973
"234",9.58865061218603,1,0.025,0.0378132370460904,545.704436093812
"235",13.9982274805272,1,0.025,0.0226798140654252,545.639016253672
"236",1.76679023075849,1,0.05,0.0190044449594846,551.236132266469
"237",3.30893860198557,1,0.05,0.0150070392407898,542.717208892943
"238",6.45110871177167,1,0.05,0.0221997947580003,545.589142285588
"239",9.58865061218603,1,0.05,0.0471067471780859,546.99366987308
"240",13.9982274805272,1,0.05,0.0430134627229364,545.493125258028
"241",1.76679023075849,1,0.075,0.0213468567383098,549.495999033793
"242",3.30893860198557,1,0.075,0.0546997653268904,548.088296172633
"243",6.45110871177167,1,0.075,0.0419478969623612,544.862156466379
"244",9.58865061218603,1,0.075,0.0341776716134461,547.059453795469
"245",13.9982274805272,1,0.075,0.0424148603614214,545.180962901158
"246",1.76679023075849,1,0.1,0.0432037556285945,549.68646075301
"247",3.30893860198557,1,0.1,0.0211777889709604,551.749345384345
"248",6.45110871177167,1,0.1,0.0522068866821133,544.72970566867
"249",9.58865061218603,1,0.1,0.0315659844758924,548.96359390765
"250",13.9982274805272,1,0.1,0.0395028930597254,546.498289743345
"251",1.76679023075849,1,0,0,547.827830402914
"252",3.30893860198557,1,0,0.00426818891086087,547.539892009718
"253",6.45110871177167,1,0,0.0507036134948756,549.932119488125
"254",9.58865061218603,1,0,0,545.840941265684
"255",13.9982274805272,1,0,0.00970713318424888,546.433887222482
"256",1.76679023075849,1,0.025,0.00656440234637346,549.613860263168
"257",3.30893860198557,1,0.025,0.0264033968501105,544.336712522456
"258",6.45110871177167,1,0.025,0.0689667078926444,546.736501045145
"259",9.58865061218603,1,0.025,0.0514352469117908,543.623187489855
"260",13.9982274805272,1,0.025,0.0346094780356788,546.617515779667
"261",1.76679023075849,1,0.05,0.012941177497292,543.683439745261
"262",3.30893860198557,1,0.05,0.0431781791130081,545.856910401689
"263",6.45110871177167,1,0.05,0.0382508211033341,546.858549295099
"264",9.58865061218603,1,0.05,0.0479409009001835,543.546494277573
"265",13.9982274805272,1,0.05,0.0454015326654064,545.632777153909
"266",1.76679023075849,1,0.075,0.0151226923062542,541.343050599544
"267",3.30893860198557,1,0.075,0.015691152909541,545.216275540366
"268",6.45110871177167,1,0.075,0.055145099462022,546.647019297149
"269",9.58865061218603,1,0.075,0.0310813445886603,541.38754340215
"270",13.9982274805272,1,0.075,0.0342311978970548,545.426723071977
"271",1.76679023075849,1,0.1,0.00412060017082732,541.977224331148
"272",3.30893860198557,1,0.1,0.0244965405476067,551.41374218982
"273",6.45110871177167,1,0.1,0.0427868328458723,546.673039580589
"274",9.58865061218603,1,0.1,0.0325591828461202,547.785372675
"275",13.9982274805272,1,0.1,0.035869961867488,546.929490987658
"276",1.76679023075849,1,0,0.0262505619165645,550.192644661107
"277",3.30893860198557,1,0,0.0048070872727785,549.099880078774
"278",6.45110871177167,1,0,0.00700891961147031,546.974240655152
"279",9.58865061218603,1,0,0.5,561.897243581491
"280",13.9982274805272,1,0,0,546.700481057484
"281",1.76679023075849,1,0.025,0.00252285232693561,547.758678123018
"282",3.30893860198557,1,0.025,0.0204103470261413,545.396785198418
"283",6.45110871177167,1,0.025,0.0659184385430025,543.580212508209
"284",9.58865061218603,1,0.025,0.0467065373153359,539.710670477439
"285",13.9982274805272,1,0.025,0.0527725314999777,545.255021768281
"286",1.76679023075849,1,0.05,0.0298857295313668,549.200984326761
"287",3.30893860198557,1,0.05,0.0934133114683414,543.086375672099
"288",6.45110871177167,1,0.05,0.0435500512022929,542.110746570512
"289",9.58865061218603,1,0.05,0.0481467344924555,542.936338527932
"290",13.9982274805272,1,0.05,0.0393059764191954,545.246338849978
"291",1.76679023075849,1,0.075,0.00617950726499789,542.387881319216
"292",3.30893860198557,1,0.075,0.00864554940042561,556.844263887187
"293",6.45110871177167,1,0.075,0.0206426209968158,547.881039346319
"294",9.58865061218603,1,0.075,0.0395557290364203,543.189195177125
"295",13.9982274805272,1,0.075,0.0492875734178816,543.275410314087
"296",1.76679023075849,1,0.1,0.0237692219536333,546.302423142673
"297",3.30893860198557,1,0.1,0.00203676871558996,547.02246555754
"298",6.45110871177167,1,0.1,0.0727857941898845,540.243652280198
"299",9.58865061218603,1,0.1,0.0601552788468712,542.884032666553
"300",13.9982274805272,1,0.1,0.0194662001662442,546.30085185308
"301",1.76679023075849,1,0,0.00848972062075385,548.589140482258
"302",3.30893860198557,1,0,0.00840832313616493,545.429660926139
"303",6.45110871177167,1,0,0.0184208790655204,551.031443222706
"304",9.58865061218603,1,0,0.0102726610190186,549.232616240127
"305",13.9982274805272,1,0,0,546.447538990937
"306",1.76679023075849,1,0.025,0.0181866626996853,551.030136658604
"307",3.30893860198557,1,0.025,0,547.909758908979
"308",6.45110871177167,1,0.025,0.0328892456964043,546.824882605434
"309",9.58865061218603,1,0.025,0.0471251029177896,542.427027625161
"310",13.9982274805272,1,0.025,0.0391514506711943,544.088916972922
"311",1.76679023075849,1,0.05,0.0781210710282699,545.322490850063
"312",3.30893860198557,1,0.05,0.0215668513212314,542.975116173084
"313",6.45110871177167,1,0.05,0.0761921431679795,545.465612679731
"314",9.58865061218603,1,0.05,0.038082032927769,545.003323252514
"315",13.9982274805272,1,0.05,0.0263786775877342,545.404018639983
"316",1.76679023075849,1,0.075,0.0652878416130803,546.060898998313
"317",3.30893860198557,1,0.075,0.0753467434487261,543.123987363118
"318",6.45110871177167,1,0.075,0.0617349049019871,545.451874177188
"319",9.58865061218603,1,0.075,0.0204320552919108,546.528956396285
"320",13.9982274805272,1,0.075,0.0254980500234184,542.92911658387
"321",1.76679023075849,1,0.1,0.0369719718422399,544.621207345397
"322",3.30893860198557,1,0.1,0.00905512614106673,545.709443490543
"323",6.45110871177167,1,0.1,0.0277617514895435,545.078231006041
"324",9.58865061218603,1,0.1,0.0281705481639024,545.337624635181
"325",13.9982274805272,1,0.1,0.0274032962713257,545.138299493632
"326",1.76679023075849,1,0,0.0242166163991179,545.467221330489
"327",3.30893860198557,1,0,0.0199767341926677,544.78610740041
"328",6.45110871177167,1,0,0.0560078301019283,543.839694568867
"329",9.58865061218603,1,0,0,545.807595714655
"330",13.9982274805272,1,0,0.00697148964229819,547.512163680559
"331",1.76679023075849,1,0.025,0.0163998867135941,547.291890004242
"332",3.30893860198557,1,0.025,0.0294794435051085,548.860168848767
"333",6.45110871177167,1,0.025,0,538.106341392578
"334",9.58865061218603,1,0.025,0,546.949500599761
"335",13.9982274805272,1,0.025,0.0316857162621747,545.912905366651
"336",1.76679023075849,1,0.05,0.0227768534474769,543.204849641102
"337",3.30893860198557,1,0.05,0.0255686664562184,546.371919770068
"338",6.45110871177167,1.03763176996024,0.05,0.0302495761172676,536.000756503311
"339",9.58865061218603,1,0.05,0.0211571053828746,545.10272658762
"340",13.9982274805272,1,0.05,0.0375904349901737,544.466564394141
"341",1.76679023075849,1,0.075,0.0480957795902611,543.209430151509
"342",3.30893860198557,1,0.075,0.0345072585546815,552.876155779923
"343",6.45110871177167,1,0.075,0.0362140020769045,542.821138405053
"344",9.58865061218603,1,0.075,0.0374645959413945,546.199919210589
"345",13.9982274805272,1,0.075,0.0332385639073755,547.622506836584
"346",1.76679023075849,1,0.1,0.0240012179490898,546.278118397628
"347",3.30893860198557,1,0.1,0,549.184722544562
"348",6.45110871177167,1,0.1,0.0326733249210802,543.781695197153
"349",9.58865061218603,1,0.1,0.0464659419025491,544.393433367803
"350",13.9982274805272,1,0.1,0.0302237980910325,546.209668970995
"351",1.76679023075849,1,0,0.0320135933964565,544.684176221915
"352",3.30893860198557,1,0,0,547.206368793636
"353",6.45110871177167,1,0,0.0187615548192471,553.165276188507
"354",9.58865061218603,1,0,0.00338491879844248,548.507532279525
"355",13.9982274805272,1,0,0.5,557.344241207691
"356",1.76679023075849,1,0.025,0.0862343324213589,550.414823178573
"357",3.30893860198557,1,0.025,0.0341334701819623,540.26762661679
"358",6.45110871177167,1,0.025,0.0214301229303405,544.045822716754
"359",9.58865061218603,1,0.025,0.0590638024775517,542.272191035156
"360",13.9982274805272,1,0.025,0.036730273898196,546.623695498725
"361",1.76679023075849,1,0.05,0.00519917729357728,548.028711751462
"362",3.30893860198557,1,0.05,0.06136986770839,541.878122133227
"363",6.45110871177167,1,0.05,0.021630074422377,550.855791324468
"364",9.58865061218603,1,0.05,0.0589966709030813,542.687023256172
"365",13.9982274805272,1,0.05,0.0355483138225781,546.239828311643
"366",1.76679023075849,1,0.075,0.0104978754044467,552.468452767048
"367",3.30893860198557,1,0.075,0,545.094132743306
"368",6.45110871177167,1,0.075,0.0704932207292942,540.748545839284
"369",9.58865061218603,1,0.075,0.0317409336748428,543.070278945765
"370",13.9982274805272,1,0.075,0.0317172438656657,544.947091230301
"371",1.76679023075849,1,0.1,0.0501675669182534,554.099337960301
"372",3.30893860198557,1,0.1,0.034798953885772,549.111306168634
"373",6.45110871177167,1,0.1,0.0363466970920443,546.933295007627
"374",9.58865061218603,1,0.1,0.0434236084698021,542.984905289714
"375",13.9982274805272,1,0.1,0.0369958119211025,545.535910733775
"376",1.76679023075849,1,0,0.00735486770932041,538.523488475722
"377",3.30893860198557,1,0,0,544.69673897783
"378",6.45110871177167,1,0,0.00305933948560735,549.293207850623
"379",9.58865061218603,1,0,0.313507254683055,559.28116523341
"380",13.9982274805272,1,0,0.0134589646659759,549.371414962795
"381",1.76679023075849,1,0.025,0.0080827785752175,551.86131186616
"382",3.30893860198557,1,0.025,0.0168269737979428,543.830713992812
"383",6.45110871177167,1,0.025,0.12357856109281,545.914793680908
"384",9.58865061218603,1,0.025,0.0570119639648771,546.227709194654
"385",13.9982274805272,1,0.025,0.0442163627635361,541.656664266621
"386",1.76679023075849,1,0.05,0.0331147769731091,552.923769678394
"387",3.30893860198557,1,0.05,0.0682724685476437,541.392148361273
"388",6.45110871177167,1,0.05,0.0297756411241103,544.988589891774
"389",9.58865061218603,1,0.05,0.0390269436946138,545.594759262736
"390",13.9982274805272,1,0.05,0.0411320250926318,546.410615901102
"391",1.76679023075849,1,0.075,0.00468726248067685,542.085906481432
"392",3.30893860198557,1,0.075,0.0132955734143011,544.739102825365
"393",6.45110871177167,1,0.075,0.0663825241705061,542.202631860014
"394",9.58865061218603,1,0.075,0.0434275052807361,544.392771480063
"395",13.9982274805272,1,0.075,0.0545432792875289,543.982540623254
"396",1.76679023075849,1,0.1,0.0283626504468856,548.771668008038
"397",3.30893860198557,1,0.1,0.00730261457353615,548.151699293754
"398",6.45110871177167,1,0.1,0.0098111914255298,545.139593224225
"399",9.58865061218603,1,0.1,0.0517339844028163,544.693615375289
"400",13.9982274805272,1,0.1,0.0302128313171469,545.922907060059
"401",1.76679023075849,1,0,0.0143440804053562,541.62553147002
"402",3.30893860198557,1,0,0,554.175741136837
"403",6.45110871177167,1,0,0,544.051458704328
"404",9.58865061218603,1,0,0,547.462476112127
"405",13.9982274805272,1,0,0.0134921628840573,547.274542859268
"406",1.76679023075849,1,0.025,0.0993014546522939,543.838716466519
"407",3.30893860198557,1,0.025,0.0637218029328858,546.271853474622
"408",6.45110871177167,1,0.025,0,538.268060747166
"409",9.58865061218603,1,0.025,0.0365464100567551,548.221039027472
"410",13.9982274805272,1,0.025,0.0502601716134587,543.342447668083
"411",1.76679023075849,1,0.05,0,538.06330259472
"412",3.30893860198557,1,0.05,0.437492314898861,545.944528107528
"413",6.45110871177167,1,0.05,0.0441494437574732,545.756421372497
"414",9.58865061218603,1,0.05,0.0430037740612496,545.070581163364
"415",13.9982274805272,1,0.05,0.0383836141301127,546.089131342517
"416",1.76679023075849,1,0.075,0.0302247536145274,545.262144763259
"417",3.30893860198557,1,0.075,0.0284357494270385,551.658065203988
"418",6.45110871177167,1,0.075,0.0211534266929655,545.240613513739
"419",9.58865061218603,1,0.075,0.028964094933483,544.436497256178
"420",13.9982274805272,1,0.075,0.0433329000364249,543.338980066896
"421",1.76679023075849,1,0.1,0.00531564173189835,555.988678595891
"422",3.30893860198557,1,0.1,0.0457829427767551,546.185289599272
"423",6.45110871177167,1,0.1,0.0566073364875311,541.457901109603
"424",9.58865061218603,1,0.1,0.0450946669324735,544.721089305503
"425",13.9982274805272,1,0.1,0.0426232001556474,543.360701054442
"426",1.76679023075849,1,0,0,556.813474361026
"427",3.30893860198557,1,0,0.0135008701417919,549.78321787004
"428",6.45110871177167,1,0,0,547.157739508425
"429",9.58865061218603,1,0,0.00464843086980837,547.65473476038
"430",13.9982274805272,1,0,0.5,565.283226539036
"431",1.76679023075849,1,0.025,0,553.307251779982
"432",3.30893860198557,1,0.025,0.0414580522849064,546.495872246334
"433",6.45110871177167,1,0.025,0.0109236835174404,548.373673081406
"434",9.58865061218603,1,0.025,0.0607423000326231,542.359821425684
"435",13.9982274805272,1,0.025,0.0253177737372124,546.407538436024
"436",1.76679023075849,1,0.05,0.069859556849834,546.606259670219
"437",3.30893860198557,1,0.05,0,541.734614201662
"438",6.45110871177167,1,0.05,0.0316032208786048,547.964868160084
"439",9.58865061218603,1,0.05,0.0385880811933679,543.255141216129
"440",13.9982274805272,1,0.05,0.0342211045417424,544.441102270344
"441",1.76679023075849,1,0.075,0.0271448704770252,546.232353188538
"442",3.30893860198557,1,0.075,0.00698378836904688,548.715858471167
"443",6.45110871177167,1,0.075,0.0499261380559709,548.106647484974
"444",9.58865061218603,1,0.075,0.0118015523569759,542.293275555333
"445",13.9982274805272,1,0.075,0.0380738842161076,544.760672256845
"446",1.76679023075849,1,0.1,0.0125092683996623,546.966364977461
"447",3.30893860198557,1,0.1,0.00784543291425537,538.049853888727
"448",6.45110871177167,1,0.1,0.0268913045779866,546.343988493833
"449",9.58865061218603,1,0.1,0.0451978254277238,544.04732017404
"450",13.9982274805272,1,0.1,0.0274693587776282,546.642056152547
"451",1.76679023075849,1,0,0.00646849518012561,553.220870573568
"452",3.30893860198557,1,0,0.0150566731457838,539.521101024098
"453",6.45110871177167,1,0,0.00544795127227438,544.009094109806
"454",9.58865061218603,1,0,0,545.730345663941
"455",13.9982274805272,1,0,0.5,561.726736415245
"456",1.76679023075849,1,0.025,0.00966661327504676,547.768598389995
"457",3.30893860198557,1,0.025,0.0116258681769071,542.468750012254
"458",6.45110871177167,1,0.025,0.00724817011868736,552.479645469406
"459",9.58865061218603,1,0.025,0.0357436767470197,546.140316939746
"460",13.9982274805272,1,0.025,0.0422722319810223,546.366300696276
"461",1.76679023075849,1,0.05,0.0127255978729519,550.0067948001
"462",3.30893860198557,1,0.05,0.0268665616626829,549.572226185241
"463",6.45110871177167,1,0.05,0.0390666989959048,547.28678399524
"464",9.58865061218603,1,0.05,0.036467064858207,546.906694080887
"465",13.9982274805272,1,0.05,0.0530408076612551,544.78493225291
"466",1.76679023075849,1,0.075,0.0113977090650231,544.445320340223
"467",3.30893860198557,1,0.075,0,536.484455560924
"468",6.45110871177167,1,0.075,0.0451392211106898,545.247479967478
"469",9.58865061218603,1,0.075,0.5,555.445522494881
"470",13.9982274805272,1,0.075,0.0316877213191069,544.717785625543
"471",1.76679023075849,1,0.1,0.0106096170069503,552.078763379446
"472",3.30893860198557,1,0.1,0.0133505714156582,551.389294442
"473",6.45110871177167,1,0.1,0.0412278319694636,544.799961038979
"474",9.58865061218603,1,0.1,0.044564361908432,543.153544066407
"475",13.9982274805272,1,0.1,0.0416016723944771,545.152672401661
"476",1.76679023075849,1,0,0.0472003519669207,540.455905188916
"477",3.30893860198557,1,0,0.0201053775020383,548.62501770004
"478",6.45110871177167,1,0,0.498136375109101,553.256457507435
"479",9.58865061218603,1,0,0.024550262817621,549.265185336464
"480",13.9982274805272,1,0,0,547.5144500279
"481",1.76679023075849,1,0.025,0.0015783494292027,549.713185229011
"482",3.30893860198557,1,0.025,0,550.114428260596
"483",6.45110871177167,1,0.025,0.00458364711955169,548.108779039236
"484",9.58865061218603,1,0.025,0.0223872442273772,545.571225620952
"485",13.9982274805272,1,0.025,0.0488579942064049,544.661241068164
"486",1.76679023075849,1,0.05,0.0221672944308881,557.287469370828
"487",3.30893860198557,1,0.05,0.0479993832189165,542.540236012873
"488",6.45110871177167,1,0.05,0.0652276910827002,549.843940966875
"489",9.58865061218603,1,0.05,0.0474416266713019,543.844913566948
"490",13.9982274805272,1,0.05,0.0488006423473161,542.394381688165
"491",1.76679023075849,1,0.075,0.107885845020854,553.105651575403
"492",3.30893860198557,1,0.075,0.0222326199485934,541.181225127581
"493",6.45110871177167,1,0.075,0.0708591719109201,544.191440054732
"494",9.58865061218603,1,0.075,0.0378459138820165,544.231438049648
"495",13.9982274805272,1,0.075,0.0386150852405266,543.797397594921
"496",1.76679023075849,1,0.1,0.0050667475189896,546.533180618713
"497",3.30893860198557,1,0.1,0.078527507436557,556.001841902163
"498",6.45110871177167,1,0.1,0.0416938716309747,543.106671304216
"499",9.58865061218603,1,0.1,0.0402647651215945,545.315747602314
"500",13.9982274805272,1,0.1,0.0349053152957358,545.99408793917
