"simAlpha","fitAlpha","simBeta","fitBeta","simK","fitK","simEta","fitEta","BIC"
NA,NA,NA,NA,NA,NA,NA,NA,NA
0,0,0.588930076919496,1,0,0,0,1,553.367016158149
0,1,0.588930076919496,1,0,0,0.25,0,553.367016158149
0,0.843784631875212,0.588930076919496,1,0,1,0,0.537508407709847,551.114744957156
0,0.81844590614372,0.588930076919496,1,0,0.272433476117983,0.25,0,549.610497063528
0,0.223277021804622,0.588930076919496,10,0,0.00562663993588812,0,0,553.255112482223
0,0.0648432144757903,0.588930076919496,1,0,0,0.5,0,553.367016158149
0,0,0.588930076919496,1.15029186287694,0,0.218770587008662,0.5,1,550.748837728036
0,0,0.588930076919496,1,0,0,0.75,0,553.367016158149
0,0,0.588930076919496,1,0,0.271567076569833,1,0.623606607924845,553.28537324295
0,1,0.588930076919496,1.8109051451229,0,0.0519186832853075,0.25,0.0731736907458347,552.738329787262
0,0.655543201065692,0.588930076919496,1,0,0,0.5,0,553.367016158149
0,1,0.588930076919496,1,0,0.20328174929457,0.75,1,552.947895108552
0,0.246481740683021,0.588930076919496,1,0,0,1,0,553.367016158149
0,0,0.588930076919496,1,0.25,0,0,0,553.367016158149
0,1,0.588930076919496,10,0,0.0140145581741639,0.75,0.697927237879971,550.35506614456
0,0.845925192735184,0.588930076919496,1,0,0,1,0.609403104583142,553.367016158149
0,0.330699252256574,0.588930076919496,1,0.25,0,0,1,553.367016158149
0,0.997214307531158,0.588930076919496,10,0.25,0.00549391023978881,0,0,551.344322302999
0,0.10659616178985,0.588930076919496,1.00003019525145,0.25,0.0285746784132987,0.25,0,553.362509511533
0,1,0.588930076919496,6.20204622541947,0.25,0.0217020458565323,0.25,0.0566223076188668,550.624722609031
0,0,0.588930076919496,1,0.25,0,0.5,0,553.367016158149
0,0,0.588930076919496,10,0.25,0.0293489775358744,0.25,0.464129716008937,547.377825532599
0,0.291955733880967,0.588930076919496,1,0.25,0,0.75,1,553.367016158149
0,0,0.588930076919496,1,0.25,0,0.5,0,553.367016158149
0,0.331543940145137,0.588930076919496,1,0.25,0,1,0,553.367016158149
0,0.136948558415048,0.588930076919496,1,0.25,0,0.75,0,553.367016158149
0,0.737486498629696,0.588930076919496,1,0.25,0,1,0,553.367016158149
0,1,0.588930076919496,1,0.5,0.269155956049574,0,0.440309085453327,551.486219862004
0,0,0.588930076919496,1.2181919330955,0.5,1,0.25,0.0315103378946891,543.100800387816
0,0.00657957618963994,0.588930076919496,1.06767611556104,0.5,1,0,0.00382509846167054,551.768834680361
0,0,0.588930076919496,10,0.25,0.0397155779794967,0.5,0.773191128737627,541.540034125164
0,1,0.588930076919496,1.66000996156714,0.5,0.362120070405342,0.5,1,544.870746330766
0,0,0.588930076919496,1,0.5,0,0.75,0,553.367016158149
0,0,0.588930076919496,1,0.25,0.329614891577114,0.75,0.612701124836725,551.609873291331
0,1,0.588930076919496,10,0.5,0.0397114160249225,0.25,0.926347469563717,542.166634821114
0,0,0.588930076919496,1,0.5,0,0.5,0,553.367016158149
0,0.903874739982084,0.588930076919496,1,0.5,0,0.75,0,553.367016158149
0,1,0.588930076919496,1,0.5,0,1,1,553.367016158149
0,0,0.588930076919496,1,0.75,0,0,0,553.367016158149
0,0,0.588930076919496,10,0.25,0.0279288364085438,1,1,548.292120167982
0,0,0.588930076919496,1,0.75,0,0.25,0,553.367016158149
0,1,0.588930076919496,1.26771168751678,0.75,0.959704068852788,0.5,0.536405765996291,531.760778058488
0,1,0.588930076919496,10,0.5,0.00462873456275826,1,0.0032800212348553,552.447922157366
0,1,0.588930076919496,1,0.75,0.439712907090704,0.75,0.300788640034835,551.462302965997
0,0,0.588930076919496,1,0.75,0,0,1,553.367016158149
0,1,0.588930076919496,1.89881848397267,0.5,0.0912005569554507,0,0.0108188432665107,549.487876939499
0,1,0.588930076919496,1.87178964313973,0.5,0.227991230377417,0.25,0.558761461381088,546.862618777672
0,0,0.588930076919496,1,0.75,1,1,0.712241820109125,535.648515716555
0,0,0.588930076919496,1,0.75,1,0.25,0.0468917279844136,546.340572271205
0,0.684009116425845,0.588930076919496,1,1,0,0,0.40102493988297,553.367016158149
0,0,0.588930076919496,1,0.75,0,0.5,0,553.367016158149
0,1,0.588930076919496,1,0.75,1,0.75,0.618145350797282,543.730530919906
0,0,0.588930076919496,1,1,1,0.25,0.605653315970901,544.343256334028
0,1,0.588930076919496,1.67770856589809,0.75,0.35452631317271,1,1,544.913330004695
0,0,0.588930076919496,1,1,0,0,1,553.367016158149
0,0,0.588930076919496,5.47342101738287,0.5,0.107668496046954,0.5,0.031293240259428,544.649727519173
0,0,0.588930076919496,1.14246515835356,1,0.31974642324012,0.25,1,549.192070493421
0,0.338627844972651,0.588930076919496,1.04026242436452,1,0.768296065078141,0.5,0,543.842936939752
0,0,0.588930076919496,1,1,1,0.75,0.636429942661155,540.315621918126
0,0.635868640866247,0.588930076919496,1,1,0,1,0,553.367016158149
0,1,0.588930076919496,1.31656184874167,0.5,0.407266582984287,0.75,0.129079108466656,544.07717110418
0,0,0.588930076919496,1,0.5,0,1,0,553.367016158149
0,0.855223314735597,0.588930076919496,1,0.75,0,0,0,553.367016158149
0,1,0.588930076919496,5.64979386330565,1,0.0430400826070428,0.5,1,549.718980921161
0,0.372190357935714,0.588930076919496,1,0.75,0.566542936392167,0.25,0,552.771949490053
0,0,0.588930076919496,1,0.75,0,0.5,0,553.367016158149
0,1,1.10297953399519,2.1565668528319,0,0.0270047784636953,0,0.529972071414049,553.139110131928
0,0,1.10297953399519,1,0,0,0.25,0.651821726186644,553.367016158149
0,0,0.588930076919496,1,1,0.365674267663833,0.75,0.0827205068617598,551.832741901529
0,0,0.588930076919496,1,0.75,1,0.75,0.788918127259432,544.344905424185
0,0,0.588930076919496,1,0.75,0.265827836382492,1,1,552.931539023027
0,0,0.588930076919496,1,1,0.510285893331536,0,1,550.032672956308
0,1,0.588930076919496,10,1,0.0098329060006256,1,0.200233173640113,550.805144751335
0,0.0210624665821718,1.10297953399519,1,0,0,0,0.157148307198415,553.367016158149
0,0.192681057358552,0.588930076919496,3.49542540133126,1,0.218494106494965,0.25,0,544.52133936458
0,0,1.10297953399519,1.00000388399102,0,0.0098940735167198,0.25,1,553.359446877413
0,0,0.588930076919496,1.61809366612546,1,0.475963922208537,0.5,0.785985093726056,541.745178219827
0,1,1.10297953399519,10,0,0.00619443403910357,0.5,0.0359511566029749,551.294783682162
0,0.29870879918877,1.10297953399519,1,0,0.402454805628931,0.75,0,551.520919364403
0,0.302053747160634,1.10297953399519,1,0,0,1,1,553.367016158149
0,0.00435168194989943,1.10297953399519,1,0.25,0,0,0,553.367016158149
0,0,1.10297953399519,1,0.25,0,0.25,0,553.367016158149
0,0,1.10297953399519,10,0,0.0169024543110297,0.5,0.0429299368083161,552.483737557921
0,0.185100592289005,1.10297953399519,1,0,0,0.75,1,553.367016158149
0,0.936903470544185,0.588930076919496,2.36515660489452,1,0.24138174392764,0.75,0.620819830743967,543.205816926801
0,0,0.588930076919496,1,1,0,1,0,553.367016158149
0,0,1.10297953399519,1.10600568095683,0.25,0.42626377135807,0.5,1,547.437338399669
0,0,1.10297953399519,1,0,0,0,0.436561111979529,553.367016158149
0,0,1.10297953399519,1,0,0,0.25,0,553.367016158149
0,0,1.10297953399519,1,0,0.384239478758317,1,0.354279671296303,551.03682032836
0,0.502369496456823,1.10297953399519,1,0.25,0,0,0.707740646504138,553.367016158149
0,0,1.10297953399519,1.26429225620926,0.25,0.535076271861261,0.75,0.689976143264585,541.692233292218
0,0,1.10297953399519,10,0,0.0425411954849681,0.5,0.0394731960241921,548.373481383258
0,0,1.10297953399519,1,0,0,0.75,1,553.367016158149
0,1,1.10297953399519,1,0.25,1,1,0.463206972975652,550.713230062343
0,0,1.10297953399519,1,0,0,1,0,553.367016158149
0,0.355858244149267,1.10297953399519,1,0.5,0.00628228991300945,0,0.752745048614442,553.36135035451
0,0,1.10297953399519,1,0.5,1,0.25,0.723093516801464,549.032934516469
0,0,1.10297953399519,1.53400596627953,0.25,1,0.25,0.00329841377945223,550.193742396982
0,0,1.10297953399519,1,0.25,0,0.5,0,553.367016158149
0,1,1.10297953399519,1.23552322080099,0.5,0.242823693194725,0.5,0.011263775416354,543.663103281413
0,0,1.10297953399519,1,0.25,0.414765298184899,0.75,1,551.070147148935
0,0.623717204568895,1.10297953399519,1,0.5,0.319886774336815,0.75,0,546.734414028961
0,0.029918748805102,1.10297953399519,4.96066196185604,0.25,0.104657298165463,0,0.00260629692705137,552.84260278892
0,0,1.10297953399519,10,0.25,0.0597928597508849,0.25,0.0248722162916238,547.838038632266
0,0,1.10297953399519,1,0.25,0,0.5,0,553.367016158149
0,1,1.10297953399519,1.53858106504452,0.5,0.906084659906434,1,1,529.570868878529
0,0.540336800146117,1.10297953399519,1,0.75,0,0,0.48783830141787,553.367016158149
0,1,1.10297953399519,1.02076627432018,0.75,1,0.25,0.863659331164983,538.16171395668
0,0.114315999397233,1.10297953399519,1,0.25,0.69997911184489,1,0.00611863604859464,551.122629278448
0,1,1.10297953399519,4.60347450624281,0.25,0.0571886612497618,0.75,0.0582947958784338,546.487496104494
0,1,1.10297953399519,1.38155604412686,0.75,0.391425031379717,0.5,0.832413505971407,543.693774725754
0,0.662586792059143,1.10297953399519,1,0.75,0.469298207727821,0.75,0,540.756504311343
0,0,1.10297953399519,1.43631553288485,0.25,0.885994569425231,1,0.64959937375198,527.400434158252
0,0.419989736519487,1.10297953399519,1,0.5,0,0,0,553.367016158149
0,0,1.10297953399519,1,0.5,1,0,0.0105288002973498,552.646530842067
0,0,1.10297953399519,1.26167221396167,0.5,0.639298920596854,0.25,0.0838804678306175,542.912811036751
0,0,1.10297953399519,2.35604345851584,0.5,0.347393478785044,0.25,0.901054477436029,529.125387197306
0,0,1.10297953399519,3.12017570300228,0.75,0.952760710644911,1,0.00640157734643619,533.051427670793
0,0.284793082017815,1.10297953399519,1,1,0,0,0.0526299182949985,553.367016158149
0,1,1.10297953399519,6.25626424443116,0.5,0.045642032714951,0.5,1,549.881359306663
0,0.127627772550393,1.10297953399519,10,0.5,0.0377835122675001,0.5,0.0417404167276178,545.68359364424
0,1,1.10297953399519,1,0.5,0.554326965403973,0.75,0.550303311492447,547.048622389904
0,0,1.10297953399519,1.30417872244597,1,1,0.25,0.0507712598775027,538.851120444096
0,0,1.10297953399519,1,0.5,0.526794202711717,0.75,1,550.306814776507
0,1,1.10297953399519,1,0.5,0.796423297273282,1,1,545.416599876523
0,0,1.10297953399519,1,0.75,0,0,0,553.367016158149
0,0.379749715187426,1.10297953399519,1,1,0.90113598078855,0.5,0.724215915477996,543.151241071098
0,0,1.10297953399519,1,1,0,0.75,0,553.367016158149
0,0,1.10297953399519,1.74037751338022,0.5,0.296816443662968,1,0.514006089204406,545.200078338537
0,1,1.10297953399519,1.3435282394996,0.75,0.586729765252624,0.25,0.127919653641299,538.325104806098
0,0,1.10297953399519,1,0.75,0.176930375793699,0,0.863339655032918,551.999839131726
0,0.558699408407862,1.10297953399519,1.77799234131149,1,0.9100041899223,1,1,500.620376740279
0,0,2.15036957059056,1,0,0,0,0,553.367016158149
0,1,1.10297953399519,1,0.75,0.997823935549764,0.5,0.53876555847732,541.166532170573
0,0.36836090337266,1.10297953399519,2.09546873796599,0.75,0.544437524219375,0.25,0.086832875288558,527.944108884792
0,1,2.15036957059056,1,0,0.160673953546562,0.25,0.835783521192006,552.507652796749
0,0,2.15036957059056,1,0,0,0.5,0,553.367016158149
0,1,2.15036957059056,1,0,0,0.75,1,553.367016158149
0,0.434035758783672,2.15036957059056,1,0,0,1,0.934236083303427,553.367016158149
0,0,1.10297953399519,1.27718344136696,0.75,0.854439854814532,0.75,0.032646922254459,543.614617032004
0,1,1.10297953399519,10,0.75,0.0319288202889854,0.5,1,541.179646452842
0,1,1.10297953399519,1.80689645670844,0.75,0.558336416348172,1,1,530.644509587558
0,1,2.15036957059056,10,0.25,0.00682919198202241,0,0.034714953974471,552.808545064551
0,0,1.10297953399519,1.03401314306476,0.75,0.943114683545196,0.75,0.908505210709297,533.888890317589
0,1,1.10297953399519,1.70150753340255,0.75,0.39385057564602,1,1,537.855685741052
0,0,2.15036957059056,2.13750687056579,0.25,0.399611638110265,0.25,0.038022739746673,538.148237906158
0,1,1.10297953399519,10,1,0.00312616214142382,0,1,553.32867313089
0,1,1.10297953399519,10,1,0.00216987705071481,0,0.0193748108744328,553.157683412774
0,0.0705187192666864,1.10297953399519,1.09572763122562,1,1,0.25,0.027623417894279,542.329242768578
0,0.750146989658131,2.15036957059056,10,0.25,0.0174866056577262,0.5,0,546.160172154176
0,1,1.10297953399519,1,1,1,0.5,0.222003076055912,538.924490245647
0,0,1.10297953399519,1.23294608215166,1,0.842510444150712,0.25,1,530.254496001515
0,0,1.10297953399519,1,1,1,0.75,1,543.53473795418
0,0,1.10297953399519,1,1,0,1,0,553.367016158149
0,0.306445200979474,2.15036957059056,2.1731347432091,0.25,0.280495643540268,0.75,1,538.292311798994
0,0.612897607148713,2.15036957059056,1,0,0,0,0,553.367016158149
0,0.297215295622421,2.15036957059056,1,0,0,0.25,0,553.367016158149
0,0,2.15036957059056,1,0,0,0.5,0,553.367016158149
0,0,1.10297953399519,1.41369373136618,1,1,0.5,0.714599962952914,527.572691189013
0,0.0435640862420726,2.15036957059056,1,0,0,0.75,0,553.367016158149
0,0.468130634674088,2.15036957059056,1.73569225553669,0.25,0.308061733884927,1,0.600946874146871,543.635590956388
0,0.917934785304618,2.15036957059056,1,0.5,0,0,0.556488816311916,553.367016158149
0,0,2.15036957059056,1,0,0.192146126943103,1,0.537474129510643,552.55682497823
0,0.306703391407106,1.10297953399519,1.83689695787186,1,0.5150452841428,0.75,0.767556229689687,526.636299047935
0,0,1.10297953399519,1.75528440662603,1,0.845460034768067,1,0.438936851575851,518.236666640596
0,0.918010953151862,2.15036957059056,1,0,0,0,0,553.367016158149
0,0.591778541460829,2.15036957059056,1,0,0,0.25,0.906324519060035,553.367016158149
0,0,2.15036957059056,1.75280957059597,0.5,0.472502224328816,0.25,1,529.626273696617
0,1,2.15036957059056,1.50089487310313,0.5,0.816909283260973,0.5,0.719497312194478,511.147324299021
0,0,2.15036957059056,1.8159589284521,0,0.111587989874108,0.5,0.186249720940467,551.257906535764
0,0,2.15036957059056,1,0,0,0.75,0,553.367016158149
0,0.329145376221071,2.15036957059056,1,0,0,1,0.66169358828027,553.367016158149
0,0.344173604829537,2.15036957059056,1,0.25,0,0,0,553.367016158149
0,1,2.15036957059056,4.95412634390852,0.5,0.140909149935406,0.75,0.633585965740389,520.586428692283
0,0,2.15036957059056,1.47984991217981,0.25,0.408806655546416,0.25,1,541.17242035557
0,0,2.15036957059056,1.63547428035415,0.5,0.69252612624809,1,0.23459374071446,534.944443102042
0,0,2.15036957059056,1,0.75,0,0,0,553.367016158149
0,1,2.15036957059056,1.76928785321611,0.25,0.28605614679024,0.5,0.555166329526041,543.736540558766
0,0.0136651676687148,2.15036957059056,10,0.25,0.0338374298947569,0,0.019221619503771,551.31586320182
0,0.341057215852319,2.15036957059056,3.11876183575513,0.75,0.454149236977497,0.25,0,517.586086827302
0,0.996777197644772,2.15036957059056,1.40944285907265,0.25,0.20533756193287,0.75,0.441702714517765,550.077637385403
0,0.546492724404729,2.15036957059056,1.95900429668604,0.75,0.744476153056992,0.5,1,509.815907027421
0,0.365624103846183,2.15036957059056,2.2026487161108,0.25,0.188768229224468,0.25,0.454486019310849,545.377206379954
0,0.451356929096636,2.15036957059056,2.2036721303027,0.75,1,0.75,0.790717773104309,494.992009760676
0,0,2.15036957059056,3.52056256256981,0.25,0.178703392766748,0.5,1,531.422819362458
0,0.366029282447324,2.15036957059056,2.4995307604765,0.75,0.702431599515839,1,1,494.813207320229
0,0.844178658340483,2.15036957059056,1,1,0,0,1,553.367016158149
0,0,2.15036957059056,3.35132086921228,0.25,0.144239752421213,0.75,0.116847257741399,545.993479597642
0,0.842647026588953,2.15036957059056,2.53035851181374,1,0.784565398440556,0.25,0.836209134673924,503.200790112776
0,1,2.15036957059056,2.5033135306783,0.25,0.126079022421994,1,0.00785110957875892,536.984324537614
0,0.259898880510025,2.15036957059056,1,0.5,0,0,0,553.367016158149
0,0.456397948256715,2.15036957059056,1.84016670993692,1,0.776238651378115,0.5,0.35541619312679,515.426107097426
0,1,2.15036957059056,2.48255550576053,0.25,0.270978861058953,1,0.0325035545158152,516.02915518998
0,0,2.15036957059056,2.26600931369142,1,0.955483336897775,0.75,0.679407291965951,479.854787536717
0,0.0952445095742879,2.15036957059056,1,0.5,0,0,0,553.367016158149
0,1,2.15036957059056,2.15739593200866,1,1,1,1,460.27611368281
0,0,2.15036957059056,2.69106817959105,0.5,0.473835622530729,0.25,0.432769847722375,506.052479067095
0,0.137027802202307,2.15036957059056,1.88298282993855,0.5,0.853734406647951,0.25,0.00643966824471647,537.505326966469
0,1,2.15036957059056,1.54698504552937,0.5,0.622172001268834,0.5,0.16960812007729,539.154511797028
0,1,2.15036957059056,2.2892759903117,0.5,0.517501420013197,0.75,0.840233021912602,507.88279058867
0,1,2.15036957059056,2.20763215627861,0.5,0.271976460132432,0.5,0.0286067672412522,522.349182288395
0,0,2.15036957059056,1.82269924066042,0.5,0.574968640843705,1,1,529.311286965918
0,0,3.19621687072868,2.27524858504479,0,0.905215209831144,0,0.00147938682543649,552.145743383136
0,0.81719622410522,2.15036957059056,1,0.75,0,0,0,553.367016158149
0,1,3.19621687072868,1,0,0,0.25,1,553.367016158149
0,0,2.15036957059056,2.34107412885812,0.5,0.2498626488328,0.75,1,532.364036921338
0,0.780678988518958,3.19621687072868,1,0,0,0.5,0.160394543083384,553.367016158149
0,0,3.19621687072868,1,0,0,0.75,0,553.367016158149
0,0.0441226801487389,3.19621687072868,1,0,0,1,0,553.367016158149
0,0.120940372932368,2.15036957059056,2.62481225732561,0.75,0.457287304912618,0.25,0.230036444106556,508.25727132208
0,0.90045591387062,2.15036957059056,2.1811517972188,0.5,0.61101061959828,1,0.47077806172511,493.629830486644
0,0,2.15036957059056,1,0.75,0,0,1,553.367016158149
0,0,3.19621687072868,1,0.25,0.00776632227640164,0,1,553.363829581529
0,0.381711550963338,2.15036957059056,1.97242804612407,0.75,1,0.5,0.109363957153024,496.450351581922
0,1,2.15036957059056,1.92110411705534,0.75,0.867540541111484,0.25,0.119468203752837,506.421264539958
0,1,2.15036957059056,2.67494470910976,0.75,1,0.75,0.576450025817173,508.055809814824
0,0.631342775592962,2.15036957059056,2.15865006145519,0.75,0.796591907488667,0.5,0.556549255779469,482.073720296765
0,0,2.15036957059056,2.43397436510798,0.75,0.718332714454787,1,1,486.810328831435
0,0.186577876400648,2.15036957059056,1,1,0,0,0.59908791029695,553.367016158149
0,0,2.15036957059056,3.03008336656529,0.75,0.520276040178147,0.75,0.864817378495397,475.470951385708
0,0,2.15036957059056,2.08773294376088,1,0.684812348900602,0.25,0.945615968903269,513.490507189062
0,0.816293716745977,3.19621687072868,5.21788477146864,0.25,0.0787624445935647,0.25,0.00146772450452093,507.83251868051
0,0,2.15036957059056,2.24132041379561,0.75,0.879640120284129,1,1,482.287479826112
0,0,2.15036957059056,1.60048024066649,1,1,0.5,0.306138395722792,524.288593790938
0,0,3.19621687072868,3.04432265608108,0.25,0.475069823964628,0.5,0.706871700922652,483.812245535782
0,0.0935530288324185,2.15036957059056,1,1,0.590678908296881,0,0,552.459380482125
0,0,2.15036957059056,2.14712547331666,1,0.884398492953734,0.75,0.961185243014788,483.153066113738
0,0.538726292879493,3.19621687072868,3.68007802834223,0.25,0.176810620699085,0.75,0,520.163709424308
0,1,2.15036957059056,1.83155008414928,1,1,1,1,481.628709614545
0,0,3.19621687072868,1,0,0,0,0,553.367016158149
0,0.426289132991329,3.19621687072868,1,0,0,0.25,0,553.367016158149
0,0,3.19621687072868,1,0,0,0.5,0,553.367016158149
0,0,3.19621687072868,1,0,0,0.75,0,553.367016158149
0,1,3.19621687072868,3.75299703627687,0.25,0.166502973856682,1,0.544236236282647,527.328676296404
0,0.567751159642352,3.19621687072868,1,0,0,1,0,553.367016158149
0,0,3.19621687072868,1,0.5,0,0,0,553.367016158149
0,0.415132533144414,3.19621687072868,1,0.25,0.274096406619842,0,0,551.49622751709
0,0.518396089849342,3.19621687072868,2.65634796512099,0.5,0.456298535578944,0.25,0,492.581541419175
0,1,2.15036957059056,2.76321602546882,1,0.37336025205792,0.25,0.0132038595713652,467.546866999691
0,0,2.15036957059056,2.84531760292123,1,0.758647926556049,0.5,0.496739869971296,489.71246646885
0,1,3.19621687072868,1.01726762522148,0.25,1,0.25,0.720243016374633,538.804358723004
0,1,3.19621687072868,2.86392345246978,0.5,0.760867313053066,0.5,0.298975590713517,483.675209789832
0,1,2.15036957059056,2.26896915083744,1,0.916919253160138,0.75,0.912339928121234,489.177478065207
0,0.930486132341258,3.19621687072868,2.80028609580117,0.5,0.56536147492178,0.75,1,490.225603059169
0,1,2.15036957059056,2.28555834425607,1,1,1,1,432.472537643869
0,0.924508325207709,3.19621687072868,3.36315429545669,0.5,0.563944128637013,1,1,422.676592506898
0,0,3.19621687072868,1,0.75,0,0,0,553.367016158149
0,0.998736181571195,3.19621687072868,4.53425169204183,0.25,0.0540219340896752,0.5,0,533.253712109222
0,0,3.19621687072868,3.54835216197851,0.75,0.58886570007485,0.25,0.286473356500923,457.857523897543
0,1,3.19621687072868,3.32517319928053,0.75,0.631560969221566,0.5,0.471069013001186,484.509426532143
0,0.138732875795599,3.19621687072868,9.37740133767546,0.25,0.0974296410768095,0.75,0.0390236300625389,537.393862792141
0,0,3.19621687072868,10,0,0.00643229485950279,0,0.406680099500774,552.944570117557
0,0,3.19621687072868,1,0,0,0.25,1,553.367016158149
0,0,3.19621687072868,2.30256351839423,0.25,0.415207081566604,1,0.740400350466203,531.056675341779
0,0,3.19621687072868,1,0.5,0,0,0,553.367016158149
0,0,3.19621687072868,2.6552606131763,0.75,0.777373594148513,0.75,0.851759856896149,464.019048927699
0,1,3.19621687072868,1,0,0.282599483915724,0.5,0.619591439815089,551.645913294939
0,0.125863569035032,3.19621687072868,1,0,0,0.75,0.444898278585521,553.367016158149
0,0.17493401997988,3.19621687072868,3.85342067373529,0.5,0.373885725292499,0.25,0.0578522130548153,491.84560397888
0,0,3.19621687072868,3.76563019879812,0.75,0.872893081684661,1,0.855918631962725,393.367533044898
0,0.723398838112703,3.19621687072868,1,1,0,0,0,553.367016158149
0,1,3.19621687072868,2.37134073145268,0.5,1,0.5,0.199331028034719,485.824203699689
0,0,3.19621687072868,3.181111642184,1,1,0.25,0.309776610076901,444.395087322127
0,0.445952580546942,3.19621687072868,3.28391032284903,1,1,0.5,0.609409975413529,413.967213172542
0,0.0579232978277329,3.19621687072868,3.42220764194395,1,0.972362135461571,0.75,0.941635947841124,400.393654181756
0,0.0663521328273095,3.19621687072868,4.07474734907939,0.5,1,0.75,0.0067966803241776,510.475857884068
0,0.142923384013918,3.19621687072868,3.53388502560258,1,1,1,1,421.277314407204
0,0.809744222451899,4.66607582684242,1,0,0,0,0.859431836792484,553.367016158149
0,0,3.19621687072868,1,0,1,1,0.00442894215405052,552.213806826769
0,0,3.19621687072868,1,0.25,0,0,0,553.367016158149
0,1,3.19621687072868,4.20894092633372,0.5,0.340838547859755,1,0.984691771309036,492.349226972959
0,1,3.19621687072868,1.0104895111622,0.75,0.0450806567990289,0,0.0283391831416394,553.093286480046
0,0,3.19621687072868,4.03976178787879,0.75,0.633889544920947,0.25,0.0499023254927231,473.313628335844
0,1,3.19621687072868,3.10631673843303,0.75,0.938556539578564,0.5,0.466648855858129,447.158628038471
0,0.650870063853303,4.66607582684242,10,0,0.00238986648887344,0.25,0,553.274275653016
0,0.637808517180939,4.66607582684242,1,0,0,0.5,1,553.367016158149
0,0.0416934759139706,3.19621687072868,3.24880171547317,0.25,1,0.25,0.00391257386939659,522.705839560497
0,0,3.19621687072868,3.43740251693059,0.75,0.82983755418728,0.75,0.661646660429908,420.725494756233
0,0,3.19621687072868,2.26342486458281,0.75,0.820919349532534,1,0.979013640977778,484.927617204307
0,0,3.19621687072868,1,1,0,0,1,553.367016158149
0,0,3.19621687072868,4.38661133487361,0.25,0.196890943075945,0.5,0.290200043393395,517.510122445868
0,0,3.19621687072868,4.38041163557494,1,0.55274403508892,0.25,0.416744105786099,434.371569823222
0,1,4.66607582684242,10,0,0.00861984641982821,0.75,0.277312227890941,552.263145597712
0,0,4.66607582684242,1,0,0,1,0,553.367016158149
0,0.99996867007849,4.66607582684242,1.00005991523899,0.25,0.0116164363475012,0,0,553.253936273341
0,0.640288318294947,3.19621687072868,3.16902980545752,1,1,0.5,0.877472525166742,389.302656162382
0,1,3.19621687072868,2.47155290545483,0.25,0.176400862859809,0.75,0.0254885107793557,526.570556338599
0,0.232335171810834,3.19621687072868,3.82580425847767,1,0.807899317862954,0.75,0.559071169699898,392.758312036399
0,0.30418602555116,3.19621687072868,1.83162658696835,0.25,0.673179528055774,1,1,516.910333354506
0,0,3.19621687072868,3.70733012620796,1,1,1,1,447.213398170045
0,0,3.19621687072868,1,0.5,0,0,0,553.367016158149
0,1,4.66607582684242,1,0,0.381809768522477,0,0.437283103252367,549.947004298608
0,0,3.19621687072868,4.15413396066055,0.5,0.326311445223229,0.25,0.25437584699187,509.254491011352
0,0,4.66607582684242,1,0,0,0.25,1,553.367016158149
0,0.591650369154139,4.66607582684242,1,0,0.194463751007648,0.5,0,552.202848090561
0,0,3.19621687072868,3.23186085043842,0.5,0.359462768947694,0.5,0.307023668955687,502.122170593101
0,0,3.19621687072868,3.30332864312167,0.5,0.65102338911943,0.75,0.0577263360099001,482.878401400454
0,0.997179032255334,4.66607582684242,5.79781861260133,0.25,0.0812258770173542,0.25,0.000370604132705074,469.42547274987
0,1,3.19621687072868,3.22927956074105,0.5,0.592572125183716,1,1,439.344786484067
0,1,4.66607582684242,10,0,0.0124252767584656,0.75,0.904398369784218,552.253354779613
0,0.709088448130352,3.19621687072868,1,0.75,0.451292975582177,0,0,549.302880582053
0,0,4.66607582684242,4.15024602367613,0.25,0.228493739948117,0.5,1,516.366272659364
0,0,3.19621687072868,4.69525774849775,0.75,0.434047096452966,0.25,0.26413386965922,452.89219979382
0,0,3.19621687072868,3.06011956848126,0.75,0.961267882897048,0.5,0.629406511403004,433.291530631748
0,0.281906849218079,4.66607582684242,2.96397195882288,0.25,0.720902694189345,0.75,0,490.311174417817
0,0,3.19621687072868,2.56748606783908,0.75,1,0.75,0.835573459752534,449.549167169991
0,0.328548825427952,4.66607582684242,5.83006543814777,0.25,0.236218988222632,1,0.394300856857335,465.204469402177
0,0,4.66607582684242,1,0,1,1,0.00764193198933323,551.038487587789
0,0.285322796425822,4.66607582684242,1,0.25,0,0,0,553.367016158149
0,1,4.66607582684242,1,0.5,0.676749700282617,0,0.033241174824449,544.844071258248
0,0.612945510328611,3.19621687072868,2.4988867438812,0.75,0.904667074839737,1,1,461.307525766356
0,0.497048910701774,3.19621687072868,1,1,0,0,0,553.367016158149
0,0.170139736611617,3.19621687072868,3.08517675855659,1,1,0.25,0.210252320089665,455.585686487008
0,0.142598122193172,4.66607582684242,7.15366817901917,0.25,0.164745199623957,0.25,0.193889920407416,484.303310302466
0,0,4.66607582684242,5.68041499213434,0.5,0.473883110521481,0.25,0.258128378296087,370.599116213948
0,0.635550347973854,3.19621687072868,2.96731255642765,1,1,0.5,0.40326076463516,460.09586383028
0,0,4.66607582684242,4.67120970547916,0.5,0.612651618352955,0.5,0.914379595573113,412.961131649929
0,0.858220823148939,4.66607582684242,6.17734073423525,0.25,0.0776270409121777,0.5,0,513.157004876233
0,0.1627245808483,3.19621687072868,3.55716697265772,1,0.981245656294926,0.75,0.712507999569754,385.002264223836
0,0,4.66607582684242,5.42585221973777,0.25,0.169352087613075,0.75,1,510.603908682934
0,1,4.66607582684242,3.93787874180235,0.5,0.669192156241911,0.75,0.501660321012278,444.943383891868
0,0.278675425535684,3.19621687072868,3.82245630940473,1,0.855535356307183,1,0.961465668291719,405.92751278178
0,1,4.66607582684242,5.45118599471623,0.25,0.198999124233148,1,0.524234817164665,481.225662537129
0,0.838545052287363,4.66607582684242,1,0.5,0,0,1,553.367016158149
0,1,4.66607582684242,4.81059898835543,0.5,0.481656276263161,1,0.947573095201843,403.097569894362
0,0,4.66607582684242,1,0,1,0,1,541.94419111402
0,0,4.66607582684242,1,0.75,0,0,0,553.367016158149
0,0.796042001703427,4.66607582684242,1,0,0,0.25,0.345651568718497,553.367016158149
0,0.654854208998804,4.66607582684242,1,0,0,0.5,0.150455045078596,553.367016158149
0,1,4.66607582684242,5.68726344297192,0.5,0.357635408747628,0.25,0.181056868977781,473.367070041777
0,0,4.66607582684242,4.61176813627954,0.75,0.997598916038288,0.25,0.202011766094339,383.637500664529
0,0,4.66607582684242,4.76197224080857,0.5,0.564539562073876,0.5,0.447281408882874,371.352249224256
0,0,4.66607582684242,4.89345337870102,0.75,0.922144543899246,0.5,0.373887031888954,422.651344252893
0,0.266928653178624,4.66607582684242,5.0734037621347,0.75,0.676220638359381,0.75,0.785719762909833,374.345738340509
0,1,4.66607582684242,3.8415850040072,0.75,0.854676639199385,1,1,421.08008669627
0,0,4.66607582684242,1,1,0,0,0,553.367016158149
0,1,4.66607582684242,10,0,0.00221297413140438,0.75,0.0184328423020986,553.10581388381
0,0.261005243169341,4.66607582684242,4.28703618787952,1,1,0.25,0.251718887556748,435.792284810224
0,1,4.66607582684242,3.87226734750134,0.5,0.2315942631308,0.75,0.0117130926013016,470.623469864974
0,0,4.66607582684242,4.25987616871758,1,0.856009491374595,0.5,0.69735377157354,390.503834948095
0,0,4.66607582684242,3.9078852538098,0.5,0.532268642812376,1,0.971140382176828,438.736484779119
0,1,4.66607582684242,10,0,0.0112084074432686,1,0.0665329594726013,551.039009306502
0,0,4.66607582684242,1,0.25,0,0,0,553.367016158149
0,0.965386571299449,4.66607582684242,4.26876587702229,1,0.96463701751851,0.75,0.736988676588023,372.141040510398
0,0,4.66607582684242,3.07007553160469,0.75,0.0226818479951804,0,1,552.952302236019
0,1,4.66607582684242,3.20635440060063,0.25,0.217782840278588,0.25,0.394649286536159,525.59491760536
0,0,4.66607582684242,4.34632555408313,1,0.97527322484196,1,1,358.874117099805
0.25,0.300140009964608,0.588930076919496,1,0,0,0,0,553.367016158149
0,0,4.66607582684242,4.51649669855982,0.75,0.638897775662512,0.25,0.305192428240725,370.006401534301
0.25,0.184993491343939,0.588930076919496,1,0,0,0.25,0,553.367016158149
0.25,0,0.588930076919496,1,0,0,0.5,0,553.367016158149
0.25,0,0.588930076919496,1,0,0,0.75,0,553.367016158149
0,0.882100694404496,4.66607582684242,4.69139083514866,0.25,0.348850935076986,0.5,0.322350175833767,450.425871017918
0,0,4.66607582684242,4.58456658742682,0.75,0.754982065069663,0.5,0.451669263286313,396.011208177273
0,0,4.66607582684242,4.95257868141181,0.75,0.727450527026705,0.75,0.568214949096469,345.355047270262
0,0,4.66607582684242,4.16101703238171,0.25,0.319825831451741,0.75,0.905599344380737,493.920530615405
0,0,4.66607582684242,5.14377400082379,0.75,0.676048120653689,1,1,393.856487627795
0.25,1,0.588930076919496,10,0,0.00766111074658166,1,0.110122119436306,552.074909624934
0,0,4.66607582684242,3.24043142302541,0.25,0.252905729853843,1,1,526.134476269307
0,0,4.66607582684242,10,1,0.0180229743465257,0,0.518256526559884,550.747163850214
0,1,4.66607582684242,10,0.5,0.00360243778955798,0,0.544264623792577,553.089815752466
0,0,4.66607582684242,4.31686098284778,1,0.925833678459892,0.25,0.546834422714529,304.029072652286
0.25,0,0.588930076919496,5.89222874903762,0.25,0.117668769114063,0,0.0384709820593769,546.630387060771
0,0,4.66607582684242,5.6377435191972,1,0.895559388552922,0.5,0.527652493799245,306.732632446583
0,0.0582190263150438,4.66607582684242,4.44110902712122,0.5,0.520406058140976,0.25,0.0591899868740872,452.004888353047
0.25,1,0.588930076919496,1.39481496987711,0.25,0.327021026106738,0.25,0.202253886983024,544.795297686772
0,0.107012186778705,4.66607582684242,4.77301451735734,1,0.992319236560321,0.75,0.518630821583474,306.480075040951
0,0,4.66607582684242,4.37475358366658,0.5,0.528679133686526,0.5,0.544394892053164,397.269884111214
0,0,4.66607582684242,5.62960620814868,1,0.991379120210552,1,0.916142624847957,294.299419958766
0.25,1,0.588930076919496,10,0.25,0.00348015422457008,0.5,0.0412355441150491,552.977367398049
0,0.483901023599426,4.66607582684242,5.3623925440401,0.5,0.442784392991511,0.75,0.106900561972526,396.880308188814
0.25,1,0.588930076919496,1.04799720412888,0,0.189150915018223,0,0.179193153171494,550.383859994163
0.25,0.312935463863594,0.588930076919496,1,0,0,0.25,0,553.367016158149
0.25,0,0.588930076919496,1,0,0,0.5,0,553.367016158149
0,0,4.66607582684242,5.42974360808473,0.5,0.442860187504754,1,0.8423017840719,395.076464925092
0,0,4.66607582684242,1,0.75,0,0,0,553.367016158149
0,0.343035231216619,4.66607582684242,4.35913675712131,0.75,0.720426119357078,0.25,0.310684677877142,384.908029171927
0.25,1,0.588930076919496,10,0,0.0134263516939083,0.75,1,551.520230177134
0,0.0819665670212916,4.66607582684242,3.64304942331454,0.75,0.954576828026107,0.5,0.47256494332752,451.611117489879
0.25,1,0.588930076919496,1.44240811607462,0.25,0.103572686516154,0.75,0.0336733604213101,551.289896919518
0.25,1,0.588930076919496,1.21333852809019,0,0.00537100037916825,1,0.0161331259414045,553.340975788671
0.25,0,0.588930076919496,1,0.25,0,0,0,553.367016158149
0,0,4.66607582684242,4.75656347038875,0.75,0.74535696400685,0.75,0.853157440475604,392.746596785258
0.25,0.559584008053635,0.588930076919496,1.18854461168565,0.25,0.276442820009612,0.25,1,551.153031876444
0.25,0,0.588930076919496,1,0.25,0,0.5,0,553.367016158149
0.25,0.125263458099425,0.588930076919496,1,0.25,0,0.75,0.536960953522798,553.367016158149
0.25,0.548158089285844,0.588930076919496,1.18498966348389,0.25,0,1,1,553.367016158149
0,0.302835490076047,4.66607582684242,4.73114731503669,0.75,0.736919771164264,1,0.991838731198257,385.059696692395
0.25,0.878881782826828,0.588930076919496,1,0.5,0,0,1,553.367016158149
0,0.430325449375061,4.66607582684242,1,1,0.0220989122221049,0,0,553.339101327788
0.25,0,0.588930076919496,10,0.25,0.0262714217887001,1,0.439844286186614,547.156738515777
0,0,4.66607582684242,4.9442734009038,1,1,0.25,0.261077072370945,368.501426209108
0.25,1,0.588930076919496,2.65229292871275,0.5,0.0493700609363952,0.25,0.024492702939255,550.266956304081
0,0.660093395187246,4.66607582684242,4.60329313250729,1,1,0.5,0.513301115065154,347.816386894912
0,0,4.66607582684242,4.96301758769668,1,1,0.75,0.839331595291969,313.993945294227
0.25,0,0.588930076919496,10,0.5,0.0424127914588333,0,0.0596693250165838,543.793937009717
0,0.0307181973555334,4.66607582684242,4.83578652510781,1,1,1,1,310.578301176739
0.25,0,0.588930076919496,1,0,0,0,1,553.367016158149
0.25,0,0.588930076919496,1,0,0,0.25,1,553.367016158149
0.25,0.0932575112538584,0.588930076919496,1,0,0,0.5,1,553.367016158149
0.25,0.794407683615645,0.588930076919496,1,0,0,0.75,0.957806540442795,553.367016158149
0.25,0,0.588930076919496,1,0,1,1,0.660246705592535,546.762752744993
0.25,0.795083665596638,0.588930076919496,1,0.25,0,0,0,553.367016158149
0.25,0,0.588930076919496,1,0.25,0,0.25,1,553.367016158149
0.25,1,0.588930076919496,10,0.5,0.00722993608407165,0.5,0.0229188169960518,550.093696103006
0.25,0,0.588930076919496,1,0.25,0,0.5,0,553.367016158149
0.25,0.631972950575989,0.588930076919496,1,0.5,0,0.75,0,553.367016158149
0.25,0,0.588930076919496,1.22660390429565,0.5,1,0.25,0.00495408747928804,551.335789178228
0.25,0,0.588930076919496,1,0.5,0.650258746663005,0.5,0.803379421149035,548.047851201168
0.25,1,0.588930076919496,1.0224475800665,0.25,0.0152649112040783,0.75,0.0288155019913381,553.280036421442
0.25,0,0.588930076919496,1.11944460048233,0.5,0.37461033530445,1,0.064489439444374,548.140363725585
0.25,0.773469217836325,0.588930076919496,1,0.5,0.949402760965625,0.75,0.00416863961430058,539.703211209324
0.25,0,0.588930076919496,1,0.75,0.611892933634644,0,0.462437145660026,547.188155561294
0.25,0.213423598548333,0.588930076919496,1,0.5,0.0489933018044776,1,1,553.144582618649
0.25,1,0.588930076919496,10,0.25,0.0152981399177448,1,1,550.917962580338
0.25,0.500499057925122,0.588930076919496,1,0.75,0.350112397588085,0.25,0,547.464772112189
0.25,0,0.588930076919496,1.39716473267177,0.75,0.321094386526952,0.5,0.791766898507733,541.404335789935
0.25,0,0.588930076919496,10,0.75,0.010969580861655,0,0.820912899984741,552.250655008542
0.25,0,0.588930076919496,1.02549683091187,0.75,1,0.75,0.353746116843162,542.765307853697
0.25,0.148771319834189,0.588930076919496,1,0.75,0.804105278024563,0.25,1,543.830134589171
0.25,1,0.588930076919496,10,0.5,0.00824399575373597,0,0.0515742598080768,551.986388770891
0.25,0.479210791562556,0.588930076919496,1,0.5,0,0.25,0,553.367016158149
0.25,0.39021424008048,0.588930076919496,10,0.5,0.0116389894380055,0.5,0.0124321859073197,551.908774919079
0.25,0,0.588930076919496,10,0.75,0.142868542262985,1,0.00888609677083412,543.1497610746
0.25,0,0.588930076919496,3.0443846365182,0.75,0.721401747698532,0.5,0.00320910827328426,548.206077768002
0.25,1,0.588930076919496,1.61255463487021,1,0.28142538042904,0,0.136921162912053,544.468531546355
0.25,0.776807934957786,0.588930076919496,1,0.75,0,0.75,0.748792637306904,553.367016158149
0.25,0,0.588930076919496,4.63822216605092,0.5,0.0516998077388843,0.75,0.0921843165716567,549.919199219533
0.25,0,0.588930076919496,1,0.5,0,1,1,553.367016158149
0.25,0,0.588930076919496,1,1,0.480714155564517,0.25,0.0721256712150219,549.467596404688
0.25,0,0.588930076919496,1,0.75,0.358839537220946,1,0.789151954054095,548.977967338742
0.25,1,0.588930076919496,1,0.75,0.522992327554232,0,0.00493947240758453,547.739885963905
0.25,0.102739710877353,0.588930076919496,1,0.75,0,0.25,0.673150138452002,553.367016158149
0.25,1,0.588930076919496,1.31516521283265,1,0.26050218788782,0,0.11355336857092,544.708139263442
0.25,0,0.588930076919496,1,0.75,0.00559955098118753,0.5,0.877493680676088,553.365665666118
0.25,0.0153442943916866,0.588930076919496,1.76351935284542,1,1,0.5,0.0195263344339344,535.763216035631
0.25,1,0.588930076919496,1.47395452571724,1,0.482147993766027,0.75,0.810318500980374,539.948726199456
0.25,0,0.588930076919496,2.25475760612831,1,0.320892316176633,0.25,1,535.961561876262
0.25,0,0.588930076919496,1,1,1,0.5,0.477790392124728,551.21437405758
0.25,1,0.588930076919496,1.27032371369672,1,1,0.75,0.318827901934239,541.30437857439
0.25,0,0.588930076919496,1,1,0,1,0.200238542554188,553.367016158149
0.25,0,1.10297953399519,1,0,0,0,1,553.367016158149
0.25,0,1.10297953399519,1,0,0,0.25,0.626905771794911,553.367016158149
0.25,0,0.588930076919496,1.28388112167707,0.75,0.127549678692652,0.75,0.116010925911313,552.193152564051
0.25,1,0.588930076919496,10,1,0.0305867107485519,1,1,545.949515216469
0.25,0.289817789376161,1.10297953399519,1,0,0,0,0,553.367016158149
0.25,0.758056684555646,1.10297953399519,1,0,0,0.25,0,553.367016158149
0.25,0,1.10297953399519,1,0,0,0.5,0,553.367016158149
0.25,0,1.10297953399519,1,0,0,0.75,0,553.367016158149
0.25,0,1.10297953399519,1,0,0,1,0,553.367016158149
0.25,0.811179397064449,1.10297953399519,1,0.25,0,0,0,553.367016158149
0.25,1,0.588930076919496,1,0.75,0.474855339321264,1,0.949861201968227,549.161615449538
0.25,0,1.10297953399519,3.70638815348417,0,0.846682851530512,0.5,0.00301495957217254,546.784074229401
0.25,0.416779678093688,1.10297953399519,1,0,0,0.75,0,553.367016158149
0.25,1,1.10297953399519,5.85568128767852,0.25,0.0436094809862991,0.25,0.287162260260504,546.942656646714
0.25,0,1.10297953399519,1,0.25,1,0.5,0.910750365628351,544.569416878066
0.25,0.683266339869878,1.10297953399519,10,0,0.00919938538914023,1,1,552.786399523336
0.25,1,0.588930076919496,10,1,0.0136970568948114,0,0.155382733385511,550.674676874099
0.25,0,1.10297953399519,1.38324186224699,0.25,0.365521454883875,0.75,0.396625406402021,546.700038619937
0.25,0.0922852338558023,0.588930076919496,1,1,1,0.25,0.0112524014033698,548.028904511853
0.25,1,1.10297953399519,1.03578489795222,0.25,0.0508336558944579,0,0.0222781666324001,552.965471424468
0.25,1,0.588930076919496,1.01427949358526,1,1,0.5,0.743854860801802,533.644944668354
0.25,0.554210670733028,0.588930076919496,1,1,0,0.75,0.373323109614147,553.367016158149
0.25,1,1.10297953399519,10,0.25,0.0175475140179117,1,0.0210159819845116,548.803281503158
0.25,0,1.10297953399519,1,0.5,0,0,0,553.367016158149
0.25,1,1.10297953399519,7.95716092090365,0.25,0.0397250215782792,0.25,0.286701604300243,545.029763799231
0.25,0.826280263006146,0.588930076919496,1,1,1,1,0.0111368095336803,538.653938422894
0.25,0,1.10297953399519,1,0.25,0.130227736238037,0.5,0.425034892841372,552.763736060183
0.25,0.169075675994465,1.10297953399519,1.00000560526988,0,0.115305042705455,0,0,553.106901930157
0.25,0,1.10297953399519,1,0,0,0.25,0.126747160154276,553.367016158149
0.25,0.208576917492,1.10297953399519,1,0,0.0364785070141375,0.5,0,553.345682681056
0.25,1,1.10297953399519,2.87350832453853,0.25,0.0579809745192972,0.75,1,551.025500845145
0.25,1,1.10297953399519,1.83227477599855,0.5,0.0888091011513519,0.25,0.00589902174928008,547.786081505404
0.25,1,1.10297953399519,1.90913715824487,0.25,0.338267401371699,1,0.869877057482261,540.753142251411
0.25,0.312495614090844,1.10297953399519,1,0.5,1,0.5,0.496313017913284,543.741373846549
0.25,0,1.10297953399519,1.0784327212586,0,0.402941995114053,0.75,0.0018907156347019,553.208920826733
0.25,1,1.10297953399519,2.1434213513943,0.5,0.420854547132359,0.75,0.560292394414577,529.097534211914
0.25,0,1.10297953399519,1,0.5,0,1,0,553.367016158149
0.25,1,1.10297953399519,10,0.5,0.015282440091366,0,0.872626858273972,549.970830251407
0.25,0,1.10297953399519,2.88341339312708,0.75,0.193683755082447,0,1,536.227241300926
0.25,0.465462196473884,1.10297953399519,1.17018746009507,0.5,0.715193041822375,0.25,0.529024819022087,536.860539697022
0.25,1,1.10297953399519,10,0,0.0182282557610463,1,0.117155841149697,549.152900407746
0.25,0,1.10297953399519,1.84618047554364,0.75,0.444507996378336,0.25,1,532.634549784396
0.25,1,1.10297953399519,1.12990420571618,0.5,0.413909983246823,0.5,1,546.356697255693
0.25,0,1.10297953399519,1.69064621001345,0.5,0.501554954592407,0.75,0.0949428572946887,537.140942665137
0.25,0,1.10297953399519,2.79060223054014,0.75,0.265694079790384,0.5,0.386268303643226,534.101462238653
0.25,1,1.10297953399519,1,0.25,0.595359416775793,0,0.041365645743226,546.050460062028
0.25,0,1.10297953399519,1.14798125221164,0.5,0.550241534660471,1,1,548.112307358397
0.25,1,1.10297953399519,1,0.75,0.53178616057965,0.75,1,546.213067909427
0.25,1,1.10297953399519,1,0.25,0.243602336647992,0.25,0.0358371318051065,550.71596926173
0.25,1,1.10297953399519,1,0.75,0.47077474329978,1,1,545.99151128714
0.25,0.945178631227871,1.10297953399519,1,0.75,1,0,0.232863517569363,544.502366006887
0.25,0,1.10297953399519,1.1751455110119,1,1,0,0.391435243287448,533.757467986589
0.25,0,1.10297953399519,5.43661156127689,1,0,0.25,0,553.367016158149
0.25,1,1.10297953399519,1,0.75,1,0.25,0.363275718789692,543.976334238168
0.25,1,1.10297953399519,1.31522153300219,1,1,0.5,0.69424441864132,519.260700021901
0.25,0.999944483776349,1.10297953399519,3.0442908007617,0.25,0.0162796902660947,0.5,1,553.128019676431
0.25,0,1.10297953399519,1,1,0,0.75,0,553.367016158149
0.25,0,1.10297953399519,1,0.25,0,0.75,0,553.367016158149
0.25,0,1.10297953399519,1,0.75,1,0.5,0.28440859138645,541.662022055438
0.25,1,1.10297953399519,1,1,1,1,1,536.307137350964
0.25,0,2.15036957059056,1,0,0,0,0,553.367016158149
0.25,0,2.15036957059056,1,0,0,0.25,0,553.367016158149
0.25,0,1.10297953399519,1.75192425731727,0.75,1,0.75,0.0631988810336781,534.083577594925
0.25,1,1.10297953399519,1,0.75,0.981190626560696,1,1,539.272795068686
0.25,0.848428938716842,1.10297953399519,1.80612425666316,0.25,0.464465456878053,1,0.0309108524363003,526.083168748142
0.25,1,1.10297953399519,1,1,0.579000406429667,0,1,548.001983676205
0.25,1,2.15036957059056,3.35800380857397,0,0.040610860848671,0.5,0.0322246233789339,549.27319424921
0.25,0.22445443552718,2.15036957059056,1,0,0,0.75,0,553.367016158149
0.25,0,2.15036957059056,1,0,0,1,1,553.367016158149
0.25,0.0739957360350119,1.10297953399519,2.04656871870745,1,0.648085524775488,0.25,0.0703803323345399,527.574778514818
0.25,0,2.15036957059056,2.18279919726511,0.25,0.107183145112906,0,0.534525109347095,549.384055130069
0.25,0,2.15036957059056,2.6270260585016,0.25,0.233949735928267,0.25,0.512801318373842,531.909978696756
0.25,1,1.10297953399519,10,0.5,0.00320167621065854,0,0.0163679875072097,553.162588470713
0.25,0,1.10297953399519,1.39878552729812,1,0.726317608278488,0.5,1,533.131824755704
0.25,1,2.15036957059056,2.86012128088371,0.25,0.144540478396645,0.5,0.0252401026783755,539.681883386728
0.25,0,1.10297953399519,1.18964738089469,1,0.965128449596693,0.75,1,531.74300111998
0.25,0,1.10297953399519,2.764858330568,0.5,0.237177715435788,0.25,0.960212811705543,537.51196393045
0.25,0,2.15036957059056,2.35301529047583,0.25,0.185082163430034,0.75,0.395845894484474,541.792995266727
0.25,0,1.10297953399519,10,0.5,0.0893701373111276,0.5,0.0265668308756666,539.806272182215
0.25,0,2.15036957059056,4.45309103378374,0.25,0.093575198678967,1,1,539.226464794505
0.25,1,1.10297953399519,1,1,0.412898889871383,1,0.0234484344888963,548.8764518218
0.25,0.0626261246477942,2.15036957059056,2.73578138877303,0.5,0.349971927244137,0,1,516.466353931108
0.25,0.467041305729684,1.10297953399519,2.08657608066239,0.5,0.225811661350385,0.75,0.877368828333718,538.146528085871
0.25,1,1.10297953399519,1,0.5,0.390407081508452,1,0.569795082553836,549.60086109181
0.25,0,1.10297953399519,1,0.75,0,0,0,553.367016158149
0.25,0,2.15036957059056,4.55735332925295,0.5,0.23705108257208,0.25,0.0738643586232814,527.387523891589
0.25,1,2.15036957059056,10,0,0.0114663541584333,0,0.0519462484641239,550.711808914693
0.25,0.193834397173973,2.15036957059056,1,0,0,0.25,1,553.367016158149
0.25,0,2.15036957059056,1,0,0,0.5,1,553.367016158149
0.25,0.0463039116910789,1.10297953399519,3.47610631776475,0.75,0.14636563162737,0.25,0.0926253933074897,544.649922650392
0.25,1,2.15036957059056,2.14837234835402,0.5,0.490287650062562,0.5,0.128242444879083,514.279013186233
0.25,0,1.10297953399519,1.64749752390907,0.75,0.51198912299268,0.5,0.899900497115224,540.130889125931
0.25,0,2.15036957059056,2.83305381305925,0.5,0.269211544575438,0.75,1,524.784919615527
0.25,1,1.10297953399519,1.27623604867338,0.75,1,0.75,0.74101768227016,534.379885282083
0.25,0,2.15036957059056,1.63386570678373,0.5,0.542596213444327,1,1,538.159156498301
0.25,1,1.10297953399519,1.17112663598288,0.75,0.967888348046741,1,1,531.287208015605
0.25,0,1.10297953399519,1,1,0,0,0,553.367016158149
0.25,0.999866540982678,2.15036957059056,10,0,0.00786008728226758,0.75,0,550.451138484167
0.25,0.212495905075501,2.15036957059056,1,0,0,1,0,553.367016158149
0.25,1,2.15036957059056,2.16774632122253,0.75,0.528781094755033,0,0.0665886060404084,502.699866788438
0.25,0,1.10297953399519,1.02979626954864,1,1,0.25,0.747126124325797,541.694027476994
0.25,1,2.15036957059056,1.6916668270447,0.75,1,0.25,0.102458188741463,511.406232207944
0.25,1,2.15036957059056,1.47448402890738,0.25,0.18383770066634,0,1,546.986079252138
0.25,1,2.15036957059056,1.88252575917141,0.75,1,0.5,0.363990361829719,512.404693911722
0.25,0,2.15036957059056,1,0.75,0,0.75,0,553.367016158149
0.25,0.823204967158672,1.10297953399519,2.82638297976964,1,0.086819373555595,0.5,0,543.688628391688
0.25,1,2.15036957059056,1.93597657155023,0.75,0.795424664436462,1,0.841436397851723,504.138684212938
0.25,0,2.15036957059056,1.19503707423308,0.25,0.99939636847474,0.25,0.0174338876926263,545.319856965933
0.25,1,1.10297953399519,1.16424437481116,1,0.943484470214234,0.75,0.0828784421428468,536.920548238426
0.25,0.458254086462306,2.15036957059056,3.76515360137596,1,0.299005873399855,0,0.0613055990938715,523.684927042489
0.25,0,2.15036957059056,2.92071286786659,0.25,0.248817248523617,0.5,1,534.471648694762
0.25,0,1.10297953399519,1.34909308881068,1,1,1,1,531.439181624947
0.25,0,2.15036957059056,2.62421621190247,1,1,0.25,0.208984737079434,488.463876665067
0.25,0,2.15036957059056,2.80250523633505,0.25,0.256186889787334,0.75,0.189495681964823,532.78871865123
0.25,0,2.15036957059056,1.90678789378242,1,1,0.5,0.718261379136262,516.63078060983
0.25,0,2.15036957059056,1,0.25,0,1,0,553.367016158149
0.25,1,2.15036957059056,2.53486425945231,1,0.972864205619213,0.75,0.877527355596237,513.057580218623
0.25,0.0759953503685596,2.15036957059056,1.88434422294444,0.5,0.38185968355804,0,0.112240666255482,533.794938652703
0.25,0,2.15036957059056,2.88408430065507,1,0.936587502577319,1,0.983826789915105,472.554526219238
0.25,1,2.15036957059056,10,0,0.0112784328732872,0,0.0234665967911907,550.294518137786
0.25,0.668692108446525,2.15036957059056,1,0,0,0.25,0,553.367016158149
0.25,0.0501671657625597,2.15036957059056,1,0,0,0.5,0.853382779056804,553.367016158149
0.25,1,3.19621687072868,1,0,0.157326023785049,0,0.0700627745581399,552.505397784446
0.25,0,2.15036957059056,2.2135365682006,0.5,0.492929509480115,0.25,0.977785604122054,515.990992937685
0.25,0,2.15036957059056,2.2025664567309,0.5,0.569789923296337,0.5,0.308266278275549,525.371708374287
0.25,1,2.15036957059056,8.5126443608982,0,0.00604935474608995,0.75,0.074058928369599,552.786079066141
0.25,1,3.19621687072868,10,0,0.0275146372466296,0.25,0.862941232869101,547.781134302305
0.25,0,2.15036957059056,2.09686301625897,0.5,0.536479953559968,0.75,0.362410773172934,513.348606591403
0.25,0,2.15036957059056,1,0,0,1,0,553.367016158149
0.25,0,2.15036957059056,1.88575007056536,0.5,0.65245017226565,1,0.520788311441484,513.362888899543
0.25,0.936940523245144,3.19621687072868,1,0,0.220539512691326,0.5,0.149704761249736,551.581316261874
0.25,0.856614683404132,3.19621687072868,1,0,0,0.75,0.756067083526205,553.367016158149
0.25,0.0924998824239109,3.19621687072868,1,0,0,1,1,553.367016158149
0.25,0,2.15036957059056,1.99349426966759,0.75,0.671703957121519,0,0.16090705093439,523.384179922575
0.25,1,2.15036957059056,8.84684008430203,0.25,0.042596622523866,0,0.516764251267753,543.673279015676
0.25,1,3.19621687072868,4.33732594669685,0.25,0.14741110916395,0,1,512.983057847391
0.25,0.947737200967332,2.15036957059056,2.12916178074779,0.75,0.688785085030629,0.25,0.671456382320514,505.044061281284
0.25,0.139932894384422,2.15036957059056,1.43627173375904,0.25,1,0.25,0.472199775612304,534.688024656452
0.25,0,2.15036957059056,1,0.25,0,0.5,0,553.367016158149
0.25,0,3.19621687072868,2.24914079220067,0.25,0.590189264921984,0.25,0.291545936158194,516.563958496498
0.25,0,2.15036957059056,2.22501412026843,0.75,0.975842446278763,0.5,0.408304187181291,476.501924627374
0.25,0,2.15036957059056,2.34796964946874,0.75,0.804307013280058,0.75,0.738579984476754,498.911189801976
0.25,0.0589731430460655,2.15036957059056,2.18299019819698,0.75,0.828565984150024,1,1,478.505877034423
0.25,0.143071809400386,3.19621687072868,3.69812106026219,0.25,0.269419696831337,0.5,0.0599801148357368,525.08930125058
0.25,1,2.15036957059056,10,0.25,0.0392464630337632,0.75,0.0693652958967552,534.343988687396
0.25,1,3.19621687072868,5.22339469015162,0.25,0.182958134139428,0.75,0.836012096412356,512.725755846896
0.25,1,2.15036957059056,2.47556799027124,1,0.702981287803549,0,0.0857712203054349,462.755069111435
0.25,0.125075624372068,2.15036957059056,1.92452162135536,0.25,0.2555581101718,1,1,542.554283479396
0.25,0.647791049286151,2.15036957059056,2.58785025647835,1,1,0.25,0.310355912483475,458.545618185679
0.25,0,3.19621687072868,2.86648665820802,0.25,0.271567076240406,1,1,534.627289139081
0.25,0,2.15036957059056,2.22724608871664,1,1,0.5,0.786092608006771,484.319769516369
0.25,1,3.19621687072868,3.02942212446864,0.5,0.279579154512293,0,0.117152447856471,520.344600413074
0.25,0.365428973408259,2.15036957059056,2.11233556739098,1,1,0.75,0.756231537663756,491.659802934817
0.25,0,2.15036957059056,2.446148884885,1,1,1,1,452.086784528805
0.25,0,3.19621687072868,1,0,0,0,0,553.367016158149
0.25,0,3.19621687072868,1,0,0,0.25,0,553.367016158149
0.25,0,3.19621687072868,1,0,0,0.5,0,553.367016158149
0.25,0.0642978513066133,2.15036957059056,2.58348831914991,0.5,0.492222391198164,0,0.0116617605895669,540.420603337635
0.25,0.183414434290463,3.19621687072868,3.84805605203438,0.5,0.622160850119967,0.25,0.0267996277227904,460.164956430782
0.25,0.62487610113222,3.19621687072868,2.63192941256832,0.5,0.620603994052724,0.5,1,477.930055333665
0.25,0.852940354987496,3.19621687072868,2.50897937822491,0.5,0.760406688119248,0.75,0.498990738279105,453.565532514273
0.25,0,3.19621687072868,1.07593721785759,0,0.518443117201341,0.75,0.00211562809050403,553.16500315818
0.25,1,3.19621687072868,4.26978931494383,0.5,0.467859644246615,1,0.304716494421,447.491571778016
0.25,0,3.19621687072868,1,0,0,1,0,553.367016158149
0.25,1,2.15036957059056,2.25494056006926,0.5,0.251792511540565,0.25,0.0113227582383884,521.818335675897
0.25,1,3.19621687072868,3.17518224189526,0.75,0.611458240166993,0,0.354066710012345,478.410178541018
0.25,0,3.19621687072868,3.06286861609215,0.25,0.150785042032387,0,0.467717821868713,536.261129480171
0.25,0.354675368497792,2.15036957059056,2.24510389624331,0.5,0.691207024886013,0.5,0,495.763428041798
0.25,1,3.19621687072868,3.17743122533436,0.75,0.680899013825931,0.25,0.442594957169121,452.729356682125
0.25,0.550521087244654,3.19621687072868,2.24479520301793,0.25,0.616517335709105,0.25,0.123875793492804,519.753215298124
0.25,0.424138538498819,3.19621687072868,3.52407605039321,0.75,0.921824143526849,0.5,0.517674064274285,426.887767913022
0.25,1,2.15036957059056,1.74797271013774,0.5,0.693040626676068,0.75,0.199892742311477,513.46660392672
0.25,1,2.15036957059056,2.0483628592034,0.5,0.558658215318328,1,0.615600694038595,511.226501859289
0.25,0.0834198247824337,3.19621687072868,4.15410462888036,0.25,0.578973222904959,0.5,0,540.344066731417
0.25,0.879665703407812,3.19621687072868,4.37499133284434,0.75,0.395410664299995,0.75,1,446.220281943469
0.25,1,3.19621687072868,1.20555230087359,0.25,1,0.75,0.663249230186253,523.863315559919
0.25,0,3.19621687072868,4.22947599373342,0.75,0.86411356957906,1,0.846384062326286,359.615829125693
0.25,1,2.15036957059056,2.67009225819082,0.75,0.386952937656247,0,0.0969082539151137,510.497762100285
0.25,1,3.19621687072868,2.4423949022182,0.25,0.50988515305025,1,0.209993498846894,507.764949231817
0.25,0.289341764989401,3.19621687072868,2.84889537110779,1,1,0,0.107350549400507,458.306156323334
0.25,0,2.15036957059056,3.39473233693569,0.75,0.389187495643126,0.25,0.24798620410388,487.405288771534
0.25,0.349242315193996,3.19621687072868,2.69654999457849,0.5,0.476938550902266,0,0,520.454363310413
0.25,0.645956640969402,3.19621687072868,3.45446214242636,1,1,0.25,0.254576657534045,394.27289612335
0.25,1,2.15036957059056,2.65267218105428,0.75,0.429752399998416,0.5,0.205496893401418,530.749452031133
0.25,0,3.19621687072868,2.91193603150924,1,1,0.5,0.699886460353731,456.035528822707
0.25,1,2.15036957059056,2.4324206199878,0.75,0.599983954786061,0.75,0.905692629546012,497.004425521383
0.25,0.864485334362653,3.19621687072868,4.00089909578972,1,0.885659150404458,0.75,0.637970897434232,366.57288479134
0.25,0.555056030038734,2.15036957059056,1.81947412054919,0.75,0.507092548822084,1,0,524.149756903815
0.25,1,3.19621687072868,4.99954301874729,0.5,0.253300384832668,0.25,0.0483864669922304,476.196154488926
0.25,0,3.19621687072868,3.87402142988393,0.5,0.443185623213947,0.5,0.658092368824325,475.313175446598
0.25,0,3.19621687072868,3.14600396380768,1,0.963000853663309,1,1,394.014053682941
0.25,0,4.66607582684242,1,0,0,0,0,553.367016158149
0.25,0,2.15036957059056,1.94817143728563,1,0.790321004882062,0,0.648869475191112,504.008033947256
0.25,0.41092695184827,4.66607582684242,1,0,0,0.25,1,553.367016158149
0.25,0.05507807443883,4.66607582684242,1,0,0,0.5,0.0506268385738859,553.367016158149
0.25,0.758219491626513,2.15036957059056,3.016878574507,1,0.586680188311076,0.25,0.473229896862816,496.772777420631
0.25,1,3.19621687072868,3.41499947696527,0.5,0.402942075734037,0.75,0.287216327827052,503.488418853502
0.25,0,3.19621687072868,2.94663934309912,0.5,0.547431617364471,1,0.881445463804581,483.453430816059
0.25,0,4.66607582684242,3.05383279577539,0,0.0449053120371764,0.75,1,552.403270026158
0.25,1,2.15036957059056,2.31550494008224,1,0.420312424661867,0.5,0.0142220823870079,496.15292352597
0.25,0.479126339093239,3.19621687072868,3.2814509685031,0.75,0.314416779756779,0,0,508.161442092392
0.25,0.340797438931193,4.66607582684242,3.12687862351771,0,0.0571590956576825,1,0,551.831888867227
0.25,0.575562088889929,2.15036957059056,2.22354968024113,1,0.902433977343974,0.75,0.776024779728162,498.069809796587
0.25,0.297421219659113,3.19621687072868,2.73251739138333,0.75,0.485875672324187,0.25,0.600560049522863,520.643604404624
0.25,0,2.15036957059056,2.22526525968277,1,1,1,1,485.58393593929
0.25,1,4.66607582684242,4.88346601934929,0.25,0.0653924670169672,0,0,520.357396483015
0.25,1,3.19621687072868,2.53035103569575,0.75,0.616703773532473,0.5,0.179164298020739,498.038496286192
0.25,0,3.19621687072868,3.31806846665558,0.75,0.808957378880484,0.75,0.63320639152926,448.601067776539
0.25,0,4.66607582684242,3.45014723787592,0.25,0.329746520895248,0.25,0.806774953560246,495.661459831791
0.25,0,3.19621687072868,3.28141067958893,0.75,0.754686670817733,1,0.786908362074301,420.673754095686
0.25,0.955908873801519,4.66607582684242,5.00403024724019,0.25,0.281318611816235,0.5,0.49816993902395,455.418128750997
0.25,0,4.66607582684242,3.15070214014592,0.25,0.269414128561982,0.75,0.908738015118916,537.121878363736
0.25,1,3.19621687072868,10,0,0.00719870256119272,0,0.110854992788547,550.329642751958
0.25,0,3.19621687072868,1,0,0,0.25,0,553.367016158149
0.25,0,3.19621687072868,1,0,0,0.5,0,553.367016158149
0.25,0.0976790862048422,4.66607582684242,4.05427152705887,0.25,0.485665823737187,1,0.673211377841974,467.75316975823
0.25,0,4.66607582684242,5.71678059355164,0.5,0.231403783882249,0,0.812449111882012,480.769260202971
0.25,1,3.19621687072868,3.55939400987533,1,0.224288671432342,0,0.00735109053981708,455.325505500381
0.25,1,3.19621687072868,1,0,0.459883644084937,0.75,0.0464535375202204,550.075959109299
0.25,0.219314313925443,3.19621687072868,1,0,0,1,0,553.367016158149
0.25,0,4.66607582684242,5.25023356399154,0.5,0.454943809932212,0.25,0.187112265774672,403.430499412508
0.25,0.235242580761129,3.19621687072868,4.41942340603415,1,0.463221995430929,0.25,0.510792867799426,420.759875775006
0.25,0,3.19621687072868,3.97257936885506,1,0.742658016724589,0.5,0.474666394944372,421.934790102351
0.25,0,3.19621687072868,3.17895848999885,0.25,0.111050627631782,0,1,544.296782852852
0.25,0.266016289958711,3.19621687072868,3.90456187896981,1,0.711159918181351,0.75,0.98091644394496,435.010155204054
0.25,0,3.19621687072868,2.07865662515117,0.25,0.364402763472824,0.25,0.321403371172991,529.782202339424
0.25,1,4.66607582684242,5.37999249844732,0.5,0.266607080189805,0.5,0.0189073160461434,405.720323161761
0.25,0,3.19621687072868,3.10791133517681,1,1,1,0.797593486747922,401.56072254979
0.25,0.199080367561007,4.66607582684242,1,0,0,0,0.0146463645789769,553.367016158149
0.25,0,4.66607582684242,1,0,0,0.25,0,553.367016158149
0.25,0,4.66607582684242,4.36090561652209,0.5,0.60487411948056,0.75,0.699532154206964,422.306542414148
0.25,1,3.19621687072868,3.92245327208892,0.25,0.323927947794648,0.5,0.978018206400355,481.734732542935
0.25,0.114840854839028,4.66607582684242,1,0,0.21515607184326,0.5,0.687849485017014,552.404850346237
0.25,0,4.66607582684242,1,0,0,0.75,0,553.367016158149
0.25,0,4.66607582684242,1,0,0,1,1,553.367016158149
0.25,0,4.66607582684242,3.6365782335559,0.5,0.560678841404585,1,1,477.981840576577
0.25,0,3.19621687072868,3.13842372077582,0.25,0.284875122720048,0.75,1,519.882139756527
0.25,0.0574265777190637,4.66607582684242,4.45007008731628,0.75,0.587035427910024,0,0.0664916812883205,438.266846354114
0.25,0,3.19621687072868,1,0.25,0.425754450177718,1,0.687787661297562,551.007974985289
0.25,1,4.66607582684242,3.71690979008555,0.25,0.172057270122707,0,0.046083219508795,517.776673095734
0.25,1,4.66607582684242,5.04034954670903,0.75,0.633239286879089,0.25,0.0439294099114452,411.423896920699
0.25,0.491754758867265,3.19621687072868,3.66182907399453,0.5,0.252544989938229,0,0,508.218207367158
0.25,0,4.66607582684242,3.80282208113333,0.75,0.79618776343609,0.5,0.634376513848551,433.348777966038
0.25,0.0218478945598275,4.66607582684242,10,0.25,0.115446135569516,0.25,0.123061144719812,503.314436895353
0.25,0,4.66607582684242,4.65556036649057,0.75,0.741412792142729,0.75,0.642437327209837,391.089005479006
0.25,0.764829031531114,3.19621687072868,3.79705538216234,0.5,0.388084178172427,0.25,0.542037531579136,491.449890705962
0.25,0.321156104903082,4.66607582684242,4.95107715607931,0.25,0.282767762162809,0.5,0.958919223388888,478.001717934479
0.25,1,4.66607582684242,4.62704816860286,0.75,0.763742457708407,1,0.790675444975253,348.017873457905
0.25,0.23092444649885,3.19621687072868,2.9896190778712,0.5,0.554282607655326,0.5,0.0612961677649428,504.534630082741
0.25,0.252535791998824,4.66607582684242,5.76206132193296,0.25,0.227867138470816,0.75,0.525425474083627,484.497882233033
0.25,1,3.19621687072868,3.03238686723841,0.5,0.55566471986944,0.75,0.849953522309173,452.458922828677
0.25,0.0908727110502212,4.66607582684242,4.20607074139875,1,0.811527687484487,0,0.0504167339026457,418.094661498176
0.25,1,4.66607582684242,3.52740758478527,0.25,0.409183117501146,1,0.837440386167369,475.464648156077
0.25,0,3.19621687072868,4.09830555253983,0.5,0.559220834393325,1,1,498.344757316143
0.25,0,4.66607582684242,5.15052369600721,1,0.822553490300622,0.25,0.360637292042639,329.928259865224
0.25,1,3.19621687072868,3.45860672894421,0.75,0.590832920831568,0,0.677643827765749,446.292224276883
0.25,0,4.66607582684242,5.43645101270175,1,0.81478600395926,0.5,0.653624147074428,383.792615038122
0.25,1,4.66607582684242,2.96984406288565,0.5,0.576424262039623,0,0.113683092673479,479.825010605011
0.25,0.026406393820709,3.19621687072868,3.30946051054463,0.75,0.706096559948847,0.25,0.16579726000833,461.955122566674
0.25,0.633361008252025,4.66607582684242,6.18268781707122,1,0.993582467242056,0.75,0.869991928009428,318.57280714031
0.25,1,4.66607582684242,4.33840571232407,0.5,0.463111367175639,0.25,0.398171926027688,454.872826170818
0.25,0.34518423340563,3.19621687072868,3.4379144715823,0.75,0.746602416625248,0.5,0.55552600927445,406.478553646294
0.25,0.0237324431483937,4.66607582684242,5.5473556937992,1,1,1,0.97776848016033,395.526861587705
0.25,0.0454056705627601,4.66607582684242,5.53126365148363,0.5,0.550493938701773,0.5,0.429694111649785,343.587869441452
0.25,1,3.19621687072868,2.67319351151198,0.75,1,0.75,0.716712732952134,461.818740356227
0.25,0,3.19621687072868,2.52778782114119,0.75,0.896321421667339,1,1,472.192791025008
0.25,1,4.66607582684242,5.42469722555458,0.5,0.408327902375,0.75,0.210154784856769,379.347076175268
0.25,0,4.66607582684242,3.53308709001841,0.5,0.774545176739492,1,1,385.1953819517
0.25,0.415358379554866,3.19621687072868,3.94245249908191,1,0.480232627486757,0,0,477.27040946253
0.25,0.900768921476707,4.66607582684242,3.07032783763977,0.75,0.542660137907722,0,0.53532234579032,486.406301228104
0.25,0.344405936860808,3.19621687072868,4.06642127507226,1,0.736495285880236,0.25,0.335357597556324,416.527488322469
0.5,1,0.588930076919496,8.45810383073205,0,0.0140209485546456,0,0.344389029176005,551.558750571719
0.25,0.182846061928713,4.66607582684242,4.02221582735211,0.75,0.851524238686817,0.25,0.402290798120041,370.913451866904
0.25,0.686322229015821,3.19621687072868,3.51118918740696,1,0.75575966186007,0.5,0.370446125423215,419.618522852805
0.25,0.146998620256043,4.66607582684242,4.23047643643098,0.75,0.682374260853038,0.5,0.546881053248241,375.800316309325
0.5,0,0.588930076919496,10,0,0.00302305428259846,0.25,1,553.182071334923
0.5,0,0.588930076919496,1,0,0,0.5,1,553.367016158149
0.25,1,3.19621687072868,3.38222405197529,1,1,0.75,0.690119550279352,397.772790847883
0.5,0.501111268679776,0.588930076919496,1,0,0,0.75,1,553.367016158149
0.5,0,0.588930076919496,1,0,0,1,0,553.367016158149
0.25,1,4.66607582684242,4.92237715480231,0.75,0.547892143602711,0.75,0.708351369317469,383.774252158691
0.25,1,3.19621687072868,3.55570365697231,1,1,1,0.969217942251753,428.95059694549
0.25,0.822424155633826,4.66607582684242,1,0,0,0,0.113869156367409,553.367016158149
0.25,0.858956261409589,4.66607582684242,3.77658144049111,0.75,0.829797535073974,1,0.960159270362404,361.906754783704
0.25,0.436234907042979,4.66607582684242,5.77468219306444,1,0.475937030703545,0,0,351.147994471264
0.25,1,4.66607582684242,10,0,0.00563301852916944,0.25,0.0549173639042447,551.904666954898
0.25,0.722090330214087,4.66607582684242,1,0,0,0.5,0.512653026861472,553.367016158149
0.25,1,4.66607582684242,4.39944971717093,1,0.84411053084363,0.25,0.410454419011371,400.836853035648
0.5,0.0250991798616096,0.588930076919496,1.20720499372696,0.25,1,0,0.00524580382683128,549.292498332176
0.5,0.754007522896433,0.588930076919496,1,0.25,0,0.25,1,553.367016158149
0.5,0,0.588930076919496,1,0.25,0,0.5,0,553.367016158149
0.25,0,4.66607582684242,1,0,0.377064606036862,0.75,1,551.536697175948
0.25,0.603829078060709,4.66607582684242,1,0,0,1,0,553.367016158149
0.25,0.144522916128664,4.66607582684242,4.2251887803523,1,0.850708001896761,0.5,0.698384498217345,359.048589573717
0.5,0,0.588930076919496,1,0.25,0.759921961416944,0.75,1,543.69652009408
0.25,0.365697247523301,4.66607582684242,4.10746561685589,0.25,0.257174985752592,0,0,522.691562540673
0.5,1,0.588930076919496,1.1440972793277,0.25,0.274898920088291,1,1,547.049150855595
0.5,0,0.588930076919496,1,0.5,0.731810245672507,0,0.242255140589001,547.47031179116
0.5,0,0.588930076919496,1,0.5,0,0.25,0,553.367016158149
0.5,0,0.588930076919496,1,0.5,0,0.5,1,553.367016158149
0.25,1,4.66607582684242,4.14240723189237,1,0.926573325981902,0.75,0.800959016356825,389.978815814672
0.25,1,4.66607582684242,5.27088396394404,0.25,0.180610537749191,0.25,0.0703731868489114,489.095646870646
0.25,0.27499822574341,4.66607582684242,4.23298217567456,1,1,1,1,425.068773857379
0.5,0,0.588930076919496,1,0.5,0.164593748331004,0.75,0.823783999352389,552.622466879946
0.5,0,0.588930076919496,1,0.5,0,1,0,553.367016158149
0.5,0,0.588930076919496,1,0.75,0,0,0,553.367016158149
0.25,0,4.66607582684242,7.79330785343032,0.25,0.149953713850877,0.5,0.22942789475431,489.590982559376
0.5,0,0.588930076919496,1,0.75,0.224368682516369,0.25,0.561205366314284,552.568721133075
0.5,0,0.588930076919496,1,0.75,0.983388480164586,0.5,0.490092216864247,548.337340661462
0.25,0.61773880978515,4.66607582684242,3.4886112905932,0.25,0.228775683068881,0.75,1,525.047300589403
0.5,0,0.588930076919496,1,0.75,0.138679751314999,0.75,1,552.680827366216
0.5,1,0.588930076919496,10,0,0.00339919264725676,0,0.0865840931710724,553.152448427433
0.25,0.970481479606172,4.66607582684242,5.29380672236627,0.25,0.24702583092283,1,1,471.28321784945
0.5,0.219294467137877,0.588930076919496,1,0,0,0.25,1,553.367016158149
0.5,0,0.588930076919496,1,0,0,0.5,0,553.367016158149
0.5,1,0.588930076919496,1.07119594798688,0.75,0.590225987488242,1,1,547.899332268078
0.5,0,0.588930076919496,1,0,0,0.75,1,553.367016158149
0.5,0.999620656499712,0.588930076919496,1,1,0.229193914954144,0,0,549.400496971371
0.5,1,0.588930076919496,1,1,1,0.25,0.494799912835584,555.740799254453
0.5,1,0.588930076919496,1,1,0.215042142654184,0.5,0.350853936684204,552.070736097642
0.5,0,0.588930076919496,1,0,1,1,0.0549298820939996,547.204878844322
0.5,0.633097053867013,0.588930076919496,1,0.25,0,0,0,553.367016158149
0.5,0,0.588930076919496,1,0.25,0,0.25,0,553.367016158149
0.5,0,0.588930076919496,1,0.25,0,0.5,0,553.367016158149
0.5,0.310533630270197,0.588930076919496,1,1,0.616333151674668,0.75,0.335052554381129,548.073049774114
0.5,0,0.588930076919496,1.2144707027815,0.25,0.298169940161951,0.75,0.620527791051255,549.151466998972
0.5,0,0.588930076919496,1,0.25,0,1,0,553.367016158149
0.5,0.970584334128304,0.588930076919496,1.70844349403876,1,0.539570212686844,1,0.958366548287993,539.157015521188
0.25,0.0972706022066955,4.66607582684242,6.8411659368937,0.5,0.537698057963278,0,0.00435993246883436,478.272393114539
0.5,0.33608952911004,1.10297953399519,1,0,0,0,0.867493891425512,553.367016158149
0.5,0,0.588930076919496,1.22003228681062,0.5,0.492988895870616,0,0.0991607490978894,545.646127658726
0.5,0.596253359221043,0.588930076919496,1,0.5,0,0.25,0,553.367016158149
0.5,0,0.588930076919496,1,0.5,0,0.5,0,553.367016158149
0.5,0,0.588930076919496,1,0.5,1,0.75,0.805323163571008,547.097004873877
0.5,1,1.10297953399519,1,0,0.578713774816221,0.25,1,543.903686711846
0.5,0.395177872039038,1.10297953399519,1,0,0.27755592379024,0.5,0,550.446246993458
0.5,0.48186288727196,1.10297953399519,1,0,0,0.75,0.416615638189756,553.367016158149
0.5,1,0.588930076919496,1.21611736139508,0.5,0.576010855235884,1,0.810275850085496,548.002248089855
0.5,0.364039755498473,1.10297953399519,1,0,0,1,0.680004424937872,553.367016158149
0.25,0.888342888751542,4.66607582684242,6.44136708097751,0.5,0.254800189630485,0.25,0.0371195242765802,412.004652426327
0.5,0,0.588930076919496,1,0.75,0.241468265889073,0,0.797352305709503,551.630105834991
0.25,1,4.66607582684242,4.22561549924075,0.5,0.684001616981236,0.5,0.356952782802127,382.196333298197
0.25,1,4.66607582684242,4.70170564482444,0.5,0.460520781506426,0.75,0.753449242371906,427.705192008733
0.5,1,1.10297953399519,1,0.25,0.20023341468976,0,0.0191378311907966,549.479090372242
0.25,0,4.66607582684242,4.25222843828824,0.5,0.550600714439641,1,1,453.473274673016
0.5,0,1.10297953399519,1,0.25,1,0.25,0.0147778762122518,549.481876538329
0.25,0.338087711758762,4.66607582684242,3.85852121057887,0.75,0.663034745819011,0,0,442.321077362815
0.5,0,1.10297953399519,1,0.25,0.485953871247106,0.5,1,545.60941378166
0.5,1,0.588930076919496,1.00206384657919,0.75,0.545612198877211,0.25,0.00875768838670373,539.066412290468
0.5,0,1.10297953399519,1.01563559177953,0.25,0.349829625581591,0.75,0.893054223164177,549.164846903633
0.5,0.0291448004870751,1.10297953399519,1,0.25,0,1,1,553.367016158149
0.25,0.455854806456336,4.66607582684242,4.72160318937216,0.75,0.555572908202502,0.25,0,381.104002310742
0.5,0,0.588930076919496,1,0.75,0.302437488985283,0.5,1,552.063945171297
0.5,0,1.10297953399519,2.53569561977406,0.5,0.33754312951007,0,0.820980293368926,523.488863733496
0.25,0,4.66607582684242,5.0402632633401,0.75,0.884229403972629,0.5,0.6667391077665,328.706729826467
0.5,1,0.588930076919496,1,0.75,0.745628073101035,0.75,0.533281175981186,543.516883814516
0.5,0,1.10297953399519,1.19046674494832,0.5,0.270000755910721,0.25,0.819160315436897,548.600626890194
0.5,0,0.588930076919496,1,0.75,1,1,1,543.032732335845
0.25,0,4.66607582684242,3.17398023797047,0.75,1,0.75,0.906439442534073,458.045884664155
0.5,1,1.10297953399519,1.5139492993203,0.5,0.236217881764543,0.5,0.190412097493599,549.679158273485
0.25,0.832646253035301,4.66607582684242,4.67719160112471,0.75,0.977695561788551,1,0.925012124058537,400.757180553563
0.5,0.0392847515639849,0.588930076919496,1,1,1,0,0.0356079969064227,545.77054153192
0.5,1,1.10297953399519,1.14935200868092,0.5,0.257218722112128,0.75,0.131762393325692,548.832585566239
0.5,1,1.10297953399519,1.02376592118417,0.5,1,1,1,537.986477900288
0.25,1,4.66607582684242,5.2073386865311,1,0.300007348880158,0,0.00814862868891323,383.915067683963
0.5,0,1.10297953399519,1,0.75,0.870579413899986,0,0.427562151242805,542.601004701256
0.5,1,0.588930076919496,10,1,0.0169567326023663,0.25,0.124608391809939,550.087938310565
0.25,0.426093358917244,4.66607582684242,4.29667582498448,1,1,0.25,0.308293126314903,368.548572979495
0.25,1,4.66607582684242,5.38765013865992,1,0.977634015704813,0.5,0.775067091928241,317.709617331319
0.5,0,0.588930076919496,10,1,0.0185261832767234,0.5,0.472430070566295,552.111239824221
0.25,1,4.66607582684242,4.88641097916974,1,1,0.75,0.0995268291909859,331.996941550176
0.5,0,0.588930076919496,1,1,0.683644907648982,0.75,0.30985816513272,549.033518510502
0.5,0,1.10297953399519,2.48221855658642,0.75,0.660008811242861,0.25,0.00897995619374303,540.458671490407
0.5,0,0.588930076919496,1,1,0,1,0,553.367016158149
0.25,0.184563203112833,4.66607582684242,4.79845665170704,1,1,1,1,370.685853468059
0.5,0.0902968960217544,1.10297953399519,1,0,0,0,0,553.367016158149
0.5,0,0.588930076919496,1,0,0,0,0,553.367016158149
0.5,0,0.588930076919496,1,0,0,0.25,1,553.367016158149
0.5,0.433129568111156,1.10297953399519,1.84876128578338,0,0.113824968972238,0.25,0,551.423396317713
0.5,1,1.10297953399519,1.41823878588366,0.75,0.636305658141758,0.5,0.0332013603276466,534.084312098934
0.5,0,1.10297953399519,1,0,0.393886724477786,0.5,0.426396328039763,550.38094748675
0.5,0,1.10297953399519,1,0,0,0.75,0,553.367016158149
0.5,0,1.10297953399519,1,0,0,1,0,553.367016158149
0.5,0,1.10297953399519,1.56460539928027,0.75,0.336518438749944,0.75,1,543.409921008831
0.5,1,1.10297953399519,1.03054586636595,0.25,1,0,0.119637250065293,540.585555916924
0.5,0,1.10297953399519,2.82226585347023,0.75,0.378504409276246,1,0.0716005415238095,520.239859303594
0.5,1,0.588930076919496,10,0,0.0129705953487134,0.5,0.0918907312523694,552.034393972952
0.5,0,0.588930076919496,1,0,0,0.75,0,553.367016158149
0.5,0,1.10297953399519,1.90296412895557,1,1,0,0.0580044340524777,510.706181761086
0.5,0,0.588930076919496,1,0,0.421553089798461,1,0.0348080307687919,552.058503745084
0.5,0,0.588930076919496,1,0.25,1,0,1,546.373694615887
0.5,0.125323707460829,1.10297953399519,3.83676580280816,0.25,0.128664051348546,0.25,0.0290878972382406,545.623188477113
0.5,1,0.588930076919496,1,0.25,0,0.25,0,553.367016158149
0.5,0,0.588930076919496,1,0.25,0,0.5,0,553.367016158149
0.5,0.796611483159681,0.588930076919496,1,0.25,0,0.75,0,553.367016158149
0.5,0,0.588930076919496,1,0.25,0,1,0,553.367016158149
0.5,0.0205246799950728,0.588930076919496,1,0.5,0,0,0,553.367016158149
0.5,1,1.10297953399519,1.90200744140661,1,0.251103821980184,0.25,0.0118187733766103,532.691600503172
0.5,0.763744935171619,0.588930076919496,1,0.5,0.455833031034075,0.25,0,548.68307721892
0.5,0,0.588930076919496,1,0.5,0.0613885196565136,0.5,1,553.275003481773
0.5,0.82205127618968,1.10297953399519,1.09743446994013,1,0.902904819779249,0.5,0,528.270674372454
0.5,1,1.10297953399519,1.1047349056935,1,1,0.75,0.732949401104711,529.052913935857
0.5,0.295781342698067,0.588930076919496,10,0.5,0.0263966858587268,0.75,0.483276152844552,548.87719651333
0.5,0,1.10297953399519,1,1,0.961826600575112,1,1,544.392804110217
0.5,1,2.15036957059056,1,0,0,0,0,553.367016158149
0.5,1,0.588930076919496,1.06304214699906,0.5,0.378789895755934,1,1,547.932914712463
0.5,0.0428784116900606,1.10297953399519,1.75479713789046,0.25,1,0.5,0.00367822362141183,546.82413301689
0.5,0.0724008044605552,0.588930076919496,1,0.75,0,0,0,553.367016158149
0.5,0.597689597809876,1.10297953399519,1,0.25,0,0.75,0,553.367016158149
0.5,0,2.15036957059056,10,0,0.0136736573921724,0.25,0.15724427550829,552.570139274806
0.5,1,0.588930076919496,1.28835931596114,0.75,0.26786426001958,0.25,0.205370000804996,548.252916768777
0.5,0.87143148292087,0.588930076919496,1,0.75,0,0.5,0.28779452221618,553.367016158149
0.5,1,1.10297953399519,1,0.25,0.439096184850556,1,0.328819414326935,548.057603926319
0.5,0,1.10297953399519,1,0.5,0.564279228526157,0,1,550.604524959693
0.5,1,0.588930076919496,1.24136170227266,0.75,0.337169800903897,0.75,0.814594816942261,548.185779379997
0.5,0,1.10297953399519,1,0.5,0.493176492180409,0.25,0.156823169091948,547.690792223006
0.5,0.325382935022385,0.588930076919496,1.5955067907268,0.75,0.311011832646258,1,1,543.014954280572
0.5,1,1.10297953399519,1.05205709777068,0.5,0.569338340094008,0.5,0.885936796378296,546.114307709429
0.5,1,2.15036957059056,10,0,0.0125021754271991,0.5,0.105679895339415,550.08474450696
0.5,0.836797155777746,2.15036957059056,1,0,0,0.75,0.860414864300526,553.367016158149
0.5,0,1.10297953399519,1,0.5,0.620495635266462,0.75,1,548.597311359786
0.5,1,0.588930076919496,2.86275621031553,1,0.262139380272368,0,0.577538492057093,533.981210543582
0.5,0,1.10297953399519,1.42553158597444,0.5,0.48211719941248,1,1,534.122333439939
0.5,0,0.588930076919496,1,1,0.294659191913644,0.25,0.415807929676373,551.058507809018
0.5,0.868753437620691,2.15036957059056,2.58150557439973,0,0.0941131256349049,1,0.0997100410926536,548.018512741786
0.5,1,1.10297953399519,1,0.75,0.649786592260227,0,0.267040249860863,548.376053737365
0.5,0,1.10297953399519,1,0.75,0,0.25,0,553.367016158149
0.5,0,2.15036957059056,1.41525608670241,0.25,0.655187609644617,0,0.181811791283111,541.239206821067
0.5,1,1.10297953399519,1.08770915090295,0.75,0.597592871041314,0.5,0.0301060303397265,537.68418420456
0.5,0,0.588930076919496,1.90132554010124,1,1,0.5,0.00442409231656398,548.514016234611
0.5,0,2.15036957059056,10,0.25,0.0634718870064199,0.25,0.0183734659403596,549.308978487595
0.5,0.0968353634531062,1.10297953399519,1.57080517704078,0.75,0.824850026112257,0.75,0.23751312245363,519.086435139716
0.5,1,0.588930076919496,1,1,0.69246971336356,0.75,1,547.615368606543
0.5,0,0.588930076919496,1,1,0,1,0,553.367016158149
0.5,0.382906539858076,1.10297953399519,1,0,0,0,0,553.367016158149
0.5,0,1.10297953399519,1,0,0,0.25,0,553.367016158149
0.5,0.0259387111584585,1.10297953399519,1,0,0,0.5,0,553.367016158149
0.5,0,1.10297953399519,1.31480542949711,0.75,1,1,1,538.177952818168
0.5,0,2.15036957059056,4.9115842168176,0.25,0.130889074321797,0.5,0.183315849185773,535.618554229853
0.5,0,2.15036957059056,1,0.25,0,0.75,0,553.367016158149
0.5,1,1.10297953399519,1.22388570680629,1,1,0,0.0455309636438076,531.228497288068
0.5,1,1.10297953399519,8.36435135091513,0,0.0113016328280042,0.75,0.0507255812983001,551.970874949587
0.5,1,1.10297953399519,1,0,0,1,1,553.367016158149
0.5,0,1.10297953399519,1,1,1,0.25,0.82683316363146,546.627846610538
0.5,1,2.15036957059056,4.57179937049936,0.25,0.148209768830442,1,0.207549227449817,524.620560061264
0.5,1,1.10297953399519,1.69235254454999,0.25,0.325271126952068,0,0.173592731780814,542.729488872891
0.5,0,1.10297953399519,1,0.25,0,0.25,0,553.367016158149
0.5,0,1.10297953399519,1.15479987515703,1,0.865253003428641,0.5,0.582279461734873,538.443308146954
0.5,0,1.10297953399519,1,1,0.710381943754639,0.75,0.923561431566975,540.668296274078
0.5,1,1.10297953399519,1.02805357173919,0.25,0.533782591311561,0.5,0.293252479400652,546.944402710283
0.5,0,1.10297953399519,1.12598652922499,1,1,1,1,523.357358507731
0.5,0,2.15036957059056,1,0,0,0,1,553.367016158149
0.5,0.0793325603850001,2.15036957059056,1,0,0,0.25,0,553.367016158149
0.5,1,1.10297953399519,2.2531590577374,0.25,0.155487027459801,0.75,0.701815014985342,544.34932649062
0.5,1,2.15036957059056,2.15332231175169,0.5,0.424326604350158,0,0.0143248762061393,504.088822573566
0.5,1,2.15036957059056,10,0,0.0124430940874401,0.5,0.0393696454716208,548.99511960521
0.5,1,1.10297953399519,10,0.25,0.0239013395066668,1,1,547.380344999166
0.5,0.658227071942292,1.10297953399519,1,0.5,0,0,0.0550742837765483,553.367016158149
0.5,0,2.15036957059056,1,0,0.513379850319136,0.75,1,547.642904646935
0.5,1,2.15036957059056,1.64491055360951,0.5,1,0.25,0.0358223318068091,524.092139038475
0.5,0,2.15036957059056,1,0,0,1,0,553.367016158149
0.5,1,2.15036957059056,1.15271034207204,0.5,1,0.5,0.326681647930439,531.882206916861
0.5,0,1.10297953399519,10,0.5,0.0360594976370036,0.25,1,543.989329842496
0.5,0.472414078853909,1.10297953399519,1.15002311315107,0.5,1,0.5,0.628507255458518,540.204342337528
0.5,0,1.10297953399519,1.60285375393732,0.5,0.428493097465385,0.75,0.904522279923748,544.799040135902
0.5,1,2.15036957059056,1.66882090526498,0.5,0.384993039683642,0.75,0.0127843337215478,523.263316236727
0.5,1,1.10297953399519,1,0.5,0.768126154829942,1,0.0988080693196604,541.473787519147
0.5,1,2.15036957059056,1.97041676151561,0.25,0.187622905533442,0,0.00375731568688666,532.044683040835
0.5,0,2.15036957059056,1,0.25,0,0.25,0,553.367016158149
0.5,1,2.15036957059056,2.09246881542381,0.5,0.480881732101739,1,0.849233109178928,522.824940549453
0.5,0.867685666687136,1.10297953399519,1.18352825503403,0.75,1,0,0.223441880486669,536.948980130178
0.5,1,2.15036957059056,2.40907929570875,0.25,0.163388142174501,0.5,0.0688885813011837,537.302243293489
0.5,0,1.10297953399519,1.28097855263364,0.75,0.351172103349943,0.25,0.909612068774189,546.114292794887
0.5,1,2.15036957059056,1.98779710902963,0.75,1,0,0.0341826821923899,494.763597776527
0.5,0,1.10297953399519,1.51833420553408,0.75,0.718038851728367,0.5,0.866446796322241,520.817650355576
0.5,1,2.15036957059056,2.35845495734849,0.75,0.558561700653526,0.25,0.0959390312243656,516.170065954493
0.5,0,1.10297953399519,2.34090653122942,0.75,0.322324762884377,0.75,0.53922378773132,541.26746942707
0.5,0.665170143306633,2.15036957059056,1.76388639339233,0.75,1,0.5,0.532851739474394,514.023395255094
0.5,0.809942893591068,1.10297953399519,1.00844128676922,0.75,0.664457481780792,1,1,543.312410507914
0.5,0.9888868832459,2.15036957059056,1.92903121480807,0.75,1,0.75,0.823022781380999,526.46716247866
0.5,0.101769268466985,2.15036957059056,10,0.25,0.0959486147388995,0.75,0.0200225056580711,535.953701354608
0.5,0.925739927068165,2.15036957059056,1.83158263486238,0.75,0.812144206338216,1,0.870710399913014,509.813170159211
0.5,0.232315404942313,1.10297953399519,1.72869636764539,1,1,0,0.0433367989182741,525.554103660764
0.5,0,2.15036957059056,1.02446235089885,0.25,0.761751492613298,1,0.0650155909444475,546.314318946203
0.5,1,1.10297953399519,1.36899696815112,1,1,0.25,0.730483680349773,528.584746574434
0.5,0,2.15036957059056,2.42635201981549,1,1,0,0.31322510631015,480.26342938317
0.5,1,2.15036957059056,2.66489006908624,0.5,0.48695696306457,0,0.919927561672447,499.732296416452
0.5,1,2.15036957059056,2.31088732293243,1,0.754959765847362,0.25,0.222887395133171,491.933571234757
0.5,0.547176011308539,1.10297953399519,1.09329369493244,1,0.996054987041351,0.5,0,530.646571322213
0.5,0.338264509480786,2.15036957059056,3.63343826916563,0.5,0.414824373905509,0.25,1,514.200512718944
0.5,1,2.15036957059056,2.48316139691812,1,1,0.5,0.630229062970544,477.672370240725
0.5,0,2.15036957059056,2.30386344036877,0.5,0.725859441264178,0.5,0.230878517856124,506.075720066096
0.5,1,1.10297953399519,5.70826865341261,1,0.188803800262605,0.75,0.917274124592068,527.141697642216
0.5,0,1.10297953399519,1.40655107378715,1,1,1,1,520.077564780766
0.5,0,2.15036957059056,1,0,0,0,0,553.367016158149
0.5,0,2.15036957059056,1,0,0,0.25,1,553.367016158149
0.5,1,2.15036957059056,1.97775551554222,1,0.931968147428204,0.75,0.86049137914981,486.005898690356
0.5,0,2.15036957059056,1,0,0,0.5,0,553.367016158149
0.5,0,2.15036957059056,1,0,0,0.75,1,553.367016158149
0.5,0,2.15036957059056,3.05607212610721,0.5,0.415614973398573,0.75,0.553697336253063,512.725297426425
0.5,0,2.15036957059056,1,0,0,1,1,553.367016158149
0.5,0.850603010004473,2.15036957059056,1.92390733913092,1,1,1,1,475.988367200361
0.5,0,3.19621687072868,1,0,0,0,0,553.367016158149
0.5,0,2.15036957059056,2.0183765274364,0.5,0.476129208833488,1,1,522.618356587194
0.5,0,3.19621687072868,1.04724937562408,0,0.34425540335325,0.25,1,548.193365605659
0.5,0.0266934373258522,2.15036957059056,2.85834508288659,0.75,1,0,0.415708068836425,456.364113893813
0.5,1,2.15036957059056,1.9498111429694,0.75,1,0.25,0.292877753869249,501.662936362199
0.5,0,2.15036957059056,1.65326668280797,0.75,1,0.5,0.750670721956943,502.142866440043
0.5,0.908843601072336,3.19621687072868,10,0,0.0213460587075756,0.5,1,548.096145573467
0.5,0.00913451704838241,2.15036957059056,10,0.25,1,0,0,549.919246927655
0.5,1,2.15036957059056,2.63887321479287,0.75,0.445406112626909,0.75,0.0638134759704598,508.489093513005
0.5,1,2.15036957059056,1.24911017729334,0.25,0.66919924276316,0.25,0.156608324049541,535.804234004072
0.5,0,2.15036957059056,2.8466683994714,0.75,0.435260071926094,1,0.911975527115764,498.041601266437
0.5,1,2.15036957059056,3.15935997932616,0.25,0.276663528901893,0.5,1,522.223742585687
0.5,0.251205474109972,2.15036957059056,2.13813958785085,1,1,0,0.653671556941336,469.380258547855
0.5,1,3.19621687072868,10,0,0.00397219595947384,0.75,1,553.133164835518
0.5,0.421053408731314,3.19621687072868,1,0,0,1,0,553.367016158149
0.5,0.388206646941572,2.15036957059056,1.83530789157886,0.25,0.410200312305761,0.75,0.366210144067783,541.79729304482
0.5,1,2.15036957059056,2.27200040979928,1,1,0.25,0.178041151487482,477.798479064593
0.5,0,2.15036957059056,1.97669841778534,1,0.963691676292938,0.5,0.641393556138909,504.507055561366
0.5,0,3.19621687072868,5.48728513457619,0.25,0.154637929659004,0,0.387642084896524,518.159270230246
0.5,0,2.15036957059056,2.99262386196492,1,0.701814004758374,0.75,0.202443480044463,474.129439115401
0.5,0.529483254466263,2.15036957059056,4.11640604549335,0.25,0.132171002147919,1,0.0534730031731021,519.584327809933
0.5,0,3.19621687072868,5.30885294500994,0.25,0.167373395432852,0.25,0.127497360040136,530.663217005768
0.5,0.681897307466043,2.15036957059056,2.59312920194453,1,0.976695896747984,1,1,458.362321138716
0.5,0,2.15036957059056,2.18819163894586,0.5,1,0,0.0589978419816576,518.654550108619
0.5,0.453004355172724,3.19621687072868,1,0,0,0,0,553.367016158149
0.5,0.450257736330059,3.19621687072868,1,0,0,0.25,1,553.367016158149
0.5,0.958336582355565,3.19621687072868,1,0,0,0.5,0.621836985236167,553.367016158149
0.5,0,3.19621687072868,1,0,0,0.75,0,553.367016158149
0.5,0,3.19621687072868,1,0,0,1,1,553.367016158149
0.5,0.986940073257874,3.19621687072868,3.36431375298751,0.25,0.218411391631378,0.5,1,527.389909877239
0.5,1,2.15036957059056,3.65719798617836,0.5,0.153488767067479,0.25,0.526535227250134,534.031694596373
0.5,1,3.19621687072868,2.43641088515001,0.25,0.405940345601806,0,0.0589684545843384,508.320733400154
0.5,1,2.15036957059056,1.82968129346423,0.5,0.49712571490551,0.5,1,537.543157492534
0.5,0,3.19621687072868,5.54400024736641,0.25,0.111915605505815,0.75,1,526.219198322318
0.5,1,2.15036957059056,1.34117598967095,0.5,0.701847606792582,0.75,0.506215255964322,538.345441498818
0.5,0.350053739875312,3.19621687072868,5.04804089522038,0.25,0.255794121332173,0.25,0,525.132277024605
0.5,0.25839277130268,3.19621687072868,2.39849236382953,0.25,0.272961979067175,1,1,539.586664328383
0.5,1,2.15036957059056,2.24725415935799,0.5,0.5232872037658,1,0.984128805086761,506.936445598649
